\relax 
\providecommand\HyperFirstAtBeginDocument{\AtBeginDocument}
\HyperFirstAtBeginDocument{\ifx\hyper@anchor\@undefined
\global\let\oldcontentsline\contentsline
\gdef\contentsline#1#2#3#4{\oldcontentsline{#1}{#2}{#3}}
\global\let\oldnewlabel\newlabel
\gdef\newlabel#1#2{\newlabelxx{#1}#2}
\gdef\newlabelxx#1#2#3#4#5#6{\oldnewlabel{#1}{{#2}{#3}}}
\AtEndDocument{\ifx\hyper@anchor\@undefined
\let\contentsline\oldcontentsline
\let\newlabel\oldnewlabel
\fi}
\fi}
\global\let\hyper@last\relax 
\gdef\HyperFirstAtBeginDocument#1{#1}
\providecommand\HyField@AuxAddToFields[1]{}
\@writefile{toc}{\contentsline {section}{\numberline {1}Introduction}{1}{section.1}}
\newlabel{eq:polyeq}{{1}{1}{Introduction\relax }{equation.1.1}{}}
\newlabel{eq:polyineq}{{2}{1}{Introduction\relax }{equation.1.2}{}}
\@writefile{toc}{\contentsline {subsection}{\numberline {1.1}The basic algorithm}{1}{subsection.1.1}}
\newlabel{sec:basicalgo}{{1.1}{1}{The basic algorithm\relax }{subsection.1.1}{}}
\@writefile{loa}{\contentsline {algorithm}{\numberline {1}{\ignorespaces Sample\_00($A'$, $b'$)}}{2}{algorithm.1}}
\newlabel{algo:samplept00}{{1}{2}{The basic algorithm\relax }{algorithm.1}{}}
\newlabel{samplept00:endrecur}{{1}{2}{The basic algorithm\relax }{ALC@unique.1}{}}
\newlabel{samplept00:margapprox}{{5}{2}{The basic algorithm\relax }{ALC@unique.5}{}}
\newlabel{samplept00:samplexi}{{6}{2}{The basic algorithm\relax }{ALC@unique.6}{}}
\newlabel{samplept00:newA}{{7}{2}{The basic algorithm\relax }{ALC@unique.7}{}}
\newlabel{samplept00:newb}{{8}{2}{The basic algorithm\relax }{ALC@unique.8}{}}
\newlabel{samplept00:recursion}{{9}{2}{The basic algorithm\relax }{ALC@unique.9}{}}
\newlabel{samplept00:xtogether}{{10}{2}{The basic algorithm\relax }{ALC@unique.10}{}}
\@writefile{toc}{\contentsline {subsection}{\numberline {1.2}Motivating applications}{2}{subsection.1.2}}
\@writefile{lof}{\contentsline {figure}{\numberline {1}{\ignorespaces The sampling algorithm from dimension $3$ on.}}{3}{figure.1}}
\newlabel{fig:3dptopesampling}{{1}{3}{The sampling algorithm from dimension $3$ on}{figure.1}{}}
\@writefile{toc}{\contentsline {section}{\numberline {2}The marginal distribution along a coordinate}{3}{section.2}}
\newlabel{sec:margdist}{{2}{3}{The marginal distribution along a coordinate\relax }{section.2}{}}
\@writefile{toc}{\contentsline {section}{\numberline {3}The unbounded case}{4}{section.3}}
\newlabel{sec:unbounded}{{3}{4}{The unbounded case\relax }{section.3}{}}
\citation{}
\@writefile{toc}{\contentsline {section}{\numberline {4}Parameters for the Beta distribution}{5}{section.4}}
\newlabel{sec:betaparam}{{4}{5}{Parameters for the Beta distribution\relax }{section.4}{}}
\citation{CDWY_TVNT_00}
\@writefile{toc}{\contentsline {section}{\numberline {5}Finding the minimum and maximum coordinates}{6}{section.5}}
\newlabel{sec:minmaxcoord}{{5}{6}{Finding the minimum and maximum coordinates\relax }{section.5}{}}
\@writefile{toc}{\contentsline {section}{\numberline {6}The detailed algorithm}{6}{section.6}}
\@writefile{toc}{\contentsline {section}{\numberline {7}Experimental results}{6}{section.7}}
\newlabel{sec:expresults}{{7}{6}{Experimental results\relax }{section.7}{}}
\@writefile{lof}{\contentsline {figure}{\numberline {2}{\ignorespaces a simple network.}}{6}{figure.2}}
\newlabel{sple_netw_diagr}{{2}{6}{a simple network}{figure.2}{}}
\citation{CDWY_TVNT_00}
\@writefile{loa}{\contentsline {algorithm}{\numberline {2}{\ignorespaces SamplePoint$(A,b,\mathaccentV {hat}05E{c})$}}{7}{algorithm.2}}
\newlabel{algo:samplept01}{{2}{7}{The detailed algorithm\relax }{algorithm.2}{}}
\newlabel{matrixA}{{3}{7}{Experimental results\relax }{equation.7.3}{}}
\citation{rcdd}
\bibdata{bibtex/1.bertrand_references}
\bibcite{CDWY_TVNT_00}{{1}{}{{}}{{}}}
\bibcite{rcdd}{{2}{}{{}}{{}}}
\bibstyle{plain}
\providecommand\NAT@force@numbers{}\NAT@force@numbers
\@writefile{loa}{\contentsline {algorithm}{\numberline {3}{\ignorespaces SampleBunch$(A,b,K,L)$}}{8}{algorithm.3}}
\newlabel{algo:samplebunch}{{3}{8}{The detailed algorithm\relax }{algorithm.3}{}}
\@writefile{toc}{\contentsline {subsection}{\numberline {7.1}The exact distribution}{8}{subsection.7.1}}
