27993
21007
21004
14995
21008
14998
14994
20998
14995
15029
15008
21014
14995
14983
14992
14980
20959
15002
14998
15039
15007
15001
21983
16021
15967
16010
15991
16010
15990
28022
21035
21023
20989
21015
21002
20991
21982
16006
16017
11005
15993
10998
10998
6987
15997
11005
11012
7001
11011
7000
7001
3996
15976
10997
11014
7000
11004
6994
6989
3999
11021
7004
6990
4001
7008
4005
3995
2003
16006
11002
11025
6986
10997
7006
7003
4004
10985
7007
7002
4003
6980
4003
3996
1999
10997
7003
7003
4000
7007
3994
4002
1997
7006
3995
4004
1997
3999
2002
2000
1000
9992
10003
10006
9976
5996
9991
9997
10013
5998
9988
9999
5998
10013
6010
6002
3000
9976
10002
10001
6006
9998
10011
5994
9983
6013
6000
2998
10001
9993
5992
9993
6001
5997
2999
10006
5992
6011
2999
5998
3002
3003
999
10994
10986
11034
7005
11002
11001
6987
10989
7003
7016
4000
11007
11008
6994
10989
6998
7000
3999
10999
7001
7007
3998
7001
3996
3997
2000
11008
10981
7003
11011
7007
7012
4004
11004
6994
6997
4002
7002
4006
3994
2000
10981
6997
7012
3998
7002
3998
4000
2000
7006
4006
3989
2002
4000
2000
2000
1001
15005
15020
14990
9991
14979
15020
9987
15004
9994
10016
6002
14982
15001
10005
14993
10015
10003
6003
14986
10002
9987
6001
9995
6009
5998
3002
15013
14983
10000
14986
10006
9995
5995
15008
9995
9994
6002
9997
5989
6001
3007
15031
10006
10003
5992
9984
6001
6008
3001
9979
6007
5990
2994
6005
2996
2999
1000
