27972
21033
20974
15004
21025
14986
15008
20989
15006
15001
14989
20950
14987
14997
15023
15011
21035
15012
15005
15006
15022
15019
22025
15986
15992
16007
16015
16005
16007
28008
21018
20998
20975
20985
20992
20974
21987
16007
15996
10988
16006
10979
11015
7002
16019
11002
10999
7007
10990
6996
6985
4000
16018
11005
10997
7011
10997
7012
7005
4006
10988
7009
7008
3992
6996
4006
3999
2004
15986
10984
10983
7005
11003
7002
6994
4003
10997
6999
6999
3997
6995
4004
3999
1998
10995
6993
7004
3999
6999
4002
3994
1999
7005
4017
4001
2000
4004
1999
2000
1000
9988
10001
10002
9998
6001
9991
10024
10004
6000
9999
10006
5992
9988
6001
5999
2997
10013
10005
10007
5991
9997
9996
6000
10005
6012
6009
3005
9996
9997
6004
10000
5997
6003
3004
10006
6007
6000
2997
6001
2998
3004
999
10996
10994
11011
6997
11002
10990
6985
10990
7006
6994
4004
10997
11010
7002
11008
6997
7007
3996
11010
6995
7002
4002
7004
4001
4002
2007
10985
10992
7001
11001
7004
7002
4001
10997
6995
7005
3999
6991
3994
4002
2002
11004
7014
7003
4003
7006
4000
4004
2000
6991
3990
3999
1999
4005
2000
1997
1000
15001
15030
14988
9978
15009
15006
9995
15000
9992
10000
5999
15020
14998
9994
14990
10000
9987
6002
15007
9990
9981
6005
9998
6002
6000
3001
14975
15013
9999
14999
9997
10001
6006
15005
9996
9990
6008
10007
5995
6003
3002
14973
9991
9981
5994
10028
5997
5994
2998
10008
5998
5991
3002
6007
2999
3001
998
