6097886200154424
9815786237371054
8175239704181535
7492398338921730
7302198170383590
7151405362421805
7027630479318821
6968003674677088
6763630484736467
6686644475422869
6506887447347720
6295821284165512
9213835550350536
8983084421521644
8732967523074137
8478861513657637
8331824518257834
8134157258689345
8020486303750620
7972904681733514
7818891623726645
7650414937756685
7495701128592593
7374592709934523
7256055304649378
7157445203826606
7105700673548629
7033055188812934
7006561342752652
6960494553146361
6902131379956622
6858275178064858
6840396859835202
6818845468221624
6740032300393802
6708530213994299
6686263016577450
6658201026249004
8718074870186166
8643775240195004
8612986003838295
8557667397581756
8426497137289644
8353472901409369
8287008269321001
8195825196952460
8115891733658992
8095819438574739
8036010466619949
7966075375877493
7892456280164819
7867816042091197
7847681515915241
7823703963589891
7733741929943732
7631111497372076
7596138934818733
7545777076856962
7495244488318604
7451036075889339
7401315818104398
7366037589438751
7289964992027480
7205229868621804
7139665415762132
7083549698374088
7013586648487773
6956631929810028
6918386791151444
6882924384584708
8569934592557700
8449868037552668
8367591926564489
8317054098033724
8274575690884912
8232010133700521
8191671949083634
8134149687424404
8092260917639563
8088118179789463
8068326216114093
8034532683603237
8016773259758162
8006455409358702
7972911812660012
7924186253091653
7868616682881669
7843837744876274
7819808178851396
7791869464746973
7756150395756367
7730640705797701
7685479186364719
7641921080500305
7618371876799536
7581386638389547
7554129356307990
7519828398631827
7471194812917647
7432722902008209
7395075261354342
7347953219088451
7308588351379167
7270879003004823
7236029375536271
7191371869663648
7149734999077984
7101012751588735
7050885316700666
7032829031157109
8399899443720969
8323507590313288
8301082447723486
8276447698703530
8248710456207771
8206846826186442
8167490460563834
8123177122220580
8089371332116529
8060198744077411
8035232393527864
7997977845437789
7962918687124899
7942281600231809
7910980281237399
7848524043894106
7818108836108478
7793478378833928
7748148975911210
7705148401706458
7669292000590408
7638824046985553
7615160500258228
7598546183606555
7584769427516982
7566564085721544
7525518868317200
7482565881638043
7472400346477282
7445594090251134
7404653495944212
7360490541700674
7329202471156749
7303649386098405
7273508351371771
7241148989504890
7223156403234805
7190741985617556
7165602759846200
7136097066384044
8298415476001341
8268866246435657
8233771680065337
8198754225845564
8157849218323770
8122024640926908
8088215273050872
8049629181365594
8007315514680793
7965969857388830
7937140140394090
7911268512166520
7889044975869711
7867342798971372
7849373063382742
7825798364195214
7805991519596425
7784367491939960
7744901332819160
7709285217461330
7683226371963253
7652820791426126
7612956599595375
7576339976460293
7548733902762955
7527218709933305
7500984227334275
7465725321262966
7430460846059957
7399542354903265
7361738758069075
7333873459621384
7307255848079451
7271837697963127
7247853246105406
8230820006559730
8197770235368971
8160664262830814
8132949245204625
8100960013963359
8072595033818563
8042314383354029
8014448155803417
7994773329666798
7976170850809271
7953718417992092
7925405533384142
7910111544556495
7882546080628079
7861159791332788
7842004405222880
7820121659796119
7796496117357726
7774822092136617
7758401767763017
7729295089693952
7706563669291493
7677665569568245
7658976072347485
7639406576545376
7598489319130207
7578472260603896
7566143840829437
7548629019339078
7523056920852305
7493814920997348
7479101145546730
7457621836068467
7417334678111722
7377418072650059
7337620057769759
7315560671062367
7297638562285230
8175095820763557
8138141690132624
8101290736826754
8081847062253089
8050549172357287
8019633561300764
7988339204796554
7947103228150470
7927883615848668
7907110352522031
7883075692173925
7852882555648122
7821907342500673
7802966198742224
7784474121621750
7753053585328696
7734540268191018
7716085425834767
7699329404344219
7666288913526254
7646586571513339
7621744525739391
7591047903624063
7567662930111775
7545685159509002
7535940402596123
7508754334931840
7475517882761054
7451199445766856
7414121334693675
7382875931418149
7354392027878021
7331548107166787
8115586770418214
8086932989267628
8067273938397181
8051084842298317
8025888448672430
7990844544365618
7968848569276636
7944682373072354
7924791689031157
7900895741796561
7876243018605657
7853163469703020
7829941525525080
7807057857440182
7781735671836498
7756350396981925
7734333286235428
7715713930461339
7690258086535621
7661536741369453
7634024120520848
7610915112480138
7599237645626214
7587154290053525
7555844695220827
7531053329712304
7510375969958403
7488555662949334
7478412072173776
7441191236939867
7426375931778731
7402801665653861
7379866365299955
8080642104284928
8038120031637465
8013364653112253
7988475898799106
7965450917742377
7944549134755513
7919815891623633
7897677766136389
7874062372170240
7854507240491899
7824776098374112
7795880958339596
7764985017002403
7739771281094028
7711018533665266
7685680307939287
7662626807691703
7642816196364788
7625590874938242
7579719491650478
7553785549965557
7526183369585376
7504507147884929
7474757772542517
7451875580491706
7430753559361661
7408569668372971
8055118497291709
8033297418730498
8006484273754094
7982957178396128
7967839020010858
7953196976916557
7923714257248264
7895673126037432
7867935940550204
7848260867023855
7821402664177903
7787430383894396
7753153748670691
7730687867615148
7705207153447244
7685628959668248
7667663373225659
7644632072324272
7625588242783683
7608236745978742
7586229238825395
7553636984827142
7524125929772631
7493768745175684
7469359564118987
7452521974633939
7430758104774424
8036678525228553
8010416938297590
7988901794499067
7970888083699644
7943463452516572
7924760825519700
7902872034972807
7878000689734685
7857393501494925
7838255090452259
7820196144020469
7798139136017597
7769254107883391
7750597378469565
7727600880721870
7695812774624766
7666375461989208
7639275023860108
7617147789109513
7599078066905368
7578176873695069
7556468929257702
7517623688069804
7487912905895257
7469014844419644
7455589870682781
8013545453463922
7994505452090102
7965937377038512
7944162283192665
7908607441911119
7889168468374013
7867361763067866
7838619289057296
7809692779144549
7781821437155132
7756589725449562
7734485367336493
7711911504007926
7686802453206032
7666051710312135
7637583835339333
7608767775833791
7596486355879574
7579813185914013
7555559249538176
7534063465011931
7516163400915026
7492438268760420
7474178632223946
7980427666764474
7943786811523087
7916655925727490
7913562287881632
7897408604128135
7876543157111470
7847205760177149
7826249857713314
7800230789567245
7762783781809102
7744411076528855
7726133481128720
7701875477736652
7675384400092179
7650483211577492
7618540205037453
7600468729345323
7575817817063640
7554131968645792
7528900722263385
7499716678283070
7970326694820259
7944408777054321
7916953725831213
7902478127254077
7886492527529598
7877008020238842
7855519611806252
7833190911214571
7802070551440115
7781286524695738
7766235056417104
7750651395394970
7717909647551008
7694455758775133
7676940835863182
7654280177753519
7627092700208435
7609175428487489
7592425101860226
7575844315708254
7561508893356414
7536702747594113
7516601877621267
7501371127557429
7948552589449806
7927509111681426
7899819261212024
7870562417049064
7846538546100815
7814694472936976
7786847734299548
7760178788465634
7737966343094485
7712182387365380
7696952016350538
7678398793093232
7660513334818382
7638125706947491
7607767724739534
7584468373442396
7558982687708174
7534180137422102
7510231297273448
7933332445851756
7899615177113177
7866921390653801
7844643706398410
7814964954833062
7790774191022897
7760093585516384
7738839721278208
7716403922805572
7694442810084498
7681202130319695
7663411772869559
7637224129344159
7619486379267802
7594030951927416
7579069885307277
7552248564663592
7525005484424145
7923691124905501
7903279704117408
7886930176195050
7866360434048924
7842235454023348
7818668021529795
7795013701295623
7783438353028434
7761959130103265
7736720359969404
7713016596224570
7696878532600656
7672011430114201
7642027642719074
7607876184418727
7570656022383033
7547118207981411
7920220860504356
7893542045939444
7871458988993557
7847400215501445
7824580111311605
7798300834605453
7769756927858571
7744428865824351
7724025653943452
7705435494905956
7683355207228514
7662650147787499
7634177149310772
7611653707167976
7583811976139343
7558189052795933
7912678684292776
7890905708967093
7868125855281438
7834686122950716
7813230734159444
7792099551761267
7758950734105216
7732659412500299
7705742024097422
7686682028407641
7668239856957936
7639416369271092
7620985235252769
7595661665801373
7570991272129952
7899103637229254
7872647747280649
7854354535389555
7828126822826028
7802608969211817
7763306891805558
7734308972121005
7710031881313813
7681169744155390
7659427142980309
7631941904083680
7616202050205188
7597257087086185
7571726557788229
7890679928066732
7862889399021981
7838007385563522
7808352301164787
7770186225160800
7754251754071281
7732385650286340
7708960622624919
7685928254020570
7663392144633641
7643901760523979
7621564297438892
7596847649829442
7569461423018105
7859815861001373
7834740399581347
7808270226137595
7785770468572962
7756574385855748
7729919942296693
7698045632677733
7672217541479110
7646130152905141
7619386200982215
7590806183089584
7876057341196958
7845453026761342
7815453693308194
7790167293218344
7773605496352512
7746326015077624
7727778349075270
7690362611887344
7658861361779611
7638673720679257
7617861831647182
7586096143469198
7862841775244610
7837134469692875
7806522703332124
7784628304497744
7767635094833323
7747856831036103
7720068303755192
7692783537927199
7669191389237683
7645854675071458
7621482534196273
7597710517797929
7868014514682012
7844206234922309
7814875084185754
7778541905617695
7752718141721778
7732469397661419
7707065870334770
7683560439489299
7661862482510394
7626829763790936
7601122876443439
7858439498216961
7832821726838996
7802905101871216
7773834909722533
7747924501974900
7717788826882548
7697168731582936
7673827480817474
7641554380333954
7612127418878306
7857364040771204
7827377681371502
7796651182275792
7779298019840155
7748454274055796
7726098444196478
7697906192306931
7672172735476484
7646463216186454
7621918777861522
7858785669520410
7832471797761646
7806259572996638
7781318075542915
7759474820515506
7732162096820885
7708040001727601
7691217319316412
7659070297603595
7634005678675617
7612519074852629
7842348426519990
7813749815701134
7799203560029070
7778497923264313
7751275239613659
7721981559443842
7687965724217140
7665973747924322
7646194492067119
7620006077516124
7836364635747407
7809692309622992
7786050107731624
7764116193946825
7735066513816918
7708946531050740
7682209856315128
7651894140687951
7632753374759208
7611789028405575
7818102142708795
7783737247110422
7754044959524134
7723363307389493
7694327752130898
7676615652445775
7654357190863506
7629712531310072
7834565678721674
7803981019620361
7767379301221114
7738717335267940
7716425250504064
7697448833869367
7672029833333437
7642547976103237
7839256221610405
7807149381046654
7775382236588148
7748070848427967
7715908629094613
7690770023133867
7653011382578256
7834987238353356
7811985065544209
7786210873731862
7762512104659035
7738545207832293
7712593725660271
7682269734959193
7652047433241839
7828125910442926
7799810659935892
7766532020497135
7733811794812506
7700747507597365
7678850725700159
7657956290337510
7634754735831783
7820154145958229
7786116473537892
7756430141183767
7713829662466884
7679084324805308
7654175743044490
7820447472489708
7793033158319665
7753314233155409
7717450656097668
7685009592781238
7661716855374784
7635853597274026
7809785884223117
7773072761438683
7738854831985161
7705014623947259
7675233740383622
7645752375206932
7800867558055996
7765405875593536
7727574266106478
7694825999235683
7658455168636788
7813208345858002
7786933325478941
7753952398641080
7711297837987246
7677311150539781
7642370825095080
7786076392889430
7751644998683495
7717504687756438
7687794998255477
7660028071621072
7803709554277020
7768701306625204
7742626759747163
7707568234316537
7667453879019220
7804820943487824
7764439922817220
7742873420838236
7724078011848814
7697475940495552
7669987690907266
7810004900620516
7772711995931078
7746528564871420
7710327782712537
7675280876291280
7810261873010695
7783068101400301
7757434704961252
7728603207043369
7691759939922314
7650433605378659
7783509142312279
7755353155558478
7730416355360623
7704568969393623
7672478201757026
7801997507727829
7772990893868145
7742106045899274
7708647402589501
7672891839015299
7794253449620374
7759911868260534
7726721898067081
7695869907946933
7664980819269882
7793130380206006
7770152461493211
7736595826403157
7705179247070923
7676125920456239
7789220455940492
7751484463774546
7710966891994670
7670522522956289
7789192269372421
7758588162433886
7729129858014968
7698634764553991
7662641836442007
7768482839395101
7719048318098787
7684670930556093
7796783498452589
7759393399891415
7732768523558592
7703709684661710
7669773498033972
7775668807250693
7741149025018060
7703532121959423
7670392065687706
7775878368265710
7737889716569034
7713302629675785
7675692246919476
7772717207881665
7731300781361230
7695148909486916
7788420223656349
7750535550828680
7707704136308610
7670863455095320
7768431584604845
7735136166369643
7698489627013577
7666352636661359
7753234420396159
7716484970734685
7692409310712148
7784586184394041
7755991224329213
7719321092846673
7687609832735129
7777732526207549
7743513764168513
7705863991679134
7670652187435838
7757808913364362
7724284108857157
7688322941435671
7772021494293524
7732835029074434
7694539665512185
7768206230659239
7731235531274579
7695656969470047
7769122625577276
7715643366492049
7781563749808105
7744440656465787
7700481867623905
7777755853543480
7742921999018297
7697640698900662
7766711884169650
7722623354243306
7682115028392659
7760358486793534
7716816095929774
7779084029835222
7730828209311456
7690934872251059
7756702575619905
7715095812273566
7778633100804207
7735265026070750
7689762834001445
7750921472470434
7712636667116688
7774846891252358
7738689640027660
7698670635456700
7754351669898323
7705736834472673
7767257826198232
7729839427564703
7680156943185217
7738893653248378
7701563655740028
7765438351819902
7731887010340826
7688861583072144
7734216512585358
7691925915222187
7742019660160966
7695719539470922
7747607071331352
7700452134268511
7740762731651725
7693835073312418
7739517250587180
7687145299079809
7733197114835432
7772031267411548
7728879609821038
7769537177772167
7729931914574735
7768608751454242
7727035771692792
7761291637525373
7713377877675061
7757243442658776
7718584578509560
7758323058594586
7717791635602625
7762138095575501
7712375306841544
7741316598797887
7693394721975453
7725721959186025
7755447076857662
7704085568759043
7734176601941473
7689007006589359
7712547408926035
7738858941314412
7763016385891980
7716878716041518
7757730838962174
7704025955003789
7736218934395803
7695799953414806
7718635057825394
7736218349650135
7752689903189565
7696018036105436
7720951011889578
7735434108728296
7747617470952421
7762350414931092
7713876099691832
7727302489029382
7736499932323568
7740398347759015
7744748212802680
7757027854375582
7704685883505607
7723040523651734
7733413571104451
7739770645244323
7740754499015361
7747612099081162
7754169066575044
7699964571239615
7710318433065696
7715666850013452
7722618714749056
7722478548290626
7725999585055833
7730559331893953
7730233287861583
7726703168510357
7738812653033183
7744780440155491
7742412765665144
7739113438820036
7733578900499286
7722349723340523
7712580392672953
7703781297415575
7705523380852692
7752584460703899
7742978521991770
7736087264467285
7718958453223246
7705078725549336
7739037020118833
7730820649276368
7718070208739650
7703663600012266
7740464268549749
7728061162258823
7748649785546456
7725817515548236
7707735799649642
7740569456169211
7719402901266725
7733628996828709
7745260146822302
7737972173336017
7714583104867258
7731978931712046
7712304799649375
7723401750881851
7729405831194958
7745849151150991
7721034587611374
7737220174324356
7734314933968057
7738510101295408
7711089905309083
7716114185184073
7725112912874888
7727611346869215
7722365907186363
7714786288475035
7745115287958728
7729675264731311
7712565553252287
7734057692060725
7714911460554937
7735493301384342
7711230817013220
7715908587779258
7729781857970858
7712753470792546
7727073571882571
7728589686984131
7734285631873487
7738614487255472
7730715158629237
7722258304882641
7742553987197824
7731061027445329
7739035951436687
7735307991475864
7713322907655289
7720702140731506
7723784518107647
7721019799320131
7727083746140564
7739490621647350
7741703617515434
7738435498280324
7732671552489684
7733250040220837
