7095533543028020
9133346227846304
8488242480888135
8116815682999185
7716102414315784
7335719970037425
7117483013354208
6873451359692689
6737722348411473
8753562161207959
8504996551777623
8306242296287859
8142864417713982
8030794599499376
7898190393964146
7733405311729378
7654575811894909
7579960712033009
7496241234877639
7429166271780779
7364249178298902
7328987607588109
7250701865248085
7213407238442607
7151134371926928
7076780575142742
6998796116009827
6950261352702879
8549165171639195
8425105356400474
8381778424668869
8321170965293546
8231594937674669
8114492883109917
8089204655971103
8060900861074624
8028896019569171
7971121613216431
7856892218857699
7776600956408286
7673175678014253
7585407448902958
7532668893866562
7456146513857265
7406608235971501
7347086425178941
7304791356464930
7264718602651370
7184643369377645
7135772859985352
7094418529882457
7067964900950483
8407139775864663
8353699437541555
8296539231988216
8251436711849806
8211455275607236
8160106379824891
8113985386335592
8054383238159587
8030726803724127
7982971574159456
7890517905324390
7859920346963350
7820047362199484
7778891845071909
7765390196332561
7731534153693091
7683340037044314
7641239338927574
7605631800679243
7575646537045813
7539278293504905
7497957014069239
7472669075735024
7457248173787204
7433704313890778
7408324879541379
7361074625851784
7337591878768434
7299801702919771
7234364876735921
7183158056024035
7164822232150410
7151083664753717
8301129391504893
8257717381022931
8201174329350677
8170014453684283
8134761792320131
8074959934518221
8016568289555329
7965412881522180
7924032172689669
7899726509406848
7868794342786908
7828614392231276
7800625959939244
7760376888048696
7719259372575019
7694226829258735
7643908906089691
7596148831367351
7566425876768798
7542672782091183
7494070916883541
7471837204775623
7453066025176030
7391705495644714
7358210191078302
7336679247092393
7313106910007906
7280161132724652
7253291982202960
7231932760084024
7219447719493589
8214848003111812
8175422145222141
8137479051885261
8133313203233159
8113107280433455
8072086644905761
8035273439197411
8011782727497210
7976036454705557
7924552033779648
7878406364175478
7821202100244149
7781805090627862
7760640244769214
7740520890635858
7713661799732334
7684246022650089
7658643649123360
7635866989791341
7614431967771179
7587002498165151
7550199413518540
7514925729105205
7491569399311063
7464958084128364
7438793988650679
7409800243230020
7383170539182852
7359277903860900
7331769591895811
7315221206830764
7284035968513307
8164183480217033
8122805475332777
8096163219921528
8060809701653558
8041610456907593
8008611822839847
7986924069198870
7971604971278848
7950773621915205
7906987744211903
7868456389990687
7840982306316036
7824689265132996
7798994746298797
7765194495628822
7737693089552667
7708414012295277
7674083470928880
7635026788300918
7612078731928470
7594295943660269
7582321307653960
7563373418454889
7545097171611252
7493640617464183
7474600096315849
7455806239063527
7442108776548589
7412104399811215
7393052640603290
7371282630427652
7335691595058954
8129504530480425
8099502182891324
8076919309280964
8043300064142099
8015518270186174
7991503710049428
7972511558892986
7944728732770729
7901312396056915
7870941229961984
7847233562138157
7817413629102561
7774299040613101
7735607570493192
7702596048073470
7673787181487590
7656374084907533
7636755824297041
7611073980900532
7588534246251984
7568231059005551
7545879165252984
7522157417153060
7499329470126793
7467183652478403
7442956295772326
7428177224635683
7398766088985492
8090836271400857
8057498569651620
8030363339417220
8000881705223332
7968525976201469
7937011600142835
7911759079697301
7889178303343583
7849254412170881
7819821195857331
7780728184562320
7753372199151753
7722419325938772
7696020603988065
7675055960240299
7654529570184700
7635199815542639
7608717020428781
7581053478022458
7568893519742592
7548747143675775
7532319879794942
7511758388216656
7481548156490177
7455506215235425
7432959714342535
7419645470094065
7401470960550114
8047656606630920
8015053813853420
7981810839588109
7954966234114140
7926439927564891
7900841069811388
7873334571508092
7841763026704708
7810473801743418
7788340565061076
7768215391266709
7751079309106764
7720058406683586
7694828837626417
7666096200465657
7630098973264360
7611835027588323
7602634218635586
7585520507686546
7551566481652339
7514650655877118
7488981746597854
7473944047041312
7460321382959958
7436696226903901
8031313545151867
7997673645262458
7975354357299557
7938951303000550
7906916258869396
7891990983892977
7869452716052740
7839301424585669
7817053422030703
7792817244081508
7764716448543759
7741523690180362
7712953622419695
7688003047256147
7671652649983573
7650737381195188
7624434986885876
7599296842051879
7570140295445519
7537425870993166
7518299217813395
7499133141940356
7473700036065264
7456523979439710
8006665226776843
7984561329942867
7962756579844682
7942324107797065
7927246716458345
7910377537504473
7886908236571467
7859432554664005
7839979845496296
7814637765970399
7779098628068361
7763679154811731
7747812697841906
7720425853574590
7697620982657474
7672099618374012
7656436806749154
7636964246282833
7611369115449443
7583819201129065
7543229720907748
7524876390532916
7500157404510527
7467561346808750
7969437409383497
7950228397139695
7940583867034752
7918407507764655
7902642434314792
7877670645714610
7854830733279041
7824573771259378
7794539412190789
7774982636460454
7759621803666810
7740291571810316
7718499103048855
7692886982530492
7657868521334384
7633468386259948
7614330806597864
7596642974282512
7573214105093013
7556276676837002
7538676921112748
7515104080868671
7492248843825020
7973394063623453
7955302480864129
7937147496953119
7911131035774249
7893361645816126
7871974490356354
7854420990343560
7837339571872326
7819591846389501
7792569440004447
7772634985044649
7757191052998955
7738482708077650
7724833903011604
7700745856015530
7677825476483876
7658995441546210
7648020348852725
7630553656418118
7611939076077429
7597348288404786
7582235897551828
7570083953929412
7545299694553228
7524600289445617
7505865381270851
7955552525550238
7926851868939907
7908726635825350
7882993404790905
7857701428832500
7838858766924227
7806223358367287
7768916534565608
7742031065953495
7722674012846192
7701519844176114
7678308599319945
7656769473363222
7627129576018835
7592421003042213
7574271242962816
7550157047508701
7532017222950991
7515288098032130
7943956505970327
7924151853165776
7900734336471722
7881715515818202
7858886184412677
7836657969337290
7807884864750844
7788989945510877
7769485321250201
7754151171156920
7739389234634947
7725840553227041
7706047498142728
7689131431517937
7669754594208310
7645658724598988
7624502892918313
7603371413511437
7578889792384707
7554855078834974
7529895526757935
7925063504607854
7905872697295190
7887994264308423
7865970053814520
7847187346097489
7828224989150630
7803315723151116
7780024827776559
7752978805038387
7730407336657055
7710755103788313
7685896555347600
7666806063296216
7643412846371740
7625482136277522
7596241450171977
7576414011694020
7569243882088427
7552095168831047
7533035780326665
7907794599385247
7879129451050491
7848809851223849
7818540098479489
7794820213303100
7775003672502427
7755680239704664
7738374096814903
7719884732388229
7701331532697958
7680491534901174
7657204666472690
7635751727940596
7618207364496360
7601567865751892
7580690212711477
7558945924944642
7912215786711939
7884776569367153
7862837631281759
7845215529482658
7819828047552241
7796863875961588
7778966912623509
7761003860122735
7734758755495582
7716946566134106
7695100377437859
7673659812211986
7649923002469807
7622619148697348
7602625598536594
7578228983159312
7563533275209087
7898684750908968
7875694991822872
7854856777632719
7830588379595332
7802278318241187
7779617330248667
7751505057525779
7723351111731643
7694529665970581
7670137667737722
7646405283098563
7622641271717882
7595354306031274
7574400957561068
7896717726400424
7876309488679338
7860946037314022
7845394378981567
7825240705656819
7798077677795545
7774076845113020
7746242610650755
7729795851342811
7708446961317955
7685019126707942
7660409660184293
7638959585203703
7623247025873312
7602434390806108
7566539680403684
7878708825219228
7855713648956482
7840208279244372
7826782180205118
7806595868613020
7782184033627873
7755312417796724
7734072352067919
7712309272054753
7688457104797161
7672440638683696
7653174160153506
7633550113299597
7611938467840010
7591205998875496
7571674559787454
7866569304849575
7846676194978382
7826270594930260
7793808695964342
7779211414827428
7764715691048703
7743972277622768
7724367765131395
7695201919326856
7672450504101794
7653506685048345
7634328187791388
7613170759758632
7591739598425733
7871377614379537
7844659198229421
7818610172469286
7795515146349871
7773732709762607
7755574307701845
7729628300644055
7706575214029252
7685104962675351
7664889731099610
7643400780187606
7626313001532733
7606375486102775
7587395539879555
7858189925405088
7836748740933045
7815811481827785
7796748029425863
7777414715683731
7751750070445250
7731157215932653
7707115815985416
7683553838457475
7657376609412631
7639397700984637
7615442383032077
7595821467880056
7856388380054166
7832594427185446
7809400145461489
7783080695157338
7762705012429127
7742465679697550
7719016903518375
7687571919001268
7659280951956191
7643112241867509
7624062857870528
7607436406190706
7860145141979341
7845429643856536
7827683965443225
7804169004835788
7780022990506156
7761403966726892
7743446067183708
7715960494444034
7691031275026291
7669387835237027
7648502626267349
7618925089857192
7855374134604880
7838179057577317
7829787752402414
7807071634854935
7786764588566011
7762013826617874
7740575526941244
7725945614886198
7707665918107043
7674876932226227
7651404522399310
7629726914605267
7602717881721879
7828543622847519
7799778635297786
7775930712974814
7755447575776710
7729711108981878
7694752217210961
7667090628353922
7643232695002882
7618215369615275
7834682355204934
7808517010042858
7787210536578629
7760604761578031
7731581319094849
7705694542129486
7678957112368058
7657271390507717
7633126931959184
7613191122237782
7824192202588457
7801994976640923
7771824085459934
7751815574706960
7717893548724180
7697328118251610
7676939847379557
7658648860898016
7638009722355301
7615349223889497
7821912820664458
7800409163433544
7779172977469423
7758948951603339
7739501540786834
7719390395487004
7696777869202470
7670293385912630
7641873067285691
7829550601281789
7804681374914146
7776435565692208
7751365962556737
7732972326019834
7714095711621195
7698496557293731
7675060029125526
7649635283769886
7625256860608621
7813502463193342
7786666468751952
7763189440803692
7734304286352336
7711858849568593
7689718404682216
7669122699439813
7646045909813321
7624349589791840
7813451899513535
7788409488802977
7760683418428989
7730816858074014
7700466503232359
7679801551476757
7659479281197010
7634023712332253
7814833189334938
7790179322226472
7762492545746066
7734615345197030
7705183985633973
7680794788228956
7653030756589877
7629658676343473
7800643022928675
7774771173609190
7748060475992858
7723086308889707
7692482259054562
7671045756399446
7641620978642036
7810036178062735
7781598429265177
7754006608538188
7724698848295650
7699010640869222
7677566360386025
7663965599694302
7643293527191838
7811876153023160
7789068319697674
7759192933276002
7729634444535928
7707295134737423
7682853011753075
7656604646637686
7819466143850820
7792444936190537
7762909633512186
7735233777452450
7709143763641594
7679526553497138
7654310942574711
7801490517259070
7771506839109491
7741554955895122
7712600296832752
7684081293860543
7659230360132635
7814324739157938
7788821482678240
7761628395439690
7734402232793221
7707118715633091
7679556035424151
7657341928928698
7807931538959060
7780990267149441
7757956530777056
7733442298321333
7699545909138918
7664149640972439
7808889471629349
7779477015923254
7756289679159782
7729971080604095
7701981411744150
7673979469134287
7651877350533802
7798693186914344
7772802958051883
7745644091915975
7718633363199678
7696935707203764
7670317661389044
7802321186799717
7776885275242290
7753699558943844
7734534066983971
7708344746278334
7678322652005376
7805739986501848
7775621722973574
7753324157161795
7731864088398453
7709795557704111
7677398960770248
7798252267318908
7766809790981578
7738425237630020
7709937019248989
7680428893833914
7793812068782497
7762571625849915
7735175190141866
7705630705541101
7677593172764886
7799654910124735
7772761009211502
7741515873391207
7711338283739407
7679706370316382
7801254062554940
7773526016259474
7746398619801666
7719273871911646
7687230781968742
7658384071549365
7772331997451452
7739965083268777
7704849021406003
7679429777483080
7791121775964557
7763196770965583
7737313088307277
7707694202163164
7679647662849479
7787598952656456
7749579017171662
7725586960575464
7696680466458914
7665741219605197
7771161151102213
7742530785062594
7719783616778863
7689380035907730
7790812311934449
7761431625445999
7729839970209256
7708722990635233
7682632700091186
7779419177989573
7740542948593310
7709228450961513
7674113244567203
7770292631189944
7736799693444756
7707109318764608
7677708424784777
7772759160654749
7741041873042216
7709251780822185
7676395742579265
7769117308889707
7734851299165878
7697446467969825
7666782176584531
7756657856874369
7727269843837374
7701451384165501
7672751834616470
7764657143685675
7735355378697526
7702043248213872
7668693868912375
7758301628298761
7727305451449760
7692578283105566
7780991874341657
7747939388377011
7710877409261503
7674971218436349
7757236205537191
7718401800508940
7690504643821431
7769858284868390
7727330019222944
7684808976994129
7758736047080969
7728811210110436
7695396572491518
7768841693627228
7729428007838537
7685628586872855
7755786524506531
7716392324702012
7676318397324061
7755341675754236
7727155514417781
7692127810236689
7761018177214039
7724013978855876
7688176068535381
7761160014487617
7728239314524336
7699926334418504
7767907816271645
7736939180534958
7700257416600414
7764184959194345
7729773868453959
7688540376216800
7752095285917236
7712456155400721
7769073390107362
7731063318003465
7689917862772399
7751383237146705
7713292192638057
7775360281977483
7740106704681454
7707300314592155
7758336386596492
7717739759678383
7773564970667697
7732892030117650
7691936317592237
7746472770177428
7707444128987841
7755339697459063
7714447876737942
7768971994218377
7727148139895311
7770131933670485
7721460144354916
7768075778438155
7721415761421267
7771126185464469
7731514135727818
7691323421356055
7729317728793106
7688480108255386
7736596409275126
7703445777071730
7755928331563099
7718916095100396
7761213442997055
7713534935575589
7752902525792468
7705084095912667
7746197789713697
7706412016769640
7748763879157868
7707198796691578
7750014430013158
7717131539216105
7752403677073081
7714063750930865
7747902377524839
7699729506285374
7729825158573761
7750589693787242
7697525746306185
7733545346170780
7764533697812656
7727487911578356
7760192948836886
7712159808240934
7740277548854985
7697332940499353
7725679673918544
7746141296874575
7693576917620533
7717663520825714
7740402336623680
7757554474043693
7712050631293793
7735513378156436
7753390046393880
7699980777926783
7713609159406876
7734400170586116
7747213117360873
7697897672673784
7712417218526262
7723583391417097
7738101045353101
7749919053988990
7705844778088703
7721437491158740
7740644123215368
7749060432876400
7756855549799966
7704906714151914
7712298315445650
7725893838546405
7731981810124489
7733175088805099
7732720095315517
7733363365819872
7728788889363906
7727555767673766
7730315184545131
7730867614493805
7728437879823126
7719704381360300
7721763233273325
7718409156596249
7715726441938442
7705698276817149
7745997480326871
7755634336500520
7751773058448795
7743954328885257
7746697372690457
7741666212305410
7728757629592953
7729404256860460
7732068980824029
7725025520500815
7710142088114894
7750812134597540
7736281848488285
7727949027765502
7709099710936818
7741110064662687
7723680544988827
7751189713290221
7742326193393606
7719741460157668
7745231387567925
7722239967842200
7740902641923438
7710769798150660
7733415881657074
7711455929083508
7726138034768523
7734484529355262
7744748980482479
7714826666143059
7727560737660025
7731334591173805
7739230112503342
7748236925685726
7721795006248724
7734687262732109
7744362800508381
7708962517138294
7717380747098744
7713394543770490
7745411163574364
7729261633043964
7720509460913640
7746485270352573
7740736724695893
7730320502534627
7714126042212732
7737150039790988
7718069992765410
7726556745329000
7743523864647535
7720941167316987
7733330627273958
7712945796714597
7715974503098293
7719089987708349
7721371117528508
7719269349141572
7726988434390010
7728935412502270
7715232057640288
7736094460340989
7721484836613883
7735158329559423
7738859770728863
7736998353172990
7738540847737367
7721533871802465
7729348175165930
7727215790104476
7716105759864387
7718327262533809
7722234660353619
7736079453898594
7736920946217008
