7069376464556834
6294059723083717
8562384682038512
8046681495977541
7541940033361913
7217614356630638
7070721485195501
7016429392811066
6929000836137285
6830491885363904
6729202277142167
6663519021860535
6642482136469708
8716693847519940
8600531972311673
8444818849704522
8276501390157518
8166300378520384
8128479264416758
8033602540540258
7938330633925104
7791720187646418
7716315149710959
7620381072989669
7577730759950881
7508408075482025
7442713432767499
7369047933880306
7306759557051373
7285668114641749
7229954824760311
7209091561889590
7179837833642997
7147483376591422
7067429694557988
6985457519495773
6953657898503985
8573889511793533
8493795572880134
8450234746856573
8413925087169462
8363850596875377
8297962777269151
8229405696342845
8181605337690985
8136081770648626
8096292096533756
8089639208512650
8089639208512650
8089639208512606
8088700667604860
8056235190978103
8036377098744745
8014545264205576
7988005180438103
7946996979748728
7924433292483427
7893793816288776
7861818965401186
7833679562117864
7798044687777104
7767147061832809
7738293546164758
7705773459269799
7673951610404434
7638358502528602
7590889723015109
7512558508917673
7453370804790820
7441575613987197
7390433040654789
7342040271582764
7303679185815101
7260702802685626
7218378254183334
7165533672230022
7119101159596624
7068553639699705
7045570555280829
8418415606029947
8370730243527660
8323508369426898
8309328524632758
8287322846765530
8240504521703401
8193468949039334
8149695823763285
8120556115431726
8083192687643062
8049193577516597
8018757239228624
7999650731222274
7976005340076241
7939819358553566
7895421174743841
7872891884897685
7849215100795623
7810137784949974
7770692311218136
7743513586112050
7723947907399284
7693527861438833
7637488284064317
7595614361559443
7558713252863259
7540006324909827
7523820546079523
7500334395444767
7477784132896816
7456976517617547
7413744561309157
7365912582808828
7315887481969332
7295660910753557
7277889097346004
7257471586213329
7225184872114079
7206781434678843
7182238886421141
7140676990390028
8311610606600836
8289461576974232
8260341187303532
8224011713802003
8189986535750843
8161933688098254
8117814885805699
8066992451479018
8015520315631322
7975833490958684
7941662624052433
7903979571306304
7874822902575678
7859727470358681
7835205538174238
7785627978215218
7737337527046328
7717475423510551
7692491884644138
7668634081316560
7640116336561189
7624108355594962
7611703167648234
7581231523441811
7557459873437366
7538723559874894
7521234553572524
7485833949839033
7458752797724964
7434932728888751
7416531474663500
7402389299420812
7385225122013971
7370891822034970
7355082295321553
7335474871714304
7325735971757319
7310950174050106
7274871915069666
7250373230079920
7215141701744750
8205240304629433
8177137094042471
8142983541921262
8126266897966047
8093100887521178
8065370763178556
8042306960806017
8018430830720884
7983338130061658
7958157359052947
7925618508533293
7897854323992933
7879154710381286
7845027177000414
7809672623464886
7791289064614775
7773319434687511
7745252117818975
7715673145999544
7683074795255527
7658935809844080
7650178055428845
7625459036032024
7613639842964227
7584514680271303
7558513937432099
7521702695903770
7495718588376859
7473054040836100
7449080213307706
7434008218126558
7411967963678732
7393410528504424
7386922239407819
7373954309132014
7350372523221666
7325426725070234
7301393907132599
7279202438473926
8165119095845241
8137886545838807
8109978852687069
8078180081750448
8055636985912769
8021272431057789
7987437765840124
7967114797464156
7935633736305818
7908105959906615
7873977201741967
7853483096509942
7835244173707808
7809163190889246
7784569274757411
7757283807447458
7722232765448881
7699547614240190
7667960605571323
7642711425811127
7623835223398629
7601021797183849
7584948186179670
7565674529236943
7549252569107423
7521384651369009
7482385312223584
7457579857673403
7430336670757561
7416454283223951
7402297242086804
7382746600332638
7361038306472247
7343022108411323
8126232806147361
8109291422897089
8083088742006363
8052751717536471
8029494542533183
8006833042122661
7982093336748188
7962418960655407
7941688907278412
7928771386051473
7909637385273358
7887522880988870
7855207288138884
7834752003123977
7801194067596186
7778944342189471
7756391345620428
7732981125594752
7707283502864737
7683584818754004
7660181095570383
7637148234435798
7615647492637102
7594196098391065
7570971409379697
7541843479909089
7523126594461563
7503227026341000
7474069116527904
7441159914316023
7409602877101417
7388758284488815
8092725448475432
8086595776060655
8082412716730776
8055505735627011
8023962287067137
7998432894563763
7973293349593475
7939920443596005
7916640270190532
7890374577038216
7870867467424098
7839589114282037
7806899871400705
7771165740428362
7740020648345545
7704322135290641
7680589696645602
7655725673179352
7637559027295381
7622037040730866
7603391222419061
7582190108868909
7551164154467396
7525357709259610
7492623700962873
7468478121657573
7453573728861762
7429644399459787
7415794321114160
8061942950763322
8028971224253489
8010156851933453
7991966492120239
7979769754896586
7964716241286151
7941766070550536
7914697799433495
7893617034791040
7877955618004809
7853312644145659
7827646063193723
7800425452537084
7776663255165818
7744538655399356
7719778034473666
7704225017626640
7693102698157392
7675144957863737
7661272801453598
7633130456092336
7612596835201018
7591519532477716
7569098012992851
7549970339918055
7524650583301189
7505134939090674
7487883831611528
7472763945567215
7461296661273134
7442772971244401
7421844736315190
8023894731692991
8007787786798205
7991118874110437
7969512872458243
7944728991428122
7923013789716362
7903558923891105
7889842299867890
7872582599355554
7853420419369199
7832923833878932
7813563579942745
7793818371279068
7766463488461757
7737692252061280
7715755845877125
7690225284795947
7672312424420378
7650100906759130
7636245004323269
7613507383790251
7602831917142325
7592307667417627
7572051639635304
7547135261348154
7523207281704457
7497414721469487
7473497664394750
7451247925866247
8000174737025623
7975888034487475
7948425109977190
7919976980249908
7893067636855258
7869105856363409
7846665201949325
7824429598908619
7801926138403950
7767894612214569
7751986061710092
7728449282933236
7705660724894169
7681335281205208
7659253991645902
7638170863918966
7615745301225639
7600106502894643
7573288831978726
7553265461584908
7541282833585161
7521292677302362
7490471192100595
7475610723541251
7991390837837670
7975792829066098
7951914874852115
7938176341138120
7919146654030153
7901267790491884
7869649646661799
7840992299847493
7816175793864914
7792938080251056
7766770708340224
7744061609492312
7721284590944362
7682010527740759
7655607191626931
7631612485574349
7607525245358832
7587434998613893
7573159721358262
7555943955904412
7536369663294111
7514786968646678
7493356195214330
7968707614031333
7947229816099889
7917467206014533
7886966285221158
7867491182895962
7845610162412779
7829039338042622
7809717008559300
7791859864043237
7764954589265248
7740193817608710
7724087960308378
7703026682229096
7683673227317614
7658030777679055
7642346552735379
7620956474666359
7607096324366977
7581027196403792
7557531700186802
7538219837596941
7513270894927045
7955637645120253
7926834942738681
7901066831430187
7884077112901499
7862388555582689
7837564007459691
7808675285452978
7785647102897906
7754373585920181
7735810024666954
7716327503618780
7699146580085613
7676027180854635
7647190698635726
7621777354947639
7601658171174488
7579878126482564
7557822683821166
7525249803153568
7943380993833400
7918994807491493
7899129177302872
7878824922476071
7853352468104642
7835676930854635
7810061753343844
7783747374693103
7761032846006639
7743351755619189
7724110420506815
7701469670397591
7680937623262744
7657944554092749
7625121164668669
7607384428078891
7583464787364801
7556624664480203
7536842097478007
7935796258806463
7909404885223824
7888374342928408
7866454054834981
7837252540100627
7806433694220981
7782408054986593
7760351499021215
7744368719301389
7722418789719706
7691537588325096
7673989993952756
7648206042577117
7625801473029312
7600796778786500
7581031274282788
7566554488855144
7545646420194821
7912027412218953
7886243808308058
7868367054545902
7852261167641649
7827987518614942
7806627943126260
7785886036565489
7764436771990746
7742413220475547
7713412391485111
7687912572214729
7669268532075531
7645028003350357
7629316618682363
7610800245505205
7588905557269462
7567327670848499
7915764719061461
7881715836482016
7861122319859150
7838020543961842
7815721216544449
7798378436313461
7777518655412148
7748384003751903
7724873741302332
7703969080051213
7675709382486154
7652407457599732
7623336969357378
7599242037779289
7570378014300440
7904028994861227
7881243522474052
7854412107123640
7834024019511383
7818618000967412
7796106979496920
7754748215134066
7727107627000964
7706890624888056
7684499631770715
7660493289430672
7636952226701185
7618492320412741
7598388159537402
7583466516866247
7566281668218749
7886944137738654
7862132582696616
7835796619379765
7807797125862796
7773977245651304
7749979262196994
7719993789835988
7692412008537849
7669704123451635
7653332891584963
7625598933644304
7603737545126914
7582048473312016
7882967149073991
7857580684705133
7841238437603795
7822322987608002
7791449790732994
7766761270296288
7742434006302743
7715958683472964
7695346508053263
7674695772411402
7650557062830511
7632788706649553
7603866118542868
7581245996591845
7871958432373279
7849925970634731
7822996996012004
7801981169685134
7769646304845003
7738140902628648
7720104713484506
7699468687278180
7676853293952568
7650869655819178
7624768851493757
7602431200570606
7876284498003809
7848419622919867
7822654958489198
7799176615165405
7777693787519200
7761548500618252
7738761066173287
7715692534964660
7691326383777115
7667331767598279
7647494302042717
7622518419990622
7598281743219859
7867441353897753
7848350044309618
7826793894898495
7802217273767636
7774324060526563
7747866283136944
7711361565062982
7689130135221489
7670881835261988
7649485653717694
7630690518652704
7601312254136220
7858146456343104
7836959042750276
7810473147406706
7786258354464855
7760523803043390
7731152344417562
7706761370215014
7681495178414030
7657149895616505
7638118638886455
7622509412503467
7598842654044776
7842430583513655
7820367572757912
7795090460645062
7770575803848039
7742890819368369
7717423655340255
7697694530202153
7676319845356591
7643404411399938
7613441930455579
7849104569318567
7831280732329362
7810669308606599
7793476290548099
7770088059543823
7747479121117185
7723020415030420
7701134242050722
7683449198618808
7664482032050562
7641637456036305
7623373978800052
7850310307159785
7816932821160961
7790084927421659
7756497985557697
7726164555507278
7701002436947621
7669159499479621
7644162866218076
7615720400159165
7834049542584741
7803060380264596
7767118328382248
7741981389720798
7717075272944164
7691625550903356
7665148979625825
7645264331535255
7617491081503132
7828024882633607
7802094487926977
7770650595425538
7749541772656412
7731436705253530
7707084847285808
7684011383377895
7668010999865386
7644816034697281
7620436258431571
7826436984580878
7797932957812509
7769584873250528
7738608314216224
7711381856648970
7689990241689842
7670985086327888
7645502267472867
7838700224765826
7814700037321821
7789472693269187
7763683719639572
7741866266695235
7712647151670070
7690804160702840
7657737718473972
7627790083085782
7820986261200033
7796906020728487
7770799415816672
7736354063420251
7704364445334730
7680465901194489
7651780853548562
7628444545748964
7814705615076395
7791516386749253
7765478012239965
7736821532795099
7711892586864655
7683873518874073
7661583229449941
7632379605225854
7801178312995491
7766702009213124
7726078760964523
7704030804928320
7675503291501259
7650764349263183
7628845056385561
7801251859635174
7767541179912190
7740327751416537
7712487760680938
7683015969637705
7656154930829582
7630630572337979
7803610319302813
7776668760885468
7743644873993067
7723026681141551
7701073682290395
7674668874709713
7646446692983287
7809159991281900
7766640407332361
7731318427079706
7700155561938741
7664956525018502
7640563819555191
7797581380741158
7762251308228492
7722730960560216
7695021471041206
7667528215750031
7638274290428925
7792090365666751
7763414882994516
7734271648069313
7703152610779306
7668362014196489
7816339052041278
7784653456597990
7758029169841901
7732533813817588
7707011064352307
7670303607472405
7808155353880774
7776676655283881
7745693624384476
7720297789642944
7687459606990704
7660483302579626
7797233066191979
7768762612028658
7745302851097206
7713179195543351
7674782041726408
7809179718279569
7784450718619146
7751684477811499
7712690891034120
7681722363291060
7650832613619030
7784843486029026
7753788616069410
7725597551963674
7694035516003673
7665224809010766
7793071471315213
7756273041443042
7731738987979634
7698539108534832
7665050857683783
7793306130659278
7763114749158190
7729546610561232
7702620696598023
7669232038537903
7793463981600532
7762576943681465
7734825367081910
7706283400608456
7672589072980845
7792720805750018
7761505139334312
7729645236227222
7697367019567944
7658625853721356
7766347978965039
7732012319887657
7698174412902399
7662793040208519
7759453396212953
7727932800322614
7697122001714190
7663589764453701
7772793872606411
7739601141960034
7707801396778636
7676205921628296
7785168939710079
7754577646061187
7725757563102282
7694341369166657
7794250648087248
7756792377659705
7715135837014039
7672020500914106
7771041372132159
7734323713080664
7686920300503351
7771707774550296
7739744079452535
7702015483045240
7670347342540165
7765779726200803
7731322189521635
7700227373776994
7672170572504972
7760178480229528
7723407343134906
7681994680669795
7768455696601797
7734846811867212
7697068032037372
7778984719275631
7739037716314724
7704364669866203
7669855001652554
7756324445156772
7722428434105027
7687186515982390
7766210126484978
7725378767066189
7684049077708793
7767609263030016
7729121379792291
7692176829459537
7775243254511870
7734758178688033
7694493647474357
7768265271442229
7734882246406334
7704915568884029
7672628394995502
7742109144658647
7701192701870040
7781847281131722
7750310262880405
7712007663990699
7678192587508195
7754176413057721
7718355790521758
7679940722466626
7753531220384924
7726531096154355
7685195197067698
7744529426298495
7708143725773577
7775820377632335
7744075228123585
7709929729886281
7772409790954282
7726185852402457
7684711577338004
7751938526020834
7711382831806910
7772605323272248
7728122523762241
7685983760017190
7756777639884780
7717866582828051
7776322618150258
7735805657023800
7697693803868064
7750714110678200
7710151499709972
7767130483457588
7727935727677566
7689844502627234
7740583749803468
7697949405322941
7742989010630203
7697171979412824
7736078794760213
7691430492097336
7738338413714013
7688148013986172
7729495565533919
7769467058406018
7724589905193787
7685145827309296
7733801138356841
7695467504137950
7730669042649095
7771195147014817
7721827943439832
7759413438720658
7709450725766070
7742785885728063
7701395037226703
7735821822399885
7690093066683363
7719572593924012
7752877711536586
7711343264885827
7747631322931756
7708357220008242
7739572356118856
7694579904228449
7731130403859354
7759274075417099
7705935258190948
7728796327035905
7749703592526681
7694864387015144
7719255435797342
7737420699812664
7756010465706411
7710222208035102
7731576704758074
7755101946729424
7703158484083669
7723174401286047
7740152643075869
7758286131273467
7703097304917622
7715460354523632
7724249040858564
7733402828620466
7753811075716098
7697735829926608
7702876387981066
7717645888892926
7727766837281842
7736371227016311
7738882787072258
7741331654907710
7748167789475750
7756460211520189
7752555595509243
7755866826973503
7703728996028906
7700545585460042
7757156965507493
7747138772401342
7735990652418049
7738895913972818
7729767476572614
7723617066730856
7717465373622861
7705013998652953
7749923523308902
7730780310847124
7716672884258260
7703995696046909
7752934428334277
7746347560376423
7727232475594999
7706421781749772
7738942981918369
7722732906514618
7749435280220529
7723104006016675
7708585593061660
7743369115745222
7719624179406212
7744697244759415
7717504283896328
7707793774716512
7733013661291449
7712152214945099
7736627443808770
7715011033980309
7725542166556792
7733227596840350
7745433462007787
7715820674302870
7728839204596599
7731072059470575
7742484879468477
7743180740804229
7746086407170249
7744469257335841
7740483838469514
7739358707574391
7719928698863031
7713926368689707
7747799232966628
7731315118792642
7715280617980810
7731755745280498
7715276740314814
7727960241151660
7728513039352696
7736209173109732
7717920364147389
7728630968068092
7730495655469064
7741738220300965
7734232219096592
7733603063514331
7724438748110233
7713512206339481
7740096698669005
7735516386897952
7740256713354028
7716216793989221
7715889181111236
7719852548309157
7724173078094498
7724733849688104
7718331938912087
7739508684032751
