\relax 
\ifx\hyper@anchor\@undefined
\global \let \oldcontentsline\contentsline
\gdef \contentsline#1#2#3#4{\oldcontentsline{#1}{#2}{#3}}
\global \let \oldnewlabel\newlabel
\gdef \newlabel#1#2{\newlabelxx{#1}#2}
\gdef \newlabelxx#1#2#3#4#5#6{\oldnewlabel{#1}{{#2}{#3}}}
\AtEndDocument{\let \contentsline\oldcontentsline
\let \newlabel\oldnewlabel}
\else
\global \let \hyper@last\relax 
\fi

\citation{}
\citation{}
\citation{}
\citation{}
\citation{}
\citation{}
\@writefile{toc}{\contentsline {section}{\numberline {1}Introduction}{1}{section.1}}
\@writefile{toc}{\contentsline {subsection}{\numberline {1.1}Examples of applications}{1}{subsection.1.1}}
\citation{}
\citation{}
\citation{}
\citation{}
\citation{}
\citation{}
\citation{}
\citation{}
\citation{}
\citation{}
\citation{}
\citation{}
\@writefile{toc}{\contentsline {subsection}{\numberline {1.2}Algorithms for this problem}{3}{subsection.1.2}}
\@writefile{loa}{\contentsline {algorithm}{\numberline {1}{\ignorespaces SamplePtBall($v$,$r$)}}{4}{algorithm.\theHalgorithm }}
\newlabel{SamplePtBall}{{1}{4}{Sampling Integer Points in an Integer Polytope\relax }{algorithm.\theHalgorithm }{}}
\@writefile{toc}{\contentsline {section}{\numberline {2}Sampling Integer Points in an Integer Polytope}{4}{section.2}}
\newlabel{sec:SamplePtPoly}{{2}{4}{Sampling Integer Points in an Integer Polytope\relax }{section.2}{}}
\newlabel{PolytopeIneqs}{{1}{4}{Sampling Integer Points in an Integer Polytope\relax }{equation.2.1}{}}
\@writefile{loa}{\contentsline {algorithm}{\numberline {2}{\ignorespaces SamplePtPoly($A$,$b$)}}{5}{algorithm.\theHalgorithm }}
\newlabel{SamplePtPoly}{{2}{5}{Sampling Integer Points in an Integer Polytope\relax }{algorithm.\theHalgorithm }{}}
\@writefile{lof}{\contentsline {figure}{\numberline {1}{\ignorespaces The sampling algorithm from dimension $3$ on.}}{6}{figure.1}}
\newlabel{SamplePtPoly_fig}{{1}{6}{The sampling algorithm from dimension $3$ on.\label {SamplePtPoly_fig}\relax }{figure.1}{}}
\citation{A_ANT_03}
\citation{TW_BINT_98}
\citation{GB_FMT_01}
\citation{GH_PELDS_96}
\citation{CDWY_TVNT_00}
\citation{K_SAND_09}
\@writefile{toc}{\contentsline {section}{\numberline {3}Application to Network tomography}{7}{section.3}}
\@writefile{toc}{\contentsline {subsection}{\numberline {3.1}Introduction to the Problem}{7}{subsection.3.1}}
\citation{CDWY_TVNT_00}
\@writefile{toc}{\contentsline {subsection}{\numberline {3.2}Our Main Example}{8}{subsection.3.2}}
\newlabel{ssec:intro_exple}{{3.2}{8}{Our Main Example\relax }{subsection.3.2}{}}
\@writefile{lof}{\contentsline {figure}{\numberline {2}{\ignorespaces a simple network.}}{8}{figure.2}}
\newlabel{sple_netw_diagr}{{2}{8}{a simple network.\label {sple_netw_diagr}\relax }{figure.2}{}}
\newlabel{matrix_A}{{2}{8}{Our Main Example\relax }{equation.3.2}{}}
\citation{C_CCANT_00}
\citation{S_TLIP_98}
\@writefile{toc}{\contentsline {section}{\numberline {4}The Main Algorithms}{9}{section.4}}
\newlabel{sec:main-algo}{{4}{9}{The Main Algorithms\relax }{section.4}{}}
\newlabel{initprob}{{3}{9}{The Main Algorithms\relax }{equation.4.3}{}}
\@writefile{lof}{\contentsline {figure}{\numberline {3}{\ignorespaces The Hermite Normal Form.}}{9}{figure.3}}
\newlabel{hnf_matrices}{{3}{9}{The Hermite Normal Form.\label {hnf_matrices}\relax }{figure.3}{}}
\citation{C_CCANT_00}
\@writefile{loa}{\contentsline {algorithm}{\numberline {3}{\ignorespaces HNF($A$,$b$)}}{10}{algorithm.\theHalgorithm }}
\newlabel{alg:hnf}{{3}{10}{The Main Algorithms\relax }{algorithm.\theHalgorithm }{}}
\newlabel{transprob}{{4}{10}{The Main Algorithms\relax }{equation.4.4}{}}
\@writefile{toc}{\contentsline {section}{\numberline {5}Computational Results on the Example}{10}{section.5}}
\newlabel{sec:uninf_results}{{5}{10}{Computational Results on the Example\relax }{section.5}{}}
\bibdata{bibtex/bertrand_references.bib}
\bibstyle{icml2010}
\@writefile{lof}{\contentsline {figure}{\numberline {4}{\ignorespaces Histograms of the OD solutions coordinates in the uninformative case. The black triangles on the x-axis point to the coordinates of the actual solution from the data set.}}{13}{figure.4}}
\newlabel{uninfmarginals}{{4}{13}{Histograms of the OD solutions coordinates in the uninformative case. The black triangles on the x-axis point to the coordinates of the actual solution from the data set.\label {uninfmarginals}\relax }{figure.4}{}}
