%!PS-Adobe-3.0 EPSF-3.0
%%Title: 3_ptope_1D_distrib.fig
%%Creator: fig2dev Version 3.2 Patchlevel 5d
%%CreationDate: Thu Jun  7 13:57:08 2012
%%For: be007ha@MacBookPro-0025BCDD070C-2.local (be007ha)
%%BoundingBox: 0 0 877 607
%Magnification: 1.0000
%%EndComments
%%BeginProlog
/MyAppDict 100 dict dup begin def
/$F2psDict 200 dict def
$F2psDict begin
$F2psDict /mtrx matrix put
/col-1 {0 setgray} bind def
/col0 {0.000 0.000 0.000 srgb} bind def
/col1 {0.000 0.000 1.000 srgb} bind def
/col2 {0.000 1.000 0.000 srgb} bind def
/col3 {0.000 1.000 1.000 srgb} bind def
/col4 {1.000 0.000 0.000 srgb} bind def
/col5 {1.000 0.000 1.000 srgb} bind def
/col6 {1.000 1.000 0.000 srgb} bind def
/col7 {1.000 1.000 1.000 srgb} bind def
/col8 {0.000 0.000 0.560 srgb} bind def
/col9 {0.000 0.000 0.690 srgb} bind def
/col10 {0.000 0.000 0.820 srgb} bind def
/col11 {0.530 0.810 1.000 srgb} bind def
/col12 {0.000 0.560 0.000 srgb} bind def
/col13 {0.000 0.690 0.000 srgb} bind def
/col14 {0.000 0.820 0.000 srgb} bind def
/col15 {0.000 0.560 0.560 srgb} bind def
/col16 {0.000 0.690 0.690 srgb} bind def
/col17 {0.000 0.820 0.820 srgb} bind def
/col18 {0.560 0.000 0.000 srgb} bind def
/col19 {0.690 0.000 0.000 srgb} bind def
/col20 {0.820 0.000 0.000 srgb} bind def
/col21 {0.560 0.000 0.560 srgb} bind def
/col22 {0.690 0.000 0.690 srgb} bind def
/col23 {0.820 0.000 0.820 srgb} bind def
/col24 {0.500 0.190 0.000 srgb} bind def
/col25 {0.630 0.250 0.000 srgb} bind def
/col26 {0.750 0.380 0.000 srgb} bind def
/col27 {1.000 0.500 0.500 srgb} bind def
/col28 {1.000 0.630 0.630 srgb} bind def
/col29 {1.000 0.750 0.750 srgb} bind def
/col30 {1.000 0.880 0.880 srgb} bind def
/col31 {1.000 0.840 0.000 srgb} bind def

end

% left30
<<
 /PatternType 1
 /PaintType 2
 /TilingType 2
 /BBox [-2 -4 10 5]
 /XStep 8
 /YStep 4
 /PaintProc
 {
  pop
  newpath
  .7 setlinewidth
  -2 -1 moveto
  12 6 rlineto
  stroke
 } bind

>>

matrix
makepattern
/P1 exch def

% crosshatch30
<<
 /PatternType 1
 /PaintType 2
 /TilingType 2
 /BBox [-2 -4 10 5]
 /XStep 8
 /YStep 4
 /PaintProc
 {
  pop
  newpath
  .7 setlinewidth
  -2 5 moveto
  12 -6 rlineto
  stroke
  newpath
  .7 setlinewidth
  -2 -1 moveto
  12 6 rlineto
  stroke
 } bind

>>

matrix
makepattern
/P3 exch def

/cp {closepath} bind def
/ef {eofill} bind def
/gr {grestore} bind def
/gs {gsave} bind def
/sa {save} bind def
/rs {restore} bind def
/l {lineto} bind def
/m {moveto} bind def
/rm {rmoveto} bind def
/n {newpath} bind def
/s {stroke} bind def
/sh {show} bind def
/slc {setlinecap} bind def
/slj {setlinejoin} bind def
/slw {setlinewidth} bind def
/srgb {setrgbcolor} bind def
/rot {rotate} bind def
/sc {scale} bind def
/sd {setdash} bind def
/ff {findfont} bind def
/sf {setfont} bind def
/scf {scalefont} bind def
/sw {stringwidth} bind def
/tr {translate} bind def
/tnt {dup dup currentrgbcolor
  4 -2 roll dup 1 exch sub 3 -1 roll mul add
  4 -2 roll dup 1 exch sub 3 -1 roll mul add
  4 -2 roll dup 1 exch sub 3 -1 roll mul add srgb}
  bind def
/shd {dup dup currentrgbcolor 4 -2 roll mul 4 -2 roll mul
  4 -2 roll mul srgb} bind def
 /DrawEllipse {
	/endangle exch def
	/startangle exch def
	/yrad exch def
	/xrad exch def
	/y exch def
	/x exch def
	/savematrix mtrx currentmatrix def
	x y tr xrad yrad sc 0 0 1 startangle endangle arc
	closepath
	savematrix setmatrix
	} def

/$F2psBegin {$F2psDict begin /$F2psEnteredState save def} def
/$F2psEnd {$F2psEnteredState restore end} def

/pageheader {
save
newpath 0 607 moveto 0 0 lineto 877 0 lineto 877 607 lineto closepath clip newpath
-7.2 649.7 translate
1 -1 scale
$F2psBegin
10 setmiterlimit
0 slj 0 slc
 0.06000 0.06000 sc
} bind def
/pagefooter {
$F2psEnd
restore
} bind def
%%EndProlog
pageheader
%
% Fig objects follow
%
% 
% here starts figure with depth 54
% Polyline
0 slj
0 slc
7.500 slw
gs  clippath
6136 5745 m 6315 5745 l 6315 5655 l 6136 5655 l 6136 5655 l 6286 5700 l 6136 5745 l cp
eoclip
n 450 5700 m
 6300 5700 l gs col0 s gr gr

% arrowhead
n 6136 5745 m 6286 5700 l 6136 5655 l 6136 5745 l  cp gs 0.00 setgray ef gr  col0 s
% Polyline
2 slj
n 8850 4875 m 8851 4878 l 8852 4884 l 8854 4894 l 8857 4910 l 8861 4932 l
 8866 4958 l 8872 4987 l 8879 5020 l 8886 5054 l 8893 5088 l
 8901 5122 l 8909 5156 l 8917 5188 l 8924 5219 l 8932 5249 l
 8940 5278 l 8949 5307 l 8958 5335 l 8967 5365 l 8977 5394 l
 8988 5425 l 8996 5450 l 9006 5476 l 9016 5502 l 9026 5529 l
 9037 5557 l 9049 5586 l 9062 5615 l 9076 5645 l 9090 5675 l
 9106 5706 l 9122 5737 l 9139 5767 l 9157 5798 l 9176 5827 l
 9196 5857 l 9216 5885 l 9237 5912 l 9258 5939 l 9280 5963 l
 9303 5987 l 9326 6009 l 9349 6029 l 9373 6047 l 9397 6064 l
 9422 6079 l 9447 6092 l 9473 6103 l 9500 6113 l 9526 6120 l
 9552 6126 l 9579 6130 l 9608 6133 l 9637 6134 l 9667 6134 l
 9698 6133 l 9730 6131 l 9763 6127 l 9797 6122 l 9832 6115 l
 9866 6108 l 9902 6100 l 9938 6090 l 9973 6080 l 10009 6068 l
 10045 6056 l 10080 6044 l 10114 6030 l 10148 6017 l 10182 6003 l
 10214 5989 l 10246 5974 l 10276 5960 l 10305 5946 l 10334 5931 l
 10361 5917 l 10388 5903 l 10413 5889 l 10438 5875 l 10467 5858 l
 10495 5841 l 10522 5824 l 10549 5807 l 10575 5789 l 10601 5771 l
 10627 5752 l 10653 5732 l 10680 5711 l 10707 5689 l 10735 5666 l
 10763 5643 l 10791 5618 l 10819 5594 l 10845 5571 l 10870 5548 l
 10892 5528 l 10911 5511 l 10926 5497 l 10937 5487 l 10944 5480 l
 10948 5477 l
 10950 5475 l 
% Fill with pattern background color
gs /DeviceRGB setcolorspace 1.00 1.00 1.00 setcolor fill gr

% Fill with pattern pen color
gs /DeviceRGB setcolorspace 0.00 0.00 0.00 P3 setpattern fill gr

gs col0 s gr 
% Polyline
0 slj
15.000 slw
n 10245 4635 m 10875 4350 l 11250 3000 l 10020 2385 l 9000 3600 l 9075 4050 l
 9375 4500 l
 cp 
% Fill with pattern background color
gs /DeviceRGB setcolorspace 1.00 1.00 1.00 setcolor fill gr

% Fill with pattern pen color
gs /DeviceRGB setcolorspace 0.00 0.00 0.00 P1 setpattern fill gr

gs col0 s gr 
% Polyline
7.500 slw
 [15 45] 45 sd
n 4350 4200 m 4575 3900 l 4875 2550 l 4125 1950 l 3525 3150 l 3525 3600 l
 3825 4050 l
 cp 
% Fill with pattern background color
gs /DeviceRGB setcolorspace 1.00 1.00 1.00 setcolor fill gr

% Fill with pattern pen color
gs /DeviceRGB setcolorspace 0.00 0.00 0.00 P1 setpattern fill gr

gs col0 s gr  [] 0 sd
% Ellipse
n 750 3225 30 30 0 360 DrawEllipse gs 0.00 setgray ef gr gs col0 s gr

% Polyline
2 slj
n 1350 5475 m 1352 5475 l 1358 5475 l 1368 5475 l 1383 5475 l 1405 5476 l
 1432 5476 l 1466 5476 l 1505 5477 l 1549 5478 l 1596 5479 l
 1646 5480 l 1697 5481 l 1748 5482 l 1799 5484 l 1849 5485 l
 1897 5487 l 1943 5489 l 1986 5491 l 2028 5493 l 2067 5495 l
 2105 5497 l 2140 5500 l 2173 5503 l 2205 5506 l 2236 5509 l
 2265 5513 l 2294 5516 l 2322 5521 l 2350 5525 l 2379 5530 l
 2408 5536 l 2438 5541 l 2467 5548 l 2496 5554 l 2526 5561 l
 2556 5569 l 2586 5577 l 2617 5586 l 2648 5594 l 2679 5604 l
 2710 5613 l 2742 5623 l 2773 5634 l 2805 5644 l 2836 5655 l
 2867 5666 l 2898 5677 l 2928 5688 l 2958 5699 l 2988 5710 l
 3017 5721 l 3046 5732 l 3075 5744 l 3103 5755 l 3131 5766 l
 3159 5776 l 3188 5788 l 3214 5798 l 3241 5808 l 3268 5819 l
 3296 5830 l 3324 5841 l 3353 5852 l 3383 5863 l 3414 5874 l
 3445 5886 l 3476 5897 l 3508 5909 l 3541 5920 l 3574 5931 l
 3607 5943 l 3641 5954 l 3675 5965 l 3708 5975 l 3742 5986 l
 3775 5996 l 3808 6005 l 3840 6014 l 3873 6023 l 3904 6031 l
 3935 6039 l 3966 6046 l 3996 6053 l 4026 6059 l 4055 6065 l
 4084 6070 l 4113 6075 l 4143 6080 l 4174 6084 l 4205 6087 l
 4236 6091 l 4267 6093 l 4299 6095 l 4331 6097 l 4364 6098 l
 4396 6098 l 4429 6098 l 4461 6098 l 4494 6096 l 4526 6094 l
 4558 6092 l 4589 6089 l 4620 6085 l 4650 6080 l 4679 6075 l
 4707 6070 l 4734 6064 l 4760 6058 l 4785 6051 l 4809 6043 l
 4832 6036 l 4853 6027 l 4874 6019 l 4894 6010 l 4913 6000 l
 4933 5988 l 4954 5976 l 4973 5962 l 4992 5948 l 5010 5932 l
 5028 5916 l 5045 5898 l 5062 5880 l 5079 5860 l 5095 5840 l
 5110 5819 l 5125 5797 l 5140 5774 l 5154 5751 l 5168 5728 l
 5181 5704 l 5194 5680 l 5206 5656 l 5218 5633 l 5230 5609 l
 5241 5585 l 5252 5561 l 5264 5537 l 5275 5513 l 5286 5490 l
 5297 5467 l 5308 5443 l 5320 5419 l 5332 5394 l 5344 5369 l
 5357 5343 l 5370 5317 l 5384 5290 l 5398 5263 l 5412 5235 l
 5426 5208 l 5441 5180 l 5456 5153 l 5471 5126 l 5485 5099 l
 5500 5073 l 5515 5048 l 5529 5023 l 5543 5000 l 5558 4977 l
 5571 4955 l 5585 4934 l 5598 4913 l 5612 4894 l 5625 4875 l
 5641 4854 l 5656 4833 l 5673 4813 l 5689 4793 l 5707 4773 l
 5725 4753 l 5745 4732 l 5766 4711 l 5788 4689 l 5812 4667 l
 5837 4644 l 5862 4620 l 5888 4598 l 5912 4576 l 5935 4555 l
 5956 4538 l 5972 4524 l 5985 4513 l 5993 4506 l 5998 4502 l

 6000 4500 l 
% Fill with pattern background color
gs /DeviceRGB setcolorspace 1.00 1.00 1.00 setcolor fill gr

% Fill with pattern pen color
gs /DeviceRGB setcolorspace 0.00 0.00 0.00 P3 setpattern fill gr

gs col0 s gr 
% Polyline
0 slj
n 5550 2400 m
 6000 4500 l gs col0 s gr 
% Ellipse
n 6000 4500 30 30 0 360 DrawEllipse gs 0.00 setgray ef gr gs col0 s gr

% Polyline
n 750 3225 m
 1350 5475 l gs col0 s gr 
% Ellipse
n 1350 4350 30 30 0 360 DrawEllipse gs 0.00 setgray ef gr gs col0 s gr

% Ellipse
n 450 5700 30 30 0 360 DrawEllipse gs 0.00 setgray ef gr gs col0 s gr

% Ellipse
0.000 slw
n 4125 3450 36 36 0 360 DrawEllipse gs 0.40 setgray ef gr 
% Ellipse
n 2550 2700 36 36 0 360 DrawEllipse gs 0.40 setgray ef gr 
% Ellipse
n 2400 3750 36 36 0 360 DrawEllipse gs 0.40 setgray ef gr 
% Ellipse
7.500 slw
n 4500 4800 30 30 0 360 DrawEllipse gs 0.00 setgray ef gr gs col0 s gr

% Ellipse
n 4350 4200 30 30 0 360 DrawEllipse gs 0.00 setgray ef gr gs col0 s gr

% Ellipse
n 4875 2550 30 30 0 360 DrawEllipse gs 0.00 setgray ef gr gs col0 s gr

% Ellipse
n 4125 1950 30 30 0 360 DrawEllipse gs 0.00 setgray ef gr gs col0 s gr

% Ellipse
n 4575 3900 30 30 0 360 DrawEllipse gs 0.00 setgray ef gr gs col0 s gr

% Ellipse
0.000 slw
n 3525 3150 36 36 0 360 DrawEllipse gs 0.40 setgray ef gr 
% Ellipse
n 3825 4050 36 36 0 360 DrawEllipse gs 0.40 setgray ef gr 
% Ellipse
n 3525 3600 36 36 0 360 DrawEllipse gs 0.40 setgray ef gr 
% Ellipse
7.500 slw
n 11250 3000 30 30 0 360 DrawEllipse gs 0.00 setgray ef gr gs col0 s gr

% Ellipse
n 10050 2400 30 30 0 360 DrawEllipse gs 0.00 setgray ef gr gs col0 s gr

% Ellipse
n 9000 3600 30 30 0 360 DrawEllipse gs 0.00 setgray ef gr gs col0 s gr

% Ellipse
n 10275 4650 30 30 0 360 DrawEllipse gs 0.00 setgray ef gr gs col0 s gr

% Ellipse
n 10875 4350 30 30 0 360 DrawEllipse gs 0.00 setgray ef gr gs col0 s gr

% Ellipse
n 9375 4500 30 30 0 360 DrawEllipse gs 0.00 setgray ef gr gs col0 s gr

% Ellipse
n 9075 4050 30 30 0 360 DrawEllipse gs 0.00 setgray ef gr gs col0 s gr

% Ellipse
n 9600 4500 30 30 0 360 DrawEllipse gs 0.00 setgray ef gr gs col0 s gr

% Ellipse
n 9825 2625 30 30 0 360 DrawEllipse gs 0.00 setgray ef gr gs col0 s gr

% Ellipse
n 8550 4800 30 30 0 360 DrawEllipse gs 0.00 setgray ef gr gs col0 s gr

% Ellipse
n 9525 5100 30 30 0 360 DrawEllipse gs 0.00 setgray ef gr gs col0 s gr

% Ellipse
n 13500 2625 30 30 0 360 DrawEllipse gs 0.00 setgray ef gr gs col0 s gr

% Ellipse
n 13500 4425 30 30 0 360 DrawEllipse gs 0.00 setgray ef gr gs col0 s gr

% Ellipse
n 13500 3150 30 30 0 360 DrawEllipse gs 0.00 setgray ef gr gs col0 s gr

% Ellipse
n 8850 4875 30 30 0 360 DrawEllipse gs 0.00 setgray ef gr gs col0 s gr

% Ellipse
n 10950 5475 30 30 0 360 DrawEllipse gs 0.00 setgray ef gr gs col0 s gr

% Ellipse
0.000 slw
n 150 10800 30 30 0 360 DrawEllipse 
% Ellipse
n 14700 750 30 30 0 360 DrawEllipse 
% Polyline
7.500 slw
gs  clippath
495 1364 m 495 1185 l 405 1185 l 405 1364 l 405 1364 l 450 1214 l 495 1364 l cp
eoclip
n 450 5700 m
 450 1200 l gs col0 s gr gr

% arrowhead
n 495 1364 m 450 1214 l 405 1364 l 495 1364 l  cp gs 0.00 setgray ef gr  col0 s
% Polyline
gs  clippath
2725 9409 m 2819 9561 l 2896 9513 l 2801 9362 l 2801 9362 l 2843 9513 l 2725 9409 l cp
eoclip
n 450 5700 m
 2850 9525 l gs col0 s gr gr

% arrowhead
n 2725 9409 m 2843 9513 l 2801 9362 l 2725 9409 l  cp gs 0.00 setgray ef gr  col0 s
% Polyline
gs  clippath
7124 4279 m 7299 4240 l 7279 4152 l 7104 4191 l 7104 4191 l 7261 4203 l 7124 4279 l cp
eoclip
n 450 5700 m
 7275 4200 l gs col0 s gr gr

% arrowhead
n 7124 4279 m 7261 4203 l 7104 4191 l  col0 s
% Polyline
15.000 slw
n 1575 2250 m 750 3225 l 1350 4350 l 3525 4725 l 4800 3900 l 5550 2400 l
 3375 1725 l
 cp gs col0 s gr 
% Polyline
n 1575 2250 m 2625 3225 l
 1350 4350 l gs col0 s gr 
% Polyline
n 2625 3225 m 4050 2775 l
 3375 1725 l gs col0 s gr 
% Polyline
n 4050 2775 m
 5550 2400 l gs col0 s gr 
% Polyline
n 2625 3225 m 3600 3750 l
 4050 2775 l gs col0 s gr 
% Polyline
n 3600 3750 m
 4800 3900 l gs col0 s gr 
% Polyline
n 3600 3750 m
 3525 4725 l gs col0 s gr 
% Polyline
 [15 68] 68 sd
n 2550 2700 m 4125 3450 l
 5550 2400 l gs col0 s gr  [] 0 sd
% Polyline
 [15 68] 68 sd
n 3375 1725 m 2550 2700 l
 825 3225 l gs col0 s gr  [] 0 sd
% Polyline
 [15 68] 68 sd
n 2550 2700 m 2400 3750 l
 4125 3450 l gs col0 s gr  [] 0 sd
% Polyline
 [15 68] 68 sd
n 2400 3750 m
 3525 4725 l gs col0 s gr  [] 0 sd
% Polyline
 [15 68] 68 sd
n 2400 3750 m
 1350 4350 l gs col0 s gr  [] 0 sd
% Polyline
 [15 68] 68 sd
n 4125 3450 m
 3525 4725 l gs col0 s gr  [] 0 sd
% Polyline
7.500 slw
n 4500 4800 m
 4350 4200 l gs col0 s gr 
% Polyline
n 4350 4200 m 4575 3900 l 4875 2550 l
 4125 1950 l gs col0 s gr 
% Polyline
gs  clippath
8595 1814 m 8595 1635 l 8505 1635 l 8505 1814 l 8505 1814 l 8550 1664 l 8595 1814 l cp
eoclip
n 8550 4800 m
 8550 1650 l gs col0 s gr gr

% arrowhead
n 8595 1814 m 8550 1664 l 8505 1814 l 8595 1814 l  cp gs 0.00 setgray ef gr  col0 s
% Polyline
gs  clippath
12436 4845 m 12615 4845 l 12615 4755 l 12436 4755 l 12436 4755 l 12586 4800 l 12436 4845 l cp
eoclip
n 8550 4800 m
 12600 4800 l gs col0 s gr gr

% arrowhead
n 12436 4845 m 12586 4800 l 12436 4755 l 12436 4845 l  cp gs 0.00 setgray ef gr  col0 s
% Polyline
gs  clippath
11230 5622 m 11401 5672 l 11426 5585 l 11255 5536 l 11255 5536 l 11387 5621 l 11230 5622 l cp
eoclip
n 8550 4800 m
 11400 5625 l gs col0 s gr gr

% arrowhead
n 11230 5622 m 11387 5621 l 11255 5536 l  col0 s
% Polyline
n 9000 3600 m
 8850 4875 l gs col0 s gr 
% Polyline
n 11250 3000 m
 10950 5475 l gs col0 s gr 
% Polyline
n 9525 5100 m
 9825 2625 l gs col0 s gr 
% Polyline
15.000 slw
n 13500 2625 m
 13500 4425 l gs col0 s gr 
% Polyline
2 slj
gs  clippath
8083 4551 m 8282 4459 l 8244 4377 l 8045 4469 l 8045 4469 l 8235 4432 l 8083 4551 l cp
eoclip
n 4725 3150 m 4726 3152 l 4728 3156 l 4732 3163 l 4738 3175 l 4746 3192 l
 4757 3214 l 4771 3241 l 4788 3273 l 4807 3309 l 4828 3350 l
 4852 3394 l 4876 3440 l 4902 3488 l 4929 3536 l 4957 3585 l
 4984 3634 l 5011 3681 l 5038 3727 l 5065 3772 l 5092 3815 l
 5118 3856 l 5143 3895 l 5168 3932 l 5193 3968 l 5218 4002 l
 5243 4035 l 5267 4066 l 5292 4096 l 5318 4126 l 5344 4154 l
 5370 4182 l 5397 4210 l 5425 4238 l 5451 4262 l 5477 4286 l
 5504 4310 l 5532 4335 l 5561 4359 l 5591 4383 l 5622 4407 l
 5653 4431 l 5686 4455 l 5720 4479 l 5754 4503 l 5790 4527 l
 5826 4550 l 5863 4573 l 5901 4596 l 5940 4618 l 5979 4640 l
 6018 4661 l 6058 4682 l 6099 4702 l 6139 4721 l 6180 4739 l
 6221 4757 l 6262 4773 l 6302 4789 l 6343 4804 l 6383 4818 l
 6423 4830 l 6462 4842 l 6501 4853 l 6540 4862 l 6578 4871 l
 6616 4878 l 6654 4885 l 6691 4890 l 6727 4894 l 6764 4898 l
 6800 4900 l 6836 4901 l 6872 4901 l 6909 4901 l 6945 4898 l
 6982 4895 l 7020 4890 l 7058 4885 l 7097 4877 l 7137 4869 l
 7179 4859 l 7222 4847 l 7266 4834 l 7313 4820 l 7361 4804 l
 7410 4787 l 7462 4768 l 7515 4748 l 7569 4727 l 7625 4704 l
 7681 4681 l 7738 4657 l 7795 4633 l 7851 4609 l 7905 4584 l
 7958 4561 l 8007 4539 l 8053 4518 l 8095 4498 l 8132 4481 l
 8163 4466 l 8190 4454 l 8211 4444 l 8226 4436 l
 8250 4425 l gs col0 s gr gr

% arrowhead
0 slj
7.500 slw
n 8083 4551 m 8235 4432 l 8045 4469 l 8098 4494 l 8083 4551 l 
 cp gs 0.00 setgray ef gr  col0 s
% Polyline
2 slj
15.000 slw
gs  clippath
13047 4043 m 13235 3931 l 13189 3853 l 13001 3965 l 13001 3965 l 13186 3909 l 13047 4043 l cp
eoclip
n 9750 3450 m 9752 3451 l 9755 3453 l 9762 3458 l 9772 3464 l 9787 3474 l
 9807 3487 l 9832 3503 l 9862 3522 l 9898 3545 l 9938 3571 l
 9982 3599 l 10031 3630 l 10082 3663 l 10137 3697 l 10192 3733 l
 10250 3768 l 10307 3804 l 10364 3840 l 10421 3875 l 10477 3910 l
 10532 3943 l 10584 3975 l 10636 4005 l 10685 4034 l 10732 4062 l
 10778 4088 l 10821 4113 l 10863 4136 l 10903 4158 l 10941 4178 l
 10978 4197 l 11014 4215 l 11048 4232 l 11081 4247 l 11114 4262 l
 11146 4276 l 11177 4289 l 11207 4301 l 11238 4313 l 11275 4326 l
 11312 4339 l 11349 4350 l 11386 4361 l 11423 4371 l 11460 4380 l
 11497 4389 l 11534 4396 l 11572 4403 l 11609 4409 l 11647 4414 l
 11684 4418 l 11721 4421 l 11759 4424 l 11796 4425 l 11833 4426 l
 11869 4426 l 11905 4425 l 11940 4424 l 11975 4421 l 12009 4419 l
 12043 4415 l 12075 4411 l 12107 4406 l 12138 4400 l 12169 4394 l
 12198 4388 l 12227 4381 l 12255 4374 l 12283 4366 l 12311 4358 l
 12338 4350 l 12366 4341 l 12394 4331 l 12423 4320 l 12452 4309 l
 12481 4297 l 12511 4284 l 12541 4270 l 12573 4255 l 12606 4239 l
 12640 4221 l 12676 4203 l 12713 4183 l 12752 4162 l 12793 4139 l
 12834 4116 l 12876 4092 l 12918 4067 l 12960 4043 l 13001 4019 l
 13039 3997 l 13075 3975 l 13106 3957 l 13134 3940 l 13156 3927 l
 13173 3916 l
 13200 3900 l gs col0 s gr gr

% arrowhead
0 slj
7.500 slw
n 13047 4043 m 13186 3909 l 13001 3965 l 13056 3985 l 13047 4043 l 
 cp gs 0.00 setgray ef gr  col0 s
/Times-Roman ff 533.33 scf sf
1650 1575 m
gs 1 -1 sc (P) col0 sh gr
/Times-Roman ff 533.33 scf sf
9825 2025 m
gs 1 -1 sc (P') col0 sh gr
/Times-Roman ff 533.33 scf sf
13350 2025 m
gs 1 -1 sc (P'') col0 sh gr
/Times-Roman ff 433.33 scf sf
8175 5175 m
gs 1 -1 sc (min) col0 sh gr
/Times-Roman ff 433.33 scf sf
11100 5475 m
gs 1 -1 sc (max) col0 sh gr
/Times-Roman ff 433.33 scf sf
13575 2550 m
gs 1 -1 sc (max) col0 sh gr
/Times-Roman ff 433.33 scf sf
13575 4800 m
gs 1 -1 sc (min) col0 sh gr
/Times-Roman ff 433.33 scf sf
13725 3225 m
gs 1 -1 sc (x) col0 sh gr
/Times-Roman ff 433.33 scf sf
6075 4275 m
gs 1 -1 sc (max) col0 sh gr
/Bookman-LightItalic ff 466.67 scf sf
7425 4350 m
gs 1 -1 sc (l) col0 sh gr
/Bookman-LightItalic ff 466.67 scf sf
11400 6000 m
gs 1 -1 sc (l') col0 sh gr
% Ellipse
n 1350 5475 30 30 0 360 DrawEllipse gs 0.00 setgray ef gr gs col0 s gr

/Times-Roman ff 433.33 scf sf
600 5475 m
gs 1 -1 sc (min) col0 sh gr
% Ellipse
n 5550 2400 30 30 0 360 DrawEllipse gs 0.00 setgray ef gr gs col0 s gr

% Ellipse
n 4800 3900 30 30 0 360 DrawEllipse gs 0.00 setgray ef gr gs col0 s gr

% Ellipse
n 3525 4725 30 30 0 360 DrawEllipse gs 0.00 setgray ef gr gs col0 s gr

% Ellipse
n 1575 2250 30 30 0 360 DrawEllipse gs 0.00 setgray ef gr gs col0 s gr

% Ellipse
n 3375 1725 30 30 0 360 DrawEllipse gs 0.00 setgray ef gr gs col0 s gr

% Ellipse
n 4050 2775 30 30 0 360 DrawEllipse gs 0.00 setgray ef gr gs col0 s gr

% Ellipse
n 2625 3225 30 30 0 360 DrawEllipse gs 0.00 setgray ef gr gs col0 s gr

% Ellipse
n 3600 3750 30 30 0 360 DrawEllipse gs 0.00 setgray ef gr gs col0 s gr

% here ends figure;
pagefooter
showpage
%%Trailer
end
%EOF
