#FIG 3.2  Produced by xfig version 3.2.5b
Landscape
Center
Inches
Letter  
100.00
Single
-2
1200 2
1 3 0 1 0 -1 50 -1 20 0.000 1 0.0000 1350 5475 30 30 1350 5475 1380 5475
1 3 0 1 0 -1 50 -1 20 0.000 1 0.0000 5550 2400 30 30 5550 2400 5580 2400
1 3 0 1 0 -1 50 -1 20 0.000 1 0.0000 4800 3900 30 30 4800 3900 4830 3900
1 3 0 1 0 -1 50 -1 20 0.000 1 0.0000 3525 4725 30 30 3525 4725 3555 4725
1 3 0 1 0 -1 50 -1 20 0.000 1 0.0000 1575 2250 30 30 1575 2250 1605 2250
1 3 0 1 0 -1 50 -1 20 0.000 1 0.0000 3375 1725 30 30 3375 1725 3405 1725
1 3 0 1 0 -1 50 -1 20 0.000 1 0.0000 4050 2775 30 30 4050 2775 4080 2775
1 3 0 1 0 -1 50 -1 20 0.000 1 0.0000 2625 3225 30 30 2625 3225 2655 3225
1 3 0 1 0 -1 50 -1 20 0.000 1 0.0000 3600 3750 30 30 3600 3750 3630 3750
1 3 0 1 0 -1 50 -1 20 0.000 1 0.0000 1350 4350 30 30 1350 4350 1380 4350
1 3 0 1 0 -1 50 -1 20 0.000 1 0.0000 450 5700 30 30 450 5700 480 5700
1 3 0 1 0 -1 51 -1 20 0.000 1 0.0000 6000 4500 30 30 6000 4500 6030 4500
1 3 0 0 0 0 50 -1 12 0.000 1 0.0000 4125 3450 36 36 4125 3450 4161 3450
1 3 0 0 0 0 50 -1 12 0.000 1 0.0000 2550 2700 36 36 2550 2700 2586 2700
1 3 0 0 0 0 50 -1 12 0.000 1 0.0000 2400 3750 36 36 2400 3750 2436 3750
1 3 0 1 0 -1 52 -1 20 0.000 1 0.0000 750 3225 30 30 750 3225 780 3225
1 3 0 1 0 -1 50 -1 20 0.000 1 0.0000 4500 4800 30 30 4500 4800 4530 4800
1 3 0 1 0 -1 50 -1 20 0.000 1 0.0000 4350 4200 30 30 4350 4200 4380 4200
1 3 0 1 0 -1 50 -1 20 0.000 1 0.0000 4875 2550 30 30 4875 2550 4905 2550
1 3 0 1 0 -1 50 -1 20 0.000 1 0.0000 4125 1950 30 30 4125 1950 4155 1950
1 3 0 1 0 -1 50 -1 20 0.000 1 0.0000 4575 3900 30 30 4575 3900 4605 3900
1 3 0 0 0 0 50 -1 12 0.000 1 0.0000 3525 3150 36 36 3525 3150 3561 3150
1 3 0 0 0 0 50 -1 12 0.000 1 0.0000 3825 4050 36 36 3825 4050 3861 4050
1 3 0 0 0 0 50 -1 12 0.000 1 0.0000 3525 3600 36 36 3525 3600 3561 3600
1 3 0 1 0 -1 50 -1 20 0.000 1 0.0000 11250 3000 30 30 11250 3000 11280 3000
1 3 0 1 0 -1 50 -1 20 0.000 1 0.0000 10050 2400 30 30 10050 2400 10080 2400
1 3 0 1 0 -1 50 -1 20 0.000 1 0.0000 9000 3600 30 30 9000 3600 9030 3600
1 3 0 1 0 -1 50 -1 20 0.000 1 0.0000 10275 4650 30 30 10275 4650 10305 4650
1 3 0 1 0 -1 50 -1 20 0.000 1 0.0000 10875 4350 30 30 10875 4350 10905 4350
1 3 0 1 0 -1 50 -1 20 0.000 1 0.0000 9375 4500 30 30 9375 4500 9405 4500
1 3 0 1 0 -1 50 -1 20 0.000 1 0.0000 9075 4050 30 30 9075 4050 9105 4050
1 3 0 1 0 -1 50 -1 20 0.000 1 0.0000 9600 4500 30 30 9600 4500 9630 4500
1 3 0 1 0 -1 50 -1 20 0.000 1 0.0000 9825 2625 30 30 9825 2625 9855 2625
1 3 0 1 0 -1 50 -1 20 0.000 1 0.0000 8550 4800 30 30 8550 4800 8580 4800
1 3 0 1 0 -1 50 -1 20 0.000 1 0.0000 9525 5100 30 30 9525 5100 9555 5100
1 3 0 1 0 -1 50 -1 20 0.000 1 0.0000 13500 2625 30 30 13500 2625 13530 2625
1 3 0 1 0 -1 50 -1 20 0.000 1 0.0000 13500 4425 30 30 13500 4425 13530 4425
1 3 0 1 0 -1 50 -1 20 0.000 1 0.0000 13500 3150 30 30 13500 3150 13530 3150
1 3 0 1 0 -1 50 -1 20 0.000 1 0.0000 8850 4875 30 30 8850 4875 8880 4875
1 3 0 1 0 -1 50 -1 20 0.000 1 0.0000 10950 5475 30 30 10950 5475 10980 5475
1 3 0 0 0 -1 50 -1 -1 0.000 1 0.0000 150 10800 30 30 150 10800 180 10800
1 3 0 0 0 -1 50 -1 -1 0.000 1 0.0000 14700 750 30 30 14700 750 14730 750
2 1 0 1 0 7 50 -1 -1 3.000 0 0 7 1 0 2
	1 1 1.00 90.00 150.00
	 450 5700 450 1200
2 1 0 1 0 7 50 -1 -1 3.000 0 0 -1 1 0 2
	1 1 1.00 90.00 150.00
	 450 5700 2850 9525
2 1 0 1 0 7 50 -1 -1 3.000 0 0 -1 1 0 2
	0 0 1.00 90.00 150.00
	 450 5700 7275 4200
2 1 0 1 0 7 51 -1 -1 0.000 0 0 -1 0 0 2
	 5550 2400 6000 4500
2 1 0 1 0 7 54 -1 -1 0.000 0 0 -1 1 0 2
	1 1 1.00 90.00 150.00
	 450 5700 6300 5700
2 3 0 2 0 7 50 -1 -1 4.500 0 0 7 0 0 8
	 1575 2250 750 3225 1350 4350 3525 4725 4800 3900 5550 2400
	 3375 1725 1575 2250
2 1 0 2 0 7 50 -1 -1 4.500 0 0 7 0 0 3
	 1575 2250 2625 3225 1350 4350
2 1 0 2 0 7 50 -1 -1 4.500 0 0 7 0 0 3
	 2625 3225 4050 2775 3375 1725
2 1 0 2 0 7 50 -1 -1 4.500 0 0 7 0 0 2
	 4050 2775 5550 2400
2 1 0 2 0 7 50 -1 -1 4.500 0 0 7 0 0 3
	 2625 3225 3600 3750 4050 2775
2 1 0 2 0 7 50 -1 -1 4.500 0 0 7 0 0 2
	 3600 3750 4800 3900
2 1 0 2 0 7 50 -1 -1 4.500 0 0 7 0 0 2
	 3600 3750 3525 4725
2 1 2 2 0 7 50 -1 -1 4.500 0 0 7 0 0 3
	 2550 2700 4125 3450 5550 2400
2 1 2 2 0 7 50 -1 -1 4.500 0 0 7 0 0 3
	 3375 1725 2550 2700 825 3225
2 1 2 2 0 7 50 -1 -1 4.500 0 0 7 0 0 3
	 2550 2700 2400 3750 4125 3450
2 1 2 2 0 7 50 -1 -1 4.500 0 0 7 0 0 2
	 2400 3750 3525 4725
2 1 2 2 0 7 50 -1 -1 4.500 0 0 7 0 0 2
	 2400 3750 1350 4350
2 1 2 2 0 7 50 -1 -1 4.500 0 0 7 0 0 2
	 4125 3450 3525 4725
2 1 0 1 0 7 50 -1 -1 3.000 0 0 -1 0 0 2
	 4500 4800 4350 4200
2 1 0 1 0 7 50 -1 -1 3.000 0 0 -1 0 0 4
	 4350 4200 4575 3900 4875 2550 4125 1950
2 3 2 1 0 7 53 -1 41 3.000 0 0 -1 0 0 8
	 4350 4200 4575 3900 4875 2550 4125 1950 3525 3150 3525 3600
	 3825 4050 4350 4200
2 1 0 1 0 7 51 -1 -1 0.000 0 0 -1 0 0 2
	 750 3225 1350 5475
2 1 0 1 0 7 50 -1 -1 3.000 0 0 -1 1 0 2
	1 1 1.00 90.00 150.00
	 8550 4800 8550 1650
2 1 0 1 0 7 50 -1 -1 3.000 0 0 -1 1 0 2
	1 1 1.00 90.00 150.00
	 8550 4800 12600 4800
2 1 0 1 0 7 50 -1 -1 3.000 0 0 -1 1 0 2
	0 0 1.00 90.00 150.00
	 8550 4800 11400 5625
2 1 0 1 0 7 50 -1 -1 3.000 0 0 -1 0 0 2
	 9000 3600 8850 4875
2 1 0 1 0 7 50 -1 -1 3.000 0 0 -1 0 0 2
	 11250 3000 10950 5475
2 1 0 1 0 7 50 -1 -1 3.000 0 0 -1 0 0 2
	 9525 5100 9825 2625
2 3 0 2 0 7 53 -1 41 0.000 0 0 -1 0 0 8
	 10245 4635 10875 4350 11250 3000 10020 2385 9000 3600 9075 4050
	 9375 4500 10245 4635
2 1 0 2 0 7 50 -1 -1 4.500 0 0 -1 0 0 2
	 13500 2625 13500 4425
3 0 0 1 0 7 52 -1 43 0.000 0 0 0 8
	 1350 5475 2400 5475 3150 5775 4125 6150 5025 6075 5250 5550
	 5625 4800 6000 4500
	 0.000 1.000 1.000 1.000 1.000 1.000 1.000 0.000
3 0 0 1 0 7 54 -1 43 0.000 0 0 0 5
	 8850 4875 8925 5325 9375 6375 10575 5850 10950 5475
	 0.000 1.000 1.000 1.000 0.000
3 0 0 2 0 7 50 -1 -1 0.000 0 1 0 4
	2 1 1.00 90.00 150.00
	 4725 3150 5250 4275 6825 5175 8250 4425
	 0.000 1.000 1.000 0.000
3 0 0 2 0 7 50 -1 -1 4.500 0 1 0 4
	2 1 1.00 90.00 150.00
	 9750 3450 11325 4500 12375 4425 13200 3900
	 0.000 1.000 1.000 0.000
4 0 0 50 -1 0 32 0.0000 4 375 285 1650 1575 P\001
4 0 0 50 -1 0 32 0.0000 4 375 375 9825 2025 P'\001
4 0 0 50 -1 0 32 0.0000 4 375 465 13350 2025 P''\001
4 0 0 50 -1 0 26 0.0000 4 300 630 8175 5175 min\001
4 0 0 50 -1 0 26 0.0000 4 210 750 11100 5475 max\001
4 0 0 50 -1 0 26 0.0000 4 210 750 13575 2550 max\001
4 0 0 50 -1 0 26 0.0000 4 300 630 13575 4800 min\001
4 0 0 50 -1 0 26 0.0000 4 210 210 13725 3225 x\001
4 0 0 50 -1 0 26 0.0000 4 210 750 6075 4275 max\001
4 0 0 50 -1 9 28 0.0000 4 315 105 7425 4350 l\001
4 0 0 50 -1 9 28 0.0000 4 315 195 11400 6000 l'\001
4 0 0 50 -1 0 26 0.0000 4 300 630 600 5475 min\001
