0 114565 11754859 183947 0 812704 3390454 10220842 248498220 219209 0 403981 0 1219031 211981 54718 
6 0 11964028 89336 1 691333 3323512 10409154 248498212 258201 0 364997 1 1415974 69754 0 
334308 51 11526853 192158 153732 1382293 3754500 9133475 247547938 74979 0 1498493 462242 908185 75941 39361 
53818 3 11742332 257217 1759765 914068 3545241 8204926 246255532 476050 0 2389828 429105 975387 69721 11516 
34359 4 11828468 190539 1031052 587762 3317360 9487826 247343507 631836 559 1145508 89302 1145906 210907 39614 
389383 122487 11446708 94792 0 822942 3556904 10044154 248108837 377541 0 635032 0 1042538 353682 89509 
1 5715 11937727 109927 192 645265 3366758 10411785 248045009 737808 0 338593 453018 976720 52809 3182 
0 1184018 10730762 138590 9994 258322 3430787 10724897 248488225 180139 453046 0 1 743029 742699 0 
205899 1 11816707 30763 46463 1208945 3283894 9884698 248149545 126451 0 845414 96313 1030111 256693 102612 
77828 1 11975541 0 0 917974 3340062 10165964 248420391 3481 15 697523 1 1444052 41676 0 
