13 0 0 0 0 0 9 6 25 11 1 0 0 0 9 0
13 0 0 0 0 9 0 6 25 2 10 0 0 0 9 0
13 0 0 0 0 0 9 6 25 2 10 0 0 9 0 0
13 0 0 0 0 9 0 6 25 0 12 0 0 2 7 0
13 0 0 0 0 2 7 6 25 0 12 0 0 9 0 0
13 0 0 0 0 9 0 6 18 0 19 0 7 2 0 0
13 0 0 0 7 2 0 6 18 0 19 0 0 9 0 0
13 0 0 0 0 0 9 6 16 11 10 0 9 0 0 0
13 0 0 0 0 9 0 6 16 2 19 0 9 0 0 0
13 0 0 0 0 0 10 5 25 11 0 1 0 0 9 0
13 0 0 0 0 0 15 0 25 6 0 6 0 5 4 0
13 0 0 0 0 0 15 0 20 11 0 6 5 0 4 0
13 0 0 0 0 0 15 0 25 11 0 1 0 0 4 5
13 0 0 0 0 5 10 0 25 6 0 6 0 0 9 0
13 0 0 0 5 0 10 0 20 11 0 6 0 0 9 0
13 0 0 0 0 0 15 0 25 2 4 6 0 9 0 0
13 0 0 0 0 0 15 0 16 11 4 6 9 0 0 0
13 0 0 0 0 0 15 0 25 11 1 0 0 0 3 6
13 0 0 0 0 0 15 0 25 8 4 0 0 3 0 6
13 0 0 0 0 0 15 0 22 11 4 0 3 0 0 6
13 0 0 0 0 11 0 4 25 0 10 2 0 0 9 0
13 0 0 0 0 11 4 0 25 0 6 6 0 0 9 0
13 0 0 0 4 11 0 0 21 0 10 6 0 0 9 0
13 0 0 0 0 2 13 0 25 0 6 6 0 9 0 0
13 0 0 0 13 2 0 0 12 0 19 6 0 9 0 0
13 0 0 0 0 11 0 4 16 0 19 2 9 0 0 0
13 0 0 0 0 11 4 0 16 0 15 6 9 0 0 0
13 0 0 0 4 11 0 0 12 0 19 6 9 0 0 0
13 0 0 0 0 11 0 4 25 0 12 0 0 0 7 2
13 0 0 0 0 11 4 0 25 0 12 0 0 0 3 6
13 0 0 0 4 11 0 0 21 0 16 0 0 0 3 6
13 0 0 0 0 8 7 0 25 0 12 0 0 3 0 6
13 0 0 0 7 8 0 0 18 0 19 0 0 3 0 6
13 0 0 0 0 11 0 4 18 0 19 0 7 0 0 2
13 0 0 0 0 11 4 0 22 0 15 0 3 0 0 6
13 0 0 0 4 11 0 0 18 0 19 0 3 0 0 6
13 0 0 0 9 0 0 6 7 11 19 0 9 0 0 0
13 0 0 0 9 0 0 6 16 2 19 0 0 9 0 0
13 0 0 0 9 0 0 6 16 11 10 0 0 0 9 0
13 0 0 0 15 0 0 0 10 11 10 6 0 0 9 0
13 0 0 0 15 0 0 0 10 2 19 6 0 9 0 0
13 0 0 0 15 0 0 0 1 11 19 6 9 0 0 0
13 0 0 0 15 0 0 0 10 11 16 0 0 0 3 6
13 0 0 0 15 0 0 0 10 8 19 0 0 3 0 6
13 0 0 0 15 0 0 0 7 11 19 0 3 0 0 6
12 0 0 1 0 0 15 0 26 11 0 0 0 0 4 5
12 0 0 1 0 0 10 5 26 11 0 0 0 0 9 0
7 0 0 6 0 0 15 0 31 6 0 0 0 5 4 0
7 0 0 6 0 0 15 0 26 11 0 0 5 0 4 0
7 0 0 6 0 5 10 0 31 6 0 0 0 0 9 0
7 0 0 6 0 0 15 0 31 2 4 0 0 9 0 0
7 0 0 6 0 0 15 0 22 11 4 0 9 0 0 0
11 0 0 2 0 11 0 4 27 0 10 0 0 0 9 0
7 0 0 6 0 11 4 0 31 0 6 0 0 0 9 0
7 0 0 6 4 11 0 0 27 0 10 0 0 0 9 0
7 0 0 6 0 2 13 0 31 0 6 0 0 9 0 0
7 0 0 6 13 2 0 0 18 0 19 0 0 9 0 0
11 0 0 2 0 11 0 4 18 0 19 0 9 0 0 0
7 0 0 6 0 11 4 0 22 0 15 0 9 0 0 0
7 0 0 6 4 11 0 0 18 0 19 0 9 0 0 0
7 0 0 6 5 0 10 0 26 11 0 0 0 0 9 0
7 0 0 6 15 0 0 0 16 11 10 0 0 0 9 0
7 0 0 6 15 0 0 0 16 2 19 0 0 9 0 0
7 0 0 6 15 0 0 0 7 11 19 0 9 0 0 0
1 0 6 6 0 11 4 0 37 0 0 0 0 0 9 0
7 0 6 0 0 11 4 0 31 0 0 6 0 0 9 0
3 0 10 0 0 9 0 6 35 2 0 0 0 0 9 0
12 0 1 0 0 0 9 6 26 11 0 0 0 0 9 0
3 0 10 0 0 0 9 6 35 2 0 0 0 9 0 0
3 0 10 0 0 0 9 6 26 11 0 0 9 0 0 0
9 0 4 0 0 0 15 0 29 2 0 6 0 9 0 0
9 0 4 0 0 0 15 0 20 11 0 6 9 0 0 0
9 0 4 0 0 0 15 0 29 8 0 0 0 3 0 6
9 0 4 0 0 0 15 0 26 11 0 0 3 0 0 6
12 0 1 0 0 0 15 0 26 11 0 0 0 0 3 6
3 0 10 0 0 11 0 4 35 0 0 2 0 0 9 0
3 0 10 0 4 11 0 0 31 0 0 6 0 0 9 0
7 0 6 0 0 2 13 0 31 0 0 6 0 9 0 0
1 0 12 0 0 9 0 6 37 0 0 0 0 2 7 0
1 0 12 0 0 2 7 6 37 0 0 0 0 9 0 0
1 0 12 0 0 11 0 4 37 0 0 0 0 0 7 2
1 0 12 0 0 11 4 0 37 0 0 0 0 0 3 6
1 0 12 0 0 8 7 0 37 0 0 0 0 3 0 6
3 0 10 0 9 0 0 6 26 11 0 0 0 0 9 0
3 0 10 0 15 0 0 0 20 11 0 6 0 0 9 0
1 0 10 2 0 11 0 4 37 0 0 0 0 0 9 0
3 0 4 6 0 0 15 0 35 2 0 0 0 9 0 0
3 0 4 6 0 0 15 0 26 11 0 0 9 0 0 0
1 0 6 6 0 2 13 0 37 0 0 0 0 9 0 0
7 2 4 0 0 0 15 0 31 0 0 6 0 9 0 0
1 2 10 0 0 9 0 6 37 0 0 0 0 0 9 0
1 11 1 0 0 0 9 6 37 0 0 0 0 0 9 0
1 2 10 0 0 0 9 6 37 0 0 0 0 9 0 0
1 8 4 0 0 0 15 0 37 0 0 0 0 3 0 6
1 11 1 0 0 0 15 0 37 0 0 0 0 0 3 6
1 2 4 6 0 0 15 0 37 0 0 0 0 9 0 0
5 2 0 6 15 0 0 0 18 0 19 0 0 9 0 0
1 6 0 6 0 5 10 0 37 0 0 0 0 0 9 0
1 6 0 6 0 0 15 0 37 0 0 0 0 5 4 0
5 2 0 6 0 0 15 0 33 0 4 0 0 9 0 0
1 11 0 1 0 0 10 5 37 0 0 0 0 0 9 0
1 11 0 1 0 0 15 0 37 0 0 0 0 0 4 5
2 11 0 0 15 0 0 0 18 0 19 0 3 0 0 6
5 8 0 0 15 0 0 0 18 0 19 0 0 3 0 6
2 11 0 0 15 0 0 0 21 0 16 0 0 0 3 6
2 11 0 0 15 0 0 0 12 0 19 6 9 0 0 0
11 2 0 0 15 0 0 0 12 0 19 6 0 9 0 0
2 11 0 0 15 0 0 0 21 0 10 6 0 0 9 0
2 11 0 0 9 0 0 6 27 0 10 0 0 0 9 0
11 2 0 0 9 0 0 6 18 0 19 0 0 9 0 0
2 11 0 0 9 0 0 6 18 0 19 0 9 0 0 0
2 11 0 0 0 0 15 0 33 0 4 0 3 0 0 6
5 8 0 0 0 0 15 0 33 0 4 0 0 3 0 6
2 11 0 0 0 0 15 0 36 0 1 0 0 0 3 6
2 11 0 0 0 0 15 0 27 0 4 6 9 0 0 0
11 2 0 0 0 0 15 0 27 0 4 6 0 9 0 0
7 6 0 0 0 5 10 0 31 0 0 6 0 0 9 0
2 11 0 0 5 0 10 0 31 0 0 6 0 0 9 0
2 11 0 0 0 0 15 0 31 0 0 6 5 0 4 0
2 11 0 0 0 0 15 0 36 0 0 1 0 0 4 5
2 11 0 0 0 0 10 5 36 0 0 1 0 0 9 0
7 6 0 0 0 0 15 0 31 0 0 6 0 5 4 0
11 2 0 0 0 9 0 6 18 0 19 0 9 0 0 0
2 11 0 0 0 0 9 6 27 0 10 0 9 0 0 0
11 2 0 0 0 0 9 6 27 0 10 0 0 9 0 0
11 2 0 0 0 9 0 6 27 0 10 0 0 0 9 0
2 11 0 0 0 0 9 6 36 0 1 0 0 0 9 0
0 2 5 6 1 0 14 0 37 0 0 0 0 9 0 0
0 3 4 6 0 0 15 0 37 0 0 0 1 8 0 0
0 8 5 0 1 0 14 0 37 0 0 0 0 3 0 6
0 11 2 0 1 0 14 0 37 0 0 0 0 0 3 6
0 2 11 0 7 0 8 0 31 0 0 6 0 9 0 0
0 11 2 0 1 0 8 6 37 0 0 0 0 0 9 0
0 3 10 0 1 8 0 6 37 0 0 0 0 0 9 0
0 2 11 0 1 0 8 6 37 0 0 0 0 9 0 0
0 11 2 0 0 0 15 0 37 0 0 0 1 0 2 6
0 9 4 0 0 0 15 0 37 0 0 0 1 2 0 6
0 2 11 0 0 9 0 6 37 0 0 0 1 0 8 0
0 3 10 0 0 0 9 6 37 0 0 0 1 8 0 0
0 11 2 0 0 0 9 6 37 0 0 0 1 0 8 0
0 9 4 0 0 0 15 0 31 0 0 6 7 2 0 0
0 11 2 0 0 0 9 6 29 0 8 0 9 0 0 0
0 2 11 0 0 9 0 6 29 0 8 0 9 0 0 0
0 11 2 0 0 0 15 0 31 0 0 6 7 0 2 0
0 11 2 0 7 0 8 0 31 0 0 6 0 0 9 0
0 11 2 0 0 0 15 0 29 0 2 6 9 0 0 0
0 11 2 0 0 0 15 0 35 0 2 0 3 0 0 6
0 11 2 0 9 0 0 6 20 0 17 0 9 0 0 0
0 2 11 0 9 0 0 6 29 0 8 0 0 9 0 0
0 11 2 0 9 0 0 6 29 0 8 0 0 0 9 0
0 11 2 0 15 0 0 0 23 0 8 6 0 0 9 0
0 2 11 0 15 0 0 0 23 0 8 6 0 9 0 0
0 11 2 0 15 0 0 0 14 0 17 6 9 0 0 0
0 11 2 0 15 0 0 0 23 0 14 0 0 0 3 6
0 8 5 0 15 0 0 0 23 0 14 0 0 3 0 6
0 11 2 0 15 0 0 0 20 0 17 0 3 0 0 6
0 2 5 6 15 0 0 0 23 0 14 0 0 9 0 0
0 7 0 6 15 0 0 0 23 0 14 0 0 4 5 0
0 11 0 2 15 0 0 0 23 0 14 0 0 0 5 4
0 11 0 2 15 0 0 0 23 0 10 4 0 0 9 0
0 11 0 2 11 0 0 4 27 0 10 0 0 0 9 0
0 7 0 6 15 0 0 0 18 0 19 0 5 4 0 0
0 11 0 2 15 0 0 0 18 0 19 0 5 0 0 4
0 11 0 2 15 0 0 0 14 0 19 4 9 0 0 0
0 11 0 2 11 0 0 4 18 0 19 0 9 0 0 0
0 7 0 6 1 4 10 0 37 0 0 0 0 0 9 0
0 7 0 6 1 0 14 0 37 0 0 0 0 4 5 0
0 11 0 2 1 0 10 4 37 0 0 0 0 0 9 0
0 11 0 2 1 0 14 0 37 0 0 0 0 0 5 4
0 11 0 2 5 0 10 0 33 0 0 4 0 0 9 0
0 7 0 6 0 4 11 0 37 0 0 0 1 0 8 0
0 7 0 6 0 0 15 0 37 0 0 0 1 4 4 0
0 11 0 2 0 0 11 4 37 0 0 0 1 0 8 0
0 11 0 2 0 0 15 0 37 0 0 0 1 0 4 4
0 11 0 2 0 0 15 0 33 0 0 4 5 0 4 0
0 7 0 6 0 0 15 0 33 0 4 0 5 4 0 0
0 11 0 2 0 0 15 0 33 0 4 0 5 0 0 4
0 11 0 2 0 0 15 0 29 0 4 4 9 0 0 0
0 11 0 2 0 0 11 4 29 0 8 0 9 0 0 0
0 7 0 6 0 0 15 0 33 4 0 0 5 0 4 0
0 7 0 6 0 0 15 0 29 4 4 0 9 0 0 0
0 7 0 6 11 4 0 0 27 0 10 0 0 0 9 0
0 7 0 6 0 4 11 0 29 0 8 0 9 0 0 0
0 7 0 6 11 4 0 0 18 0 19 0 9 0 0 0
0 7 0 6 5 0 10 0 33 4 0 0 0 0 9 0
0 7 0 6 15 0 0 0 23 4 10 0 0 0 9 0
0 7 0 6 15 0 0 0 14 4 19 0 9 0 0 0
0 3 10 0 0 0 9 6 29 8 0 0 9 0 0 0
0 9 4 0 0 0 15 0 29 2 0 6 9 0 0 0
0 9 4 0 0 0 15 0 35 2 0 0 3 0 0 6
0 3 10 0 7 8 0 0 31 0 0 6 0 0 9 0
0 3 10 0 9 0 0 6 29 8 0 0 0 0 9 0
0 3 10 0 15 0 0 0 23 8 0 6 0 0 9 0
0 3 4 6 0 0 15 0 29 8 0 0 9 0 0 0
0 0 10 3 15 0 0 0 23 11 0 3 0 0 9 0
0 0 10 3 12 0 0 3 26 11 0 0 0 0 9 0
0 0 7 6 15 0 0 0 23 11 3 0 0 0 9 0
0 0 7 6 12 0 3 0 26 11 0 0 0 0 9 0
0 0 7 6 3 0 12 0 35 2 0 0 0 9 0 0
0 0 7 6 15 0 0 0 23 2 12 0 0 9 0 0
0 0 7 6 3 0 12 0 26 11 0 0 9 0 0 0
0 0 7 6 15 0 0 0 14 11 12 0 9 0 0 0
0 0 10 3 1 11 0 3 37 0 0 0 0 0 9 0
0 0 10 3 4 11 0 0 34 0 0 3 0 0 9 0
0 0 7 6 1 11 3 0 37 0 0 0 0 0 9 0
0 0 7 6 4 11 0 0 34 0 3 0 0 0 9 0
0 0 7 6 1 2 12 0 37 0 0 0 0 9 0 0
0 0 7 6 13 2 0 0 25 0 12 0 0 9 0 0
0 0 7 6 4 11 0 0 25 0 12 0 9 0 0 0
0 0 7 6 0 3 12 0 37 0 0 0 1 8 0 0
0 0 7 6 0 3 12 0 29 8 0 0 9 0 0 0
0 0 7 6 0 11 4 0 37 0 0 0 1 0 8 0
0 0 7 6 0 11 4 0 29 0 8 0 9 0 0 0
0 0 11 2 0 11 0 4 37 0 0 0 1 0 8 0
0 0 11 2 0 11 0 4 29 0 8 0 9 0 0 0
0 0 13 0 9 0 6 0 26 11 0 0 3 0 0 6
0 0 13 0 15 0 0 0 20 11 6 0 3 0 0 6
0 0 13 0 9 0 6 0 29 8 0 0 0 3 0 6
0 0 13 0 15 0 0 0 23 8 6 0 0 3 0 6
0 0 13 0 15 0 0 0 23 11 0 3 0 0 6 3
0 0 13 0 12 0 0 3 26 11 0 0 0 0 6 3
0 0 13 0 12 0 3 0 26 11 0 0 0 0 3 6
0 0 13 0 15 0 0 0 23 11 3 0 0 0 3 6
0 0 13 0 15 0 0 0 20 11 0 6 3 0 6 0
0 0 13 0 9 0 6 0 20 11 0 6 9 0 0 0
0 0 13 0 15 0 0 0 14 11 6 6 9 0 0 0
0 0 13 0 15 0 0 0 23 8 0 6 0 3 6 0
0 0 13 0 9 0 6 0 29 2 0 6 0 9 0 0
0 0 13 0 15 0 0 0 23 2 6 6 0 9 0 0
0 0 13 0 9 0 0 6 29 8 0 0 0 3 6 0
0 0 13 0 3 0 6 6 35 2 0 0 0 9 0 0
0 0 13 0 9 0 0 6 29 2 6 0 0 9 0 0
0 0 13 0 9 0 0 6 26 11 0 0 3 0 6 0
0 0 13 0 3 0 6 6 26 11 0 0 9 0 0 0
0 0 13 0 9 0 0 6 20 11 6 0 9 0 0 0
0 0 13 0 4 11 0 0 31 0 6 0 3 0 0 6
0 0 13 0 0 9 6 0 37 0 0 0 1 2 0 6
0 0 13 0 0 11 4 0 37 0 0 0 1 0 2 6
0 0 13 0 0 9 6 0 35 2 0 0 3 0 0 6
0 0 13 0 0 11 4 0 35 0 2 0 3 0 0 6
0 0 13 0 0 11 0 4 37 0 0 0 1 0 6 2
0 0 13 0 0 11 0 4 31 0 6 0 7 0 0 2
0 0 13 0 1 8 6 0 37 0 0 0 0 3 0 6
0 0 13 0 7 8 0 0 31 0 6 0 0 3 0 6
0 0 13 0 1 11 3 0 37 0 0 0 0 0 3 6
0 0 13 0 1 11 0 3 37 0 0 0 0 0 6 3
0 0 13 0 4 11 0 0 34 0 0 3 0 0 6 3
0 0 13 0 4 11 0 0 34 0 3 0 0 0 3 6
0 0 13 0 1 2 6 6 37 0 0 0 0 9 0 0
0 0 13 0 1 8 0 6 37 0 0 0 0 3 6 0
0 0 13 0 7 2 0 6 31 0 6 0 0 9 0 0
0 0 13 0 0 3 6 6 37 0 0 0 1 8 0 0
0 0 13 0 0 9 0 6 37 0 0 0 1 2 6 0
0 0 13 0 0 9 0 6 31 0 6 0 7 2 0 0
0 0 13 0 4 11 0 0 31 0 0 6 3 0 6 0
0 0 13 0 4 11 0 0 25 0 6 6 9 0 0 0
0 0 13 0 0 11 0 4 35 0 0 2 3 0 6 0
0 0 13 0 0 11 0 4 29 0 6 2 9 0 0 0
0 0 13 0 0 9 6 0 31 0 0 6 7 2 0 0
0 0 13 0 0 9 6 0 29 2 0 6 9 0 0 0
0 0 13 0 0 11 4 0 31 0 0 6 7 0 2 0
0 0 13 0 0 11 4 0 29 0 2 6 9 0 0 0
0 0 13 0 7 2 6 0 31 0 0 6 0 9 0 0
0 0 13 0 7 8 0 0 31 0 0 6 0 3 6 0
0 0 13 0 13 2 0 0 25 0 6 6 0 9 0 0
0 0 13 0 0 3 6 6 29 8 0 0 9 0 0 0
0 0 13 0 0 9 0 6 35 2 0 0 3 0 6 0
0 0 13 0 0 9 0 6 29 2 6 0 9 0 0 0
