11 0 10 0 27 0 0 0 9
11 0 5 10 32 0 0 0 9
11 0 15 0 22 0 0 0 9
11 0 15 0 13 0 9 0 0
11 0 15 0 22 0 0 0 4
11 0 15 0 18 0 4 0 0
11 0 10 0 18 0 9 0 0
11 0 0 15 28 0 9 0 0
11 0 0 15 32 0 5 0 4
11 0 0 10 28 0 9 0 0
11 0 0 15 33 0 4 0 0
11 0 0 15 37 0 0 0 4
11 0 0 10 37 0 0 0 9
6 0 0 15 37 0 0 5 4
6 0 0 15 32 5 5 0 4
6 0 0 10 37 0 0 0 9
6 0 0 15 33 0 4 5 0
6 0 0 15 28 5 9 0 0
6 0 0 10 28 0 9 0 0
6 0 10 0 18 0 9 0 0
6 0 15 0 18 0 4 5 0
6 0 15 0 13 5 9 0 0
6 0 15 0 22 0 0 5 4
6 0 15 0 22 5 0 0 9
6 0 5 10 32 5 0 0 9
6 0 10 0 27 0 0 0 9
2 4 0 15 37 0 0 9 0
2 4 0 15 28 9 9 0 0
2 4 15 0 22 0 0 9 0
2 10 6 0 31 0 0 0 9
2 10 9 0 28 0 0 9 0
11 1 9 0 28 0 0 0 9
2 10 9 0 28 9 0 0 9
11 1 6 9 31 0 0 0 9
11 1 15 0 22 0 0 0 9
2 10 15 0 22 9 0 0 9
2 10 6 9 31 0 0 9 0
2 10 15 0 22 0 0 9 0
11 1 15 0 13 0 9 0 0
11 1 15 0 22 0 0 0 3
11 1 15 0 19 0 3 0 0
8 4 15 0 22 0 0 3 0
11 1 9 0 19 0 9 0 0
11 1 0 15 28 0 9 0 0
11 1 0 15 31 0 6 0 3
8 4 0 15 28 3 9 0 0
8 4 0 15 31 0 6 3 0
11 1 0 9 28 0 9 0 0
2 10 0 0 28 0 9 0 0
2 10 0 9 28 9 9 0 0
11 1 0 15 34 0 3 0 0
11 1 0 15 37 0 0 0 3
8 4 0 15 34 3 3 0 0
8 4 0 15 37 0 0 3 0
2 10 0 9 37 0 0 9 0
11 1 0 9 37 0 0 0 9
2 10 0 0 37 0 0 0 9
0 6 13 0 24 0 0 9 0
0 6 2 13 35 2 0 9 0
0 6 15 0 22 2 0 9 0
0 6 2 13 26 11 9 0 0
0 6 0 13 28 9 9 0 0
0 6 0 13 37 0 0 9 0
0 10 0 0 37 0 0 0 9
0 10 0 0 28 0 9 0 0
0 10 15 0 22 11 0 0 9
0 10 11 0 26 11 0 0 9
0 10 4 0 33 0 0 0 9
0 12 6 0 31 0 0 2 7
0 12 6 7 31 0 0 9 0
0 12 13 0 24 0 0 9 0
0 12 9 0 28 2 0 9 0
0 12 9 0 28 9 0 2 7
0 12 2 7 35 2 0 9 0
0 12 15 0 22 9 0 2 7
0 12 8 7 29 2 0 9 0
0 12 15 0 22 2 0 9 0
0 12 15 0 20 11 2 0 7
0 12 15 0 13 11 9 0 0
0 12 8 7 20 11 9 0 0
0 12 11 0 26 11 0 0 7
0 12 15 0 22 11 0 0 7
0 12 15 0 22 11 0 0 3
0 12 11 4 26 11 0 0 3
0 12 15 0 22 8 0 3 0
0 12 8 7 29 8 0 3 0
0 12 15 0 19 11 3 0 0
0 12 8 7 26 11 3 0 0
0 12 9 0 26 11 2 0 7
0 12 9 0 19 11 9 0 0
0 12 2 7 26 11 9 0 0
0 12 0 7 28 3 9 0 0
0 12 4 0 24 0 9 0 0
0 12 0 4 28 0 9 0 0
0 12 0 0 28 0 9 0 0
0 12 0 7 31 0 6 3 0
0 12 4 0 31 0 2 0 7
0 12 0 4 31 0 6 0 3
0 12 0 0 35 0 2 0 7
0 12 0 0 28 2 9 0 0
0 12 0 7 28 9 9 0 0
0 12 0 0 35 2 2 0 7
0 12 0 7 34 3 3 0 0
0 12 4 0 30 0 3 0 0
0 12 0 0 30 0 7 0 0
0 12 0 4 34 0 3 0 0
0 12 7 0 30 0 0 3 0
0 12 0 7 37 0 0 3 0
0 12 4 0 33 0 0 0 7
0 12 4 0 33 0 0 0 3
0 12 0 4 37 0 0 0 3
0 12 0 0 37 0 0 0 7
0 12 7 0 30 0 0 9 0
0 12 0 0 30 0 7 2 0
0 12 0 7 37 0 0 9 0
0 12 0 0 37 0 0 2 7
0 6 0 4 37 0 0 0 9
0 6 0 4 28 0 9 0 0
0 6 4 0 24 0 9 0 0
0 6 15 0 13 11 9 0 0
0 6 15 0 22 11 0 0 9
0 6 11 4 26 11 0 0 9
0 6 4 0 33 0 0 0 9

