0 0 0 9 25 11 0 0 9
0 0 0 0 25 2 0 0 9
0 0 0 9 25 2 0 9 0
0 0 0 0 25 0 0 2 7
0 0 0 7 25 0 0 9 0
0 0 0 0 18 0 7 2 0
0 0 7 0 18 0 0 9 0
0 0 0 9 16 11 9 0 0
0 0 0 0 16 2 9 0 0
0 0 0 10 25 11 0 0 9
0 0 0 15 25 6 0 5 4
0 0 0 15 20 11 5 0 4
0 0 0 15 25 11 0 0 4
0 0 0 10 25 6 0 0 9
0 0 5 10 20 11 0 0 9
0 0 0 15 25 2 0 9 0
0 0 0 15 16 11 9 0 0
0 0 0 15 25 11 0 0 3
0 0 0 15 25 8 0 3 0
0 0 0 15 22 11 3 0 0
0 0 0 0 25 0 0 0 9
0 0 0 4 25 0 0 0 9
0 0 4 0 21 0 0 0 9
0 0 0 13 25 0 0 9 0
0 0 13 0 12 0 0 9 0
0 0 0 0 16 0 9 0 0
0 0 0 4 16 0 9 0 0
0 0 4 0 12 0 9 0 0
0 0 0 0 25 0 0 0 7
0 0 0 4 25 0 0 0 3
0 0 4 0 21 0 0 0 3
0 0 0 7 25 0 0 3 0
0 0 7 0 18 0 0 3 0
0 0 0 0 18 0 7 0 0
0 0 0 4 22 0 3 0 0
0 0 4 0 18 0 3 0 0
0 0 9 0 7 11 9 0 0
0 0 9 0 16 2 0 9 0
0 0 9 0 16 11 0 0 9
0 0 15 0 10 11 0 0 9
0 0 15 0 10 2 0 9 0
0 0 15 0 1 11 9 0 0
0 0 15 0 10 11 0 0 3
0 0 15 0 10 8 0 3 0
0 0 15 0 7 11 3 0 0
0 0 0 15 26 11 0 0 4
0 0 0 10 26 11 0 0 9
0 0 0 15 31 6 0 5 4
0 0 0 15 26 11 5 0 4
0 0 0 10 31 6 0 0 9
0 0 0 15 31 2 0 9 0
0 0 0 15 22 11 9 0 0
0 0 0 0 27 0 0 0 9
0 0 0 4 31 0 0 0 9
0 0 4 0 27 0 0 0 9
0 0 0 13 31 0 0 9 0
0 0 13 0 18 0 0 9 0
0 0 0 0 18 0 9 0 0
0 0 0 4 22 0 9 0 0
0 0 4 0 18 0 9 0 0
0 0 5 10 26 11 0 0 9
0 0 15 0 16 11 0 0 9
0 0 15 0 16 2 0 9 0
0 0 15 0 7 11 9 0 0
0 6 0 4 37 0 0 0 9
0 6 0 4 31 0 0 0 9
0 10 0 0 35 2 0 0 9
0 1 0 9 26 11 0 0 9
0 10 0 9 35 2 0 9 0
0 10 0 9 26 11 9 0 0
0 4 0 15 29 2 0 9 0
0 4 0 15 20 11 9 0 0
0 4 0 15 29 8 0 3 0
0 4 0 15 26 11 3 0 0
0 1 0 15 26 11 0 0 3
0 10 0 0 35 0 0 0 9
0 10 4 0 31 0 0 0 9
0 6 0 13 31 0 0 9 0
0 12 0 0 37 0 0 2 7
0 12 0 7 37 0 0 9 0
0 12 0 0 37 0 0 0 7
0 12 0 4 37 0 0 0 3
0 12 0 7 37 0 0 3 0
0 10 9 0 26 11 0 0 9
0 10 15 0 20 11 0 0 9
0 10 0 0 37 0 0 0 9
0 4 0 15 35 2 0 9 0
0 4 0 15 26 11 9 0 0
0 6 0 13 37 0 0 9 0
2 4 0 15 31 0 0 9 0
2 10 0 0 37 0 0 0 9
11 1 0 9 37 0 0 0 9
2 10 0 9 37 0 0 9 0
8 4 0 15 37 0 0 3 0
11 1 0 15 37 0 0 0 3
2 4 0 15 37 0 0 9 0
2 0 15 0 18 0 0 9 0
6 0 0 10 37 0 0 0 9
6 0 0 15 37 0 0 5 4
2 0 0 15 33 0 0 9 0
11 0 0 10 37 0 0 0 9
11 0 0 15 37 0 0 0 4
11 0 15 0 18 0 3 0 0
8 0 15 0 18 0 0 3 0
11 0 15 0 21 0 0 0 3
11 0 15 0 12 0 9 0 0
2 0 15 0 12 0 0 9 0
11 0 15 0 21 0 0 0 9
11 0 9 0 27 0 0 0 9
2 0 9 0 18 0 0 9 0
11 0 9 0 18 0 9 0 0
11 0 0 15 33 0 3 0 0
8 0 0 15 33 0 0 3 0
11 0 0 15 36 0 0 0 3
11 0 0 15 27 0 9 0 0
2 0 0 15 27 0 0 9 0
6 0 0 10 31 0 0 0 9
11 0 5 10 31 0 0 0 9
11 0 0 15 31 0 5 0 4
11 0 0 15 36 0 0 0 4
11 0 0 10 36 0 0 0 9
6 0 0 15 31 0 0 5 4
2 0 0 0 18 0 9 0 0
11 0 0 9 27 0 9 0 0
2 0 0 9 27 0 0 9 0
2 0 0 0 27 0 0 0 9
11 0 0 9 36 0 0 0 9
2 5 1 14 37 0 0 9 0
3 4 0 15 37 0 1 8 0
8 5 1 14 37 0 0 3 0
11 2 1 14 37 0 0 0 3
2 11 7 8 31 0 0 9 0
11 2 1 8 37 0 0 0 9
3 10 1 0 37 0 0 0 9
2 11 1 8 37 0 0 9 0
11 2 0 15 37 0 1 0 2
9 4 0 15 37 0 1 2 0
2 11 0 0 37 0 1 0 8
3 10 0 9 37 0 1 8 0
11 2 0 9 37 0 1 0 8
9 4 0 15 31 0 7 2 0
11 2 0 9 29 0 9 0 0
2 11 0 0 29 0 9 0 0
11 2 0 15 31 0 7 0 2
11 2 7 8 31 0 0 0 9
11 2 0 15 29 0 9 0 0
11 2 0 15 35 0 3 0 0
11 2 9 0 20 0 9 0 0
2 11 9 0 29 0 0 9 0
11 2 9 0 29 0 0 0 9
11 2 15 0 23 0 0 0 9
2 11 15 0 23 0 0 9 0
11 2 15 0 14 0 9 0 0
11 2 15 0 23 0 0 0 3
8 5 15 0 23 0 0 3 0
11 2 15 0 20 0 3 0 0
2 5 15 0 23 0 0 9 0
7 0 15 0 23 0 0 4 5
11 0 15 0 23 0 0 0 5
11 0 15 0 23 0 0 0 9
11 0 11 0 27 0 0 0 9
7 0 15 0 18 0 5 4 0
11 0 15 0 18 0 5 0 0
11 0 15 0 14 0 9 0 0
11 0 11 0 18 0 9 0 0
7 0 1 10 37 0 0 0 9
7 0 1 14 37 0 0 4 5
11 0 1 10 37 0 0 0 9
11 0 1 14 37 0 0 0 5
11 0 5 10 33 0 0 0 9
7 0 0 11 37 0 1 0 8
7 0 0 15 37 0 1 4 4
11 0 0 11 37 0 1 0 8
11 0 0 15 37 0 1 0 4
11 0 0 15 33 0 5 0 4
7 0 0 15 33 0 5 4 0
11 0 0 15 33 0 5 0 0
11 0 0 15 29 0 9 0 0
11 0 0 11 29 0 9 0 0
7 0 0 15 33 4 5 0 4
7 0 0 15 29 4 9 0 0
7 0 11 0 27 0 0 0 9
7 0 0 11 29 0 9 0 0
7 0 11 0 18 0 9 0 0
7 0 5 10 33 4 0 0 9
7 0 15 0 23 4 0 0 9
7 0 15 0 14 4 9 0 0
3 10 0 9 29 8 9 0 0
9 4 0 15 29 2 9 0 0
9 4 0 15 35 2 3 0 0
3 10 7 0 31 0 0 0 9
3 10 9 0 29 8 0 0 9
3 10 15 0 23 8 0 0 9
3 4 0 15 29 8 9 0 0
0 10 15 0 23 11 0 0 9
0 10 12 0 26 11 0 0 9
0 7 15 0 23 11 0 0 9
0 7 12 3 26 11 0 0 9
0 7 3 12 35 2 0 9 0
0 7 15 0 23 2 0 9 0
0 7 3 12 26 11 9 0 0
0 7 15 0 14 11 9 0 0
0 10 1 0 37 0 0 0 9
0 10 4 0 34 0 0 0 9
0 7 1 3 37 0 0 0 9
0 7 4 0 34 0 0 0 9
0 7 1 12 37 0 0 9 0
0 7 13 0 25 0 0 9 0
0 7 4 0 25 0 9 0 0
0 7 0 12 37 0 1 8 0
0 7 0 12 29 8 9 0 0
0 7 0 4 37 0 1 0 8
0 7 0 4 29 0 9 0 0
0 11 0 0 37 0 1 0 8
0 11 0 0 29 0 9 0 0
0 13 9 6 26 11 3 0 0
0 13 15 0 20 11 3 0 0
0 13 9 6 29 8 0 3 0
0 13 15 0 23 8 0 3 0
0 13 15 0 23 11 0 0 6
0 13 12 0 26 11 0 0 6
0 13 12 3 26 11 0 0 3
0 13 15 0 23 11 0 0 3
0 13 15 0 20 11 3 0 6
0 13 9 6 20 11 9 0 0
0 13 15 0 14 11 9 0 0
0 13 15 0 23 8 0 3 6
0 13 9 6 29 2 0 9 0
0 13 15 0 23 2 0 9 0
0 13 9 0 29 8 0 3 6
0 13 3 6 35 2 0 9 0
0 13 9 0 29 2 0 9 0
0 13 9 0 26 11 3 0 6
0 13 3 6 26 11 9 0 0
0 13 9 0 20 11 9 0 0
0 13 4 0 31 0 3 0 0
0 13 0 6 37 0 1 2 0
0 13 0 4 37 0 1 0 2
0 13 0 6 35 2 3 0 0
0 13 0 4 35 0 3 0 0
0 13 0 0 37 0 1 0 6
0 13 0 0 31 0 7 0 0
0 13 1 6 37 0 0 3 0
0 13 7 0 31 0 0 3 0
0 13 1 3 37 0 0 0 3
0 13 1 0 37 0 0 0 6
0 13 4 0 34 0 0 0 6
0 13 4 0 34 0 0 0 3
0 13 1 6 37 0 0 9 0
0 13 1 0 37 0 0 3 6
0 13 7 0 31 0 0 9 0
0 13 0 6 37 0 1 8 0
0 13 0 0 37 0 1 2 6
0 13 0 0 31 0 7 2 0
0 13 4 0 31 0 3 0 6
0 13 4 0 25 0 9 0 0
0 13 0 0 35 0 3 0 6
0 13 0 0 29 0 9 0 0
0 13 0 6 31 0 7 2 0
0 13 0 6 29 2 9 0 0
0 13 0 4 31 0 7 0 2
0 13 0 4 29 0 9 0 0
0 13 7 6 31 0 0 9 0
0 13 7 0 31 0 0 3 6
0 13 13 0 25 0 0 9 0
0 13 0 6 29 8 9 0 0
0 13 0 0 35 2 3 0 6
0 13 0 0 29 2 9 0 0
