1713
1529
2182
2067
1802
1798
1759
1691
1670
1709
1661
1601
1523
2118
2135
2008
1963
1930
2039
1946
1811
1863
1847
1861
1838
1723
1777
1784
1649
1724
1607
1579
1615
1699
1623
1713
1715
2063
1949
1917
1930
2011
1929
1914
1810
1924
1967
1803
1912
1665
1760
1729
1989
1803
1720
1659
1760
1756
1739
1735
1750
1744
1760
1743
1706
1654
1744
1734
1778
1534
1689
1605
1705
1425
1623
1616
1584
1560
1551
1835
1913
1806
1762
1686
1795
1874
1730
1798
1714
1681
1690
1619
1574
1725
1672
1489
1581
1629
1643
1666
1405
1615
1551
1803
1758
1580
1684
1598
1626
1525
1464
1465
1525
1480
1479
1545
1542
1485
1538
1428
1673
1779
1714
1776
1775
1706
1777
1696
1682
1657
1655
1715
1541
1490
1750
1661
1590
1465
1567
1531
1434
1556
1481
1493
1430
1529
1536
1535
1519
1491
1528
1582
1476
1387
1380
1450
1566
1484
1550
1542
1413
1691
1697
1650
1442
1549
1755
1576
1477
1403
1334
1696
1470
1674
1518
1412
1458
1567
1530
1291
1678
1502
1439
1331
1500
1340
1307
1469
1218
1325
1378
1466
1511
1346
1183
1230
1220
1350
1288
1506
1312
1541
1459
1500
1742
1599
1466
1578
1443
1453
1275
1420
1586
1417
1508
1537
1338
1651
1390
1342
1284
1284
1398
1363
1286
1439
1353
1508
1272
1457
1219
1512
1260
1314
1332
1593
1539
1459
1279
1344
1319
1424
1397
1222
1347
1425
1421
1233
1339
1516
1171
1463
1170
1167
1280
1139
1411
1396
1309
1305
1286
1371
1134
1390
1202
1451
1454
1734
1447
1404
1423
1298
1364
1385
1446
1462
1292
1302
1400
1253
1379
1259
1563
1342
1150
1338
1305
1339
1260
1218
1216
1263
1117
1149
1321
1330
1196
1137
1387
1482
1204
1362
1129
1255
1165
1196
1424
1162
1141
1039
967
964
1058
1144
1118
1114
1114
1248
1137
1128
1026
1063
1189
1053
1311
1111
1289
1285
1435
1306
1262
1144
1245
1118
1233
1204
1096
1080
1077
1083
1270
1228
1252
1299
1132
1152
1072
1339
1160
1148
1103
999
1114
1005
1092
1031
1046
1247
1230
1194
1117
1246
976
1003
1268
1383
1122
1327
1093
1189
1147
1294
967
1194
1183
1242
1133
811
1182
885
1316
1119
1339
1079
1067
1182
1093
1124
1022
1220
974
1128
1151
1025
1078
1183
1115
980
1077
1115
946
908
1085
1311
1240
1137
1130
997
1243
1107
1042
978
957
1087
1035
1209
1007
1138
1012
1059
1189
1014
1222
878
1011
1006
1101
1018
1319
1049
1160
1033
1017
936
1058
1124
1033
909
968
1042
981
973
953
1042
1198
1141
940
1129
934
1079
1047
1141
989
1047
900
996
781
819
1048
1083
921
912
1205
864
1019
1104
1059
972
979
1050
845
1035
911
854
944
887
950
878
877
999
934
1054
1028
952
833
907
899
977
974
965
976
904
908
956
852
1074
851
963
922
1021
946
898
958
1018
987
911
915
882
935
890
759
767
860
924
853
1031
1001
978
931
970
963
968
919
1030
974
1139
873
744
779
945
868
864
1063
828
961
879
814
1015
830
901
795
937
859
1022
997
766
995
905
895
796
905
840
772
910
857
758
812
821
892
849
872
795
892
871
698
1046
863
868
875
887
840
883
832
724
805
921
785
747
887
795
748
868
723
865
881
908
877
834
818
743
813
825
741
957
675
801
897
784
822
869
787
920
866
695
752
728
839
874
716
808
887
702
858
764
768
817
725
843
797
768
722
893
868
873
752
692
724
701
785
795
844
755
828
873
632
827
670
767
646
650
707
649
931
760
746
762
856
558
761
779
685
794
964
589
606
664
729
740
782
591
763
704
797
693
698
822
675
740
749
663
779
765
814
918
656
790
674
844
717
797
661
629
755
724
751
630
661
720
547
802
673
714
783
716
743
701
716
680
737
578
585
665
719
707
648
647
598
690
611
648
614
716
736
655
675
751
615
721
572
609
652
650
687
638
679
620
689
573
568
636
615
622
641
628
565
700
559
696
657
547
575
636
530
688
623
589
653
602
697
648
670
659
583
686
618
656
491
508
661
579
605
519
547
590
621
594
517
577
671
649
704
637
659
539
497
615
559
606
547
581
544
561
632
557
502
548
632
621
563
713
622
632
694
672
500
561
615
401
533
607
548
553
529
654
475
499
562
541
487
542
484
470
500
567
551
520
505
548
487
485
551
582
505
503
453
515
485
546
502
499
546
491
415
460
521
560
557
402
454
473
414
411
425
536
526
476
511
508
550
532
527
492
516
520
582
495
464
449
511
448
476
524
515
414
428
526
414
466
437
439
422
399
547
446
445
411
489
453
386
376
368
422
516
502
438
512
481
474
404
426
444
507
352
410
455
370
418
485
413
424
487
466
368
423
435
434
418
427
390
388
464
479
351
396
424
436
393
469
473
420
299
416
325
420
386
404
406
399
350
450
352
379
404
363
488
391
404
350
366
375
403
423
393
423
345
371
374
363
419
368
310
321
342
308
313
348
431
345
304
351
277
382
355
341
332
255
365
337
333
327
337
321
356
357
358
300
312
351
313
304
309
345
319
358
279
297
300
332
268
260
282
270
249
293
265
289
266
272
269
287
