1984
1557
2203
2015
2086
2029
1909
1837
1685
1712
1694
1593
1643
1659
1573
1588
2012
2021
1929
2036
1937
1847
1921
1833
1838
1780
1796
1818
1798
1828
1822
1740
1515
1729
1662
1640
1774
1625
1738
1615
1682
1613
1539
1544
1481
1602
1470
1901
2000
1872
1823
1829
1906
1862
1725
1696
1793
1702
1618
1702
1902
1660
1791
1794
1795
1546
1769
1643
1677
1615
1674
1678
1470
1582
1402
1462
1504
1591
1409
1518
1404
1531
1513
1705
1765
1568
1717
1759
1547
1724
1692
1693
1777
1649
1483
1675
1693
1739
1597
1397
1686
1623
1647
1547
1505
1694
1591
1683
1662
1584
1732
1539
1547
1686
1725
1547
1707
1618
1608
1335
1414
1406
1390
1441
1545
1340
1638
1671
1692
1565
1354
1442
1538
1620
1482
1487
1655
1549
1710
1558
1617
1334
1548
1595
1599
1400
1502
1287
1451
1582
1183
1331
1495
1582
1496
1508
1416
1434
1422
1269
1301
1407
1240
1461
1332
1289
1245
1477
1667
1678
1530
1501
1401
1456
1620
1359
1347
1496
1531
1343
1450
1450
1475
1402
1583
1428
1403
1354
1360
1304
1378
1477
1333
1342
1446
1517
1372
1417
1216
1218
1429
1380
1199
1397
1152
1408
1391
1487
1441
1314
1555
1181
1482
1305
1381
1292
1142
1088
1327
1409
1275
1179
1424
1237
1314
1310
1382
1252
1368
1115
1292
1461
1230
1312
1221
1009
1145
1261
1481
1415
1499
1362
1242
1277
1355
1462
1237
1398
1284
1463
1233
1123
1322
1097
1234
1194
1288
1382
1232
1352
1232
1356
1343
1438
1242
1348
1103
1044
1441
1188
1159
1187
1360
1359
1358
1135
1209
1248
1154
1341
1190
1327
1263
1183
1287
1261
1188
1271
1284
1078
1137
1342
1300
1070
1040
1099
1220
1164
1273
1153
1241
1078
1427
1408
1179
1157
1159
1326
1271
1204
1279
1267
1153
1208
1244
1204
1143
1103
1110
1203
1178
1105
1241
1055
1081
1207
1290
1098
1167
1379
1343
1230
1280
1328
980
1225
1124
1232
1099
1076
1024
1268
1071
970
1156
1024
1050
1134
1050
1100
1009
1019
1277
1106
1166
1210
1297
1198
1093
908
1243
967
1078
1109
1139
1059
985
1067
1177
1049
1263
1349
990
915
1155
1072
1064
1053
1192
1051
1004
1067
1222
1091
1046
1209
1152
1087
1360
1099
1061
1234
1131
979
1201
1202
1114
1143
1065
1057
1123
1090
1234
1050
951
1223
1201
951
1200
1095
1044
1075
1047
960
1030
1023
913
1296
945
1006
1066
1052
1021
1232
1141
1114
1040
872
910
853
1151
1178
1122
975
1012
1034
1137
1102
1012
891
1153
981
1143
992
1126
994
930
1064
1099
1143
893
1025
1042
1231
913
885
834
1145
1108
1016
970
1099
1239
971
1132
1102
926
1049
842
1120
1067
1038
969
962
1021
983
958
1004
1056
916
1037
933
1074
980
800
923
1071
898
899
863
867
1012
1098
947
1024
953
967
1055
1110
971
1126
1151
1017
850
1006
915
1002
914
861
972
880
902
1011
850
1067
999
963
815
784
1009
1073
1010
887
763
987
834
953
863
927
1060
992
916
867
921
835
909
895
822
1070
1035
955
885
932
863
1018
944
991
922
966
689
807
761
921
762
756
990
962
869
796
952
826
924
789
817
934
969
713
894
918
849
964
866
955
737
729
839
887
942
726
785
875
798
900
895
760
908
792
931
991
682
895
894
876
748
999
787
822
859
856
890
764
874
803
760
895
739
845
688
859
904
842
899
787
868
724
889
805
732
850
853
746
857
646
830
801
910
731
757
678
843
738
859
759
689
884
769
583
841
592
734
678
739
821
671
746
697
820
789
756
693
667
746
907
764
845
737
873
739
733
756
814
675
761
845
762
721
642
799
806
787
734
775
831
805
665
654
658
736
669
770
852
749
658
842
778
696
660
654
724
710
722
819
593
880
719
730
784
794
584
710
762
599
632
871
801
673
762
895
649
782
582
716
632
674
673
643
740
614
734
648
660
632
703
872
663
788
682
780
689
678
634
631
694
767
695
621
714
605
796
549
506
626
737
666
647
681
715
748
630
731
540
659
736
522
549
700
739
683
673
723
552
663
579
620
584
502
587
610
652
622
671
647
550
560
638
805
601
612
558
597
653
668
668
584
715
561
664
746
651
518
752
545
506
622
728
772
542
652
511
553
644
627
528
533
513
473
522
614
644
632
561
657
544
522
520
579
486
582
583
597
502
590
566
562
586
524
468
591
612
613
520
517
504
513
554
570
555
600
524
522
644
536
491
509
482
444
588
545
574
546
617
544
596
537
487
395
566
517
588
566
612
485
564
492
476
487
500
424
462
473
618
476
441
538
536
420
482
500
444
516
475
463
429
492
499
466
530
497
634
486
509
515
465
481
519
501
438
392
432
439
400
440
448
454
555
432
491
493
427
449
492
374
433
387
417
402
429
475
483
449
429
389
401
366
434
442
436
355
384
447
444
411
463
415
398
481
449
396
358
498
342
383
391
458
332
395
432
387
451
425
344
434
388
353
377
434
362
349
405
370
396
390
330
385
380
360
414
383
354
317
357
359
347
327
342
386
297
343
301
370
311
301
331
335
369
334
324
294
331
326
338
356
303
297
359
316
305
307
282
309
