1444
2444
2071
1868
1803
1728
1646
1716
1709
1638
1512
1514
2197
2175
2099
2125
1858
2018
1819
1884
1918
1771
1668
1912
1680
1737
1716
1610
1692
1630
1695
1618
1575
1573
1575
1484
1513
1614
1971
2011
1824
1955
1917
1945
1954
1748
1887
2101
1831
1734
1716
1855
1574
1870
1836
1806
1510
1761
1797
1697
1755
1664
1569
1734
1465
1472
1431
1458
1476
1529
2018
1933
1934
1947
1735
1877
1714
1684
1716
1661
1673
1690
1836
1881
1649
1763
1500
1444
1534
1750
1824
1788
1660
1666
1585
1741
1600
1704
1565
1479
1503
1420
1652
1563
1523
1636
1441
1537
1317
1380
1874
1873
1571
1634
1623
1726
1611
1649
1534
1606
1573
1585
1683
1563
1716
1776
1600
1691
1589
1646
1562
1616
1361
1470
1363
1559
1491
1492
1652
1306
1439
1426
1383
1372
1505
1346
1533
1251
1456
1394
1711
1659
1693
1447
1324
1745
1596
1784
1547
1420
1589
1508
1540
1437
1412
1332
1546
1339
1494
1398
1410
1581
1335
1576
1374
1313
1577
1408
1301
1416
1371
1414
1505
1199
1569
1507
1441
1434
1454
1564
1318
1387
1371
1370
1372
1382
1430
1459
1290
1348
1328
1571
1562
1380
1539
1557
1206
1500
1228
1365
1499
1437
1344
1221
1307
1193
1360
1415
1392
1478
1252
1217
1437
1395
1406
1300
1410
1334
1658
1317
1269
1461
1282
1319
1320
1175
1238
1433
1480
1432
1410
1211
1456
1284
1226
1447
1127
1145
1178
1308
1201
1268
1126
1276
1094
1138
1367
1289
1342
1351
1382
1219
1259
1202
1255
1321
1314
1107
1226
1286
1246
1118
1334
1118
1245
1222
1387
1214
1415
1244
1148
1020
1164
1131
1314
1270
985
1117
1116
1350
1478
1580
1174
1330
1324
1271
1127
1257
1214
933
1047
1274
1251
1059
1220
1150
879
1076
1083
1178
1098
1262
1226
1402
1268
1129
1267
1177
1139
1214
1320
1213
1171
1141
1155
1297
1174
1263
1238
1320
1235
1246
1121
1241
1228
1149
1189
1178
1030
1041
1035
1064
995
1205
1207
1138
1298
1258
1144
1222
1273
1208
1192
1180
1043
1071
1072
1147
1192
1218
1289
1060
1052
889
1001
982
1248
1190
1108
1156
1303
1134
1086
1085
1122
1236
1035
923
1103
1121
1076
1136
1063
995
935
807
1064
1058
1121
987
1093
962
1087
992
1008
1033
1092
1202
1096
1134
1236
1075
888
1268
1132
1107
1209
1191
1034
1036
1101
1066
1224
1133
1177
1161
932
942
1268
851
1107
994
963
1047
869
1046
1114
1117
1178
989
1036
1043
998
1020
928
928
1090
942
1093
916
1082
1053
1131
974
1047
944
1179
1019
960
908
1028
964
936
1049
1043
877
862
1017
1015
1086
864
1065
968
977
1020
773
1091
1301
981
1051
1005
982
1088
901
935
976
967
1054
1060
1237
1086
1046
1018
936
897
764
957
986
974
882
827
926
917
1029
1020
859
927
887
1127
1025
964
923
1066
747
954
1016
969
1164
875
952
955
890
888
923
997
862
969
860
949
1071
1131
884
934
833
916
887
809
915
928
953
917
968
881
951
794
949
886
954
772
1014
1019
822
1027
846
908
930
791
761
884
784
973
883
960
796
877
898
832
920
893
903
1037
949
906
774
1051
971
892
897
778
821
659
830
855
852
796
930
742
855
800
923
825
745
902
813
952
852
906
892
859
861
958
875
802
746
882
851
796
686
814
779
702
870
919
832
827
809
703
778
832
825
777
792
990
691
833
651
691
947
810
665
853
814
874
676
666
784
814
748
803
734
778
866
891
769
827
625
654
877
690
812
898
656
751
731
783
799
737
707
834
751
936
809
727
905
789
723
804
745
689
728
836
684
660
701
751
805
898
608
914
949
733
841
833
786
709
786
727
708
702
649
833
782
588
707
673
663
727
791
737
733
684
676
905
683
691
743
585
787
700
613
661
611
654
747
736
796
744
591
715
639
902
725
740
706
640
826
551
695
649
581
692
635
653
574
772
813
651
656
639
735
708
580
672
618
644
731
692
602
723
670
766
764
575
569
804
786
670
579
641
742
674
656
680
568
675
663
497
656
627
684
653
666
617
626
631
708
713
662
572
719
671
688
658
602
589
586
743
623
617
706
630
530
689
594
562
545
641
528
594
617
654
596
588
595
574
530
549
659
592
659
562
546
574
595
647
520
549
596
568
461
490
550
637
565
578
495
556
568
620
548
552
563
559
566
521
646
504
515
545
475
576
541
545
606
514
549
490
526
419
503
533
438
593
598
511
536
576
571
471
609
622
526
561
443
545
539
517
493
443
524
468
541
445
478
505
490
456
414
476
463
474
519
586
494
496
425
436
522
483
415
455
433
539
452
517
448
474
510
418
451
547
430
513
485
499
476
462
427
452
436
554
471
462
422
441
419
376
385
414
413
380
430
441
393
430
385
429
388
446
445
372
376
379
445
406
404
435
369
365
389
451
358
395
399
413
398
348
401
426
399
358
339
337
375
364
347
358
428
363
438
368
383
384
384
398
324
451
292
386
312
348
325
408
339
344
364
314
359
325
336
359
288
350
349
286
310
312
310
332
321
358
334
326
293
288
250
312
317
280
304
257
305
257
288
329
262
267
311
273
310
