1550
2397
2007
1884
1779
1773
1717
1672
1639
1577
1518
1525
2197
2152
2051
2089
1889
1929
1762
1898
1862
1735
1605
1714
1658
1705
1746
1583
1666
1621
1701
1609
1563
1624
1487
1519
1550
1605
1994
2061
1782
2024
1986
1854
1936
1850
1931
1953
1843
1810
1804
1827
1634
1794
1783
1730
1620
1758
1800
1691
1720
1647
1624
1734
1457
1468
1439
1487
1533
1460
1880
1867
1869
1915
1731
1897
1785
1738
1719
1576
1732
1613
1822
1849
1639
1686
1545
1357
1584
1702
1800
1873
1707
1800
1600
1756
1534
1758
1528
1533
1531
1439
1678
1501
1521
1678
1343
1527
1339
1305
1861
1894
1598
1704
1732
1685
1604
1685
1592
1601
1535
1607
1884
1536
1733
1745
1607
1626
1575
1613
1574
1539
1317
1484
1439
1585
1524
1561
1616
1311
1473
1488
1353
1423
1358
1376
1556
1189
1552
1410
1695
1673
1811
1458
1448
1785
1719
1683
1588
1387
1536
1475
1610
1456
1368
1446
1536
1292
1568
1391
1467
1543
1401
1579
1329
1306
1561
1451
1303
1399
1363
1376
1496
1237
1550
1481
1442
1349
1497
1557
1406
1381
1357
1268
1351
1344
1422
1462
1199
1321
1254
1536
1600
1353
1527
1548
1261
1583
1259
1421
1480
1556
1378
1262
1345
1222
1358
1439
1369
1523
1256
1216
1428
1422
1379
1250
1254
1350
1703
1360
1258
1398
1341
1309
1349
1111
1241
1388
1513
1396
1360
1195
1553
1334
1260
1437
1208
1162
1179
1343
1224
1365
1039
1289
1066
1116
1340
1338
1281
1326
1412
1245
1266
1166
1283
1274
1360
1079
1194
1186
1262
1165
1238
1166
1183
1244
1344
1230
1401
1283
1144
1033
1259
1204
1275
1220
1051
1140
1120
1280
1456
1478
1158
1341
1320
1299
1136
1154
1234
931
1061
1282
1244
1101
1230
1251
899
1025
1104
1129
1106
1239
1209
1364
1261
1098
1269
1155
1094
1254
1333
1156
1123
1086
1115
1362
1108
1259
1255
1314
1231
1283
1056
1228
1204
1157
1158
1239
1022
1012
1024
1038
1037
1200
1227
1180
1287
1302
1250
1258
1293
1176
1245
1170
1093
1084
1130
1151
1168
1186
1207
1169
1036
873
1024
962
1246
1222
1095
1106
1351
1190
1160
1069
1207
1241
1062
1041
1070
1136
1067
1144
1029
1030
939
831
1130
1104
1064
1113
1111
1021
1160
1018
1018
997
1134
1262
1118
1082
1190
1062
888
1331
1216
1129
1206
1174
1071
1003
1162
1084
1136
1135
1169
1136
943
897
1236
853
1075
998
904
1046
879
943
1016
1180
1228
1031
1066
998
968
989
975
934
1058
935
1035
934
1057
1040
1100
1013
1086
887
1187
1048
965
859
1079
990
928
1008
1021
881
822
1062
1040
1067
862
997
971
936
984
816
1011
1300
920
1021
968
981
1111
844
928
984
991
1066
1054
1206
1102
1065
1046
932
960
815
949
991
921
895
857
840
985
962
922
822
1001
854
1045
1052
932
921
971
752
907
945
945
1183
893
943
952
888
916
904
1066
912
996
868
970
995
1118
866
913
778
889
854
803
932
958
971
969
925
896
907
821
968
949
897
780
962
1075
857
986
864
852
938
827
716
945
828
965
840
1009
767
873
890
833
852
842
899
982
909
929
781
965
974
840
913
730
774
659
859
886
841
827
891
750
965
857
912
809
788
833
817
931
813
890
916
869
872
937
854
843
733
895
761
793
695
798
783
705
872
940
838
761
714
720
863
818
860
821
800
1023
703
837
645
719
890
773
680
829
847
860
679
699
745
850
705
844
733
787
842
913
767
810
680
652
883
733
823
821
685
799
699
782
788
696
776
808
720
856
864
734
890
751
762
807
768
666
764
889
714
663
707
768
834
874
691
865
933
748
804
862
744
714
862
720
685
700
639
868
829
652
698
717
628
813
791
749
718
699
636
855
720
682
740
584
762
740
591
684
644
636
757
676
758
769
554
699
656
808
739
760
771
592
809
583
684
652
567
723
657
692
563
752
852
606
636
668
740
727
641
693
599
636
681
680
595
713
643
777
725
586
555
752
741
710
593
598
776
676
690
648
521
617
680
493
662
541
668
633
684
577
610
686
662
718
648
617
695
668
789
709
594
587
634
706
592
648
660
574
551
677
582
576
525
618
475
611
626
577
597
606
567
598
567
565
655
576
608
586
552
588
561
687
503
559
611
551
445
476
595
618
513
580
491
589
573
544
533
552
549
585
573
577
637
506
486
573
455
570
515
584
599
460
551
487
516
428
479
598
469
589
577
570
490
597
527
452
557
635
572
525
420
483
541
546
510
456
543
505
576
487
491
476
497
561
501
475
422
424
545
630
472
459
443
500
416
493
468
451
485
485
479
490
470
466
521
444
430
561
417
467
491
510
499
483
466
469
454
489
476
429
438
444
378
393
473
460
394
408
442
471
436
399
421
460
394
379
445
345
360
387
401
395
436
422
360
408
402
403
362
408
376
431
405
378
410
410
426
375
363
309
400
385
377
366
408
396
401
355
400
338
380
409
352
425
322
364
308
341
347
361
346
322
344
341
306
336
330
377
308
328
371
296
307
310
302
325
395
370
333
287
298
289
301
319
349
297
320
292
288
264
279
317
240
285
280
283
252
