1766
1612
2142
1946
1811
1826
1692
1742
1782
1693
1654
1654
1624
2092
2061
2036
1998
1904
1984
1872
1909
1859
1773
1806
1855
1681
1782
1775
1757
1706
1711
1574
1576
1720
1601
1678
1672
2000
1992
1946
1944
1910
1788
1981
1769
1856
1915
1741
1915
1667
1863
1737
1887
1844
1791
1656
1805
1642
1667
1759
1791
1761
1784
1752
1627
1681
1719
1648
1736
1567
1691
1705
1615
1431
1606
1521
1601
1517
1537
1772
1960
1715
1751
1676
1764
1811
1657
1734
1692
1698
1630
1631
1636
1750
1639
1510
1532
1698
1595
1610
1410
1683
1660
1770
1687
1634
1674
1649
1667
1530
1437
1477
1559
1513
1518
1559
1604
1558
1455
1446
1662
1742
1699
1701
1688
1770
1822
1655
1680
1630
1593
1640
1514
1587
1652
1717
1603
1464
1597
1614
1379
1614
1544
1557
1415
1544
1511
1507
1499
1465
1500
1601
1518
1396
1292
1515
1547
1477
1467
1487
1391
1769
1664
1735
1451
1581
1761
1662
1417
1415
1317
1602
1556
1586
1509
1448
1401
1605
1493
1303
1616
1606
1463
1396
1456
1412
1414
1583
1170
1376
1394
1400
1541
1352
1270
1257
1177
1370
1384
1544
1263
1594
1425
1523
1585
1608
1394
1542
1475
1416
1400
1496
1579
1361
1418
1464
1381
1617
1468
1413
1343
1283
1463
1459
1291
1423
1444
1521
1236
1495
1260
1541
1243
1417
1389
1530
1514
1588
1346
1333
1315
1455
1415
1176
1353
1429
1401
1196
1316
1458
1213
1447
1187
1118
1320
1152
1366
1410
1317
1311
1280
1370
1239
1389
1198
1503
1440
1776
1462
1435
1486
1355
1390
1396
1347
1457
1360
1248
1325
1209
1380
1292
1506
1336
1063
1299
1293
1391
1261
1184
1220
1304
1189
1135
1344
1269
1222
1182
1460
1465
1204
1284
1209
1292
1142
1236
1412
1160
1151
970
955
1040
1041
1172
1207
1108
1103
1243
1153
1211
1035
1007
1219
1037
1291
1148
1220
1221
1427
1243
1278
1065
1229
1163
1297
1203
1084
1146
1180
1083
1293
1201
1214
1335
1161
1166
1051
1337
1119
1054
1120
1021
1105
992
1105
1052
1049
1314
1179
1219
1135
1159
927
989
1208
1428
1080
1365
1151
1117
1197
1248
991
1147
1124
1208
1017
863
1227
917
1260
1075
1316
1118
1156
1056
1112
1142
1018
1216
978
1158
1154
1039
1075
1222
1070
959
1097
1050
907
842
1054
1334
1231
1127
1138
1058
1254
1029
1040
979
1011
1064
1054
1219
992
1062
1029
1027
1136
999
1164
854
1010
1047
1119
1056
1297
1082
1133
1084
940
863
1054
1136
1013
847
932
1065
999
943
997
1013
1116
1118
963
1116
946
1047
962
1104
935
1105
920
998
765
782
1029
1056
917
904
1151
842
1020
1121
1033
954
960
1056
834
1018
945
873
908
834
950
873
883
1003
986
1068
994
968
825
923
982
1017
1045
912
938
893
879
997
892
1015
915
1032
980
1069
950
880
961
1045
981
889
879
934
951
798
754
703
901
956
842
1032
999
960
983
934
930
906
895
1002
999
1124
875
796
837
882
918
800
1077
782
1066
877
882
931
861
907
714
903
914
1076
1022
775
1007
893
882
756
846
835
882
944
821
793
864
842
873
829
913
824
894
853
668
1055
850
858
864
958
832
888
876
789
807
945
809
698
919
751
787
854
735
829
890
914
900
868
874
769
873
963
780
903
712
731
908
762
830
959
752
962
862
646
683
700
797
843
727
829
892
695
834
782
744
824
717
837
798
772
783
870
828
927
702
759
676
683
832
811
880
742
799
875
617
803
718
696
653
641
712
625
877
733
778
714
881
593
750
751
675
793
895
650
620
665
726
778
737
639
774
663
743
673
722
774
665
752
723
607
766
669
823
853
636
782
699
843
752
789
657
610
735
774
736
618
704
740
473
768
669
767
804
734
787
633
680
684
778
637
610
650
727
719
631
690
542
702
589
666
632
706
703
700
642
717
591
652
626
645
724
606
733
642
614
618
621
599
533
618
679
615
622
670
542
716
541
703
689
556
606
614
565
692
567
592
616
596
628
614
695
622
585
670
632
674
549
494
665
626
605
500
492
527
593
607
511
546
581
602
657
638
717
568
482
644
594
585
611
559
526
577
622
662
512
610
646
572
595
684
632
622
715
635
534
549
585
445
545
589
539
578
515
631
474
506
595
548
465
591
473
466
472
533
597
516
550
574
478
487
516
579
552
445
450
501
492
524
577
517
535
506
471
441
485
545
545
476
467
448
432
443
450
552
467
490
515
556
537
503
557
485
534
529
595
518
457
485
551
423
452
523
548
418
455
494
436
485
446
460
441
419
527
465
447
386
506
434
442
405
413
411
516
483
428
486
455
479
420
465
436
487
379
361
430
416
408
448
438
453
470
450
383
479
439
397
413
437
385
408
441
482
402
408
385
443
375
445
442
378
295
392
324
406
365
384
419
341
362
499
390
390
382
325
400
412
361
364
354
342
369
429
358
451
335
349
367
329
434
373
322
356
359
326
310
364
420
353
287
348
295
409
368
350
375
307
384
370
339
333
362
299
317
324
374
289
315
341
306
296
336
325
295
342
305
345
308
319
301
284
254
275
291
267
293
298
267
292
223
288
