2322
2329
2102
2027
1957
1778
1721
1730
1546
1647
1492
1396
2184
1825
1976
2083
2088
1910
1894
2020
1934
1777
1802
1786
1887
1755
1750
1701
1796
1603
1614
1519
1671
1620
1595
1556
1544
1619
1520
1622
1506
1987
1866
1899
2027
2026
2016
1805
1735
1803
1824
1689
1710
1792
1693
1691
1711
1652
1639
1566
1600
1643
1696
1524
1683
1567
1665
1465
1485
1536
1470
1519
1505
1562
1342
1521
1697
1431
1586
1485
1719
1777
1952
1737
1714
1572
1697
1778
1698
1604
1628
1697
1741
1649
1659
1624
1818
1690
1560
1570
1478
1571
1599
1656
1607
1496
1699
1519
1390
1442
1547
1473
1342
1374
1295
1388
1483
1183
1442
1349
1339
1308
1464
1469
1731
1820
1666
1518
1618
1788
1724
1383
1543
1600
1619
1573
1724
1398
1577
1650
1653
1499
1561
1392
1422
1711
1548
1458
1129
1553
1566
1336
1449
1564
1451
1406
1692
1385
1387
1398
1498
1358
1347
1413
1319
1243
1295
1355
1419
1504
1447
1387
1469
1769
1522
1518
1607
1576
1418
1451
1266
1401
1189
1399
1423
1382
1466
1438
1344
1354
1124
1301
1301
1360
1277
1543
1377
1393
1474
1348
1315
1322
1385
1428
1330
1216
1269
1408
1225
1463
1580
1445
1639
1454
1332
1424
1368
1264
1450
1229
1387
1405
1164
1355
1731
1366
1287
1312
1297
1189
1338
1221
1254
1491
1314
1259
1093
1379
1256
1278
1422
1293
1186
1386
1467
1315
1370
1326
1389
1409
1384
1306
1401
1370
1197
1370
1400
1227
1106
1235
1276
1365
1560
1340
1361
1074
1290
1333
1173
1306
1244
1128
1245
1208
1327
1050
1113
1157
1381
1198
1425
1400
1340
1237
1425
1525
1287
1379
1445
1163
1166
1244
1267
1145
1129
1280
1221
1148
1413
1260
919
1244
1347
1129
1037
1101
1295
1060
1135
1274
1144
1093
1277
1429
1373
1268
1334
1291
1039
1238
1319
1134
1165
1080
1083
1074
1245
1251
957
1125
1231
1098
946
1188
1096
1154
1354
1205
1000
1241
1176
1464
1180
1058
988
1131
1142
1263
1195
1276
1078
993
1182
1158
981
1189
981
1296
1056
1181
1234
1112
1224
1077
1206
1034
1033
998
1227
1045
1309
1164
1212
1130
1313
1253
1109
1118
1186
1097
1052
1077
951
985
1227
1255
1087
1058
1088
891
853
1080
888
1045
960
1021
1170
1234
937
971
1135
982
1114
1187
1026
945
1104
946
954
775
951
929
972
975
1045
1041
1197
1153
1369
1070
1172
1029
1049
1211
953
1280
865
1090
970
1242
1019
970
1111
1046
1024
785
974
1028
868
979
883
1076
1069
875
1029
770
1066
1048
1142
952
1114
753
841
1155
1057
1016
993
938
1164
939
1316
1046
1043
1051
868
1077
1088
1031
932
1067
1007
991
1030
833
1015
955
934
862
937
1113
882
858
889
978
1107
1010
805
890
926
1020
1050
827
839
1139
865
1078
1139
1126
956
976
988
895
1016
1029
1028
972
1036
964
935
886
835
1003
1061
1028
832
1136
1063
887
979
1138
949
815
796
947
860
925
762
810
882
961
895
953
765
934
924
1016
973
889
784
1082
972
821
789
755
892
967
976
838
859
998
721
980
803
895
928
869
901
883
700
992
771
1078
905
814
956
772
945
875
772
697
927
814
1142
880
804
975
642
894
696
819
819
939
1066
865
949
767
892
923
800
832
874
788
881
827
917
825
883
895
866
772
820
708
792
839
813
770
787
754
855
756
875
790
775
792
862
825
798
834
795
662
693
897
797
733
832
695
817
781
772
733
845
732
793
787
775
937
929
684
832
718
705
836
769
723
791
794
857
830
745
664
725
805
771
706
779
722
770
754
968
711
783
796
740
840
678
857
670
765
935
619
926
731
694
763
729
735
709
757
731
855
673
606
778
692
768
700
682
783
715
682
722
806
799
725
805
664
714
628
672
731
649
678
684
800
675
777
732
746
691
652
586
810
661
648
698
690
716
648
586
644
656
682
604
905
835
620
837
683
660
657
860
636
627
645
689
660
633
624
757
723
631
637
707
582
711
667
698
573
633
531
574
665
642
731
572
627
735
637
737
543
622
695
668
627
594
600
509
529
735
607
722
661
514
575
613
524
603
621
592
621
569
632
594
691
561
750
792
624
655
471
622
547
673
557
658
613
563
561
616
477
578
615
623
568
588
650
621
475
559
656
524
571
647
540
491
567
510
585
615
557
590
767
477
584
512
419
535
542
598
593
583
566
508
555
615
446
590
524
496
556
530
492
606
425
499
486
520
564
514
549
571
464
425
652
473
459
511
535
533
544
491
600
497
629
544
455
538
505
459
541
499
536
408
553
519
582
558
482
551
522
512
427
445
452
467
538
461
483
489
467
460
419
451
457
461
419
504
446
479
448
448
567
441
467
500
412
559
387
448
421
452
486
426
472
489
479
450
449
378
464
422
417
466
407
457
375
415
403
443
426
386
518
459
405
406
411
358
383
487
414
380
383
417
379
454
456
419
390
414
401
436
377
350
396
353
390
339
367
443
297
410
399
394
382
348
339
323
393
314
328
425
357
368
318
376
362
375
363
371
313
330
326
321
341
318
313
367
275
323
319
332
310
355
301
312
292
317
330
285
366
