2088
1936
1830
1714
1604
2134
2063
1958
2057
1909
1836
1842
1779
1672
1751
1711
1567
1706
1504
1697
1649
1656
1454
1539
1934
1896
2122
1965
1775
1907
1847
1904
1828
1835
1842
1711
1648
1758
1664
1706
1657
1689
1668
1785
1530
1744
1567
1519
1675
1517
1604
1668
1512
1614
1416
1467
1957
1807
1972
1858
1850
1786
1846
1793
1595
1825
1705
1838
1892
1739
1742
1958
1842
1645
1688
1551
1913
1566
1622
1717
1589
1687
1544
1559
1633
1432
1445
1516
1494
1411
1412
1565
1536
1651
1549
1599
1495
1514
1458
1630
1337
1431
1548
1752
1813
1881
1662
1742
1833
1826
1702
1772
1526
1767
1596
1749
1640
1674
1769
1626
1557
1493
1551
1621
1441
1666
1620
1476
1616
1460
1610
1452
1458
1324
1369
1623
1627
1445
1504
1305
1505
1443
1146
1501
1502
1290
1215
1422
1725
1617
1562
1632
1718
1543
1571
1628
1608
1711
1673
1464
1676
1575
1429
1493
1514
1449
1629
1386
1302
1457
1504
1317
1566
1296
1477
1258
1367
1287
1263
1278
1146
1437
1404
1366
1374
1628
1500
1436
1512
1434
1571
1426
1409
1339
1484
1275
1427
1451
1671
1237
1404
1598
1350
1519
1135
1679
1475
1186
1291
1384
1398
1395
1345
1412
1260
1345
1118
1425
1448
1385
1368
1369
1587
1411
1468
1289
1371
1317
1136
1472
1394
1436
1313
1583
1456
1113
1297
1461
1625
1208
1257
1364
1245
1374
1213
1401
1372
1310
1396
1356
1290
1220
1120
1394
1254
1371
1245
989
1208
1266
1493
1364
1413
1536
1476
1188
1195
1516
1354
1282
1325
1259
1337
1248
1373
1244
1353
1434
1238
1295
1342
1387
1289
1284
970
1105
1202
1115
1134
1247
1263
1492
1216
1350
1264
1235
1326
1244
1299
1291
1506
1341
1054
1197
1457
1224
1114
1138
1230
1421
1467
1229
1376
1148
1196
887
1224
1269
1322
1257
983
1348
1139
1144
1152
1225
1240
1188
1325
1446
1026
1221
1163
1229
1271
1202
1355
1138
1255
1129
1040
1176
1080
1117
1140
880
1227
1109
1035
1087
1351
1246
1271
1149
1228
1272
1281
1295
1271
1293
1121
1181
1325
1252
1190
1284
1107
1175
1162
1101
1152
1245
1013
1187
1107
1207
1215
1148
1023
1340
936
1343
1153
1083
768
1071
1152
1035
1045
1085
1073
1232
883
1142
1175
1089
1059
1130
1138
1242
1231
1010
1140
1054
1181
1256
1308
1153
979
1009
1091
1078
1181
1213
1141
853
885
1021
976
1054
897
1144
1135
915
1153
1121
1200
1014
994
935
1067
1033
984
1000
1138
843
949
1135
969
891
945
1010
902
1067
1180
1130
1040
978
945
1013
1111
939
1040
974
1079
933
900
1096
1061
1122
1079
1217
1015
1083
965
1010
1071
956
900
1005
1078
1006
944
984
953
936
967
1110
1138
1014
987
1052
1066
1083
1070
1074
979
975
1240
1012
843
1118
918
904
956
804
1001
962
1081
1034
957
916
1037
962
970
905
1022
906
1145
997
960
1009
906
874
805
1168
974
967
1136
985
1098
893
906
1016
871
849
991
882
974
835
909
913
864
974
973
819
835
908
1052
820
907
1037
1095
857
882
906
798
926
900
968
850
796
771
863
970
719
977
876
858
881
773
990
696
828
714
802
806
855
788
887
842
962
723
819
775
729
962
739
976
904
721
855
789
890
930
854
767
786
798
962
781
858
910
758
778
868
830
762
921
792
907
733
634
836
926
628
862
992
723
813
775
859
820
761
807
825
765
767
811
663
754
778
862
806
691
806
885
870
756
764
796
855
843
814
730
772
687
650
767
742
879
632
716
893
718
877
815
789
746
819
932
745
736
686
720
736
730
718
754
662
878
835
635
658
743
799
735
732
772
709
777
738
644
708
745
668
700
733
643
726
688
632
658
721
650
540
595
710
627
626
705
738
670
727
708
706
659
622
698
655
704
675
715
693
726
691
681
813
588
635
686
638
620
741
717
657
612
747
727
633
693
641
650
773
698
729
713
743
746
634
633
744
614
594
652
571
524
563
615
565
440
659
596
605
642
698
560
628
672
620
535
702
574
649
568
560
596
661
648
593
611
695
646
626
585
639
654
628
682
538
591
641
576
652
603
701
553
530
625
581
565
588
624
534
597
623
638
623
528
523
480
525
590
450
522
596
625
519
591
498
611
497
585
620
525
541
547
533
561
494
487
563
517
516
584
529
528
428
529
506
525
565
552
525
449
593
539
586
496
535
562
631
445
437
474
551
491
503
623
437
489
483
538
498
508
464
484
501
551
505
545
457
525
531
437
494
459
391
458
470
447
499
479
506
501
537
421
413
504
442
462
467
478
452
486
468
494
492
474
532
425
537
535
410
471
463
461
444
477
396
452
473
430
438
402
520
433
484
424
432
404
401
441
417
471
417
414
413
455
476
389
483
387
385
385
427
415
420
365
398
432
401
499
331
416
360
427
379
369
458
398
346
440
362
413
322
392
400
364
385
459
379
383
368
393
352
329
403
326
306
337
368
305
359
377
342
341
383
351
381
364
375
383
340
330
387
402
314
375
353
352
302
319
348
293
306
316
375
295
322
331
283
372
280
328
286
393
298
342
300
286
285
285
273
259
273
297
289
279
265
287
