2231
2001
1791
1701
1775
1748
1786
1741
1608
1672
1481
2092
2088
1989
1986
2012
1880
1979
1987
2038
1984
1887
1828
1945
1883
1739
1809
1760
1718
1792
1806
1803
1763
1779
1573
1678
1670
1563
1594
1581
1561
1550
2012
2062
1953
1972
1862
1805
1834
1811
1828
1923
1882
1874
1879
1901
1851
1990
1818
1872
1787
1905
1795
1787
1635
1751
1668
1602
1712
1770
1623
1752
1652
1606
1607
1660
1687
1550
1643
1538
1622
1624
1477
1603
1487
1656
1867
1944
1799
1836
1702
1667
1931
1862
1714
1778
1818
1795
1717
1516
1811
1660
1649
1610
1740
1669
1566
1442
1469
1583
1616
1611
1594
1727
1554
1615
1458
1557
1424
1416
1713
1394
1558
1526
1504
1466
1275
1456
1544
1507
1501
1834
1806
1759
1614
1718
1635
1638
1650
1507
1553
1568
1553
1487
1572
1614
1473
1481
1651
1556
1497
1499
1463
1497
1484
1407
1518
1523
1556
1484
1339
1486
1479
1477
1440
1522
1435
1412
1295
1317
1511
1502
1548
1771
1685
1540
1596
1496
1632
1511
1651
1457
1473
1554
1425
1295
1225
1411
1528
1410
1450
1490
1549
1510
1244
1729
1434
1255
1413
1346
1387
1192
1611
1385
1327
1422
1317
1475
1584
1395
1439
1501
1483
1312
1420
1375
1374
1591
1288
1475
1342
1332
1400
1438
1388
1233
1356
1466
1170
1323
1252
1283
1425
1285
1420
1371
1361
1348
1641
1305
1401
1520
1248
1109
1459
1252
1379
1419
1362
1126
1352
1347
1298
1313
1300
1216
1357
1243
1229
1327
1264
1377
1231
1392
1274
1213
1435
1381
1441
1411
1450
1446
1341
1229
1267
1254
1176
1073
1173
1210
1258
1161
1136
1146
1171
1204
1334
1424
1277
1469
1211
1411
1395
1181
1305
1418
1226
1362
1292
1273
1303
1170
1030
1340
1157
1290
1144
1248
1276
1283
1288
1175
1284
1078
1234
1206
1320
1458
1299
1263
1322
1333
1211
1169
1319
1217
1096
1399
1162
1151
1261
1193
1173
1359
1213
996
1295
1192
1195
1110
1288
1207
1151
1109
1296
1265
1277
1363
1133
1235
1099
1109
1285
1194
1245
1199
1101
1272
1082
1095
1172
1216
1252
1178
1075
1029
1134
1296
1091
1059
1234
1241
1038
1167
1128
1076
960
1076
963
1138
1158
1340
1034
1273
1256
1037
1225
985
1004
1198
968
1248
1091
1199
1103
991
1120
1102
874
1200
1004
1007
945
1084
918
1208
1167
1329
1016
1198
1302
1078
1143
1260
1295
1082
1118
959
914
946
1167
1119
1019
946
1040
1107
1106
1033
1140
1077
1067
1077
1080
1004
975
1118
1087
1093
975
1316
1032
1146
1349
978
942
946
1021
1050
931
973
940
845
942
984
926
907
956
986
1006
951
1183
962
982
1112
1147
846
1104
991
881
1122
1061
929
849
979
909
999
1087
818
994
1045
1052
981
1130
854
939
906
947
939
791
856
908
777
974
949
906
806
873
865
873
923
890
817
896
895
995
968
903
1041
876
942
829
822
956
995
842
985
971
935
1017
1192
1025
904
1004
990
876
796
938
985
789
841
864
996
833
932
916
958
852
981
780
840
974
828
951
969
810
708
730
966
906
915
830
1001
986
683
878
931
700
977
830
879
723
704
880
806
926
851
928
758
666
824
855
733
726
779
724
886
797
837
873
899
973
924
759
849
877
733
843
931
765
785
831
875
672
1134
853
967
848
695
760
933
798
744
721
875
671
674
732
648
805
692
713
797
789
743
689
786
1003
757
852
746
700
842
737
713
830
939
709
732
698
802
742
952
706
785
827
611
718
876
789
701
773
826
782
854
668
697
697
722
661
671
764
754
771
756
569
916
656
733
713
619
760
892
812
839
818
667
696
675
665
693
613
754
681
780
722
669
671
651
757
687
614
685
726
803
630
729
846
804
625
637
683
652
694
704
621
614
752
701
660
707
530
597
669
650
567
631
588
729
595
777
715
708
658
862
640
559
649
645
703
762
688
632
623
742
582
718
669
787
665
699
529
630
619
537
627
680
581
551
583
637
648
661
696
577
575
585
583
693
626
708
476
648
544
627
523
661
589
587
494
527
601
627
527
517
567
574
523
609
620
592
741
599
569
526
626
560
550
663
609
486
572
580
585
653
519
582
539
594
686
465
523
580
563
480
580
625
521
545
662
615
547
544
506
549
614
543
579
579
538
568
647
561
589
573
414
555
543
560
582
574
454
522
522
424
514
554
509
594
472
452
529
600
568
492
557
486
424
477
478
459
528
498
467
537
558
527
491
506
549
477
562
424
519
483
482
401
428
404
423
569
427
511
515
546
487
528
469
494
455
423
505
537
419
419
519
474
450
526
463
531
563
398
458
417
472
391
509
429
439
528
418
473
410
455
449
403
358
394
438
401
397
379
438
361
365
530
406
403
375
445
383
442
429
392
392
486
381
363
334
392
429
402
400
413
424
417
328
364
405
327
366
362
407
393
349
366
372
395
378
398
351
370
316
311
351
304
363
295
435
321
341
297
369
335
308
381
329
354
314
318
343
299
329
330
357
328
349
334
258
266
357
316
310
320
328
339
320
292
266
349
290
321
323
274
289
242
331
303
303
288
291
277
263
250
273
244
253
273
261
266
