2397
2242
2170
2052
1987
1849
1737
1679
1480
1671
1564
1399
2104
1897
2069
2018
1987
1969
1901
2060
1835
1788
1827
1811
1821
1751
1777
1706
1791
1594
1638
1479
1592
1665
1695
1609
1603
1536
1561
1544
1554
2006
1814
1894
1978
2035
1963
1754
1736
1804
1728
1741
1790
1757
1609
1646
1674
1626
1642
1555
1549
1611
1507
1560
1730
1499
1630
1509
1564
1572
1445
1487
1596
1606
1422
1510
1639
1383
1556
1534
1677
1732
1970
1734
1700
1602
1712
1691
1696
1619
1597
1661
1697
1719
1575
1623
1843
1744
1628
1630
1467
1644
1493
1699
1669
1509
1827
1511
1372
1502
1603
1516
1306
1401
1357
1390
1526
1217
1484
1330
1302
1217
1438
1414
1744
1775
1660
1534
1696
1780
1677
1415
1583
1553
1713
1532
1639
1366
1552
1668
1699
1532
1443
1331
1475
1691
1607
1492
1159
1576
1454
1389
1426
1477
1390
1525
1622
1352
1570
1391
1490
1389
1350
1483
1328
1266
1220
1364
1416
1489
1434
1448
1414
1686
1552
1543
1476
1492
1463
1413
1273
1415
1224
1450
1373
1343
1579
1362
1277
1330
1113
1337
1274
1317
1337
1482
1273
1364
1461
1384
1334
1365
1364
1362
1376
1183
1262
1355
1236
1457
1601
1451
1576
1483
1293
1475
1353
1253
1432
1221
1438
1323
1169
1407
1616
1451
1238
1335
1303
1194
1322
1227
1236
1497
1289
1293
1130
1356
1251
1322
1416
1333
1233
1333
1412
1285
1332
1245
1360
1404
1350
1338
1447
1359
1220
1448
1422
1286
1116
1197
1204
1391
1498
1319
1293
1121
1262
1213
1123
1414
1243
1138
1295
1192
1326
1111
1117
1198
1426
1258
1390
1384
1306
1237
1495
1447
1334
1488
1403
1193
1137
1187
1297
1131
1143
1327
1237
1194
1349
1199
973
1232
1310
1059
1038
1133
1247
1133
1107
1232
1190
1110
1279
1370
1332
1195
1379
1320
1091
1238
1285
1084
1208
1079
1054
1071
1266
1279
1056
1130
1154
1167
876
1184
1146
1202
1385
1183
913
1224
1241
1377
1258
1062
1036
1119
1131
1302
1196
1344
1027
935
1186
1219
1041
1157
957
1188
1095
1026
1211
1115
1207
1087
1125
1008
1078
1000
1234
1004
1354
1083
1164
1088
1335
1208
1108
1076
1207
1044
1060
1129
931
1052
1110
1222
1121
1031
1082
848
861
1074
917
980
984
1080
1132
1190
979
1008
1093
961
1120
1196
922
971
1057
971
1007
744
991
916
975
1022
981
1079
1167
1190
1310
1192
1163
1073
1066
1186
1024
1252
895
1102
1024
1226
1080
980
1087
1109
1066
845
1002
997
888
945
911
1127
979
844
980
800
1040
1067
1174
889
1079
802
849
1123
1052
1016
1000
1009
1120
903
1331
968
1035
1016
884
1151
1238
1022
874
1021
939
997
908
820
1080
895
969
809
947
1144
883
859
928
979
1080
1007
799
937
976
1103
1020
833
826
1185
902
1041
1109
1117
858
880
995
974
1023
1068
1003
951
1011
959
944
926
823
987
1081
977
864
1083
1012
928
850
1142
1004
945
810
940
904
940
796
833
869
1034
938
918
816
952
939
1010
993
868
786
1012
932
900
879
711
893
980
995
839
874
950
771
969
837
901
961
888
896
971
663
970
718
1014
877
813
900
792
902
934
781
699
877
830
1215
886
863
992
677
919
676
804
866
943
970
940
883
726
893
855
792
854
849
811
897
840
911
869
931
910
892
754
860
703
804
854
801
802
826
801
911
766
910
804
757
757
923
734
849
848
785
673
727
880
767
684
803
744
762
795
773
731
783
753
794
837
756
955
931
760
808
660
749
830
731
724
771
779
842
846
700
606
762
734
794
756
818
719
820
734
975
767
751
796
720
875
711
797
710
752
866
625
961
747
753
684
735
719
729
788
780
783
659
603
769
690
761
687
693
773
751
730
764
816
824
805
763
701
663
592
650
729
643
686
688
744
688
697
811
721
709
597
660
847
682
681
620
640
750
715
585
654
636
653
591
930
807
563
821
678
631
690
855
681
609
645
698
673
708
645
770
728
700
622
676
581
730
614
679
593
672
584
548
660
642
756
585
604
751
624
684
609
676
691
674
582
644
564
509
572
680
606
715
660
537
556
592
572
663
646
601
660
533
629
604
664
597
683
767
650
667
531
613
563
670
565
662
615
571
543
604
488
579
618
584
536
535
593
591
478
522
681
528
537
690
528
484
560
560
538
556
555
590
710
440
569
525
516
529
561
621
588
603
536
528
553
606
470
666
466
484
548
488
459
636
404
501
559
515
507
536
478
509
529
449
707
484
463
556
554
528
510
514
590
530
611
529
472
585
507
471
524
538
548
420
513
572
580
576
508
526
589
513
423
467
430
455
545
465
470
506
517
446
371
453
440
468
439
484
396
492
434
457
594
473
450
429
419
593
407
441
430
467
459
445
446
461
449
410
411
379
436
420
391
434
427
467
376
428
407
464
419
368
506
494
386
403
388
375
378
456
469
353
383
414
345
445
464
405
451
410
395
434
368
362
399
364
346
373
403
382
313
406
407
382
402
350
344
327
417
277
314
401
342
350
371
368
352
376
373
361
325
373
347
339
318
322
325
371
273
278
340
370
325
318
271
323
333
317
337
279
353
