1550
1240
1157
1030
977
948
936
887
892
875
898
857
860
821
851
828
811
790
787
774
744
750
775
660
747
790
732
697
723
681
674
696
695
708
686
618
615
656
643
635
651
631
509
622
649
648
601
651
648
563
645
568
522
577
531
497
595
553
566
581
573
504
598
575
532
582
561
603
559
550
474
522
583
561
525
554
542
571
567
563
557
459
593
481
560
522
516
554
554
470
509
508
525
503
491
435
567
548
560
507
538
478
476
506
534
509
524
510
518
553
428
458
343
486
520
481
537
508
485
474
519
513
345
478
518
534
467
440
495
448
512
425
465
509
511
416
495
515
468
472
498
491
450
445
457
457
412
435
506
468
503
467
366
481
418
439
489
427
471
424
312
444
463
452
435
436
482
475
390
423
497
456
354
436
465
310
409
412
432
467
447
474
444
462
420
420
355
469
447
428
451
395
446
397
418
375
457
417
395
453
359
444
461
397
432
372
432
245
408
415
377
393
283
384
338
337
380
293
399
400
395
388
435
377
333
364
396
308
392
411
395
327
405
342
380
365
355
393
374
322
385
385
401
376
390
348
398
419
360
358
339
353
303
378
421
340
405
396
335
367
269
346
382
421
377
344
366
346
305
329
341
393
287
369
379
372
274
294
257
412
398
273
361
288
342
365
260
314
332
396
329
389
346
362
354
410
303
393
389
269
415
225
364
366
355
350
242
372
367
202
266
386
284
407
278
199
214
323
343
333
391
283
280
297
382
345
294
323
358
376
399
304
358
363
398
339
353
413
370
335
394
271
376
331
395
316
371
326
392
365
336
395
269
235
356
385
376
343
296
336
257
308
310
323
385
338
357
335
343
280
262
351
339
296
225
309
354
368
277
309
341
361
290
230
326
165
335
292
321
370
331
351
346
280
256
287
263
333
362
252
283
320
310
356
339
332
354
378
275
344
198
315
163
323
270
331
320
327
279
356
304
231
202
246
248
335
237
200
285
276
317
335
314
312
307
338
286
297
345
290
338
245
226
288
303
225
311
337
335
250
249
191
342
316
389
192
261
343
231
289
194
268
283
351
300
310
235
275
306
287
191
240
351
254
285
312
243
252
295
226
228
292
299
345
255
245
263
174
319
315
226
230
184
266
314
311
283
226
322
216
249
350
314
262
338
323
297
299
216
241
275
228
277
335
242
310
255
304
287
219
299
325
288
299
315
252
286
188
275
292
314
267
188
299
270
296
306
269
235
320
245
303
203
260
296
289
254
197
317
256
282
253
261
241
281
298
287
201
261
265
227
223
268
173
273
158
222
247
264
250
298
163
262
298
298
301
153
237
152
256
195
316
272
248
298
213
287
221
252
303
248
220
309
274
261
227
270
308
285
238
316
235
234
292
200
208
189
173
249
171
317
274
226
259
226
226
307
229
239
275
212
239
211
238
249
242
174
196
267
185
274
224
277
243
211
172
239
235
258
234
212
193
247
254
236
295
246
241
247
226
301
185
165
200
188
275
176
304
229
253
243
275
248
235
220
264
156
290
245
242
196
204
287
278
249
239
223
216
233
241
271
228
261
260
258
268
226
328
247
224
221
251
193
152
233
185
223
215
159
195
214
198
194
273
272
223
243
291
225
272
259
285
250
197
295
164
229
299
218
249
262
249
270
222
213
232
236
292
262
155
243
168
266
242
121
214
238
142
164
157
259
221
196
217
251
235
226
241
173
207
203
255
170
271
159
242
234
214
269
221
241
215
193
160
192
206
249
196
236
210
250
145
142
189
263
221
127
221
155
205
254
223
260
215
216
178
237
207
194
153
249
175
202
119
200
254
202
224
245
248
204
191
200
209
163
189
207
222
201
228
146
206
235
191
198
263
201
234
242
240
259
212
155
119
259
206
167
184
188
278
257
130
254
185
257
254
242
185
172
203
232
165
156
216
173
163
159
220
184
247
160
236
223
204
230
190
258
220
190
133
189
189
249
259
242
144
148
137
271
162
234
207
160
206
218
198
200
179
238
232
166
180
198
234
206
147
178
259
242
224
156
173
144
232
205
188
196
252
254
169
161
210
187
189
169
204
117
163
234
213
234
255
208
243
137
222
218
165
153
143
179
264
240
187
176
184
214
106
213
122
166
118
199
197
200
125
190
154
163
125
221
232
195
174
229
158
203
193
189
197
226
217
172
160
117
230
226
182
172
221
110
148
155
199
209
148
246
189
107
128
147
167
236
86
104
221
204
192
192
144
182
147
155
170
165
113
177
170
144
161
185
181
161
172
106
193
183
163
220
149
174
156
211
172
161
226
111
159
228
154
217
218
181
184
217
250
121
74
126
170
85
166
168
157
156
171
164
187
164
176
131
202
113
184
114
202
171
200
148
156
162
101
169
215
187
200
216
125
244
180
234
220
202
225
151
186
176
206
144
136
171
225
146
164
187
180
210
199
189
206
138
173
203
209
223
119
190
201
187
213
173
242
103
159
217
151
204
88
223
116
180
206
237
136
213
185
223
203
120
158
108
194
184
151
163
181
172
112
174
213
233
128
253
136
166
206
126
203
158
203
226
192
174
200
198
228
190
203
191
172
190
171
137
132
172
176
213
187
211
201
157
175
124
128
159
107
138
95
171
201
195
186
149
210
120
182
173
213
200
141
94
99
167
181
128
224
149
196
195
118
180
92
220
188
211
159
193
196
210
156
165
169
180
210
105
174
124
240
178
214
214
176
208
169
183
182
184
160
155
92
152
148
141
158
210
128
173
170
121
115
138
167
214
194
157
230
154
174
116
206
159
136
189
127
123
192
174
151
129
101
215
189
183
108
168
135
153
80
148
166
167
107
114
180
135
64
165
173
82
100
144
220
121
185
96
180
203
168
196
150
146
106
105
186
208
194
188
144
208
178
184
213
182
89
169
130
173
102
140
194
181
136
176
169
110
152
128
103
163
121
178
160
155
153
119
124
183
172
154
135
73
168
148
140
142
175
183
177
94
130
110
162
130
199
158
145
181
103
95
210
202
188
110
129
175
137
143
98
116
146
102
124
146
94
142
172
132
119
128
164
135
76
155
160
54
149
157
216
219
170
93
206
124
163
148
192
171
180
182
145
184
148
173
121
134
204
184
160
183
105
132
156
130
202
206
166
122
129
118
131
153
150
165
85
94
161
103
173
111
165
162
191
201
190
134
157
181
172
145
116
123
106
151
163
169
214
147
153
92
181
128
139
128
168
125
146
175
157
114
106
208
163
175
141
198
94
99
155
119
184
120
173
175
89
194
165
149
82
73
85
153
113
148
130
164
90
101
108
100
110
182
194
155
136
168
125
119
175
212
141
112
167
181
109
151
104
107
115
120
170
106
135
157
171
161
119
215
176
125
99
98
82
146
157
134
98
126
99
158
159
118
167
134
135
145
128
145
92
167
113
117
100
133
124
77
143
83
181
95
114
150
144
90
120
139
100
172
157
119
114
136
170
97
149
126
141
113
140
119
108
139
78
190
98
212
110
119
166
101
168
159
103
150
91
114
140
68
129
147
86
99
158
201
119
179
132
125
112
151
136
79
134
181
181
181
141
138
170
99
89
111
104
120
159
114
116
131
111
201
68
166
134
129
114
96
111
155
180
60
80
109
135
94
74
168
138
107
126
183
115
118
81
106
159
150
182
145
46
112
167
137
68
111
188
118
123
174
132
151
131
115
125
151
173
85
84
128
139
61
105
92
102
110
99
159
167
149
89
157
92
98
72
101
125
144
73
175
79
174
109
102
107
141
78
148
146
142
157
166
127
121
78
108
67
150
153
69
103
121
87
58
120
169
141
144
111
51
140
88
132
134
168
157
142
115
175
118
153
94
70
111
129
110
118
88
108
137
100
129
162
118
89
129
135
76
162
140
137
172
99
126
167
61
65
115
104
158
152
149
163
93
115
126
126
158
129
83
113
141
154
115
115
135
138
107
97
146
155
134
161
192
109
125
153
129
113
153
66
112
145
122
143
133
111
185
145
126
78
91
192
138
63
53
126
132
100
135
128
107
54
143
63
62
137
104
141
107
119
146
154
67
61
192
130
142
90
109
101
91
165
138
175
73
103
159
108
127
151
137
176
76
135
87
110
168
144
126
169
36
70
91
102
152
163
167
118
106
127
75
78
70
168
88
136
85
92
97
108
122
100
114
115
152
155
85
110
163
78
147
74
79
147
85
146
91
42
126
121
126
116
67
144
101
151
134
152
145
157
82
142
126
102
113
147
123
152
167
85
160
137
155
96
176
126
158
145
149
91
94
94
106
139
145
124
41
46
111
98
160
120
106
106
100
110
146
135
84
156
168
110
113
157
105
61
117
105
150
140
150
158
64
172
96
134
82
83
108
128
122
93
138
143
119
84
71
98
135
84
116
148
79
114
88
73
52
137
129
109
105
124
110
75
124
116
141
120
125
124
76
137
70
95
126
151
69
72
65
103
117
81
72
110
83
69
77
82
78
52
139
106
125
93
92
97
65
91
123
66
160
100
167
89
89
112
117
117
133
132
134
99
132
136
133
104
149
75
87
74
121
140
85
74
77
103
163
98
56
148
94
63
154
109
99
100
88
158
95
98
99
85
145
115
121
124
67
131
56
96
147
115
121
158
81
86
53
48
76
64
73
161
149
68
40
58
86
96
34
128
84
123
69
157
50
140
81
114
88
108
144
70
86
100
103
54
156
79
66
91
117
101
142
85
123
86
121
118
100
140
98
115
59
137
86
113
59
92
107
123
95
126
108
114
147
130
109
105
90
92
93
57
73
123
118
122
113
123
113
113
161
119
147
106
192
94
107
70
136
111
129
153
101
96
90
107
125
175
132
163
146
56
70
80
109
121
117
113
96
99
84
170
43
66
44
79
120
96
83
125
134
109
99
151
126
103
89
47
104
65
105
120
78
89
122
63
138
135
124
47
103
40
64
109
73
136
123
80
128
67
110
95
156
116
96
78
94
117
70
97
89
136
113
93
143
147
116
108
169
54
91
153
65
81
127
74
109
105
51
101
64
50
112
95
128
140
132
104
96
112
148
57
93
29
97
92
54
109
59
91
90
118
96
76
81
99
115
73
104
84
93
71
103
70
122
60
105
106
94
79
102
110
137
100
111
141
107
124
90
157
128
55
109
103
51
133
108
76
147
96
73
119
88
43
102
72
132
103
124
140
108
112
106
137
75
115
61
46
126
103
122
104
120
111
65
115
85
54
104
146
110
95
95
134
119
109
74
124
93
122
113
126
145
123
103
103
123
46
92
75
113
94
115
99
93
99
116
80
110
137
96
74
103
150
140
85
79
114
65
89
75
51
69
119
56
115
96
128
82
128
110
132
69
85
139
150
80
95
89
69
114
111
52
107
160
81
75
81
134
118
109
62
80
83
70
131
70
73
114
125
65
107
102
137
147
93
65
117
54
66
104
94
126
100
74
118
73
58
129
136
92
163
151
75
109
98
25
130
119
92
70
61
82
93
107
54
42
99
120
83
105
114
87
95
62
76
65
95
83
64
79
87
122
99
85
66
122
107
109
55
69
82
63
45
70
105
115
44
64
102
110
104
89
96
55
84
108
119
47
145
105
77
46
57
57
116
70
90
110
135
47
103
87
47
126
92
132
93
112
51
65
55
104
65
112
147
91
78
83
50
128
104
90
120
76
138
118
78
48
72
72
38
125
65
99
130
121
84
91
68
161
160
92
63
83
123
98
69
98
97
75
79
82
118
42
141
102
133
97
80
122
106
125
124
67
95
89
113
120
88
90
145
43
76
99
101
86
106
118
64
100
124
109
150
56
83
54
116
92
133
89
128
126
133
117
113
32
67
69
54
141
91
38
76
49
118
106
161
28
81
110
84
118
99
108
167
98
64
78
94
59
36
125
70
72
121
115
146
85
104
87
84
86
100
92
66
109
48
73
90
146
46
110
77
47
118
81
110
91
113
30
84
65
121
84
103
132
83
69
46
91
77
82
59
130
63
65
116
80
43
123
82
152
105
68
43
74
111
95
38
88
52
88
52
70
112
68
102
116
132
92
129
50
63
56
93
109
57
97
123
101
106
102
71
101
89
120
63
71
124
58
82
123
84
91
78
98
110
84
108
76
94
77
140
118
60
136
95
88
52
52
111
129
90
43
135
104
53
82
112
161
116
52
49
43
67
59
96
36
118
55
93
102
60
80
90
66
114
118
44
58
58
70
100
94
53
81
53
49
36
59
51
85
124
76
58
108
83
74
57
81
107
71
49
82
76
113
92
81
33
143
38
49
73
56
51
75
107
48
103
105
93
136
68
76
95
59
111
132
113
65
111
63
82
115
79
108
108
81
51
120
108
131
87
83
86
108
54
83
116
130
98
67
103
37
43
67
97
121
91
35
86
52
106
31
42
104
81
80
113
113
86
133
63
81
84
133
87
57
81
120
124
119
70
72
100
77
94
107
46
93
55
127
71
54
72
103
119
100
100
35
108
104
31
62
115
37
50
107
146
55
110
93
44
45
96
73
73
83
72
33
100
54
130
118
55
95
48
65
102
144
79
124
92
96
89
39
135
52
47
55
41
71
94
113
113
109
101
74
75
86
76
109
124
105
69
88
88
77
94
45
58
63
119
65
58
65
68
41
121
98
70
63
55
51
69
112
110
57
60
59
75
65
69
54
103
97
101
59
80
105
108
76
44
42
67
101
73
58
37
71
77
108
52
56
142
96
116
97
52
102
81
50
85
88
73
44
95
109
76
131
58
49
26
95
115
54
87
42
91
93
30
99
70
114
98
96
60
69
78
86
42
76
85
51
92
53
114
83
108
32
60
82
65
115
66
74
129
52
75
68
82
79
56
25
62
108
62
69
96
34
32
79
39
40
86
94
60
60
80
74
48
78
47
69
59
93
39
71
22
86
38
45
62
87
118
55
62
79
73
58
68
81
65
88
106
118
72
96
111
69
114
48
62
82
59
98
81
29
91
102
62
102
56
40
130
98
39
49
65
61
110
57
77
92
88
79
117
42
69
41
123
126
53
64
110
75
117
36
61
61
51
77
40
38
101
91
79
81
107
139
81
129
36
58
91
56
43
38
57
107
98
71
80
68
94
73
87
95
96
46
66
90
83
109
123
64
45
152
51
69
71
68
47
51
54
68
103
103
49
68
51
57
41
94
80
84
40
64
38
110
102
36
99
35
62
74
53
78
79
84
64
94
64
91
101
66
66
116
59
40
25
46
37
54
86
52
76
66
56
92
116
113
26
101
31
80
83
92
70
63
69
33
110
98
72
47
95
31
92
88
108
140
99
116
44
89
41
22
143
157
66
40
88
42
76
83
51
106
54
44
105
95
117
115
59
39
56
39
68
57
68
77
56
70
80
86
53
51
79
45
78
72
94
75
102
74
103
103
69
96
96
131
107
53
44
48
40
68
69
81
112
73
67
75
34
60
48
51
45
110
52
92
14
53
61
35
56
53
72
89
57
107
101
81
87
71
35
80
81
90
73
112
110
106
97
100
68
68
107
70
81
80
101
66
86
75
111
31
83
133
56
76
104
47
116
63
118
63
88
81
56
62
40
55
77
83
100
43
85
68
41
59
61
94
90
71
73
86
103
128
104
24
100
107
41
90
89
92
101
72
69
97
70
55
93
74
117
43
100
48
79
56
90
85
96
52
65
31
76
69
64
110
81
58
53
77
66
51
56
92
94
92
28
50
36
59
67
91
67
77
75
64
80
98
109
99
76
83
63
71
42
38
81
19
100
78
111
106
81
76
49
70
62
71
78
64
76
97
57
47
51
65
82
57
118
27
105
49
90
117
98
57
102
74
36
107
62
92
74
79
73
46
80
82
100
71
99
52
22
49
98
24
53
55
81
110
109
79
91
63
83
101
113
105
102
88
42
47
97
55
35
40
55
29
60
106
70
92
102
36
31
43
26
62
95
48
68
87
46
45
45
77
93
39
38
71
73
62
61
16
56
112
50
35
47
63
47
27
63
76
42
78
114
109
67
111
115
84
33
25
59
76
88
95
59
81
32
42
56
51
58
43
35
84
87
66
40
82
53
17
56
51
27
30
83
76
82
48
26
28
57
96
79
123
59
81
92
88
85
36
67
38
63
52
34
40
92
127
42
100
85
58
33
46
104
102
40
39
15
55
61
57
67
31
29
83
64
58
34
65
21
16
70
98
54
95
87
82
56
116
25
29
59
87
87
64
56
63
70
38
21
85
32
41
32
74
64
44
45
64
67
83
66
33
44
108
83
56
37
37
66
47
75
43
40
52
74
82
87
45
69
111
37
60
86
100
99
38
29
57
28
83
50
37
70
44
59
101
78
90
70
94
85
66
26
77
70
114
70
66
95
56
86
136
53
32
70
76
82
86
31
101
79
60
76
109
95
41
103
39
42
52
141
45
27
55
76
50
66
41
57
101
83
71
79
67
51
62
66
59
86
83
41
93
80
60
53
32
34
53
64
67
47
43
86
61
73
75
77
25
23
47
113
110
54
44
52
58
78
103
16
75
51
68
75
51
25
63
58
97
72
48
79
65
64
36
54
42
58
89
108
41
50
56
96
31
49
79
68
80
56
77
58
56
41
13
68
36
65
66
103
60
62
35
89
50
56
44
52
88
53
46
107
82
37
54
52
27
46
55
93
76
46
60
56
111
57
47
21
83
89
46
80
92
46
38
58
26
52
57
25
92
79
64
61
54
50
49
78
106
74
57
89
54
87
101
27
20
82
53
47
40
93
91
37
49
34
39
57
63
40
72
25
58
68
94
46
57
43
42
76
53
77
24
49
46
62
36
29
72
87
95
99
87
42
90
79
22
31
86
45
69
31
32
64
41
86
59
56
75
59
76
82
72
86
47
40
65
95
54
76
45
81
62
46
101
70
37
24
97
89
65
85
58
15
97
31
43
50
68
35
87
93
30
34
57
70
72
94
39
56
57
63
81
33
34
48
87
70
69
86
114
68
55
87
43
74
32
42
37
42
64
36
58
62
87
49
33
76
35
54
53
33
35
60
73
28
71
76
96
73
65
94
94
80
81
49
49
67
29
100
52
83
94
39
72
50
22
53
43
70
57
72
40
67
54
74
81
94
66
61
45
32
23
60
84
73
68
82
19
67
98
32
54
68
36
63
69
37
10
54
47
50
68
27
56
77
81
73
36
24
30
75
45
119
89
60
65
30
31
40
51
27
64
80
73
29
68
45
121
87
36
51
54
68
47
79
62
64
50
38
85
58
64
108
14
72
40
34
33
51
60
66
68
34
49
51
49
85
70
44
69
46
77
42
106
76
63
76
46
65
69
27
64
50
46
52
38
59
33
91
47
41
74
69
43
51
75
47
91
27
62
41
76
52
73
70
60
69
67
71
47
25
38
28
33
55
65
75
34
48
67
71
55
60
42
65
57
75
37
47
37
34
59
43
48
67
65
31
43
44
44
26
52
98
38
53
56
78
39
57
41
42
73
47
29
59
29
58
106
107
83
56
83
36
45
47
59
39
69
54
28
104
58
42
92
75
38
32
96
63
34
93
71
54
54
44
29
72
40
70
54
32
56
66
52
87
60
62
45
52
48
86
25
43
62
19
43
52
56
15
55
54
65
20
68
47
64
43
47
42
83
56
44
38
74
60
28
53
34
73
88
55
55
94
52
57
26
52
43
75
35
27
33
60
48
84
79
33
72
46
31
33
35
63
43
81
25
43
11
29
56
48
64
59
104
43
81
87
99
50
33
70
39
46
93
47
53
23
77
63
42
23
77
74
40
35
36
57
46
49
50
49
47
30
91
28
35
25
17
56
22
46
64
68
97
24
52
45
36
49
45
43
68
78
41
76
56
82
25
68
57
69
86
105
104
44
48
60
38
70
88
64
73
97
72
54
72
84
59
82
57
70
61
77
103
54
70
35
30
46
17
25
33
89
29
49
49
26
42
50
56
65
37
52
45
66
57
67
77
37
95
54
73
34
67
47
59
19
85
65
16
74
32
73
39
38
61
44
63
73
74
71
34
48
28
30
76
84
68
40
83
40
33
28
84
60
60
33
56
47
75
56
89
67
39
69
22
108
41
50
47
62
67
53
102
32
51
93
61
58
48
30
53
27
22
33
70
55
38
67
43
50
8
38
88
43
93
38
54
91
41
45
41
56
73
30
39
26
47
22
58
75
66
57
47
60
65
39
53
38
19
63
42
46
36
52
62
50
49
79
61
56
72
52
50
55
45
65
33
44
37
39
37
50
59
42
49
66
81
83
50
36
63
57
56
46
33
51
79
69
35
97
36
34
87
50
53
41
61
58
76
50
54
67
47
43
33
58
55
80
85
50
28
61
55
69
53
68
16
30
85
71
74
64
62
58
76
73
58
79
81
47
83
66
37
64
49
59
48
48
80
48
65
31
19
43
62
71
35
72
32
40
51
81
67
74
80
84
84
63
30
98
34
57
77
84
57
32
97
65
26
41
51
33
37
65
46
70
65
25
92
87
67
51
26
75
47
49
71
49
74
37
24
32
65
50
45
80
71
50
59
39
46
39
35
49
80
68
52
27
37
33
18
43
68
71
47
49
48
50
43
36
81
86
25
20
81
35
40
25
65
44
25
83
66
58
32
12
34
41
37
73
15
26
34
93
63
28
18
20
19
70
72
58
70
32
77
32
31
86
6
32
45
73
42
41
74
95
40
46
63
73
31
30
70
57
38
48
85
36
45
46
36
80
8
90
54
68
44
58
32
50
46
23
40
47
54
56
40
20
45
36
91
46
86
30
82
30
32
55
84
24
42
17
48
70
70
63
42
64
63
58
55
27
15
32
37
37
65
65
25
66
52
21
37
35
23
50
24
43
29
87
76
58
42
27
57
81
21
28
29
47
24
56
57
18
35
30
42
29
47
32
56
46
54
36
26
95
81
33
49
64
88
23
30
48
55
41
34
47
62
59
45
35
68
58
29
74
43
73
31
40
29
63
28
74
30
27
45
45
52
70
48
41
92
33
56
45
40
4
74
75
42
35
34
53
21
66
22
32
29
58
65
42
37
60
83
48
42
35
26
17
43
65
63
23
34
46
25
32
35
34
44
65
24
42
36
89
44
24
42
98
48
66
58
77
29
85
26
30
39
56
44
77
65
43
20
47
27
23
47
52
43
40
27
22
49
44
63
58
23
33
59
53
37
36
62
40
43
83
81
15
36
73
49
63
35
43
53
97
45
36
52
57
50
26
32
57
62
59
78
70
56
37
40
35
40
72
76
57
61
14
13
40
99
60
62
53
30
39
58
77
53
36
49
36
43
47
45
71
52
49
51
14
34
33
77
46
22
52
60
82
71
45
39
32
10
41
33
48
63
22
71
40
66
62
26
32
26
46
48
65
20
53
54
69
66
56
40
65
36
80
50
19
42
21
50
57
34
62
40
64
18
28
48
34
13
18
58
30
60
51
37
34
19
32
45
31
30
52
51
37
62
32
57
39
46
43
37
46
61
33
34
57
50
12
53
56
49
71
49
59
51
53
67
55
61
31
41
64
57
37
59
32
30
34
24
63
7
33
55
40
60
24
30
53
62
16
41
13
52
71
20
53
25
55
79
85
78
30
49
70
47
51
56
55
80
85
61
57
56
61
93
36
80
73
38
66
39
54
43
17
59
33
36
31
46
65
85
26
15
22
70
34
64
23
49
35
57
29
53
57
20
27
24
75
44
60
13
50
40
55
10
82
9
25
66
22
52
89
70
38
51
36
68
25
29
50
28
25
49
74
37
65
37
31
51
70
57
48
31
52
47
65
29
27
36
47
22
14
53
55
58
58
39
32
31
36
27
81
37
13
81
24
19
63
29
34
21
29
23
60
70
56
83
69
27
44
41
70
49
36
22
47
55
41
33
58
33
17
33
73
26
20
72
39
40
54
31
15
31
49
60
68
56
57
86
26
46
101
23
91
56
48
37
46
25
26
61
64
41
45
79
22
78
8
25
35
44
31
27
27
10
36
14
14
85
58
74
74
61
81
67
46
33
32
38
49
20
37
42
24
90
34
52
88
38
37
64
85
22
61
31
43
47
49
21
62
58
31
23
23
42
46
51
25
54
35
35
64
29
32
29
42
33
29
43
61
83
41
54
19
59
52
95
25
60
14
48
37
74
43
67
47
67
54
48
22
11
33
48
57
37
66
16
34
40
58
50
44
46
45
28
44
38
64
65
45
81
55
34
67
42
44
47
83
84
38
82
17
39
85
65
59
30
44
91
37
25
28
49
62
55
69
44
36
27
35
75
24
41
34
29
54
70
40
32
40
13
10
48
51
39
38
21
62
44
72
49
34
45
77
63
15
81
58
49
42
37
10
43
16
23
34
25
30
22
65
35
20
48
20
15
59
29
11
9
45
50
56
40
31
52
40
42
34
38
22
35
48
9
41
55
45
37
34
39
39
10
39
34
53
57
46
42
21
67
78
23
47
36
21
44
38
44
49
15
39
34
47
82
57
56
48
16
21
54
15
28
40
45
25
50
38
15
52
69
37
74
40
33
45
14
50
64
22
31
21
25
7
26
20
7
46
32
69
40
23
62
53
19
65
37
29
34
33
39
54
45
27
61
55
58
44
64
21
5
108
24
52
35
72
34
34
51
23
40
47
81
36
77
32
20
44
11
47
52
49
17
55
37
59
39
30
61
62
75
47
45
42
74
49
25
18
26
33
22
54
21
60
29
29
59
31
53
48
27
46
45
82
52
33
51
25
51
43
21
53
42
68
61
31
40
83
48
58
34
30
7
28
40
47
40
82
28
32
36
42
51
33
46
28
52
36
27
45
25
37
39
24
70
52
21
36
57
61
82
36
46
31
30
30
33
26
72
30
13
39
34
31
39
32
41
30
62
64
46
26
48
28
49
48
45
58
27
45
47
49
42
71
41
33
13
61
36
60
54
55
35
28
38
30
24
29
16
12
17
30
70
57
48
45
28
29
42
94
59
49
59
27
12
82
59
32
23
47
23
24
38
21
19
73
38
18
33
61
9
20
65
52
41
34
29
42
45
42
66
61
84
39
34
44
26
64
30
61
49
12
40
44
27
34
32
20
32
18
28
37
23
83
26
20
74
50
67
27
44
19
21
27
55
22
19
40
56
43
68
49
27
26
32
22
24
45
33
22
38
21
54
71
48
17
46
32
34
69
39
50
56
25
34
40
40
43
7
50
41
26
45
47
48
57
37
32
38
76
65
20
22
41
31
45
70
76
54
64
69
56
38
15
46
60
35
28
33
24
62
53
32
22
43
22
58
47
43
24
42
14
47
54
50
46
21
36
39
20
25
54
36
19
37
71
56
21
48
52
65
15
31
49
54
65
37
61
64
55
22
40
12
22
81
11
24
23
32
58
47
31
14
36
28
27
45
56
41
52
26
37
50
44
67
11
23
38
36
40
46
29
13
17
38
39
72
17
26
58
30
25
40
15
36
75
58
24
51
29
38
45
20
61
45
40
77
36
13
45
44
35
59
54
55
27
21
19
43
36
27
52
46
50
24
32
40
31
35
50
40
54
22
31
64
55
48
15
38
22
62
29
38
7
22
18
48
39
49
48
36
11
18
19
77
26
23
45
52
39
29
12
14
21
18
24
20
18
30
39
42
22
30
60
77
49
29
33
38
34
20
22
64
40
28
75
28
32
46
59
26
52
67
30
22
38
22
42
27
20
22
47
26
28
23
44
31
51
68
40
35
44
45
18
38
69
34
44
8
39
20
14
42
31
87
22
87
78
51
67
29
42
52
12
31
33
39
34
22
36
47
26
17
32
64
32
37
54
39
44
25
19
60
27
52
30
46
31
34
41
14
11
59
33
64
63
11
20
20
30
37
63
58
45
47
46
68
46
20
85
40
25
56
20
21
32
50
61
36
18
24
45
34
21
41
14
18
75
30
34
35
12
19
23
33
28
14
24
31
47
66
40
34
58
28
19
15
56
31
51
9
17
41
56
40
35
5
12
55
24
52
55
36
38
30
20
10
13
52
33
64
25
42
28
50
51
58
36
27
27
42
39
35
15
60
48
50
35
31
54
39
36
41
9
62
25
34
23
40
50
14
59
17
35
35
41
33
37
14
41
32
31
9
30
24
17
35
24
43
13
40
22
37
63
33
18
64
46
35
37
56
47
34
52
17
56
41
8
15
36
46
50
29
19
27
43
23
71
46
25
26
13
14
40
33
26
42
50
54
65
30
14
24
62
36
58
27
15
41
26
36
48
39
64
17
29
35
38
51
25
60
48
54
22
34
40
44
60
29
39
47
0
55
55
29
16
71
31
28
33
25
21
55
72
62
49
48
39
16
45
52
24
69
63
25
65
42
59
31
52
27
48
25
47
16
23
20
19
35
21
45
40
34
9
43
51
11
55
24
37
21
55
31
13
38
53
63
48
45
52
30
57
22
27
20
50
40
39
45
19
18
43
34
17
23
20
30
13
23
26
47
8
29
33
49
45
15
45
44
56
23
37
9
36
20
28
51
31
33
32
71
72
48
46
39
36
34
53
12
42
66
18
31
17
61
49
30
14
43
12
29
23
34
57
36
81
43
28
14
51
24
33
40
23
52
54
44
81
10
41
41
66
42
44
40
32
42
35
41
34
17
5
19
20
30
50
85
11
33
30
44
38
29
43
45
16
15
27
39
33
53
20
14
44
72
61
60
38
26
52
24
40
21
27
43
22
55
61
23
20
32
6
24
21
55
31
31
48
6
18
48
41
29
8
54
22
24
31
31
35
22
22
43
20
25
30
11
22
48
12
44
19
18
50
46
20
16
32
33
10
21
21
36
70
29
52
21
44
21
27
26
36
48
29
31
25
37
59
24
52
30
16
48
9
6
23
11
9
15
23
17
39
19
22
23
13
31
38
21
34
19
48
36
67
22
11
33
48
65
69
17
44
28
25
52
12
42
18
18
26
50
16
41
16
28
25
62
41
27
13
22
67
43
32
15
56
23
43
44
11
24
42
20
60
65
47
19
72
49
31
50
16
48
12
35
42
13
24
57
60
59
30
6
27
18
8
18
32
29
39
43
23
26
31
31
34
36
11
31
48
44
53
53
20
57
27
28
33
6
32
38
44
46
16
15
35
16
16
36
28
19
23
16
15
48
31
24
20
41
71
47
36
38
24
23
71
64
49
30
42
21
19
20
35
29
37
13
44
13
28
23
36
38
53
64
14
17
29
25
37
12
18
15
26
21
49
32
33
13
31
13
64
66
43
32
47
64
22
12
26
21
38
10
42
16
34
32
30
49
60
34
48
60
20
24
58
31
57
40
41
17
10
18
76
21
28
14
17
21
43
39
52
18
34
20
38
14
41
31
50
48
38
65
54
39
40
30
28
19
49
20
32
17
13
38
11
14
42
19
49
48
57
48
42
26
34
47
31
54
32
11
26
17
39
37
70
30
40
21
22
22
40
12
51
28
18
49
36
36
10
25
25
35
23
33
58
27
15
31
53
19
30
13
35
47
21
42
23
10
32
39
30
53
17
23
21
40
11
24
41
50
44
39
36
31
38
36
34
18
12
28
41
11
34
46
9
17
29
39
79
17
17
40
34
40
14
38
7
60
12
27
24
36
11
34
41
17
28
36
12
73
35
45
53
48
24
51
11
22
18
33
21
33
28
50
36
42
27
44
32
43
43
24
41
26
22
42
35
40
23
37
60
19
31
44
32
45
32
15
56
9
13
48
20
14
61
18
48
24
50
15
33
18
16
35
60
70
47
24
27
39
21
18
14
44
13
24
16
25
62
43
42
19
32
21
62
62
16
37
56
34
23
21
34
18
40
17
2
45
28
54
20
33
32
25
39
7
71
9
10
42
29
38
17
19
47
68
36
55
32
45
35
17
40
23
27
28
72
15
70
14
46
21
12
46
26
24
40
33
42
43
27
28
25
24
15
23
58
59
35
19
36
28
47
13
48
59
57
53
26
30
10
19
45
26
47
38
38
18
17
12
22
26
50
30
44
10
23
42
40
21
21
47
62
6
56
4
21
33
34
18
18
29
68
45
52
48
31
38
40
59
35
22
50
37
16
35
13
20
41
59
18
24
29
50
8
20
52
39
29
10
19
25
41
25
5
6
17
51
42
28
49
36
37
44
50
24
36
37
17
20
38
25
39
39
53
51
28
30
29
23
53
36
30
42
23
25
25
17
7
14
40
42
8
8
39
18
47
26
9
57
27
10
11
12
14
66
50
30
40
33
29
24
40
25
20
25
12
19
34
50
37
32
43
60
22
26
41
29
19
51
32
41
23
27
32
49
5
52
13
30
27
35
17
51
19
32
31
27
37
41
14
35
44
35
12
33
9
15
11
31
40
11
20
35
29
19
13
35
43
45
17
54
25
41
53
15
23
13
34
47
28
51
9
23
50
30
22
12
40
22
22
28
20
46
50
24
27
11
32
20
20
27
28
22
31
3
64
35
39
22
23
25
52
11
27
14
30
12
23
30
17
39
6
8
32
21
7
27
17
39
32
48
46
42
13
7
20
41
28
25
29
26
28
28
21
30
29
15
18
32
35
25
12
41
39
32
16
26
43
31
48
65
6
20
27
29
47
10
34
6
29
10
10
29
47
50
30
48
22
13
33
15
21
18
30
33
19
12
25
31
44
22
13
26
21
19
51
14
23
12
31
34
19
15
17
26
50
20
17
27
30
24
21
36
32
33
18
33
41
23
47
61
45
32
37
44
36
25
20
13
33
23
46
23
14
10
25
17
33
51
18
20
38
39
37
30
56
19
23
64
34
22
37
21
31
28
41
12
32
44
5
51
69
19
23
33
40
54
33
22
27
16
31
42
55
30
43
40
34
38
39
28
44
16
33
14
10
20
23
32
13
16
7
44
44
44
27
40
17
25
31
5
20
17
8
19
36
26
19
51
24
14
23
36
28
47
33
34
32
13
16
53
47
20
17
12
31
34
21
15
13
28
29
51
42
18
13
20
10
36
38
30
34
36
13
20
29
51
4
30
26
13
33
39
31
33
8
9
26
14
47
42
48
12
11
28
4
55
10
6
35
22
40
25
7
28
19
39
13
36
45
27
34
11
31
11
12
46
23
61
34
30
18
31
33
34
64
39
14
38
16
29
33
22
25
38
34
19
11
36
28
14
28
28
59
53
23
29
25
68
61
15
16
13
19
14
51
31
14
25
37
6
13
14
11
30
20
37
21
9
22
49
47
18
23
37
41
47
20
43
16
60
58
19
44
28
50
46
7
16
12
13
15
56
7
26
10
7
12
15
44
26
33
21
37
39
27
24
20
42
27
21
28
36
29
33
45
24
13
39
37
16
39
44
32
11
39
46
11
32
37
33
17
26
33
7
47
28
34
13
19
11
20
18
17
19
23
43
14
25
27
72
15
42
32
43
47
23
44
37
43
11
51
43
17
30
34
39
22
33
61
51
22
26
26
19
11
64
20
36
37
58
55
20
37
27
27
27
29
15
25
19
26
11
20
41
16
18
21
10
32
17
29
27
9
22
30
40
21
20
19
31
37
12
38
9
15
28
26
61
12
22
31
29
44
33
49
27
28
41
29
26
38
32
49
27
12
16
24
14
38
27
25
14
15
26
17
15
19
23
13
20
21
14
33
31
28
28
8
11
6
20
10
43
38
20
39
20
12
35
41
25
27
51
26
10
34
38
20
7
27
25
67
15
22
20
40
18
12
24
11
28
7
29
18
26
12
28
42
10
63
21
23
26
11
25
34
8
42
58
27
19
39
13
37
19
45
4
21
38
36
35
17
7
58
38
46
17
13
50
33
28
21
15
8
29
30
26
26
13
37
12
42
32
24
21
32
14
15
24
3
32
45
19
18
36
50
43
24
21
36
22
22
26
18
41
21
21
20
8
11
47
23
28
14
19
14
14
12
7
26
15
53
38
8
10
22
22
15
47
16
21
11
6
41
13
38
10
12
37
29
51
46
51
10
20
29
35
34
43
19
24
22
43
31
41
26
10
27
33
38
42
17
4
23
5
32
21
16
10
43
23
52
29
16
20
58
38
17
53
30
27
17
41
38
4
25
42
54
12
18
16
24
61
31
44
57
35
17
23
17
12
35
43
39
20
42
15
24
17
22
5
32
14
14
27
55
35
16
50
21
30
35
15
14
19
16
31
30
35
42
22
6
20
17
18
14
17
44
25
28
24
13
18
19
15
26
7
43
15
8
16
7
3
28
21
11
11
36
8
20
39
27
21
14
11
18
32
19
7
53
45
13
31
9
41
42
20
32
56
33
27
15
17
25
7
29
29
17
9
61
58
26
33
32
17
20
57
25
12
8
11
35
7
10
39
49
11
11
15
35
12
25
49
31
56
55
36
8
37
16
14
46
60
17
13
37
18
23
30
12
36
25
31
45
19
2
30
18
14
13
34
56
11
9
18
27
6
11
32
33
32
23
35
28
26
27
25
12
42
19
16
20
21
23
36
12
26
9
23
38
9
21
53
19
24
69
23
39
26
25
13
22
25
32
45
28
19
15
42
7
17
7
21
27
16
22
32
48
32
28
24
7
25
24
25
26
19
10
17
21
29
19
27
15
14
24
16
43
31
33
15
28
21
23
20
33
23
30
34
35
22
26
32
15
11
20
20
30
37
13
49
32
23
23
24
21
26
30
22
36
17
21
49
23
39
11
26
28
32
22
13
16
36
12
7
27
39
51
10
7
42
37
56
25
17
38
25
31
14
19
15
49
47
16
39
21
36
13
26
26
16
14
31
46
32
9
51
17
16
40
47
25
45
24
14
26
13
52
46
8
25
41
47
15
26
27
15
19
33
42
44
9
30
29
36
24
30
16
23
42
20
22
58
12
25
35
44
27
12
15
4
25
39
40
39
18
8
12
16
9
22
21
23
8
42
47
22
20
16
27
16
26
30
25
11
40
12
10
24
51
12
36
34
36
30
25
19
37
53
29
31
17
17
26
18
13
22
27
6
25
15
15
24
17
15
12
43
19
47
17
24
26
22
23
40
18
46
18
27
24
4
2
20
28
17
16
21
13
19
24
39
37
19
21
22
6
19
11
27
13
41
14
27
28
5
8
16
23
13
40
6
17
27
23
16
17
32
29
33
36
28
45
24
31
32
31
43
37
32
45
27
42
19
37
27
38
28
23
4
29
11
20
15
30
42
24
5
40
5
13
27
19
25
21
14
45
11
47
13
6
11
25
34
15
18
11
12
19
41
30
37
42
9
27
41
35
5
18
23
22
17
31
33
46
23
41
14
29
30
32
11
8
28
22
26
20
36
42
17
42
15
23
6
25
42
24
16
28
29
41
5
10
28
17
6
10
49
26
20
32
24
40
39
34
36
19
36
30
29
29
24
25
4
22
17
22
28
24
55
29
20
15
17
33
10
13
31
34
17
15
50
34
21
13
7
33
17
14
29
6
18
44
3
15
14
35
7
16
19
23
35
12
35
3
3
49
20
36
29
35
6
37
19
31
6
13
15
21
12
32
15
19
32
47
52
41
14
13
24
25
25
32
36
9
29
22
27
22
23
26
6
18
20
23
45
27
11
6
19
20
18
42
27
7
32
25
12
38
7
11
25
8
14
30
36
46
31
25
24
4
16
3
24
23
34
11
28
31
18
41
32
14
26
26
49
43
18
14
22
19
30
13
38
21
26
25
16
42
9
27
20
20
19
9
48
10
41
29
55
14
27
40
23
15
13
24
25
54
11
19
8
26
19
29
20
15
19
12
43
22
27
17
27
28
19
16
46
18
13
20
10
9
18
8
41
30
7
18
27
24
25
17
33
35
14
12
28
46
7
11
18
8
32
20
11
31
43
38
25
17
14
24
23
11
4
6
7
26
15
37
13
21
67
17
15
22
50
43
28
27
25
25
27
25
22
21
63
9
9
11
25
37
26
12
17
34
21
24
34
16
24
29
12
43
17
63
12
30
7
20
37
20
29
29
16
24
11
19
13
46
17
33
17
7
19
6
14
14
3
21
20
31
39
33
42
10
46
27
43
5
22
28
21
38
24
18
14
10
18
31
25
19
13
18
24
25
12
38
12
7
24
38
22
12
29
27
22
23
44
49
47
31
6
35
11
9
25
17
21
11
10
9
43
55
44
53
18
27
36
14
4
25
37
14
43
17
22
26
25
11
9
36
22
20
19
12
31
29
22
16
35
14
48
57
35
17
19
36
49
24
40
6
33
11
38
21
25
30
4
12
29
24
27
23
25
32
22
28
53
12
13
43
16
29
12
25
16
5
21
7
6
30
30
26
37
61
24
22
16
48
17
16
51
27
17
12
8
17
22
47
3
8
31
42
9
31
46
46
30
42
26
10
32
13
33
25
21
24
11
20
30
5
45
32
13
20
28
19
38
23
13
43
30
30
11
47
2
10
27
4
7
9
13
30
28
35
26
17
25
36
24
15
15
49
13
12
25
12
26
12
32
12
27
26
22
26
15
4
22
7
6
9
24
17
34
27
23
35
46
59
21
50
15
61
23
25
37
12
26
44
36
13
15
9
2
23
16
25
15
21
23
35
23
23
9
36
29
30
24
23
20
17
12
23
27
25
25
24
42
16
24
33
14
6
44
50
24
20
4
4
42
24
18
24
6
12
25
16
26
17
23
17
16
52
15
38
8
16
28
28
12
8
25
15
8
12
21
26
6
29
22
19
35
29
30
31
19
5
6
24
9
11
17
21
40
23
2
17
23
23
18
18
18
35
21
13
20
15
58
14
7
10
15
12
35
7
37
16
11
32
20
10
35
26
4
54
28
31
34
34
16
30
11
12
10
42
9
22
34
32
24
36
28
23
21
16
53
19
13
23
33
20
15
18
27
23
16
20
8
17
29
1
9
43
11
38
55
23
23
42
48
28
54
12
4
15
10
22
23
52
17
36
27
21
32
27
9
12
17
24
11
13
30
17
24
12
23
28
21
18
26
43
13
14
27
24
10
9
11
29
13
16
43
13
35
5
21
30
28
8
29
2
6
24
15
4
19
7
14
61
15
39
14
6
10
11
27
19
35
22
23
36
29
13
14
6
42
22
15
29
11
25
13
6
18
29
24
17
31
13
15
21
38
10
10
20
25
30
37
22
15
26
9
11
25
42
14
22
29
12
49
30
26
22
35
28
6
50
26
24
6
2
14
14
16
3
6
8
52
33
16
42
23
14
17
3
17
35
27
5
25
13
10
26
16
11
26
15
20
8
25
24
43
35
16
35
13
9
20
63
36
23
10
36
42
35
30
25
24
13
25
9
17
28
28
38
28
33
40
10
35
37
38
27
23
46
8
36
24
26
28
17
17
8
15
9
13
18
29
17
15
38
39
34
26
12
15
35
6
34
21
7
6
27
35
15
14
5
15
17
29
38
17
14
39
19
8
40
36
11
16
36
22
32
16
21
42
29
2
5
7
10
18
12
10
43
11
9
8
39
34
10
13
16
15
26
13
19
26
23
21
25
13
28
27
18
28
37
44
47
25
35
4
15
22
31
60
27
27
26
38
20
23
50
11
34
12
30
46
18
12
26
9
19
50
23
11
13
18
42
27
13
39
24
41
6
24
26
14
32
27
38
33
33
51
13
33
12
39
8
39
22
15
22
34
30
11
19
7
4
22
22
28
14
15
15
10
37
12
35
11
23
13
16
33
45
21
30
19
19
20
28
33
9
21
9
22
31
19
19
41
10
37
44
36
11
39
20
21
35
28
32
7
12
17
12
21
10
3
29
8
35
44
25
4
12
23
16
14
30
35
49
11
27
29
13
23
29
13
29
45
12
13
10
8
23
37
25
16
18
5
54
31
26
26
34
9
9
42
22
25
31
6
21
13
4
21
7
23
26
23
26
12
22
15
33
21
23
23
1
31
37
30
5
15
16
11
38
26
11
12
17
24
36
43
13
33
26
33
26
13
20
19
25
13
24
25
6
18
9
26
14
9
16
20
32
7
37
17
22
18
11
26
17
11
31
16
30
30
28
20
7
17
21
21
26
18
16
15
32
30
20
34
41
37
25
34
20
14
15
45
49
6
13
39
23
14
15
29
6
17
12
49
20
27
29
45
4
13
9
24
21
11
8
18
25
45
7
7
37
11
33
24
19
17
11
24
7
6
22
37
25
36
2
10
35
19
29
36
30
6
9
20
18
6
25
22
22
35
6
30
13
17
16
20
23
5
7
28
10
10
27
19
38
21
12
20
37
20
18
18
23
8
31
14
5
5
15
16
17
16
41
15
16
8
21
3
7
20
19
16
25
20
21
25
23
13
24
11
35
32
19
1
24
25
24
6
30
31
20
26
26
21
25
21
14
16
17
24
18
10
13
30
32
5
7
15
10
10
16
21
6
18
6
13
9
33
27
11
26
23
20
17
11
8
12
15
17
7
36
26
23
17
17
30
4
33
13
28
38
45
45
35
26
14
9
16
52
16
13
21
32
33
40
12
19
3
30
40
11
24
19
17
37
4
4
8
28
14
28
24
33
20
44
35
11
31
13
33
38
31
26
19
6
22
22
12
14
8
19
32
21
24
7
22
11
52
37
19
15
17
20
22
15
20
21
36
12
22
26
22
35
11
3
24
32
25
55
19
18
16
8
22
30
43
8
11
17
24
5
19
4
5
5
11
29
15
17
21
7
22
5
8
15
9
6
17
29
9
5
9
15
7
8
10
13
5
27
18
19
12
16
27
34
26
13
9
36
9
20
1
5
33
36
44
33
26
22
30
5
17
25
28
38
22
12
22
20
18
19
8
18
24
12
11
8
38
13
30
37
4
45
3
13
5
24
6
11
15
38
21
26
7
13
31
26
8
27
29
15
24
28
24
12
11
20
22
15
9
22
12
13
3
22
23
14
13
6
16
15
12
7
11
9
12
26
20
13
21
32
26
12
21
21
29
19
13
15
11
17
14
26
21
3
15
20
24
6
17
7
32
21
17
27
38
25
44
24
17
28
24
19
12
15
40
34
34
29
16
29
27
31
6
28
41
15
13
6
24
35
28
4
9
10
12
11
6
22
31
19
48
16
22
40
28
15
15
3
15
6
16
8
12
20
33
23
37
18
29
38
32
31
6
18
22
21
30
40
8
8
35
8
6
30
7
7
4
18
23
13
28
18
25
20
19
7
33
41
44
9
4
22
17
31
28
11
23
10
23
32
20
10
33
31
30
18
36
26
25
16
6
2
15
9
19
29
9
3
29
11
19
14
23
12
20
9
31
26
29
31
23
18
2
36
5
16
16
11
26
31
33
3
15
17
5
21
13
11
8
16
23
26
44
27
13
17
38
11
16
19
11
50
10
23
9
9
12
7
37
4
25
17
12
6
20
14
18
13
17
15
27
19
21
19
21
24
14
8
6
22
11
26
22
17
13
8
42
20
25
14
18
24
10
5
14
9
24
19
4
27
11
16
8
5
33
33
23
22
23
15
39
10
44
13
10
10
22
12
20
13
13
40
44
40
12
41
23
12
20
12
23
39
23
46
21
7
3
8
14
16
34
22
27
31
25
11
35
10
12
20
23
18
10
18
3
21
21
29
26
36
22
28
19
15
2
17
6
12
7
10
8
20
14
31
14
14
40
14
17
16
18
12
12
5
5
25
17
12
20
34
12
4
16
20
23
31
7
26
39
23
12
23
19
20
36
9
21
7
14
15
27
13
22
13
13
10
23
22
20
0
43
29
7
16
13
8
11
14
7
21
28
4
9
30
17
26
4
25
29
13
40
36
7
1
26
4
20
11
27
11
17
26
12
5
21
35
42
36
9
11
13
12
22
23
14
27
9
4
29
10
21
8
18
15
21
22
3
15
13
9
17
29
23
19
16
10
11
11
7
9
4
22
8
24
16
14
14
11
16
19
32
29
19
9
27
24
12
19
22
13
27
11
37
32
37
9
14
22
26
11
7
10
35
28
10
31
6
24
9
9
28
8
27
5
16
37
5
10
6
15
11
16
11
25
20
5
9
29
24
4
32
16
15
33
34
35
18
29
3
27
32
20
15
46
8
7
10
10
37
5
37
34
10
6
28
8
15
23
21
19
13
26
31
8
22
9
8
11
28
26
1
8
15
15
12
13
18
8
16
18
15
18
19
11
18
16
5
13
14
15
14
12
19
14
4
31
49
20
16
23
16
19
7
6
31
6
11
8
13
3
7
15
11
14
6
18
37
8
25
3
14
26
3
2
37
17
10
26
21
15
38
18
10
18
26
23
10
8
28
16
9
26
23
23
13
9
16
25
15
5
13
4
3
20
19
13
19
20
13
8
21
16
15
14
34
16
6
19
3
45
15
27
24
5
3
3
26
33
9
22
20
22
47
11
17
18
18
4
16
27
21
3
28
6
11
15
11
9
4
20
12
30
7
10
34
12
5
14
5
3
19
21
23
11
9
26
5
22
18
19
24
22
21
33
12
6
33
28
23
17
21
7
7
16
13
12
2
31
9
24
32
7
13
35
16
4
6
16
12
33
20
24
40
27
21
20
46
9
2
26
32
4
10
14
24
24
20
17
7
29
13
19
26
11
11
12
16
20
15
22
11
20
11
9
16
7
19
24
40
21
12
13
6
8
10
17
26
40
10
32
11
6
16
14
22
18
15
43
38
47
5
29
11
8
10
8
24
18
14
25
9
33
13
8
17
19
30
19
6
42
4
7
21
14
9
19
27
23
16
24
30
13
35
15
15
5
14
22
2
5
10
22
28
12
20
11
5
36
28
38
16
29
7
11
16
16
18
12
17
15
39
39
23
7
8
21
9
6
21
10
3
21
19
10
7
14
23
21
11
18
14
8
17
11
14
23
5
16
11
10
13
3
1
26
23
9
24
11
26
3
40
21
3
7
9
5
8
3
17
12
29
17
5
23
28
22
20
2
14
8
36
29
12
14
17
19
15
2
12
13
24
18
22
5
8
17
16
44
14
15
26
27
12
28
17
16
6
15
1
24
7
21
10
6
11
9
12
14
26
3
7
20
20
8
21
26
15
26
33
9
33
37
16
17
15
21
25
22
20
13
20
2
23
11
11
10
6
14
11
28
11
7
20
20
22
7
37
15
2
24
12
23
42
9
31
4
10
32
31
3
32
23
11
45
6
9
17
19
5
21
30
13
15
18
23
35
28
40
3
25
43
14
21
10
12
8
4
19
20
3
9
20
37
39
29
34
30
30
4
4
19
16
10
8
13
12
5
20
27
37
8
20
6
14
26
26
35
10
5
3
7
22
23
23
11
15
16
7
8
5
17
12
18
14
11
19
26
20
26
13
9
5
27
29
18
20
18
9
24
22
20
4
18
26
27
20
19
20
7
32
24
34
19
25
17
18
36
0
12
3
22
9
7
10
11
22
28
7
12
31
23
23
13
18
23
32
28
40
11
36
15
20
23
30
8
18
18
17
18
10
15
19
13
29
21
5
3
16
30
14
4
18
13
19
12
13
6
7
8
6
6
14
14
17
2
5
6
11
11
19
24
13
29
13
19
15
16
26
15
10
29
16
13
7
24
18
20
11
6
14
14
28
25
21
7
7
34
9
10
26
29
14
31
28
32
32
33
19
16
20
2
23
14
19
29
10
32
22
16
27
19
17
14
27
25
14
6
5
9
24
11
20
14
22
2
6
9
11
12
26
15
13
22
9
34
5
13
8
18
23
22
10
14
9
9
11
16
10
16
18
31
5
8
1
14
8
4
14
24
8
19
19
28
31
14
14
22
5
27
20
25
14
45
4
30
6
17
17
17
8
12
25
13
2
4
4
13
14
11
17
10
8
15
16
2
24
10
30
8
19
3
11
19
21
29
26
18
21
36
25
21
15
6
10
8
12
15
24
19
7
8
17
13
5
34
9
3
22
11
13
30
11
11
11
6
32
7
28
13
7
9
8
13
1
19
21
11
16
22
23
21
7
32
22
3
7
14
14
23
5
3
6
20
23
20
5
5
16
10
14
18
9
14
5
3
13
16
4
17
8
12
15
17
7
27
11
20
15
6
5
10
5
8
7
6
17
17
15
6
14
21
25
3
38
19
13
10
3
27
30
6
19
28
13
13
5
9
17
7
29
12
9
35
22
32
32
28
10
13
12
19
30
25
14
11
5
13
24
16
3
8
9
15
4
27
11
11
17
13
9
13
8
11
26
5
29
3
28
25
32
22
10
14
9
23
23
17
25
23
13
8
14
6
45
19
2
8
7
19
17
4
2
12
11
2
23
24
9
7
22
32
22
13
12
25
20
5
4
13
28
8
28
4
26
10
18
19
41
23
30
14
17
4
18
10
5
23
11
8
18
24
8
10
20
21
3
8
19
19
14
18
6
17
3
2
1
0
10
21
12
25
5
3
13
4
14
3
34
12
5
7
16
17
4
8
18
10
27
19
20
16
21
18
15
17
29
30
27
16
35
12
15
15
34
1
5
10
43
5
9
12
28
21
17
14
7
12
8
24
14
11
21
9
30
19
24
23
0
20
17
16
9
35
15
13
18
18
2
9
8
24
9
17
17
21
17
15
21
29
21
26
33
10
23
18
5
10
19
22
38
24
29
20
32
11
24
37
28
12
5
15
20
19
0
9
31
45
19
13
7
10
10
29
17
10
18
3
7
3
4
6
29
6
12
22
27
7
5
1
16
18
26
2
12
22
15
15
10
2
5
7
24
26
18
26
33
7
14
4
10
21
6
9
17
43
13
8
12
19
19
21
4
46
17
8
11
3
25
7
9
5
40
4
14
11
28
4
8
7
22
17
10
12
24
9
12
19
27
14
14
29
11
10
11
8
6
3
9
12
12
14
9
16
4
2
30
17
13
5
10
24
20
22
20
12
12
2
21
13
7
28
10
18
12
14
9
10
34
20
32
10
13
12
24
18
6
7
11
2
1
26
13
24
20
28
8
8
32
9
5
13
8
20
14
8
22
14
3
13
34
5
23
3
19
21
22
8
5
34
16
17
36
31
35
23
7
9
4
14
25
15
3
13
14
23
20
18
18
14
9
17
24
11
30
20
9
26
16
28
8
19
5
33
11
10
5
13
24
20
12
17
17
17
8
18
12
12
9
10
11
7
27
19
19
21
15
16
17
21
9
24
34
7
11
13
24
12
16
9
13
9
21
30
9
17
16
7
29
5
12
14
24
13
24
18
8
12
25
11
14
27
26
17
5
7
10
4
3
22
5
14
12
12
15
8
7
19
14
4
4
18
32
13
16
19
9
12
29
4
10
18
19
30
6
5
11
48
31
30
2
14
21
1
6
14
1
15
7
6
32
21
38
5
12
20
11
22
25
4
3
18
10
25
5
8
21
16
23
0
11
18
18
9
11
7
13
18
14
15
21
17
8
16
9
2
2
14
8
2
23
20
11
5
5
20
14
21
23
14
16
11
16
28
7
4
8
12
30
21
1
8
3
22
30
2
28
19
14
17
9
8
16
3
3
13
22
8
14
5
19
11
9
10
17
6
5
30
15
1
5
2
8
17
8
35
24
14
10
7
6
7
19
32
10
12
19
19
23
25
24
18
18
18
15
7
3
36
9
25
16
7
29
14
3
8
4
34
4
16
11
12
36
14
6
13
22
18
5
15
13
32
3
24
3
9
6
37
32
13
4
14
4
1
20
6
4
9
23
9
15
26
21
5
7
11
39
4
16
1
10
31
29
13
2
8
3
13
20
17
39
1
9
22
26
6
10
6
23
17
21
6
11
10
12
11
10
31
19
10
20
24
14
11
5
16
7
6
5
16
35
13
7
5
15
6
17
26
7
18
23
19
25
18
28
5
7
10
14
7
6
17
16
10
12
15
11
9
15
9
13
9
25
10
2
13
13
5
20
19
31
19
17
7
3
9
16
12
23
5
10
12
23
6
4
8
17
3
14
37
6
4
4
16
25
24
20
24
12
17
7
34
4
5
1
16
17
14
23
24
36
7
28
24
6
16
10
22
18
23
6
2
11
13
35
16
30
8
15
3
10
21
14
6
15
6
9
14
12
3
7
35
25
11
17
20
9
5
15
19
17
10
15
22
19
4
4
11
12
11
11
6
13
10
7
1
22
12
11
19
11
5
32
16
15
25
22
18
25
12
20
13
4
4
8
6
24
9
18
20
13
21
29
13
15
32
27
8
22
15
16
25
30
26
37
22
3
2
19
8
27
15
3
20
16
8
9
7
4
21
5
21
15
11
17
28
18
20
3
27
28
27
15
10
1
17
34
31
15
2
24
14
24
10
3
21
14
16
21
29
8
5
15
13
14
11
4
4
17
13
12
15
14
14
11
3
0
6
6
6
10
14
1
27
13
6
5
9
10
11
17
2
31
10
14
38
17
21
22
17
9
16
35
17
13
13
14
16
5
15
4
2
7
21
10
24
20
8
22
12
4
12
18
3
3
4
17
10
15
8
16
8
4
7
12
3
11
9
12
17
9
7
6
9
11
14
7
21
5
6
20
2
6
12
14
25
4
24
20
23
18
26
9
10
21
19
3
14
20
13
28
8
26
1
9
21
7
6
40
19
9
17
7
10
11
12
31
12
8
7
26
32
4
12
42
7
11
35
11
2
11
8
25
11
14
20
23
16
6
11
15
19
1
38
33
11
28
11
7
13
2
7
16
20
27
13
14
20
17
15
7
30
24
19
5
19
9
20
11
24
17
19
30
9
26
13
24
11
9
9
12
5
20
2
15
8
20
15
14
10
24
14
29
23
12
13
22
19
10
12
11
3
2
6
5
4
7
10
11
10
10
19
13
4
34
9
1
30
23
34
30
30
7
19
19
7
10
3
26
19
6
12
30
9
16
13
18
16
11
5
8
1
2
14
5
14
6
19
18
8
9
6
11
7
6
5
24
23
32
21
18
11
14
6
2
20
4
11
15
2
19
19
13
13
10
5
12
14
15
14
30
8
17
10
15
18
11
4
22
20
6
12
21
6
28
19
16
2
15
19
14
19
13
15
12
6
6
10
16
15
15
6
3
6
6
9
35
3
5
1
22
25
9
6
9
13
13
5
10
10
12
13
22
10
11
21
16
35
13
9
7
26
33
8
18
13
28
12
31
31
10
11
26
14
28
9
5
17
9
8
12
23
25
17
17
4
14
25
20
26
9
6
21
32
4
3
7
1
4
22
14
6
26
9
19
22
17
4
12
6
1
21
10
4
4
23
18
9
17
13
4
3
10
25
12
13
2
10
21
38
2
18
3
9
11
11
37
38
4
9
43
1
18
10
8
6
7
26
21
3
20
8
7
6
25
6
23
6
6
3
3
4
31
15
27
14
4
19
4
23
11
19
4
10
16
13
35
17
9
8
20
29
11
35
31
6
11
29
5
6
6
29
11
4
3
18
16
20
4
6
20
19
7
5
12
12
36
10
6
6
19
14
6
8
18
13
6
1
21
13
23
11
4
17
19
2
4
21
12
11
13
20
8
9
23
23
21
8
23
10
24
2
25
24
9
0
3
17
3
8
13
25
8
12
8
12
5
7
12
12
10
24
16
5
4
0
16
6
5
9
12
8
6
8
5
8
13
31
10
12
2
3
12
21
18
4
6
10
11
25
2
12
1
22
19
23
22
24
29
3
5
3
2
16
3
8
3
4
9
20
6
12
22
11
5
6
24
15
9
26
16
17
9
18
21
8
4
12
20
1
9
8
21
13
4
12
1
18
5
9
12
24
17
12
16
7
12
1
22
29
5
17
5
21
3
27
5
17
17
17
7
19
13
7
6
23
7
19
15
7
14
11
16
8
17
12
5
21
19
8
1
26
10
23
13
15
19
1
30
5
22
22
11
11
12
7
12
11
25
14
20
17
8
10
7
13
6
6
3
21
3
11
9
3
4
4
14
15
18
2
12
11
2
20
17
2
2
11
19
14
4
9
9
11
5
10
4
6
14
8
8
7
5
6
14
7
21
30
12
15
27
13
7
2
10
4
31
6
21
5
6
5
22
6
16
10
23
19
12
3
21
2
4
19
3
11
1
20
12
23
6
28
2
21
3
7
11
5
24
9
3
36
27
23
8
14
20
3
5
11
6
6
15
1
18
17
4
2
12
3
5
32
4
7
11
6
8
9
5
0
14
15
13
18
3
22
26
16
3
15
26
7
13
14
9
6
3
6
17
17
7
18
10
15
4
9
15
16
21
10
12
5
3
20
11
18
11
10
12
12
26
19
29
12
1
2
1
4
4
20
1
8
25
19
13
22
13
12
25
15
8
13
18
10
15
5
11
15
12
9
10
23
17
16
15
15
20
5
13
9
11
19
5
6
17
6
12
13
20
25
3
4
23
21
12
19
13
12
28
6
1
21
17
34
13
6
14
16
13
6
3
11
9
5
2
22
8
8
14
13
14
5
19
1
12
12
12
29
30
16
36
10
9
19
18
6
17
29
21
8
3
18
16
27
13
17
5
29
8
13
11
18
18
1
11
22
8
9
7
18
9
5
7
21
9
7
3
5
4
13
1
3
27
1
2
14
17
16
5
4
2
11
15
7
3
12
7
3
17
20
17
16
8
27
0
19
25
21
17
9
5
3
5
8
5
1
21
4
26
14
5
9
30
9
19
25
3
12
10
18
2
4
7
18
6
3
19
13
8
14
21
9
32
13
3
25
6
10
8
16
0
16
15
2
17
15
8
20
1
18
27
10
16
12
14
4
11
17
28
2
3
18
0
4
5
3
21
34
6
9
7
9
8
3
28
3
15
6
13
5
3
22
20
15
27
10
11
7
8
19
10
26
14
21
9
28
10
13
20
11
12
8
16
18
8
20
4
14
16
2
25
9
5
3
6
7
14
3
5
8
6
9
11
2
35
16
21
30
9
21
17
2
12
5
18
20
1
14
2
23
9
9
17
26
4
7
7
22
19
7
12
22
30
2
17
6
13
19
23
33
24
15
8
13
6
20
17
8
22
3
7
14
3
8
20
21
1
2
7
2
3
19
15
5
20
8
18
22
13
10
18
19
32
17
27
8
7
5
19
8
12
5
6
11
14
13
5
5
22
7
5
14
0
34
10
13
15
20
12
8
18
25
8
4
30
21
9
20
10
17
19
5
15
3
22
10
5
19
7
34
30
2
12
20
4
10
15
17
15
25
3
0
2
8
6
5
30
13
23
14
21
6
23
24
5
3
17
11
9
6
7
33
8
15
14
13
17
10
15
16
7
7
9
4
7
6
4
12
6
17
10
19
18
13
12
14
6
18
7
5
26
8
9
14
13
20
9
9
18
9
15
6
8
11
5
24
15
8
19
8
12
16
4
25
4
4
3
14
8
7
5
13
14
9
19
14
2
11
8
19
7
20
8
36
18
19
5
5
20
24
19
21
15
23
21
1
14
13
23
1
14
5
14
13
11
16
13
2
10
12
18
17
4
7
5
14
18
5
3
6
5
3
26
21
8
17
14
1
27
18
7
7
2
26
12
29
6
12
12
8
10
6
14
8
11
5
15
6
10
16
22
3
6
17
4
5
11
9
9
4
6
1
17
27
7
20
25
11
23
26
8
6
10
35
3
10
6
20
2
19
8
27
28
16
6
14
17
5
2
20
16
20
30
7
17
7
2
5
24
28
3
12
10
13
5
22
27
33
22
1
14
18
8
19
36
11
16
15
8
18
27
11
6
5
35
9
8
14
14
2
23
27
17
13
16
16
33
11
5
3
5
25
11
23
24
19
11
14
18
27
27
2
19
8
14
5
6
20
5
8
21
43
6
7
2
32
34
17
12
17
1
8
0
3
5
17
9
4
3
12
12
12
20
8
10
21
15
2
12
21
9
13
10
7
3
1
7
9
7
19
17
6
12
20
16
16
12
5
17
4
15
15
16
5
15
17
6
14
7
8
10
13
35
2
6
12
11
27
27
5
5
7
11
2
6
13
6
6
12
14
5
5
16
0
9
19
14
22
11
24
16
21
16
24
4
8
8
9
7
20
5
20
9
2
7
13
22
4
24
3
4
5
13
10
13
9
7
14
5
5
15
15
12
18
12
15
6
14
5
11
7
9
2
2
10
9
6
14
9
11
1
23
18
13
11
13
10
4
19
4
23
13
20
8
9
9
6
3
7
2
6
14
17
6
8
5
35
9
24
6
5
7
12
24
9
7
2
4
43
7
3
9
29
10
12
9
9
4
6
10
32
9
12
7
8
1
7
8
7
22
8
2
18
11
26
16
8
9
3
8
0
13
15
17
29
21
10
12
16
8
9
20
7
15
14
13
14
2
23
19
4
4
6
21
5
4
24
26
13
16
17
10
10
24
13
28
26
3
8
13
13
14
25
1
9
14
13
5
6
4
10
5
4
17
2
10
7
10
20
6
12
37
15
2
20
17
12
11
3
6
7
9
7
16
21
11
6
2
11
3
10
10
13
20
7
5
5
13
3
11
9
15
11
18
19
13
24
20
16
2
19
16
12
17
6
5
17
9
6
11
26
12
25
17
10
12
16
22
2
11
9
8
11
16
6
2
2
10
12
15
4
13
0
12
19
8
8
26
7
15
3
4
1
16
25
10
2
26
11
1
20
25
2
17
16
12
4
5
11
7
4
11
28
15
13
18
8
5
15
12
6
10
12
16
6
17
23
6
8
7
13
18
7
8
24
18
15
11
5
2
16
9
13
27
3
10
11
21
11
20
2
4
12
12
9
26
24
3
7
2
6
5
12
23
5
0
32
3
2
10
2
6
7
6
9
9
4
3
23
13
10
5
13
23
5
3
9
11
10
17
10
6
18
18
19
17
19
7
3
12
7
4
7
13
1
7
19
15
8
16
4
14
15
13
10
10
15
10
15
6
5
6
7
15
4
11
6
3
7
23
18
5
5
3
4
1
3
8
8
13
10
17
20
5
6
22
8
16
13
2
1
14
1
16
9
12
6
6
6
15
18
19
2
22
4
14
5
6
11
10
14
11
14
2
17
20
10
17
19
9
10
8
7
32
11
8
19
12
20
1
8
11
11
5
8
13
3
17
25
4
2
24
16
3
1
3
2
16
6
20
4
20
3
28
13
30
20
12
6
10
20
20
19
5
15
13
8
19
4
18
7
12
9
25
7
1
13
13
7
4
6
23
17
7
8
4
16
8
7
6
12
16
0
5
10
6
5
2
2
10
23
2
12
13
16
5
19
15
26
12
7
21
1
15
3
1
14
8
4
26
14
6
10
21
4
1
19
15
5
2
20
9
20
14
13
7
7
10
1
18
7
16
12
5
4
18
19
12
7
5
4
6
6
15
6
20
7
6
3
1
4
3
4
21
7
18
9
5
14
6
19
21
15
5
4
14
5
5
12
17
3
18
1
13
8
6
12
3
2
11
5
6
6
5
5
8
2
8
1
6
1
27
0
12
4
1
21
9
16
13
22
11
11
5
6
17
2
11
26
18
8
22
13
1
7
7
5
10
4
18
11
9
7
27
16
10
20
6
2
10
5
10
11
7
21
7
13
13
13
12
5
4
8
11
22
0
10
24
3
6
6
14
12
8
2
5
9
6
5
7
9
10
6
14
7
24
8
14
9
3
19
5
4
3
28
5
19
45
1
2
3
1
9
11
27
1
6
11
2
6
8
13
7
11
10
4
3
5
9
6
0
5
13
15
8
13
14
23
1
6
9
5
12
10
3
3
6
10
12
11
5
15
17
5
12
13
12
10
22
4
12
4
3
0
6
6
6
27
9
11
11
4
7
16
19
18
6
4
20
12
5
3
2
4
16
7
20
14
8
15
2
17
16
18
7
4
3
12
5
18
15
18
28
15
4
4
8
1
26
14
2
11
19
3
7
3
19
4
7
16
11
4
5
15
16
4
3
14
6
16
2
31
3
5
12
12
7
9
14
29
8
7
11
16
13
8
16
13
7
10
9
5
4
0
8
14
10
16
10
9
11
8
6
13
20
4
20
8
11
7
15
18
17
10
17
8
7
8
15
6
10
23
7
12
15
8
16
6
10
9
18
6
18
13
10
0
6
10
7
31
4
8
4
12
11
16
27
3
2
6
7
26
22
0
4
4
7
10
13
6
10
8
21
6
2
10
6
0
13
15
6
6
6
5
11
1
15
9
15
3
10
8
7
9
10
13
10
6
17
2
20
5
6
15
3
3
6
7
1
7
5
31
26
12
5
8
14
22
12
14
9
12
16
8
23
5
4
3
18
5
0
22
14
6
8
11
14
10
9
0
12
1
19
11
9
16
3
2
22
5
22
5
12
7
11
19
19
8
13
13
26
11
3
5
3
16
3
5
4
3
19
28
13
17
8
5
7
3
31
5
17
2
17
2
5
5
8
6
15
13
9
3
3
7
32
4
3
25
18
1
2
7
3
15
8
4
16
6
11
4
4
15
8
34
7
2
19
7
4
3
6
0
30
9
6
24
8
10
5
12
25
10
5
1
5
13
6
4
3
2
12
9
14
10
1
0
5
18
2
20
6
1
10
7
4
3
14
9
18
1
21
9
13
32
18
10
2
14
9
5
7
7
9
3
7
14
2
0
16
9
18
12
11
8
27
15
25
23
10
18
4
8
2
12
6
10
5
7
7
2
15
1
30
18
12
3
16
13
12
2
4
5
16
7
4
9
3
5
6
23
20
3
9
14
10
9
6
7
8
17
5
14
10
5
4
20
4
3
14
9
3
8
18
6
12
12
0
21
11
17
5
5
7
10
9
23
12
10
7
3
1
10
8
9
7
11
12
11
4
4
13
4
13
7
15
5
4
14
4
17
17
19
13
10
4
17
18
26
10
11
6
8
11
19
9
10
13
17
11
2
9
8
11
18
7
11
8
13
3
7
13
8
7
20
2
2
7
7
10
0
3
6
5
6
6
5
0
6
20
14
11
4
6
5
4
10
14
15
15
5
11
8
5
9
1
11
4
21
22
19
9
2
16
17
2
11
17
13
19
21
7
2
12
5
20
14
17
15
20
8
15
27
8
10
12
8
16
6
9
14
15
7
7
16
5
10
10
10
1
9
4
12
3
11
2
8
6
8
9
11
18
9
8
3
22
17
5
1
30
3
14
7
5
3
2
7
5
9
10
9
5
7
8
16
3
13
14
4
7
1
5
25
2
12
23
1
15
9
3
2
8
16
12
21
3
25
14
19
17
14
15
1
4
5
8
4
9
6
12
14
9
5
6
0
26
15
9
9
15
6
18
2
8
21
1
3
1
13
12
3
11
10
5
3
9
18
3
22
6
3
10
11
5
12
12
3
19
8
14
10
17
4
8
9
12
15
5
11
3
21
7
8
10
3
12
31
15
12
23
3
7
10
6
13
12
0
5
4
15
6
6
9
24
9
0
16
14
2
0
5
0
11
6
8
7
4
19
23
8
11
9
6
11
3
1
22
5
17
4
10
8
10
15
31
15
22
14
8
10
9
9
10
11
4
3
13
5
4
12
8
16
13
5
2
11
4
3
17
22
1
22
22
13
2
5
4
4
20
3
17
23
17
5
23
4
7
7
10
23
21
7
3
13
2
13
13
9
5
2
5
9
8
4
2
4
22
3
7
12
2
3
6
5
8
2
7
3
22
6
7
10
5
4
7
11
6
9
9
6
1
14
11
28
14
1
13
5
13
9
6
1
5
4
14
22
12
3
7
3
2
0
24
3
7
0
6
13
8
1
15
9
5
19
13
16
11
7
2
8
18
20
7
12
12
7
19
12
3
8
5
24
31
6
0
8
13
9
20
12
12
12
13
1
9
4
0
3
13
27
18
8
0
7
8
7
3
2
12
5
13
12
8
7
2
11
11
4
7
3
2
4
5
8
10
3
7
17
16
5
17
3
5
12
7
20
0
10
18
16
16
17
17
5
10
2
2
11
9
8
12
11
3
1
6
10
9
19
3
5
3
13
8
18
9
9
4
7
12
20
30
11
12
9
6
4
7
6
5
13
3
9
29
2
24
4
9
15
14
15
13
14
17
7
14
6
3
25
20
9
25
26
10
6
13
10
5
13
12
13
10
6
4
1
16
18
9
22
19
5
18
20
4
2
8
8
10
15
2
11
10
11
5
13
13
7
16
8
1
11
12
6
2
3
14
6
13
13
0
9
13
6
2
2
2
12
15
3
6
2
4
6
0
2
4
1
5
6
5
5
6
15
1
8
8
6
13
16
1
15
15
13
17
4
1
4
8
13
19
8
5
2
11
10
3
16
9
4
13
6
10
6
5
3
4
18
8
11
17
30
1
6
9
2
6
11
14
7
7
16
4
19
1
8
12
7
1
7
5
9
9
23
7
7
13
7
6
24
4
6
5
6
10
19
8
3
24
3
14
11
13
5
7
13
4
5
9
19
16
1
4
11
16
3
5
2
20
0
9
3
15
3
15
13
12
9
14
14
16
19
12
2
13
10
2
17
19
7
7
10
2
6
12
8
4
20
2
1
5
12
13
4
3
11
14
16
8
22
4
9
8
10
7
21
20
16
8
11
5
2
6
4
3
3
7
10
3
16
14
12
12
1
10
4
4
4
7
4
9
18
5
2
4
18
12
16
8
10
0
3
2
10
1
11
0
35
2
7
8
16
11
3
5
4
4
14
12
28
32
5
1
10
7
2
5
1
5
1
6
4
17
5
16
6
5
7
8
5
5
5
4
18
3
9
6
1
8
3
14
1
0
11
18
19
1
9
1
5
2
5
1
10
0
2
3
2
8
5
15
3
3
7
9
6
1
19
10
5
3
7
10
9
11
25
17
10
24
5
6
7
13
23
10
11
3
4
1
8
2
9
4
4
4
2
5
2
7
0
2
1
7
4
3
5
5
8
11
4
11
5
9
15
4
13
16
13
7
11
4
2
10
5
5
4
3
2
9
3
12
8
11
2
3
21
15
12
16
13
5
4
19
0
8
9
18
8
18
11
19
20
13
5
3
6
7
13
5
10
3
9
13
18
16
0
4
7
2
10
8
9
5
9
8
3
13
14
6
9
11
15
4
3
6
18
5
1
11
9
4
16
10
18
15
3
5
4
14
15
7
23
13
3
12
21
12
8
4
15
6
2
2
5
12
21
4
12
7
4
3
5
4
8
19
11
3
3
7
17
9
4
2
23
17
14
14
20
7
15
5
3
4
13
8
1
13
8
4
12
6
10
13
17
8
11
2
10
7
8
11
10
3
6
13
7
8
10
10
3
8
21
7
2
17
8
11
4
3
0
1
12
0
7
19
0
13
9
4
4
6
7
11
2
21
6
4
13
4
17
3
2
11
7
11
11
6
3
9
14
12
17
2
5
14
7
9
2
14
5
14
2
1
21
19
15
11
9
14
9
13
3
9
7
9
11
5
4
1
9
35
4
7
1
8
10
2
10
5
3
9
17
3
18
21
5
11
10
19
7
2
15
16
1
6
5
18
6
17
8
5
1
5
4
3
2
9
5
19
17
0
2
3
7
13
10
25
12
2
9
1
3
5
16
6
0
3
1
1
3
4
3
9
11
12
11
10
16
7
13
5
12
13
3
7
10
8
13
3
4
9
0
9
13
10
16
13
6
5
4
1
1
13
2
3
2
2
11
4
15
5
8
4
9
9
8
8
4
5
21
10
15
3
2
5
12
4
21
4
6
7
9
2
14
10
12
6
7
9
1
9
7
14
27
19
21
3
19
1
9
5
9
5
7
5
8
29
15
9
7
3
2
9
5
6
5
9
8
17
4
2
6
4
12
6
13
8
9
4
7
12
16
6
21
8
10
4
2
21
5
0
11
2
6
9
6
8
4
3
7
6
10
22
5
3
10
6
3
5
12
9
5
10
6
10
15
7
6
6
20
15
6
3
27
7
5
4
5
15
6
8
2
0
7
7
3
8
17
1
2
14
17
13
3
13
15
13
24
20
10
9
6
11
11
9
3
10
6
9
10
18
16
9
4
22
8
29
8
3
10
5
15
1
6
7
4
15
1
2
14
13
11
24
9
14
4
8
10
8
4
11
7
7
4
2
14
4
4
4
0
6
2
12
13
6
9
3
10
8
13
1
1
4
11
4
7
0
3
4
17
7
5
2
7
6
3
8
1
17
8
5
4
1
6
12
8
4
4
11
5
6
6
7
19
4
16
13
10
19
21
0
15
4
2
5
17
21
10
7
2
6
4
3
6
10
6
3
0
17
5
14
14
13
3
3
3
11
8
9
5
6
17
15
5
3
9
3
15
12
5
10
2
10
6
4
5
16
5
3
10
3
8
1
4
15
17
12
10
10
9
15
13
8
8
10
4
10
10
3
12
2
3
4
10
3
16
5
4
7
13
15
5
7
7
12
7
18
23
7
6
3
8
4
14
14
7
10
3
4
6
5
4
10
6
21
16
1
1
6
12
10
12
25
3
13
3
14
7
13
12
6
16
8
9
15
21
1
4
3
9
2
8
16
10
15
4
3
1
5
8
7
2
11
8
7
7
8
8
6
3
16
6
6
3
7
7
10
13
4
0
6
6
8
9
8
6
9
12
28
2
10
2
7
10
4
9
12
4
5
8
8
6
4
7
11
13
9
15
7
15
6
8
18
7
16
3
6
16
16
6
19
3
7
9
20
16
17
12
6
6
3
8
0
2
5
2
0
6
4
2
9
5
3
5
13
6
13
13
3
9
7
7
11
12
12
3
7
5
0
4
5
21
8
9
4
8
4
4
7
10
12
7
5
3
4
29
11
9
11
3
11
9
8
11
5
10
8
8
10
3
5
11
5
6
14
20
2
6
7
11
0
5
0
15
5
12
6
16
11
24
1
4
1
6
13
11
10
10
6
18
14
5
17
15
4
25
11
10
4
8
7
22
7
7
6
5
6
3
3
5
9
6
10
5
15
13
12
0
3
4
21
5
1
1
3
12
8
20
12
14
6
5
16
9
17
3
5
7
16
1
14
5
2
7
6
6
4
3
19
17
19
7
7
5
4
5
7
14
3
7
9
4
15
16
4
1
17
11
13
16
6
0
29
8
14
2
11
25
17
9
28
12
13
15
8
13
10
27
6
13
4
9
5
2
7
3
20
7
3
8
2
7
4
8
3
1
13
17
5
21
1
3
12
2
2
5
9
5
1
7
14
8
9
8
7
1
8
8
3
12
7
9
2
3
1
10
3
13
23
11
1
1
7
1
20
5
12
8
13
0
2
7
5
4
17
7
1
3
5
2
8
4
4
4
10
3
1
4
3
9
4
20
22
5
5
3
9
4
4
8
8
8
6
5
11
20
16
21
1
6
10
16
3
11
2
3
7
2
13
11
19
2
3
3
7
9
7
0
1
8
7
14
7
4
19
6
1
2
4
10
3
3
9
9
13
7
5
11
5
1
2
9
3
8
3
3
0
6
10
5
26
6
2
4
11
19
10
1
8
11
12
8
8
7
14
3
0
5
3
1
16
10
16
5
5
6
10
0
10
9
2
6
11
6
9
7
11
10
6
18
19
16
1
9
0
1
14
9
9
28
3
10
1
1
6
8
13
7
16
1
3
0
2
16
6
0
0
6
25
6
3
10
3
6
11
10
13
10
0
2
4
6
8
16
13
6
17
21
12
3
9
12
8
15
5
2
1
6
7
4
0
4
7
4
7
5
9
3
5
14
6
5
16
3
12
16
7
7
2
8
4
0
5
9
1
12
10
2
10
16
8
9
20
0
7
20
3
5
5
1
3
3
2
10
4
3
6
5
6
11
9
6
1
1
13
7
4
3
19
1
1
11
11
0
2
3
6
6
7
8
17
2
25
0
6
13
20
15
13
8
16
8
6
8
1
9
8
10
2
1
8
6
14
3
8
12
2
13
6
7
8
13
9
10
0
12
0
5
7
10
12
7
3
7
9
2
7
10
9
12
15
6
3
1
4
8
6
11
8
1
17
9
17
3
0
7
8
12
6
19
15
14
17
14
18
4
22
1
1
14
9
9
3
2
5
14
9
5
10
5
1
3
2
2
1
6
11
16
6
0
3
2
3
12
4
14
6
2
4
6
15
9
4
7
5
16
11
4
6
2
12
1
4
8
9
1
4
12
3
4
16
6
4
4
0
1
18
2
7
0
11
8
6
7
6
16
13
10
9
4
5
6
2
12
20
2
2
14
8
14
7
6
1
11
3
11
2
9
8
5
3
10
19
9
10
14
8
8
1
3
14
16
4
5
9
11
2
3
4
6
16
24
4
5
4
10
2
6
17
6
12
3
2
4
11
8
18
8
14
13
7
11
12
4
7
4
9
13
1
6
3
14
13
11
3
8
4
6
1
18
10
13
17
1
14
14
11
4
4
5
3
3
4
12
1
1
5
20
6
9
2
2
24
8
7
6
22
15
11
10
17
3
19
20
5
7
1
0
16
23
11
9
2
5
11
3
2
6
2
2
13
3
3
7
11
7
5
3
6
12
3
5
7
7
0
4
5
11
0
0
2
1
8
2
8
5
6
7
6
8
15
1
1
5
10
5
2
9
4
3
6
7
12
3
4
4
12
8
10
0
19
1
23
2
22
1
2
15
7
17
2
6
17
3
11
1
14
1
4
4
2
3
7
6
13
5
16
4
2
2
8
9
4
4
12
10
9
1
0
13
18
8
1
3
15
6
5
16
7
8
14
17
6
10
11
7
21
2
2
8
8
10
12
0
4
6
3
4
7
7
9
2
2
6
2
10
3
12
21
4
7
8
10
18
2
22
12
6
8
5
6
3
4
6
1
4
13
4
1
7
6
3
6
4
0
0
9
2
15
8
4
12
13
6
1
10
1
6
0
7
4
4
4
6
5
6
25
8
7
2
8
17
3
9
12
1
25
1
7
1
5
9
10
11
7
15
4
7
12
11
6
8
8
5
8
7
3
6
11
5
5
7
9
2
0
2
2
4
5
1
5
0
6
6
9
24
8
16
4
1
8
6
6
5
8
10
17
1
0
0
8
2
2
7
2
3
1
3
11
2
2
4
14
7
16
4
7
3
11
9
12
9
6
1
14
7
6
23
5
5
10
16
11
13
3
7
3
3
4
1
11
5
8
7
13
11
5
6
6
11
8
7
7
16
7
7
13
6
2
3
10
0
10
10
2
2
1
2
0
10
1
4
4
15
0
4
4
3
5
0
4
5
10
5
11
10
0
9
6
4
6
2
8
17
4
11
12
9
3
3
0
19
7
13
2
2
7
4
19
4
1
6
8
8
2
0
3
0
5
0
16
3
3
3
5
1
2
12
7
4
8
11
1
14
6
5
11
16
13
6
3
5
2
3
2
3
1
7
5
2
1
8
7
4
2
4
5
15
1
7
9
9
5
6
7
2
4
11
2
2
4
4
10
3
13
9
1
1
1
1
3
0
12
7
4
14
12
2
4
18
7
13
16
0
12
20
10
0
13
5
0
13
5
4
12
13
4
9
4
6
10
8
9
1
28
0
2
7
14
11
12
7
3
13
21
4
0
4
16
5
1
11
9
7
6
2
8
3
7
2
7
23
10
2
6
3
10
8
8
4
5
2
2
3
11
3
4
3
20
14
29
4
17
1
4
9
13
8
13
8
2
16
19
6
1
7
6
8
5
5
4
5
5
12
4
4
6
11
9
4
12
3
11
5
1
5
3
4
1
2
3
7
9
2
12
5
4
4
2
7
6
3
2
4
6
4
6
7
7
3
3
12
7
2
10
5
3
5
17
15
14
0
4
5
4
5
8
3
2
17
17
3
6
4
15
8
12
12
5
9
4
5
1
3
0
4
1
5
9
22
7
5
2
7
12
2
4
8
4
6
12
7
9
24
5
18
10
15
13
2
3
9
4
1
5
0
6
12
2
2
8
1
17
4
4
5
5
10
10
0
5
12
5
7
13
8
5
14
3
8
13
10
20
13
5
9
15
15
6
14
2
7
9
28
7
3
4
5
3
8
11
1
9
14
14
13
9
6
16
5
2
2
2
20
7
8
5
1
15
3
4
5
14
6
2
3
1
3
12
0
8
6
18
5
11
13
4
10
17
10
3
3
2
18
15
9
12
1
8
0
13
3
17
4
15
11
4
8
19
1
10
2
6
5
0
3
15
16
3
6
7
8
8
13
6
7
5
3
7
5
9
6
21
11
10
1
7
8
18
10
7
1
3
2
3
10
7
2
7
1
2
14
2
14
11
3
10
3
11
3
12
3
13
23
2
9
2
7
2
8
16
6
26
6
2
10
5
15
7
3
12
4
10
6
9
5
5
2
5
6
6
11
5
3
6
12
7
16
11
5
2
12
5
10
8
9
6
3
10
4
13
5
0
1
1
5
19
20
5
13
9
7
7
10
2
12
2
3
6
0
7
2
3
3
1
5
2
3
0
14
16
3
11
5
8
12
3
3
9
4
7
3
1
5
7
3
2
16
15
0
6
6
3
5
12
0
3
8
2
2
21
1
18
17
5
9
8
8
2
4
9
2
16
5
11
7
1
7
5
2
4
19
5
14
3
10
3
5
4
8
13
17
18
6
7
6
0
6
12
1
15
1
5
1
19
11
11
1
8
7
16
4
3
7
9
3
1
5
5
6
5
2
6
18
5
3
17
6
9
2
15
6
2
12
14
3
7
17
13
5
0
8
8
6
0
4
11
6
11
3
2
11
8
0
10
6
1
17
13
4
1
5
1
3
0
15
12
11
7
1
13
5
2
12
2
18
2
1
12
10
9
9
4
12
2
12
2
3
2
3
1
2
6
10
14
6
4
2
3
4
2
7
20
7
2
10
6
1
12
7
11
4
7
16
18
20
0
2
7
1
2
6
5
0
6
15
11
3
5
2
6
16
8
7
20
2
4
11
5
4
2
0
5
4
10
2
4
8
1
19
0
1
3
9
3
10
14
5
8
3
3
5
9
4
5
9
9
4
2
2
1
13
3
2
1
20
6
3
0
1
2
5
7
2
7
11
12
5
5
0
4
18
12
1
5
5
6
5
6
3
12
5
7
12
11
5
0
10
12
1
15
5
23
8
11
5
7
1
11
16
5
15
5
16
8
11
25
15
5
4
13
11
1
4
5
4
11
8
10
1
4
12
8
8
0
7
5
6
0
1
4
1
0
1
5
4
6
6
5
17
4
6
0
1
13
10
5
4
12
7
4
7
1
14
8
12
2
5
8
18
24
12
2
7
1
12
1
4
20
6
3
13
2
14
16
4
2
13
10
5
2
1
7
1
11
17
6
11
4
15
8
8
11
21
17
3
17
18
13
14
6
7
17
3
4
11
0
5
3
0
3
11
15
12
5
5
5
12
2
1
1
15
9
6
3
2
4
5
17
2
3
11
4
5
16
3
2
8
3
4
3
15
7
4
4
5
7
1
4
4
22
2
9
7
0
3
13
10
9
8
1
6
22
10
1
14
6
3
10
13
14
14
1
6
2
2
9
5
6
2
4
13
6
2
8
8
15
6
9
4
7
17
3
6
8
18
5
2
5
11
15
7
9
1
4
7
12
10
7
9
6
3
15
14
7
18
11
3
0
0
0
23
3
6
4
3
15
1
3
8
3
2
2
3
4
21
7
9
10
8
2
4
2
6
10
10
0
4
8
4
13
5
6
15
4
10
2
0
1
4
11
6
5
5
2
19
12
6
4
6
6
6
5
4
2
3
6
3
14
3
1
15
13
11
11
10
2
3
0
2
9
3
0
7
12
7
19
16
1
5
9
5
11
11
8
12
9
3
10
8
1
5
0
16
0
5
6
2
11
2
7
11
4
7
3
3
12
7
1
3
3
12
3
3
8
0
16
3
2
0
4
1
1
1
5
3
2
1
2
1
1
3
1
3
5
1
9
12
9
6
7
3
0
1
7
0
3
5
9
4
4
6
6
8
4
6
0
0
1
17
8
13
10
9
14
2
8
5
1
5
6
8
12
3
1
6
3
0
6
1
8
2
14
6
11
5
5
9
0
4
1
3
8
16
4
0
7
17
12
1
5
5
4
8
1
1
10
6
10
14
6
2
5
15
3
6
11
9
12
0
6
3
4
4
5
3
2
4
5
4
14
6
4
7
12
5
4
16
7
3
4
11
4
7
2
1
0
11
3
2
4
4
3
7
0
5
10
1
8
3
21
4
4
13
8
20
8
2
12
4
4
0
3
7
1
1
0
12
9
12
2
2
8
8
4
21
13
8
9
18
4
10
6
4
4
10
10
12
22
1
3
8
7
4
2
1
12
6
5
7
9
2
2
9
19
2
5
5
2
5
0
2
3
13
0
5
0
8
6
11
5
5
7
26
18
7
2
2
1
6
12
12
7
6
12
20
4
13
7
12
10
3
14
0
14
2
5
11
2
3
0
8
4
6
5
5
2
5
8
10
2
12
3
12
6
9
8
4
9
8
7
10
9
2
1
1
5
5
12
2
9
1
6
4
5
10
11
3
12
4
3
5
3
11
1
4
2
2
4
2
9
3
9
10
4
1
2
4
4
1
1
15
8
6
10
6
4
11
19
2
4
17
1
17
2
3
1
4
24
16
0
4
3
6
5
4
8
3
12
5
14
8
18
5
1
4
9
2
0
17
12
3
12
11
3
4
4
0
4
7
9
7
3
8
9
20
1
1
14
1
0
2
5
18
10
3
8
8
2
1
1
8
8
2
1
1
12
4
15
2
3
5
7
3
0
1
12
1
7
3
4
5
11
12
6
0
3
4
5
5
13
5
6
5
11
2
0
5
5
14
3
1
6
4
2
0
2
5
2
14
4
7
12
3
1
4
9
2
7
2
17
2
0
14
12
10
2
10
5
15
5
3
4
3
1
3
2
7
3
2
21
6
11
3
3
9
10
5
7
7
6
5
3
7
12
16
0
13
12
15
11
2
5
9
1
15
9
1
2
5
0
0
9
7
4
5
6
14
11
1
8
12
2
3
3
7
10
21
2
2
2
3
4
7
9
10
2
10
11
1
20
0
2
3
7
9
0
1
0
0
0
4
7
8
1
1
0
3
6
7
2
1
10
5
5
20
17
3
7
12
5
4
6
3
1
1
13
0
10
2
4
12
7
10
3
0
11
5
0
8
4
4
7
4
7
11
1
2
10
3
14
0
6
14
1
8
32
4
1
2
4
5
1
11
11
13
3
12
7
6
18
10
10
7
2
6
3
7
3
4
9
8
0
10
8
2
8
14
6
4
11
9
10
3
5
8
16
7
7
8
4
3
13
2
4
8
19
15
5
8
4
5
6
2
1
24
2
7
1
0
3
7
9
7
6
10
16
17
4
8
9
12
1
1
8
1
3
1
11
7
2
10
7
3
4
6
7
1
10
13
1
0
11
4
14
4
5
19
6
8
7
4
5
5
0
1
2
8
4
6
5
5
4
6
13
10
9
1
2
10
7
6
4
15
2
10
4
12
3
3
1
19
4
5
2
2
8
1
2
1
3
0
11
3
12
21
8
2
4
4
3
2
3
8
8
8
7
3
6
12
2
10
9
15
6
3
0
1
5
2
14
4
4
7
2
19
1
0
14
6
9
1
3
4
15
10
4
3
3
5
1
11
13
8
5
5
1
4
9
5
6
2
1
3
4
10
3
2
11
6
0
5
9
3
9
13
16
3
1
3
7
1
10
8
0
12
4
6
7
1
6
9
15
7
2
3
0
0
14
5
10
2
9
12
6
2
11
5
11
1
7
6
8
1
2
9
0
4
7
1
2
9
10
7
4
4
6
6
5
0
3
1
11
9
2
9
6
5
11
3
8
5
5
9
11
1
1
2
4
7
11
8
2
3
13
13
1
7
8
0
14
2
12
0
4
1
2
2
6
10
0
7
5
0
0
2
5
0
7
3
1
10
14
5
4
6
3
9
2
4
3
14
6
10
0
6
10
9
5
8
5
3
6
1
9
10
15
6
3
8
5
7
3
4
1
12
2
5
13
10
12
0
5
2
5
5
22
2
13
8
11
8
17
3
7
11
1
3
7
3
4
9
4
1
4
8
11
4
3
2
2
18
2
7
2
20
4
6
2
5
3
1
1
7
7
6
8
6
10
4
12
15
7
0
4
8
7
3
6
9
3
2
8
1
7
1
1
4
2
5
0
0
5
3
5
6
6
4
9
16
3
0
3
5
1
3
6
1
8
2
4
2
11
9
2
5
8
3
9
5
10
9
19
16
7
11
14
7
3
5
4
8
11
2
18
7
1
5
6
7
1
3
4
4
5
9
7
4
6
5
4
16
3
1
7
9
18
3
2
2
6
2
8
13
7
11
3
9
3
17
17
10
0
5
10
4
2
10
13
0
0
4
3
6
3
5
6
0
8
15
5
2
2
12
2
11
1
12
7
5
2
1
3
6
8
7
4
7
13
8
13
5
2
6
0
1
7
13
6
5
0
0
5
3
11
3
12
9
23
2
0
7
7
2
7
11
10
4
4
10
5
4
6
6
7
3
4
2
1
4
8
9
5
13
4
3
4
4
1
0
6
10
13
11
0
3
2
14
1
0
5
4
5
11
9
11
8
4
1
12
4
1
4
2
14
3
14
3
12
9
1
2
12
4
13
1
10
6
3
6
3
19
5
6
5
3
2
4
15
9
3
14
7
4
5
1
5
4
5
18
10
4
2
3
9
2
1
1
2
4
7
3
0
6
4
2
1
9
2
7
5
0
9
3
1
8
9
0
1
1
2
3
8
0
9
0
6
5
9
9
7
1
10
4
9
8
4
6
7
2
1
4
3
6
15
5
7
0
2
6
5
7
3
4
8
7
0
0
4
0
4
0
5
7
11
1
1
8
1
4
0
2
3
1
7
12
5
5
8
7
0
5
2
3
7
2
7
6
0
5
1
13
1
1
8
0
13
13
7
5
1
5
2
0
1
10
1
7
13
3
2
4
6
0
8
5
5
2
6
1
5
13
7
3
4
2
2
3
1
1
1
1
8
0
11
0
2
4
1
1
5
6
9
3
12
4
1
3
4
1
8
7
1
2
13
1
4
8
0
5
0
11
11
3
4
8
12
5
2
2
8
1
0
10
0
6
8
9
7
4
1
13
5
11
5
5
6
18
9
3
8
0
3
6
2
7
0
2
3
5
8
4
2
6
4
12
8
4
5
6
8
11
1
3
5
7
12
2
5
2
2
8
6
17
3
4
1
20
2
7
1
10
6
1
6
4
3
0
6
1
7
11
2
3
12
3
6
2
4
8
5
1
5
9
6
16
1
3
5
7
2
14
9
1
8
21
23
9
3
9
2
8
8
4
5
3
1
3
5
13
5
8
2
4
3
7
0
4
14
10
0
2
16
6
3
7
11
13
7
4
20
15
9
5
9
5
8
2
7
5
10
6
7
12
5
4
7
17
4
4
7
8
4
5
1
8
11
1
9
9
7
8
8
3
6
9
3
10
5
11
6
15
1
4
3
4
4
15
21
6
1
3
6
8
13
4
9
1
8
13
9
0
11
8
8
6
2
2
8
1
16
1
8
12
3
3
3
8
11
8
6
6
0
3
8
12
4
2
6
7
10
10
4
6
6
2
5
1
4
13
16
2
2
5
2
3
2
4
6
0
17
1
7
4
5
7
8
12
2
6
1
1
3
1
6
8
3
7
4
6
8
6
5
8
5
2
9
12
10
1
3
15
3
0
0
4
15
0
2
11
1
0
5
4
4
9
6
6
1
6
3
4
3
1
8
11
6
5
4
5
0
7
10
5
1
1
2
13
5
5
2
0
9
14
2
1
2
1
3
1
2
3
3
9
2
6
6
0
0
7
2
3
7
7
3
11
4
10
7
3
10
1
4
6
6
7
7
7
0
0
15
3
2
5
7
1
2
3
6
6
12
3
16
1
0
13
1
11
3
17
8
9
1
3
10
11
2
7
1
4
19
1
0
5
6
8
4
3
0
0
3
7
9
3
7
2
3
10
5
3
4
16
3
9
5
7
5
7
4
0
3
0
3
1
7
2
2
14
4
0
6
15
9
5
10
12
14
1
3
1
3
5
3
5
5
1
11
2
4
8
8
1
8
4
4
5
5
2
3
7
4
2
3
3
1
2
2
6
3
3
4
4
4
0
6
5
1
3
8
7
4
1
1
9
6
9
5
3
4
3
7
12
0
1
7
10
5
0
3
9
4
5
2
14
0
13
9
8
3
2
3
16
5
0
1
5
2
6
8
8
1
1
1
9
1
4
2
4
4
6
0
2
2
4
2
2
14
12
7
7
9
14
0
14
5
2
5
5
2
1
1
3
13
3
11
7
7
4
4
3
8
4
6
1
7
7
7
3
3
0
3
11
4
0
5
11
8
10
10
6
8
16
5
10
5
6
4
15
2
1
9
1
11
8
2
1
6
1
1
4
12
5
4
8
8
5
8
0
5
2
0
11
2
0
4
1
5
4
3
15
2
4
5
0
3
1
12
13
1
0
1
1
1
1
13
5
3
12
3
5
2
1
9
2
4
8
0
7
11
4
1
5
2
3
2
3
1
1
6
2
3
3
9
2
2
3
12
0
1
4
6
0
4
7
9
12
4
3
6
8
2
5
1
5
8
8
19
6
8
17
2
2
5
6
10
8
5
6
7
7
14
0
5
2
0
5
7
0
0
0
11
1
1
2
0
2
7
4
10
2
11
5
4
14
8
6
1
2
5
15
15
4
3
3
2
5
3
14
5
13
11
5
4
13
14
1
7
11
3
0
1
3
5
3
5
3
1
3
3
2
1
4
5
0
4
0
8
4
3
14
2
4
3
0
6
2
7
11
2
0
0
3
4
3
11
2
2
3
4
0
10
7
0
1
7
5
13
6
3
9
3
7
6
1
11
6
0
3
5
12
4
1
4
4
7
2
6
0
1
5
8
2
7
9
5
9
1
19
1
2
7
4
1
3
10
3
2
3
5
4
6
5
9
1
7
14
3
4
13
2
13
8
4
4
9
8
0
2
4
6
6
10
8
9
7
5
0
0
3
2
1
3
9
1
6
0
5
1
5
0
0
2
2
9
6
5
0
0
3
1
9
3
3
3
3
15
9
4
13
1
5
2
21
1
4
2
4
8
2
1
3
10
4
3
1
2
0
18
0
6
5
4
6
2
1
5
5
7
1
1
6
13
5
12
6
5
3
8
8
1
8
12
0
0
2
14
5
9
5
11
3
5
5
5
3
1
6
10
1
3
6
4
7
2
8
3
8
1
2
8
9
6
14
1
1
24
7
9
13
10
0
4
1
5
8
6
1
3
3
4
3
1
4
8
0
1
0
3
12
10
0
4
5
4
4
6
2
3
7
1
6
1
2
2
5
1
5
12
6
6
2
14
11
4
5
11
2
3
15
7
9
0
2
2
2
16
6
0
4
2
6
0
9
5
3
7
4
8
7
0
6
1
1
11
8
7
12
19
2
5
16
8
11
6
9
4
1
3
2
7
8
4
9
2
1
7
13
3
4
1
6
5
4
12
4
3
10
2
3
6
12
1
3
2
4
5
2
5
8
3
6
1
6
7
4
3
14
5
7
3
1
2
9
4
3
3
3
7
9
1
11
0
5
2
9
2
19
6
3
2
1
5
7
0
0
1
1
4
4
1
6
0
2
6
8
10
2
7
3
0
9
15
1
1
15
4
4
2
6
7
5
13
8
6
0
1
7
7
2
1
8
3
1
0
12
3
1
0
2
1
4
2
7
7
13
1
8
12
2
3
8
11
12
8
0
4
1
2
4
2
2
5
8
1
1
3
4
7
11
3
1
6
7
2
1
5
5
5
6
7
11
2
1
2
9
7
5
6
7
13
3
8
4
7
5
0
5
14
5
6
1
5
6
1
11
6
3
2
11
11
5
2
3
5
5
14
8
8
13
6
7
10
7
0
3
0
4
3
3
5
5
2
2
8
5
1
1
7
5
6
2
3
3
2
4
5
1
4
1
3
4
8
11
8
5
3
8
6
3
5
5
7
1
8
2
11
5
11
3
2
12
5
1
9
0
1
8
7
7
6
4
2
4
2
11
5
6
0
0
19
2
0
0
6
6
6
3
0
5
4
5
1
5
15
1
6
3
6
1
5
11
0
8
5
2
1
2
5
11
6
5
3
4
4
6
6
1
7
12
20
9
3
7
3
4
1
7
3
12
7
7
0
3
2
8
7
4
5
18
5
4
4
4
1
0
5
3
7
0
6
6
4
1
7
3
6
2
4
4
7
8
10
10
3
3
0
0
3
3
1
5
0
8
5
8
1
4
3
5
1
4
5
10
2
5
1
5
0
11
7
7
0
4
0
4
1
7
2
0
0
9
1
7
2
9
1
4
2
0
6
7
13
5
10
6
5
4
3
3
4
4
2
6
3
2
17
2
2
2
4
12
9
4
3
1
1
5
3
4
4
1
3
15
13
5
4
2
1
2
3
10
5
11
8
3
6
7
7
5
10
9
7
4
12
0
5
2
9
3
7
0
2
2
4
3
9
6
5
5
0
4
17
10
8
4
3
4
4
5
4
4
11
10
2
6
8
14
13
4
1
6
7
12
0
6
4
0
1
5
12
1
12
3
3
2
3
2
1
3
6
18
3
2
13
1
3
2
4
4
5
2
0
5
5
1
5
4
1
3
2
6
7
16
5
5
7
16
0
1
3
0
4
6
3
4
10
2
12
3
1
4
1
4
5
10
4
12
8
16
9
2
11
0
7
6
0
10
5
1
1
3
5
4
2
4
4
1
0
2
4
8
6
2
1
5
1
11
2
13
7
2
0
2
2
5
6
5
3
4
4
4
2
5
0
11
4
3
7
4
3
7
10
0
6
3
9
8
4
0
11
5
2
1
0
1
0
8
3
6
1
1
16
5
2
2
14
1
2
2
7
6
2
13
2
21
13
8
5
3
4
11
2
0
5
3
3
3
3
3
4
2
1
13
4
1
3
3
1
10
4
3
1
1
10
3
8
9
13
5
5
2
11
2
9
0
0
6
5
9
1
3
1
10
2
4
0
11
3
10
1
7
1
4
1
5
1
0
1
4
6
5
1
0
15
3
4
15
2
8
1
5
2
8
1
0
1
0
10
3
1
8
3
11
2
3
3
7
3
1
3
2
6
1
2
2
5
0
3
7
6
1
5
6
4
1
3
5
6
13
5
2
0
2
5
12
10
14
1
5
5
5
3
0
3
4
1
1
6
5
1
9
3
5
2
3
3
3
7
1
5
0
5
4
10
1
1
8
16
7
4
5
0
6
7
3
3
3
2
11
14
6
10
2
1
0
7
2
16
9
11
14
3
12
3
21
8
2
0
1
2
10
12
4
1
5
2
14
11
6
3
3
4
5
5
13
9
11
4
1
2
7
2
9
4
12
8
9
8
8
3
5
6
3
3
7
3
4
1
11
3
13
4
13
4
4
2
9
6
1
7
3
5
1
1
2
6
6
8
0
5
6
4
11
5
1
1
9
3
0
2
5
1
1
4
2
6
1
3
4
4
2
4
4
4
3
16
7
6
13
5
1
3
1
3
5
3
8
1
3
6
8
4
4
3
4
4
2
3
2
4
2
5
1
1
2
4
1
1
10
7
1
0
0
4
1
1
2
6
9
4
2
2
5
5
1
4
3
2
9
9
10
15
4
0
1
0
1
5
6
13
1
4
0
8
3
7
6
7
8
5
8
10
5
0
2
1
5
4
2
1
0
3
2
2
2
6
10
3
5
3
6
0
1
12
8
3
6
2
4
8
10
7
8
9
2
0
7
0
1
0
0
7
3
5
1
13
13
1
5
3
16
2
3
1
15
2
6
1
2
4
1
3
3
6
4
6
2
6
5
2
12
0
15
3
3
3
3
6
8
4
4
4
3
9
6
0
7
6
5
3
6
8
16
19
8
1
3
4
2
11
9
0
0
4
0
10
2
6
5
3
10
4
1
3
2
8
0
1
4
2
0
0
8
17
1
4
0
5
5
7
10
2
0
7
0
2
16
2
7
0
3
2
1
1
3
4
0
8
6
6
9
8
2
4
4
1
10
19
3
9
3
2
12
3
2
1
16
2
1
1
1
7
2
16
7
0
3
0
2
0
4
6
1
6
0
3
1
10
0
6
4
5
4
9
9
5
8
6
4
11
10
1
8
4
3
9
3
8
6
2
2
11
11
7
3
2
3
1
0
6
4
13
5
4
1
5
7
3
8
11
8
3
9
6
7
2
6
3
2
0
8
13
0
4
0
9
1
10
2
5
8
3
5
1
0
5
1
10
5
5
11
2
4
2
9
12
0
3
1
9
2
12
2
7
9
8
7
4
1
3
7
13
1
2
2
0
9
12
0
5
0
4
1
3
2
2
0
1
6
2
1
2
2
2
3
0
3
1
5
13
5
7
6
7
11
1
5
14
2
9
6
0
15
8
8
0
10
17
6
4
11
5
1
1
1
5
0
15
1
4
12
0
0
8
3
0
2
4
7
3
3
7
15
1
2
3
2
8
0
1
0
0
4
7
2
2
10
7
8
7
6
11
18
2
5
8
7
14
5
2
3
0
1
7
2
6
4
4
3
1
3
2
2
1
5
9
9
8
4
8
6
9
2
7
13
4
4
1
7
2
2
2
4
4
0
4
6
5
2
1
5
7
2
9
5
1
0
0
6
0
2
17
4
1
0
13
11
1
0
7
4
11
2
8
0
4
3
5
2
8
4
3
9
17
6
8
6
3
1
2
6
5
1
2
4
7
5
2
8
6
2
10
11
3
3
3
4
2
7
1
6
2
0
4
4
5
7
5
1
1
14
1
4
7
3
3
4
10
9
4
8
4
8
5
2
0
2
2
1
11
5
1
3
5
8
4
0
15
2
5
2
3
3
2
2
1
8
3
1
4
6
3
1
21
5
4
3
1
0
1
4
7
3
4
5
6
13
4
5
4
6
2
1
7
5
0
0
15
5
5
1
16
10
1
0
5
4
2
1
0
1
0
6
3
6
14
6
0
0
7
6
5
11
16
1
4
4
6
1
1
1
5
12
1
0
3
0
0
0
0
0
3
2
3
3
1
8
4
6
1
6
11
5
5
4
12
9
4
4
4
1
5
3
2
0
0
5
3
4
1
8
3
4
6
3
0
4
11
9
10
5
2
5
1
1
6
1
4
5
5
4
12
12
4
5
2
9
9
9
6
4
7
0
10
13
2
1
17
4
2
5
0
7
8
1
0
5
5
1
6
6
10
5
3
1
0
7
0
7
6
11
1
9
2
2
6
13
5
3
14
10
6
3
3
3
2
6
8
5
1
5
6
4
6
10
2
1
14
9
3
8
1
1
8
2
2
0
5
2
3
5
5
3
6
0
3
0
4
4
4
10
6
1
1
2
5
3
1
3
7
5
3
2
9
3
2
2
4
2
0
1
0
1
0
2
1
1
0
4
4
10
6
0
6
11
4
8
0
3
5
20
1
4
0
6
2
10
7
0
3
2
7
2
3
9
0
15
9
1
4
7
2
0
0
3
3
5
2
8
3
4
4
5
7
4
1
0
0
6
5
4
9
14
8
5
2
10
12
2
10
1
12
4
9
11
7
8
5
1
1
10
0
1
4
1
8
3
3
3
8
4
4
4
3
0
6
2
0
4
7
6
12
8
7
0
1
5
2
5
6
9
1
3
3
1
3
4
3
5
0
1
8
9
5
14
10
1
0
3
1
3
6
2
1
2
3
7
1
8
6
5
2
2
6
8
9
4
5
2
17
2
3
3
4
3
2
5
0
0
14
8
1
9
1
9
1
2
4
12
8
2
1
0
5
5
10
6
1
2
2
11
10
5
1
5
1
0
5
2
0
3
16
1
1
0
6
0
6
0
7
10
3
3
0
14
2
4
2
1
5
2
5
2
4
2
1
2
9
0
6
3
4
3
1
5
1
10
12
5
7
5
1
0
0
2
3
2
2
0
14
10
18
1
10
8
1
5
7
1
5
10
4
0
6
7
7
6
3
8
12
3
2
2
6
6
1
2
2
3
1
0
3
6
1
1
1
0
13
2
7
0
1
0
6
0
0
1
3
5
7
0
0
11
2
3
4
4
2
6
16
16
5
5
2
1
0
3
1
5
5
0
4
8
8
2
4
0
1
4
3
4
2
0
2
9
0
5
5
8
5
5
7
2
3
2
16
9
3
6
5
5
0
4
4
5
4
1
4
2
2
1
1
7
0
0
8
4
2
9
2
2
2
0
5
7
7
10
3
2
3
5
5
2
7
9
5
9
2
0
2
6
4
3
0
8
3
1
2
3
9
2
4
1
1
4
3
1
4
7
0
4
1
0
6
1
7
2
2
5
6
4
8
2
3
2
4
0
6
2
5
10
0
7
1
3
2
0
2
1
10
5
1
6
5
8
3
6
4
8
2
5
4
13
5
10
3
1
3
8
1
1
3
13
0
3
4
1
0
12
2
4
5
5
3
3
6
1
3
2
3
7
1
1
6
0
10
0
6
2
1
0
1
7
4
1
0
6
8
2
5
6
1
2
1
6
3
0
2
5
4
9
4
1
7
12
2
1
4
2
5
4
0
2
1
2
6
6
5
1
6
6
13
9
10
4
3
11
8
2
1
1
2
5
3
10
7
0
9
1
0
4
3
4
10
2
6
6
4
6
6
0
6
2
1
7
6
9
1
8
11
4
1
1
1
6
3
2
2
4
3
1
10
7
0
2
3
4
5
0
2
1
0
0
5
1
3
7
3
0
1
4
8
3
1
4
0
4
2
7
3
3
8
0
2
2
12
2
9
7
1
4
8
10
4
0
1
2
2
5
2
5
1
1
4
2
3
4
2
7
0
2
0
0
1
2
1
2
4
0
4
4
2
3
10
7
2
7
0
2
0
3
2
0
3
3
7
0
3
5
6
3
8
3
2
3
0
4
0
11
1
5
3
3
6
17
8
2
2
8
2
0
9
4
1
6
2
1
3
13
2
8
1
0
4
6
6
4
6
3
0
6
9
4
2
3
3
4
1
3
2
5
3
1
7
0
2
8
0
1
2
0
1
1
1
5
4
7
6
0
4
7
1
10
4
5
6
1
1
3
2
0
0
1
4
1
6
4
3
1
7
0
7
9
3
3
2
2
2
1
2
4
0
5
1
1
4
7
2
6
2
1
4
4
3
1
4
2
2
19
1
4
9
3
0
12
1
6
6
6
0
3
7
0
16
2
2
6
5
1
4
8
9
1
10
1
0
1
4
4
0
5
4
9
3
2
5
5
6
3
3
6
1
0
10
1
7
9
2
2
7
3
2
4
0
0
2
1
4
2
8
7
1
3
1
4
1
1
4
0
5
0
0
9
0
6
5
6
12
8
2
7
2
4
13
0
8
0
7
1
0
16
6
5
1
2
5
13
2
9
0
0
6
8
3
1
11
0
0
2
5
3
6
3
3
9
5
0
7
3
10
13
2
0
4
3
2
3
1
1
3
11
7
0
0
3
2
1
3
3
3
5
5
6
0
4
10
2
2
3
1
4
3
5
1
5
13
1
6
2
1
3
2
5
5
0
11
9
7
1
3
1
9
16
10
6
13
2
4
2
6
3
5
7
8
1
0
4
1
1
6
2
0
9
16
5
6
4
4
2
3
0
0
4
7
4
7
2
4
3
6
3
2
0
3
1
3
3
3
9
8
4
5
4
2
1
1
3
1
7
1
5
0
1
2
10
2
7
8
10
1
1
5
1
7
3
2
0
7
1
5
0
11
0
0
5
7
1
6
1
6
8
8
1
4
1
2
2
1
5
0
2
1
2
6
1
1
3
0
5
8
0
8
1
2
3
4
2
1
7
3
1
6
1
2
11
8
0
8
0
3
1
0
1
0
1
7
6
2
11
2
2
0
1
9
3
4
0
8
0
6
1
2
4
3
3
9
5
1
4
5
8
3
0
7
3
1
5
1
4
11
4
5
3
3
2
6
0
2
1
4
8
0
3
9
4
12
4
9
10
15
15
4
4
0
2
5
3
2
4
7
2
3
14
7
4
4
3
1
4
1
3
1
1
1
1
0
0
3
5
5
3
1
2
2
3
4
3
2
3
1
0
3
2
3
2
1
3
0
6
1
3
5
0
2
3
0
7
0
0
3
0
1
6
2
9
6
10
1
1
7
0
1
3
5
1
1
1
2
7
4
5
4
7
2
5
1
6
2
2
7
13
0
0
6
9
1
3
2
1
5
0
4
3
3
1
5
8
1
1
10
12
2
0
11
6
6
2
5
2
2
1
10
0
6
1
3
0
3
2
1
5
5
3
1
0
9
10
4
1
6
2
4
3
3
4
2
4
9
0
5
1
1
10
11
5
2
4
1
4
2
6
0
5
4
0
4
5
2
1
7
1
1
5
5
2
5
8
2
1
2
3
8
3
1
7
1
8
0
9
6
5
0
3
4
4
7
3
2
4
5
2
6
3
1
1
8
3
1
4
0
0
1
3
7
7
1
5
4
6
10
4
5
8
9
14
0
3
2
1
3
1
0
0
6
0
3
7
4
2
9
2
1
1
1
2
7
5
3
13
0
0
4
3
1
9
8
6
1
3
5
4
14
5
4
6
2
0
1
2
5
6
3
11
11
2
5
8
5
4
5
9
1
0
4
2
1
3
3
10
2
2
1
3
2
11
0
3
0
2
0
2
9
4
8
5
5
4
5
3
0
3
1
5
8
0
1
7
1
2
0
3
0
3
10
7
2
10
5
13
1
2
9
2
3
5
1
8
0
2
1
3
4
0
4
3
4
0
7
4
3
0
0
0
0
2
6
4
9
4
0
0
3
8
0
5
0
10
2
7
2
3
6
8
2
6
0
2
1
6
1
0
4
7
3
4
5
1
8
10
3
4
0
4
3
0
0
1
1
10
9
12
3
5
9
0
4
0
2
3
1
4
3
2
6
3
15
1
1
5
3
1
3
7
6
0
12
3
12
0
2
11
4
3
10
6
3
2
2
3
4
5
2
2
5
6
6
1
12
4
2
2
3
1
0
5
8
2
3
4
4
1
0
3
3
1
0
0
0
0
1
0
2
4
1
3
2
0
0
0
8
1
8
1
2
5
1
2
6
1
1
1
10
1
4
5
1
9
1
2
0
3
12
12
2
0
1
2
2
3
1
6
8
19
5
3
2
1
1
10
7
9
1
3
2
0
8
1
1
1
0
5
0
9
4
1
2
7
3
4
1
3
4
4
8
2
2
5
14
5
3
3
1
7
0
5
2
0
2
1
0
3
2
3
1
12
3
9
4
0
6
2
4
2
1
5
4
9
4
4
6
6
4
1
3
1
0
3
12
1
2
1
1
2
5
2
0
4
4
2
4
5
3
1
2
3
8
0
4
0
2
2
2
4
3
2
1
1
6
2
9
4
0
4
1
5
5
0
3
1
10
5
2
2
7
17
8
0
15
3
3
6
0
5
4
2
0
0
4
5
8
4
3
5
1
2
9
5
2
1
2
0
2
2
6
0
1
8
7
1
1
2
1
4
4
0
0
2
3
5
0
6
5
0
9
5
10
0
6
4
2
9
5
1
1
4
5
2
2
0
4
5
1
6
8
1
12
5
4
5
0
1
10
0
0
9
0
0
4
2
1
8
3
1
4
6
3
0
8
1
14
4
3
9
8
1
1
3
1
1
0
10
2
1
0
1
8
5
9
6
5
7
6
10
2
3
2
1
10
5
2
4
3
6
6
1
4
3
5
7
9
12
1
5
1
1
3
0
0
2
9
8
3
0
5
1
8
8
1
0
0
9
4
4
2
0
2
3
4
9
9
1
5
1
5
0
2
0
5
1
4
2
6
1
4
6
3
1
3
8
2
1
1
4
3
0
2
3
6
2
0
0
2
3
9
1
1
2
1
4
3
1
1
6
2
3
6
2
8
4
3
1
1
3
5
1
2
1
1
1
10
5
2
2
0
1
2
1
3
2
1
2
0
1
4
1
4
3
1
8
2
4
13
13
1
1
2
0
6
5
4
2
8
0
2
9
1
5
1
0
1
0
10
1
4
0
12
2
3
10
4
2
6
2
2
3
0
4
9
1
2
2
10
6
0
2
5
0
1
6
8
10
0
10
3
1
1
0
5
0
3
3
2
4
2
3
1
0
7
5
1
8
3
4
3
2
4
1
4
2
2
2
2
5
4
3
0
1
4
3
4
5
4
5
4
0
5
1
2
1
2
3
3
15
1
2
2
5
1
0
3
8
8
1
3
1
1
0
1
0
2
3
5
4
3
4
0
4
2
2
4
7
1
5
2
10
0
4
1
2
1
6
5
3
10
5
14
3
1
0
0
2
2
3
9
0
6
4
2
4
4
2
5
8
2
0
1
9
2
0
1
1
0
3
3
5
1
5
3
4
4
10
4
1
5
4
7
1
1
1
0
6
0
4
0
0
0
3
6
7
6
2
0
7
0
1
2
12
4
4
4
1
5
2
2
6
1
4
6
12
1
7
8
7
5
7
3
1
5
0
0
3
0
0
1
3
3
7
4
0
2
1
4
3
2
6
1
9
1
0
4
4
0
9
6
1
2
3
4
2
4
3
9
1
0
8
10
7
13
5
5
0
2
4
0
3
2
12
1
7
5
0
0
4
1
3
8
6
6
0
9
2
1
1
5
0
2
2
3
2
1
3
5
1
3
5
1
0
5
0
0
0
12
3
3
2
3
5
0
2
3
0
11
2
3
4
2
3
2
0
2
9
5
0
6
2
2
2
0
3
3
4
5
6
3
0
2
5
0
1
2
1
1
1
2
9
10
8
2
4
3
6
4
7
4
9
8
15
7
0
0
3
0
1
1
0
1
2
2
5
1
0
1
3
4
0
2
4
1
1
3
1
4
1
2
0
4
2
4
0
3
2
1
2
0
0
1
2
3
6
2
0
1
4
3
0
6
0
2
7
5
2
2
7
1
5
0
1
0
4
2
2
2
1
0
2
2
1
3
1
2
0
3
7
3
3
1
2
0
3
3
5
4
9
2
0
0
5
3
0
2
1
3
2
4
2
1
1
7
2
0
2
2
6
0
0
3
0
3
0
0
1
1
0
0
2
3
6
0
3
2
5
3
3
5
5
0
1
2
2
3
4
0
6
0
9
3
2
1
1
2
4
11
2
1
3
3
0
6
1
2
5
8
2
13
6
0
5
0
6
1
3
1
7
8
1
9
8
1
3
4
13
1
7
1
2
5
2
6
6
2
7
0
10
0
13
4
3
16
4
6
4
3
0
2
2
6
1
4
1
3
2
1
1
3
4
5
4
16
3
0
0
1
1
2
3
0
0
2
1
3
4
1
3
2
6
3
2
5
3
3
7
4
1
0
1
2
6
0
1
0
2
2
2
5
1
5
12
0
1
0
0
5
9
5
4
1
4
2
5
2
4
5
3
1
5
1
6
3
1
0
3
4
1
2
2
5
2
3
5
0
3
2
2
2
1
0
1
0
0
2
4
2
2
14
1
1
0
3
3
2
1
8
2
6
2
0
2
2
0
2
5
6
1
4
3
8
1
8
1
0
4
9
9
9
0
0
1
2
3
2
2
1
0
4
5
7
4
3
1
4
14
0
0
4
14
15
6
3
5
1
2
0
1
0
8
3
6
3
11
4
5
2
4
0
4
0
7
3
1
1
5
5
4
3
3
1
3
8
3
1
1
1
0
1
4
2
1
1
4
0
1
3
0
8
1
1
4
12
0
2
1
0
4
2
7
1
2
2
1
1
1
3
1
4
2
11
0
3
0
0
2
3
1
1
4
1
0
4
3
1
1
8
2
4
1
8
3
0
3
8
4
2
0
3
0
3
8
0
0
1
1
4
1
2
2
0
3
3
7
2
1
10
2
2
3
3
5
1
5
7
0
5
0
0
0
1
0
0
1
2
1
0
2
6
7
2
0
3
1
1
4
5
3
4
6
5
8
1
4
0
9
4
4
8
0
3
0
5
5
1
4
7
1
0
2
8
3
2
2
1
2
13
5
7
0
7
9
0
7
0
3
2
1
1
0
3
8
9
5
7
3
1
1
9
3
0
3
7
0
0
0
1
1
0
8
4
6
1
3
3
3
4
7
0
2
1
2
1
5
6
0
5
3
4
3
2
5
1
1
5
4
2
0
3
1
0
4
7
2
2
4
5
5
3
0
3
0
0
1
0
4
1
9
3
2
1
13
8
0
4
0
3
7
0
3
4
5
1
5
4
5
5
6
5
2
3
11
4
2
2
7
6
2
4
6
8
1
3
11
0
4
1
9
5
4
5
4
5
6
2
2
1
4
3
6
7
9
5
1
3
2
2
0
1
3
2
0
4
1
5
1
3
0
14
0
2
7
1
12
3
5
0
9
5
0
5
3
0
0
3
4
6
6
8
2
3
3
2
1
4
6
7
2
4
2
0
10
5
4
9
2
0
0
4
2
0
2
9
1
3
0
4
0
2
6
1
3
9
1
3
6
1
0
6
7
3
5
0
0
7
7
6
1
3
0
0
0
1
7
10
1
1
2
0
0
0
1
0
0
1
3
8
5
7
3
3
1
9
5
2
3
0
1
0
0
5
7
8
5
2
2
0
8
4
0
17
10
0
1
0
1
1
7
0
5
1
0
3
9
3
0
1
1
7
2
0
2
3
0
2
1
5
5
8
1
5
3
2
2
0
0
1
2
2
1
3
3
8
4
0
10
5
0
4
1
0
0
1
0
0
3
5
0
2
7
5
4
1
2
6
0
2
0
0
5
3
3
4
8
3
2
3
4
3
0
1
5
0
2
7
2
0
1
3
0
1
11
0
5
4
6
4
3
1
4
2
2
5
1
4
3
2
4
9
2
3
3
1
0
6
0
3
4
1
1
6
2
0
1
1
0
1
0
1
1
9
0
2
5
3
1
10
5
3
3
2
0
2
2
0
6
3
2
1
6
7
6
16
1
1
0
2
8
12
5
3
3
5
7
0
6
6
7
9
2
3
8
2
1
0
0
2
2
0
4
2
2
7
1
2
0
2
0
2
3
3
4
3
6
0
2
1
0
2
3
0
2
4
2
1
0
4
11
7
3
3
7
6
3
3
4
3
15
1
2
8
0
0
1
12
6
8
0
5
6
1
4
3
0
0
1
1
0
0
2
0
5
5
0
0
4
7
1
5
2
0
2
1
1
7
9
0
0
0
6
0
1
3
1
1
7
6
2
1
3
0
9
0
2
5
5
0
0
0
0
2
0
8
3
2
0
3
1
5
5
2
3
1
2
1
1
3
4
5
1
0
9
1
2
1
0
0
2
1
10
0
3
2
7
6
3
9
0
1
11
1
0
5
2
5
0
9
2
8
5
5
1
2
2
0
0
0
3
10
3
0
0
4
3
3
5
4
5
2
3
4
2
1
8
6
4
2
1
3
5
13
13
5
1
1
5
2
4
5
0
2
2
1
1
3
8
2
4
2
1
2
0
6
1
11
4
1
4
0
5
1
2
1
4
2
2
1
1
1
4
1
1
8
3
2
1
0
1
0
0
1
4
2
4
2
2
5
1
5
1
0
1
0
2
3
5
1
0
4
2
6
6
1
5
1
3
2
0
7
1
5
2
6
1
5
3
1
4
3
4
2
9
8
0
10
0
4
3
7
4
5
1
4
5
5
1
2
0
4
3
2
10
0
0
2
0
1
1
2
3
2
1
0
2
0
1
2
6
3
7
1
3
9
14
6
0
4
2
8
6
1
10
3
2
9
3
9
6
2
3
0
1
0
4
5
2
0
1
4
4
0
2
1
2
0
2
1
5
2
1
6
1
4
3
2
1
1
7
1
2
2
1
4
5
3
0
0
7
8
5
3
1
0
0
1
2
1
1
5
2
5
0
1
2
0
0
0
1
5
0
4
3
4
2
1
0
1
2
0
5
12
8
3
4
0
4
2
4
1
4
2
0
2
4
5
4
1
0
2
0
3
3
1
2
10
9
3
1
3
5
3
0
2
4
2
5
1
6
0
2
2
1
0
6
2
1
4
4
0
2
2
3
0
0
0
7
0
1
1
1
3
7
5
3
6
3
2
2
1
2
5
6
3
0
7
1
1
0
2
3
1
4
1
2
16
1
7
4
2
2
5
2
0
1
1
3
1
5
4
0
2
3
0
0
1
3
1
4
2
10
6
10
8
4
0
8
0
11
2
2
0
2
0
1
1
3
5
4
2
2
6
3
0
1
1
1
6
1
3
9
4
0
6
2
3
2
2
1
1
6
0
0
3
2
4
6
2
0
5
3
0
3
9
9
1
2
8
0
1
5
0
2
2
0
1
3
4
3
0
2
2
0
0
1
11
2
0
3
2
2
1
2
1
1
0
2
0
4
3
3
2
3
2
4
5
6
0
5
3
0
1
3
6
2
1
14
2
3
2
0
3
3
0
4
10
0
11
9
2
2
9
1
7
3
6
1
3
2
2
5
2
10
4
0
1
1
9
7
1
1
0
2
1
1
2
0
5
8
0
1
2
3
1
0
8
1
1
3
3
4
6
4
2
0
0
1
4
1
0
1
10
0
3
7
5
7
4
0
0
0
1
0
4
7
4
2
7
0
3
2
2
1
0
0
2
9
1
2
5
9
3
3
3
6
4
0
0
1
3
0
2
0
0
2
2
5
0
0
0
6
2
1
1
2
5
0
2
9
12
5
0
2
2
1
5
7
4
0
1
4
1
4
4
1
1
1
2
1
3
9
0
7
3
2
5
4
2
1
3
6
0
1
5
3
2
1
5
0
0
0
4
1
9
2
1
3
0
4
3
3
5
2
1
3
2
1
2
2
2
3
0
2
1
0
4
17
2
1
3
6
6
1
2
7
2
3
4
8
0
0
5
2
0
10
2
1
4
5
9
1
2
2
0
3
2
11
6
0
0
8
0
9
5
1
2
1
4
8
7
1
0
5
0
7
6
1
0
0
2
0
6
6
9
4
3
3
3
1
0
2
1
0
1
0
0
12
2
2
2
0
8
15
1
1
2
1
3
0
5
4
4
1
1
1
2
1
5
7
0
3
4
2
0
5
4
3
2
8
11
2
1
1
5
2
1
0
5
0
0
0
2
4
5
3
1
1
2
4
0
4
8
7
3
1
2
4
0
2
5
1
2
2
2
1
6
1
9
8
1
4
2
4
0
1
0
0
0
3
1
0
0
1
2
1
0
3
4
0
1
3
0
5
2
2
4
6
5
8
5
6
2
0
1
0
8
15
1
0
0
1
1
5
7
1
2
2
4
1
7
6
11
1
0
0
6
0
2
5
8
4
7
2
9
1
1
1
0
1
2
8
2
2
3
2
7
1
1
1
5
12
4
0
3
2
0
0
5
7
8
0
2
6
2
4
4
2
2
4
2
5
1
0
4
4
0
0
7
2
0
1
0
2
4
3
2
0
4
1
11
7
9
0
0
1
0
0
2
4
2
2
6
1
3
1
2
4
6
7
2
1
8
0
5
2
1
4
3
0
0
2
3
2
2
5
1
3
2
0
4
0
0
4
6
1
7
0
7
3
2
5
7
0
0
0
5
2
6
1
1
1
5
0
2
1
3
2
2
2
3
4
3
3
1
4
2
4
0
5
3
3
4
1
1
0
1
0
8
11
0
2
0
0
6
3
0
1
0
1
6
7
0
5
2
7
7
0
2
1
2
3
5
1
0
4
4
3
8
2
1
5
0
0
1
2
1
3
3
4
2
3
2
1
4
6
2
3
4
0
1
1
3
7
1
7
5
0
3
0
0
6
0
0
5
10
3
2
8
4
2
3
3
0
0
3
4
4
2
4
8
0
0
1
3
4
1
2
4
3
4
8
0
1
7
0
4
1
0
1
2
1
1
2
0
2
0
2
1
0
1
8
1
0
0
1
0
1
7
6
6
9
7
3
5
6
4
3
4
0
0
1
0
2
1
3
4
3
10
8
3
0
11
5
2
0
0
1
10
1
1
1
0
4
2
0
1
10
1
3
5
9
2
0
7
4
5
5
2
6
4
2
3
2
1
1
2
7
2
4
0
0
2
1
0
4
1
1
0
0
4
2
0
1
1
0
10
1
3
2
3
6
2
3
0
1
0
0
1
4
0
1
0
1
2
4
7
3
2
5
10
1
0
0
4
2
4
10
8
7
0
2
2
3
1
0
1
0
1
6
10
2
15
5
5
1
0
2
1
5
6
0
3
9
0
0
0
0
0
6
3
2
5
1
1
2
0
4
4
1
1
4
1
3
4
6
5
1
0
7
2
2
4
11
0
1
2
4
2
5
3
7
10
2
4
0
0
3
6
5
2
7
6
3
6
0
1
2
2
1
1
12
5
6
4
2
0
5
2
6
0
2
3
1
1
0
0
2
2
3
4
9
0
4
5
1
2
6
1
6
7
8
0
4
4
8
7
3
0
1
0
14
2
0
2
3
6
3
0
3
1
0
0
3
4
4
2
4
0
1
2
2
2
1
8
6
3
1
0
1
4
0
0
0
0
6
6
1
0
5
0
5
2
0
2
8
7
0
1
11
8
4
5
2
3
6
3
0
1
2
3
3
5
1
2
4
2
5
4
1
3
1
2
0
0
0
4
1
3
5
4
1
2
1
17
3
0
6
2
6
3
0
1
4
6
2
0
1
3
4
1
7
5
5
1
3
3
4
5
0
1
16
0
0
1
1
4
1
2
2
5
4
4
1
1
0
0
0
2
1
0
0
0
3
3
4
6
0
4
3
1
12
5
1
4
12
0
1
3
1
3
2
0
1
0
2
2
4
0
4
1
3
1
2
2
4
4
1
4
0
2
1
1
0
2
9
0
3
3
3
3
2
10
0
4
1
7
1
0
6
1
3
2
6
3
6
4
3
5
2
2
3
4
2
1
0
3
3
0
2
1
3
1
0
4
4
3
2
3
3
1
0
3
1
2
1
2
5
1
2
2
1
2
4
8
6
2
3
1
0
0
2
1
1
1
5
1
9
5
2
3
1
2
1
2
2
0
0
2
3
0
5
1
0
5
4
1
1
4
4
2
0
3
2
11
2
0
3
0
1
6
2
8
0
1
2
0
1
4
5
6
5
6
6
8
1
9
0
1
0
1
2
6
5
6
1
4
6
3
3
2
1
3
2
0
2
3
0
0
1
5
1
3
2
3
3
4
9
0
1
0
0
0
5
3
0
1
0
3
5
3
0
1
1
9
1
3
2
1
6
3
2
2
0
0
1
9
0
2
6
11
1
1
0
0
4
0
0
1
3
3
1
6
3
2
2
4
4
0
2
0
4
3
0
0
2
2
2
2
0
2
3
0
6
1
4
0
4
4
4
0
3
7
5
0
5
0
1
1
3
1
6
1
3
0
3
3
0
1
2
0
1
1
0
1
3
1
0
2
3
4
0
1
0
2
6
1
3
4
0
0
8
4
0
1
1
5
4
4
3
4
3
0
3
6
1
3
2
2
4
9
1
0
5
3
0
1
2
0
2
1
2
6
2
0
5
6
0
1
0
4
1
2
1
0
7
2
2
1
1
0
3
0
8
1
0
0
2
1
3
4
0
2
3
4
2
6
0
0
6
0
1
1
1
2
0
0
7
1
2
0
0
6
5
0
1
0
7
0
0
1
1
0
0
0
0
3
0
1
0
1
1
2
5
1
0
0
1
1
7
13
2
1
4
1
10
0
6
1
0
5
2
1
2
1
8
3
0
5
0
3
0
4
4
2
3
5
4
3
1
2
7
2
1
2
3
0
2
0
3
0
1
3
7
2
3
0
1
6
1
3
2
11
4
0
3
0
0
7
1
3
0
3
1
7
1
1
4
0
3
0
3
3
4
3
4
2
3
2
5
11
14
5
0
3
4
2
0
5
3
0
0
1
0
2
4
2
1
1
0
2
5
1
5
1
0
2
4
1
3
6
6
3
1
1
7
1
3
6
0
8
0
3
1
2
5
0
2
1
0
2
5
0
2
2
0
4
12
2
0
0
0
1
0
7
6
1
1
1
1
0
6
4
4
3
7
1
1
0
4
0
1
3
1
4
0
4
1
8
3
1
0
1
1
1
7
0
0
3
6
0
0
1
1
0
0
1
1
0
3
0
2
1
6
1
2
3
6
1
0
5
2
0
3
5
1
2
1
7
1
2
6
4
1
2
3
1
0
2
1
3
0
6
0
2
0
6
2
1
6
1
7
9
6
4
3
4
7
3
0
6
7
4
1
4
3
0
0
3
0
2
0
0
5
0
2
4
4
3
0
8
3
3
1
3
5
4
3
8
0
2
0
5
3
1
6
4
0
3
0
0
6
5
0
7
2
1
1
0
7
1
4
2
2
3
6
0
0
1
1
3
7
0
1
1
4
1
1
0
0
7
0
1
6
4
0
0
0
5
4
4
4
5
8
1
2
1
0
2
2
0
1
1
0
5
3
3
2
1
2
4
0
0
3
3
5
3
2
1
6
3
4
0
0
1
1
0
0
0
1
0
0
4
0
1
7
0
0
6
9
0
1
0
5
2
0
15
6
3
1
1
3
6
0
1
8
1
3
5
1
4
2
9
4
0
5
5
5
0
3
1
3
2
6
0
1
0
3
0
1
1
1
0
0
1
2
7
4
7
8
6
0
0
1
4
0
4
0
6
6
3
0
1
1
0
2
2
3
1
7
2
9
1
0
3
6
4
5
5
9
4
4
1
1
1
5
7
3
1
1
2
0
1
1
0
1
10
3
0
0
0
0
0
1
6
1
3
1
1
2
0
5
6
0
6
3
3
3
0
4
3
1
1
1
0
1
0
4
2
0
0
0
3
3
5
7
2
0
4
7
4
2
1
4
2
0
1
5
8
0
2
0
2
0
3
4
2
3
0
0
7
3
2
0
10
2
2
3
9
5
0
6
5
1
2
2
0
0
1
1
3
2
1
5
1
1
5
9
1
4
0
0
1
1
3
0
0
0
0
0
0
2
7
2
2
0
0
2
3
2
2
3
3
4
4
6
0
3
1
1
2
2
0
2
3
2
2
6
11
0
3
7
1
0
1
1
2
5
4
3
2
2
0
2
3
0
3
0
5
0
1
5
5
0
5
0
0
0
1
0
1
5
8
10
6
0
6
0
4
1
1
5
2
0
3
2
4
2
0
0
2
3
2
4
4
1
6
0
4
2
4
4
3
8
1
7
9
3
9
2
0
1
4
6
0
3
4
5
0
0
0
0
2
6
5
0
2
1
5
5
1
3
10
2
13
1
1
4
4
0
1
5
6
4
9
1
1
3
3
2
0
1
1
6
3
1
0
2
1
0
3
2
0
5
0
1
1
3
0
0
4
3
6
1
0
0
1
1
0
1
3
2
3
0
3
0
1
0
2
6
3
0
1
1
4
5
1
0
0
12
1
0
1
1
2
0
2
0
1
2
0
2
13
2
2
1
2
3
2
7
0
1
1
0
3
3
0
2
5
1
1
1
1
7
2
2
5
5
7
1
1
2
2
2
0
1
4
10
2
12
1
2
6
5
5
2
1
1
5
1
2
0
2
1
1
3
1
7
3
0
0
1
3
0
4
1
0
2
1
1
3
0
0
2
4
2
15
9
5
0
5
4
8
0
7
2
5
7
5
4
0
2
7
0
3
9
7
0
4
0
2
3
3
2
6
2
3
1
0
2
2
0
2
2
1
0
1
0
1
1
1
2
0
2
0
4
1
2
2
1
3
0
3
1
4
7
2
3
1
4
2
1
0
0
2
5
2
3
1
0
7
0
1
0
1
0
2
1
7
0
2
2
0
1
1
6
1
0
0
1
1
0
5
1
9
0
3
1
0
0
2
1
2
2
0
0
6
1
3
8
0
1
1
6
2
5
1
0
7
2
3
2
2
8
1
1
1
0
1
1
0
1
5
0
3
2
1
3
1
4
8
3
3
9
6
5
0
1
2
0
4
0
4
1
3
8
4
5
4
2
2
7
5
2
2
0
4
4
3
0
6
9
4
1
1
7
2
8
1
1
0
3
2
4
2
7
3
1
1
1
4
0
8
2
2
4
1
1
8
0
2
1
0
3
7
1
0
5
2
3
5
1
1
0
7
4
3
3
0
0
0
2
0
1
2
1
3
1
1
2
0
2
1
2
2
1
10
3
0
2
1
2
0
0
1
0
0
4
1
0
4
4
2
4
1
1
0
1
2
0
2
2
1
1
0
6
8
3
5
3
3
2
0
1
1
4
3
2
5
0
4
4
1
1
9
2
0
1
1
5
3
2
2
1
2
8
4
5
0
4
3
4
0
1
2
2
0
4
1
2
2
0
1
2
0
0
2
3
12
4
2
0
0
2
0
2
1
0
0
0
0
3
3
4
3
1
5
4
6
0
7
0
1
3
1
1
13
1
1
1
0
1
3
3
0
5
5
0
3
2
2
0
6
2
5
4
0
4
1
6
6
1
6
0
1
1
2
0
2
0
0
2
2
1
11
0
1
5
7
3
7
1
0
2
1
0
2
0
7
0
3
0
0
6
2
0
0
0
5
1
2
0
13
2
5
4
9
0
6
0
1
0
1
2
5
1
4
5
3
3
1
2
7
1
8
2
0
5
4
4
3
1
2
10
2
4
9
1
5
2
0
7
2
3
1
1
5
2
0
0
1
1
1
2
0
0
3
6
4
0
6
1
3
0
0
2
2
0
3
0
1
0
1
6
2
0
1
7
7
3
2
3
0
3
7
1
0
0
4
4
5
3
6
2
7
1
3
2
1
4
1
1
2
0
0
0
2
8
2
5
0
3
0
0
1
1
2
3
0
0
1
1
2
0
5
1
0
0
6
1
0
3
1
1
3
2
0
0
2
1
1
6
1
1
0
0
3
2
1
4
8
2
3
0
0
0
1
0
2
1
2
11
0
0
2
2
3
1
2
2
2
0
4
0
0
0
1
2
1
0
0
1
5
0
1
1
4
11
5
5
1
0
1
0
5
4
0
1
0
0
2
3
4
0
4
5
1
1
5
1
0
14
0
1
0
1
2
1
0
0
4
1
3
5
3
5
3
0
0
2
1
0
1
0
2
3
1
4
0
1
8
2
7
7
0
1
0
4
5
3
1
1
1
2
4
2
6
4
6
2
1
0
0
1
0
3
1
3
5
7
0
1
3
5
3
1
0
2
0
2
2
2
2
3
3
1
1
3
2
2
0
4
3
1
3
7
1
2
5
3
4
1
2
0
0
1
1
0
2
5
0
7
1
8
2
0
0
3
2
4
3
4
7
10
8
5
2
1
0
1
2
3
5
0
6
6
1
0
0
0
2
3
4
1
5
4
1
4
5
1
1
2
4
0
3
8
1
4
3
4
2
1
7
3
7
1
1
1
1
1
0
1
2
1
0
1
2
9
1
2
3
4
3
0
3
4
0
0
7
0
2
7
5
0
0
0
1
4
3
1
3
0
1
0
1
0
2
6
2
1
0
0
1
6
1
3
0
1
5
0
0
1
1
4
0
0
4
6
2
1
5
0
0
0
1
1
0
1
4
1
3
2
0
1
5
1
0
4
2
0
5
0
8
2
10
3
0
3
0
3
0
1
2
0
0
7
0
5
3
0
1
0
0
12
6
4
0
2
5
1
3
7
3
1
4
1
2
3
1
1
2
5
2
2
0
4
0
15
9
0
3
7
0
3
0
4
11
2
0
0
0
5
2
3
1
2
1
1
0
5
7
4
1
2
1
0
2
2
5
1
2
3
9
0
0
2
2
2
0
3
0
1
3
1
0
0
3
5
3
0
11
5
2
3
0
1
0
0
1
1
2
1
5
0
7
0
0
0
1
2
5
6
6
0
0
6
3
1
0
1
0
8
0
1
0
4
2
0
9
2
4
4
2
1
0
0
1
3
2
1
7
0
3
2
1
4
2
5
2
2
1
0
0
0
2
3
7
0
1
2
0
3
5
3
0
3
6
3
6
1
4
1
0
1
2
2
9
0
1
1
5
3
4
2
1
5
4
1
1
7
0
4
1
1
0
0
1
0
0
2
2
0
4
0
4
0
1
0
4
0
0
4
5
2
0
1
3
3
3
1
5
0
1
2
1
3
1
6
2
2
2
0
5
2
4
0
1
4
5
0
0
2
2
1
0
3
0
0
1
1
2
2
1
0
1
0
4
0
1
5
0
2
3
8
0
0
6
0
1
0
0
1
1
2
2
1
2
3
1
3
0
2
3
4
2
3
1
4
2
7
6
8
3
0
0
3
7
0
1
7
0
3
0
1
1
3
5
8
1
5
0
1
3
1
1
2
2
7
5
2
4
5
1
5
1
0
3
0
4
11
3
1
0
9
0
1
2
1
8
2
7
9
12
0
0
1
1
7
1
3
3
0
5
1
0
3
2
0
1
2
0
3
2
2
3
5
1
0
2
9
1
1
6
2
1
6
3
2
0
0
0
2
1
2
3
10
1
4
6
1
4
0
2
1
1
3
1
2
1
1
2
2
0
0
2
10
0
2
0
1
4
0
4
1
0
0
1
4
1
5
4
2
2
6
3
2
6
9
7
1
3
2
1
3
4
1
1
3
0
0
2
1
1
7
1
4
3
4
2
1
3
0
4
0
0
0
0
1
0
14
4
0
2
2
0
0
2
9
0
3
2
7
0
2
4
0
0
2
0
4
1
2
4
2
4
2
7
1
0
0
0
2
7
5
1
2
0
2
2
2
0
1
4
2
0
0
0
1
0
0
0
0
4
0
0
3
3
0
3
1
1
2
0
0
3
0
3
0
0
4
2
0
0
2
1
3
0
0
0
3
4
1
0
0
1
1
1
2
1
2
4
2
1
2
1
9
0
0
0
3
2
2
1
1
3
3
1
3
2
2
0
0
3
2
1
1
5
2
2
3
6
5
3
5
1
3
3
0
0
2
1
2
2
1
4
3
2
2
0
2
1
1
2
3
0
0
9
2
0
3
0
0
0
5
7
1
1
7
5
1
1
0
1
3
1
1
1
6
0
7
1
2
1
1
1
5
5
1
1
0
3
4
4
1
1
0
2
1
5
3
1
5
4
1
2
0
1
0
4
0
1
1
1
2
0
4
3
0
0
2
1
1
2
0
2
0
6
0
4
4
2
0
0
1
0
0
6
2
2
1
1
2
2
7
3
5
6
4
0
1
1
3
5
0
2
1
0
0
1
5
6
3
0
0
1
7
1
0
0
0
0
0
8
1
1
0
1
2
3
2
0
1
3
5
0
0
5
0
0
4
4
0
6
1
1
4
3
6
0
3
0
3
0
2
0
7
4
4
3
3
7
4
7
1
0
3
1
6
2
3
1
0
8
0
0
3
3
0
0
1
1
1
0
8
4
0
0
0
5
0
4
0
0
0
0
0
6
2
0
1
1
1
2
4
0
1
1
7
3
3
8
2
2
1
4
5
5
1
1
3
2
3
2
5
0
0
3
0
0
0
0
5
5
0
2
4
4
1
2
5
3
8
1
8
0
0
3
0
1
1
1
1
1
1
1
0
1
2
4
4
1
4
2
0
1
2
1
5
0
6
2
0
2
1
2
0
0
0
4
2
4
0
1
0
0
2
2
0
0
2
0
2
1
1
11
2
2
2
0
0
3
1
5
2
1
9
3
11
1
1
0
3
1
6
6
0
4
2
1
1
0
0
0
2
0
2
3
1
2
2
1
0
0
1
0
0
1
0
0
2
0
2
4
3
0
5
0
1
0
2
2
0
3
2
5
0
0
2
7
2
2
3
0
0
0
3
0
3
3
0
0
0
0
3
1
1
1
3
0
2
1
0
1
1
0
2
1
1
2
4
2
2
2
0
0
0
0
4
5
1
2
1
0
2
1
0
0
1
0
0
2
1
2
4
0
0
2
4
8
5
1
1
1
0
1
0
5
2
0
1
0
1
0
5
2
0
0
1
0
1
2
6
1
8
4
1
3
0
9
0
1
2
1
1
4
1
4
3
0
3
1
1
2
1
0
2
1
3
6
0
6
1
3
1
4
1
1
3
0
2
2
5
1
4
2
2
4
1
0
3
2
1
3
0
3
3
0
0
1
0
0
4
1
4
0
6
1
1
4
1
5
1
0
2
5
7
2
0
7
6
4
0
1
1
2
3
0
1
0
1
0
0
5
4
0
1
3
2
0
0
0
0
2
0
4
7
5
0
2
1
1
2
5
0
3
1
1
3
9
0
2
0
0
7
1
0
1
1
1
2
6
1
0
7
0
1
2
0
1
5
0
1
9
0
0
3
2
3
3
8
0
0
5
2
1
0
0
0
2
5
2
0
10
5
0
1
0
9
0
0
1
1
6
4
1
2
0
0
4
0
0
2
7
2
0
1
1
2
3
3
0
1
0
0
6
2
0
1
0
2
2
2
1
3
1
2
0
1
0
2
0
1
3
4
1
0
3
3
7
1
0
0
0
3
8
1
0
2
1
1
3
3
1
11
0
0
1
1
7
5
1
0
1
0
3
0
1
3
1
1
1
2
5
0
0
2
0
1
0
0
4
7
3
1
2
0
1
1
2
1
0
6
1
0
2
1
3
4
0
1
1
0
1
1
0
2
7
0
1
1
5
0
0
1
0
0
1
8
0
11
1
2
4
3
2
1
2
0
0
1
1
2
3
2
0
2
5
3
9
8
6
1
1
2
0
1
3
2
1
3
2
2
0
0
4
4
2
2
1
1
1
0
1
0
1
5
3
0
12
1
4
2
0
6
2
1
7
3
1
2
0
0
1
0
1
2
0
1
0
1
7
0
0
3
3
1
2
9
8
2
1
0
2
8
2
2
0
4
5
5
1
1
3
0
1
1
1
1
0
1
0
1
2
1
3
1
1
0
0
0
0
3
5
0
1
0
2
9
0
0
6
1
0
6
1
1
1
3
2
0
4
0
3
1
1
0
0
2
1
0
8
8
0
3
2
6
1
0
3
1
1
0
0
4
4
1
4
3
1
3
0
1
0
0
2
0
2
4
0
2
2
3
0
2
1
8
1
0
0
0
1
2
6
1
5
1
2
6
6
1
6
0
1
0
0
3
2
3
1
3
3
5
7
0
0
0
3
0
2
3
0
5
0
0
0
0
1
0
0
0
1
1
1
4
2
0
1
5
0
3
1
0
1
0
1
0
3
3
0
3
3
1
9
0
8
0
0
2
4
0
1
0
4
1
0
0
1
0
0
4
4
1
2
0
0
6
0
0
1
0
0
5
0
0
1
6
0
2
1
1
0
2
0
5
0
2
2
3
6
0
0
3
0
2
5
0
1
1
3
4
2
2
5
0
0
7
5
2
1
1
1
5
7
1
0
1
0
0
5
7
1
2
3
3
1
1
0
1
2
6
0
1
6
6
0
3
0
4
1
1
5
1
6
2
2
1
3
2
2
1
4
7
0
1
1
2
1
0
2
1
0
0
1
0
5
2
4
5
0
0
1
3
1
0
1
1
1
0
1
1
0
3
2
0
0
0
2
3
3
4
0
0
0
1
4
2
0
1
0
1
1
3
0
0
0
0
0
3
2
0
0
0
0
3
2
1
1
0
3
5
1
0
8
0
9
1
5
6
0
1
0
3
1
3
0
4
4
0
2
0
5
3
1
3
3
6
4
4
2
0
0
3
5
3
1
2
1
1
2
0
2
0
0
0
3
1
2
6
1
0
2
12
0
0
3
4
3
2
2
1
3
3
2
2
0
2
6
0
1
0
1
2
1
0
0
0
7
0
1
1
1
0
3
1
1
1
1
4
0
0
0
0
4
12
1
0
1
2
3
1
2
2
1
1
8
0
1
4
1
0
0
3
0
1
1
4
2
2
0
1
1
0
0
2
0
1
4
0
1
0
1
1
1
7
6
2
2
7
4
0
1
0
2
6
0
3
1
1
1
3
2
0
0
0
2
4
0
2
9
3
0
0
1
0
4
2
0
0
1
1
0
3
0
7
2
3
1
2
1
1
0
1
3
1
2
2
4
6
0
1
0
0
0
3
1
0
1
1
3
5
2
3
0
2
0
1
3
1
7
1
0
8
2
2
0
2
6
1
0
0
0
4
1
0
2
2
1
0
6
1
5
3
4
1
1
6
14
5
0
0
1
2
0
1
1
0
1
2
3
5
2
2
0
3
2
0
0
1
1
3
6
6
2
1
0
1
0
0
3
2
0
1
1
1
0
0
0
1
2
1
3
4
3
4
3
1
1
0
7
0
1
0
1
1
6
0
1
0
0
2
0
1
0
0
3
5
2
3
0
4
1
0
2
2
2
1
1
1
10
1
2
3
2
2
10
2
4
1
0
2
2
0
5
0
4
1
3
4
2
1
1
0
1
3
4
4
2
0
2
4
1
3
7
0
1
1
4
0
3
0
0
3
2
1
2
1
3
3
0
1
0
0
4
1
4
3
1
3
0
4
1
2
2
1
2
0
2
1
2
2
1
1
0
2
1
4
1
3
1
0
0
2
2
2
0
1
0
3
4
1
0
0
0
3
0
5
3
1
1
2
1
0
0
1
2
2
4
2
3
2
2
6
2
3
1
0
2
0
5
4
6
0
0
0
2
1
4
1
2
1
1
1
1
0
0
2
6
1
0
3
5
0
0
2
1
0
0
6
6
1
7
4
0
1
4
4
1
0
0
1
0
0
0
2
0
2
0
3
1
1
0
1
1
0
0
1
1
0
0
0
5
0
1
0
2
5
0
0
0
0
0
1
1
0
5
1
0
0
0
1
1
0
0
1
0
4
1
4
1
2
1
2
1
1
1
1
1
3
1
2
1
5
0
1
1
1
0
2
1
0
0
0
3
0
1
0
1
1
3
0
3
5
3
3
2
2
2
1
7
0
2
1
1
0
1
3
3
1
0
0
2
1
0
4
0
3
1
2
0
1
3
1
3
1
2
2
1
4
0
2
4
3
1
2
2
0
4
2
1
0
0
6
3
1
1
6
0
1
5
0
1
1
0
2
1
2
2
2
1
1
1
4
1
0
5
2
2
2
1
4
0
1
8
7
2
3
4
0
4
0
0
4
1
3
5
4
2
1
0
5
1
1
0
4
0
2
9
0
0
0
0
4
4
1
0
1
0
1
0
1
0
0
2
0
3
7
5
9
0
5
0
3
1
0
1
0
5
2
0
3
2
0
0
0
5
0
5
3
0
1
3
0
0
5
0
3
3
6
5
0
3
4
2
0
0
0
1
1
1
3
3
0
2
1
0
2
1
4
1
0
1
1
2
4
0
0
3
7
0
0
2
0
5
2
1
0
4
1
0
4
3
0
2
1
1
2
4
1
1
1
6
1
1
0
2
2
0
5
4
1
1
0
0
4
6
2
0
0
1
2
4
1
0
2
1
4
5
0
1
2
1
0
0
0
1
1
0
1
0
2
0
6
2
0
2
4
6
0
0
3
0
6
4
1
1
2
1
7
3
4
1
2
0
0
0
1
2
1
3
0
1
5
2
5
0
0
2
0
1
0
0
0
1
1
4
0
1
1
0
1
2
3
0
3
2
1
0
4
2
5
1
3
5
0
4
1
0
1
1
0
3
5
0
1
1
3
3
0
0
3
3
11
3
3
0
2
5
3
3
2
1
2
0
0
0
0
1
0
0
0
0
1
2
0
5
1
0
0
2
2
1
0
2
0
1
3
2
0
7
1
1
5
4
0
3
2
0
3
0
0
3
0
3
4
2
1
1
0
0
0
4
2
1
0
2
1
5
3
6
3
1
1
3
5
4
5
2
2
0
2
0
1
0
4
4
0
1
3
8
0
3
0
3
1
1
1
1
0
0
0
0
0
1
1
3
5
0
1
4
0
1
3
0
1
2
1
10
5
2
6
2
1
0
0
1
1
1
3
2
2
0
2
1
1
2
1
2
3
0
1
2
2
2
0
0
0
0
0
0
0
2
2
0
0
0
0
3
2
1
2
0
5
1
1
1
2
1
2
1
0
2
4
2
0
0
0
1
3
1
2
5
1
3
0
1
2
3
3
0
4
1
4
4
5
1
3
8
0
1
0
3
5
0
0
0
0
2
0
1
1
1
2
5
6
2
2
0
1
3
0
0
9
1
1
3
6
6
5
0
2
0
0
0
1
0
0
1
3
4
3
4
0
2
2
0
0
2
2
0
7
1
0
2
2
0
2
1
3
5
2
6
5
1
4
4
1
0
0
4
2
1
5
6
5
7
1
4
3
0
2
0
5
2
1
6
0
0
2
2
1
1
1
0
0
1
4
2
0
1
1
2
2
3
1
0
2
0
5
4
4
0
1
1
1
1
0
3
2
2
1
2
1
2
0
9
0
0
1
9
1
2
1
0
0
5
0
3
1
0
0
2
0
0
0
1
0
3
9
2
0
4
0
1
0
1
2
2
2
0
0
0
1
4
5
0
0
0
0
0
3
2
4
1
0
0
5
1
3
2
0
0
1
6
1
8
2
1
7
3
0
2
1
0
0
1
1
1
1
4
0
0
0
1
4
0
0
0
0
0
1
0
0
0
1
3
0
4
0
0
2
7
1
0
0
2
0
0
5
2
1
0
0
1
0
1
4
0
0
6
1
3
1
1
3
2
1
5
0
0
2
0
1
0
0
2
0
0
3
2
2
7
2
1
2
0
1
0
1
3
1
1
6
2
0
1
4
6
0
0
0
2
0
2
1
0
0
3
0
1
1
4
0
3
3
2
2
2
1
0
5
2
6
1
1
2
6
0
2
0
2
0
0
0
2
5
1
3
2
1
5
1
3
0
4
0
0
2
1
0
1
1
0
3
0
2
1
1
3
0
1
0
2
0
6
0
4
0
2
2
3
0
2
1
0
3
2
1
0
4
2
2
1
0
0
0
9
3
3
2
3
6
2
0
0
0
4
2
2
4
1
2
0
6
0
5
3
4
2
0
0
1
2
3
4
1
0
0
1
5
0
0
0
1
5
1
2
1
1
0
1
1
3
0
1
2
3
0
1
0
2
1
4
1
2
1
1
0
1
3
1
1
7
1
0
4
0
5
0
1
0
0
0
0
6
1
4
0
7
5
4
1
0
1
3
1
0
2
2
3
2
6
0
2
1
0
0
3
0
0
1
3
0
0
1
0
2
1
0
1
4
4
6
1
1
2
1
2
0
0
1
6
0
1
1
0
0
0
1
2
0
1
0
2
0
1
2
2
5
0
1
1
0
3
6
5
0
1
0
2
1
0
4
0
3
0
2
1
0
0
0
4
0
0
0
0
0
4
0
3
1
0
4
0
1
0
1
0
2
1
7
1
4
2
2
3
0
5
2
4
1
2
0
2
0
2
1
1
2
2
0
0
0
1
5
4
1
2
1
4
1
4
4
0
4
2
1
1
3
4
3
0
3
1
1
4
2
3
0
1
5
1
6
1
0
1
0
1
1
2
2
1
1
0
1
4
0
2
1
1
5
1
2
0
1
1
1
6
1
1
1
3
0
2
2
2
0
3
0
0
1
0
4
2
1
1
1
3
2
0
0
0
1
0
0
1
2
3
1
0
0
4
1
0
0
3
0
1
0
4
9
13
1
1
3
1
8
3
2
0
3
0
1
1
3
5
0
2
4
2
0
0
1
1
1
1
2
4
2
7
0
8
4
0
2
0
0
2
3
0
5
5
6
3
0
0
5
0
1
2
2
1
0
0
2
4
1
1
2
0
2
1
0
2
7
3
2
1
0
4
2
1
5
0
0
0
0
9
2
1
1
3
4
1
0
1
0
0
1
1
1
0
0
2
1
5
1
3
2
4
1
1
3
0
0
2
2
1
5
3
1
0
0
5
0
1
1
0
3
0
3
0
0
6
0
2
0
3
0
4
10
3
0
3
0
3
0
1
0
0
3
0
0
0
0
0
3
5
1
6
1
1
5
3
0
3
4
1
2
2
0
0
2
0
2
0
1
5
1
1
1
0
2
0
4
4
0
3
4
1
0
1
4
0
1
1
6
1
0
1
2
0
3
1
0
2
0
1
5
0
0
1
4
0
0
1
0
0
0
1
0
1
3
2
1
3
0
1
2
0
0
2
1
0
1
5
4
0
2
1
4
4
1
1
0
0
0
0
1
0
0
0
4
1
0
5
0
1
0
1
2
1
0
2
0
4
0
0
0
0
2
1
1
1
3
1
0
5
3
2
0
1
4
1
0
3
1
0
2
0
1
4
0
3
0
0
0
0
0
1
0
1
0
0
4
0
1
0
0
0
4
7
2
0
0
1
1
0
1
0
2
0
0
1
1
3
0
0
2
0
0
3
1
1
0
0
1
14
0
0
0
0
1
0
0
3
1
0
1
2
2
1
0
0
1
1
2
2
1
2
1
2
5
1
3
3
0
1
6
2
3
1
5
1
1
4
4
4
4
1
1
0
0
2
2
0
0
1
0
0
3
1
0
1
2
2
3
0
3
3
3
1
1
3
2
0
3
2
0
1
0
0
0
0
1
0
0
3
3
4
0
7
0
0
0
0
0
4
4
0
0
3
2
6
2
2
3
1
7
0
0
0
4
1
0
0
3
0
0
0
2
1
1
0
0
1
2
2
1
0
9
0
3
0
1
1
0
4
3
0
2
1
2
0
2
5
1
2
0
3
1
0
0
1
0
1
1
5
0
0
2
1
1
1
3
0
0
1
7
1
0
1
1
1
4
0
2
1
0
0
1
0
0
1
2
2
0
4
3
3
1
2
0
3
4
5
1
1
5
1
2
2
1
4
1
2
0
1
0
0
3
0
1
2
4
2
0
2
2
0
2
0
1
1
1
1
4
1
0
1
7
2
5
0
1
0
2
0
4
1
0
2
0
1
0
0
3
2
0
2
9
0
3
0
0
0
0
0
3
2
1
1
0
1
3
5
2
2
2
0
2
4
3
0
1
4
3
1
1
2
1
0
0
5
5
0
1
2
0
0
0
0
0
1
2
0
0
2
5
1
2
0
1
1
0
1
3
1
3
1
2
1
1
1
2
0
1
0
1
6
0
3
1
0
1
0
1
1
5
1
5
4
0
1
0
1
0
2
1
4
2
0
1
9
0
1
1
0
1
1
2
1
1
5
1
3
1
0
0
0
0
3
1
3
2
1
0
2
1
1
0
4
1
1
2
0
0
0
0
0
4
1
0
0
2
0
0
3
3
3
1
0
0
1
0
5
1
1
7
0
6
1
2
2
1
0
0
2
2
1
1
3
1
2
3
4
0
0
0
3
0
0
0
2
1
1
0
0
0
0
2
2
0
1
0
5
1
2
0
3
1
3
2
1
0
1
0
0
5
0
1
0
4
1
0
1
1
1
0
0
0
1
0
0
3
0
0
2
2
1
1
0
1
6
0
3
6
0
6
0
3
2
2
0
0
0
0
3
2
2
1
3
2
3
2
5
0
0
2
0
2
2
2
2
1
1
1
1
2
4
0
0
0
1
2
0
1
2
1
1
0
0
1
1
4
1
3
0
3
1
4
8
2
0
0
0
3
0
3
1
3
1
0
1
6
4
0
0
2
0
0
3
0
0
1
1
2
2
0
2
1
4
2
1
2
0
0
0
6
0
1
2
0
4
1
0
0
1
0
0
1
1
1
4
2
1
0
0
0
5
0
2
0
0
4
1
1
1
0
0
0
0
0
0
0
0
0
3
1
0
0
1
2
0
0
2
5
1
1
3
1
0
2
6
1
1
0
0
0
2
1
1
3
0
0
2
0
1
0
3
3
1
1
0
2
0
4
1
1
1
0
0
2
1
2
1
7
7
0
1
1
4
0
0
0
0
1
0
3
0
3
9
2
2
2
1
1
0
7
0
0
1
6
0
3
0
0
0
0
4
0
2
2
1
3
1
1
1
1
1
1
1
4
2
0
7
2
2
2
3
1
3
3
4
1
6
0
1
2
3
3
0
1
1
4
1
0
0
1
1
1
0
2
1
3
2
2
0
1
1
0
0
1
3
8
1
0
2
1
8
2
0
0
0
2
3
0
2
1
0
0
2
0
1
3
0
0
1
1
0
4
5
1
1
0
0
0
0
2
2
0
0
0
1
0
4
5
0
0
5
2
2
1
1
7
0
1
3
2
0
2
3
0
2
3
4
1
0
3
1
0
4
1
0
9
3
0
1
0
2
4
1
1
1
2
0
4
2
0
0
2
10
2
1
5
1
0
1
2
2
1
3
0
3
1
2
1
0
0
0
0
0
0
1
0
1
0
7
3
6
1
0
3
3
0
2
0
2
7
1
1
9
0
1
1
1
0
0
3
1
1
0
0
0
1
7
2
3
0
2
0
5
0
2
5
6
2
4
2
3
2
0
1
8
0
0
2
7
1
1
1
1
2
1
0
1
1
2
0
0
1
2
1
1
3
4
1
5
2
7
1
0
0
1
0
3
0
0
4
3
2
0
2
1
1
2
11
0
3
0
4
5
1
4
1
3
4
2
0
1
4
0
0
2
4
1
1
5
1
1
0
0
0
1
0
1
0
1
1
1
3
3
1
0
0
1
1
2
1
1
0
3
2
3
0
10
0
1
0
0
3
1
1
0
0
1
0
1
1
7
3
2
2
4
2
0
0
5
3
6
0
0
3
1
0
5
0
1
2
0
1
10
0
1
5
1
2
2
0
0
0
0
6
1
0
0
1
1
0
0
4
1
2
2
1
3
0
1
2
2
0
0
1
0
2
0
3
1
1
1
0
2
4
1
4
0
1
0
3
0
1
1
4
4
0
2
0
0
0
5
3
2
0
0
0
2
2
3
0
0
2
0
0
3
0
6
2
2
0
0
2
2
9
1
0
0
1
7
0
1
1
5
1
1
2
6
2
5
0
0
1
0
0
1
2
2
2
1
0
0
1
0
4
1
0
2
3
1
0
0
2
3
0
2
0
3
5
0
5
1
4
1
7
0
0
0
0
3
2
2
5
0
6
4
0
1
2
2
1
4
1
0
0
3
0
4
0
3
0
4
0
1
1
0
1
1
4
2
0
1
4
6
3
1
6
4
6
3
0
3
2
0
5
0
0
5
0
0
2
1
0
1
2
0
1
0
4
1
3
0
1
3
1
0
1
1
1
0
4
1
5
0
2
4
1
4
1
2
2
2
3
1
0
1
0
1
2
1
1
4
0
1
1
0
1
0
2
1
1
4
0
2
0
0
5
2
1
0
1
0
2
4
2
0
2
3
3
1
2
4
1
0
0
6
0
3
1
1
2
1
2
0
2
1
3
0
2
0
0
2
1
2
2
1
0
4
2
0
0
3
1
3
1
1
1
1
1
2
0
0
2
0
1
1
2
1
0
1
1
1
5
1
2
3
0
1
2
0
0
4
1
0
0
10
9
1
0
1
1
1
0
0
1
0
3
4
4
1
0
1
3
0
0
1
1
6
0
2
1
1
4
0
4
2
2
0
1
1
0
2
0
1
1
1
0
4
1
1
1
5
0
4
0
0
1
0
6
4
4
1
5
0
0
1
0
3
0
6
0
2
1
1
2
0
1
0
4
2
0
0
0
2
2
3
0
1
2
3
1
2
0
0
1
1
2
0
7
0
7
2
1
0
0
0
0
2
3
1
2
2
1
0
1
3
2
0
0
0
1
1
1
2
3
2
1
2
0
2
0
4
2
3
0
0
2
0
2
2
0
7
2
5
0
6
4
2
0
1
1
0
1
0
5
1
0
0
0
1
0
1
1
3
2
1
2
4
1
0
2
3
3
1
3
1
0
1
1
0
0
0
1
0
0
7
0
0
0
0
0
2
2
1
2
0
6
0
4
0
4
1
0
1
2
2
1
3
2
3
0
0
2
2
0
0
0
2
2
0
1
0
1
0
0
1
0
0
0
0
2
0
1
0
0
0
2
2
1
2
7
0
0
0
3
1
1
0
0
3
0
3
2
0
5
0
0
1
1
3
0
0
0
1
1
2
1
1
2
2
1
2
1
1
3
0
0
0
0
0
0
4
1
1
0
2
2
1
0
1
1
0
2
0
0
5
0
0
1
2
0
0
0
2
1
2
0
2
1
0
2
0
0
3
3
1
0
3
0
6
0
2
0
3
1
1
0
0
0
4
2
2
1
0
1
3
0
0
0
1
0
2
1
2
3
0
2
0
0
0
0
1
0
0
0
0
7
1
1
0
0
0
1
0
0
3
0
2
2
4
2
3
1
4
0
1
4
2
3
0
0
1
0
1
1
3
0
2
0
5
2
0
1
1
2
0
0
0
0
0
1
1
2
3
2
0
9
0
0
2
3
0
0
0
0
0
0
4
1
1
0
0
0
2
0
1
4
5
1
0
1
1
0
0
3
1
0
1
1
2
5
2
3
1
0
1
1
1
0
0
1
0
3
0
0
2
0
0
3
0
1
3
1
1
0
2
3
0
1
2
1
0
0
0
0
1
1
2
3
0
3
1
0
0
2
0
0
0
3
1
0
2
1
6
1
0
3
1
0
0
0
0
0
4
1
1
3
7
2
0
0
0
1
3
2
2
4
3
2
0
2
5
2
3
4
1
0
3
0
0
4
0
4
0
1
1
1
1
0
0
1
1
0
0
0
0
1
0
1
1
2
2
1
4
1
6
5
0
4
1
5
3
1
0
2
1
0
2
0
1
1
0
0
0
3
0
0
1
0
2
5
0
0
1
2
5
0
0
1
1
0
0
1
4
0
2
1
0
0
0
1
1
2
0
0
0
5
2
3
1
2
0
6
0
1
0
0
3
0
4
3
0
3
0
0
3
5
0
0
0
1
3
0
3
2
1
0
0
0
0
0
1
0
1
1
0
0
0
4
0
3
0
2
0
0
2
7
3
2
3
0
3
1
0
1
2
0
0
0
0
1
1
1
0
0
1
1
3
1
0
0
2
1
2
0
2
0
1
6
0
0
0
4
2
3
2
0
3
3
1
1
0
2
1
1
3
0
2
0
4
1
3
2
0
0
4
1
0
0
0
3
1
10
0
0
1
0
1
1
3
1
0
1
0
1
1
1
0
2
2
5
1
3
0
0
0
0
0
0
0
1
0
3
2
8
2
0
0
1
4
1
0
0
4
1
0
0
1
1
0
0
2
1
1
0
1
0
0
0
0
5
2
2
1
2
0
1
0
2
0
0
0
1
3
0
0
0
0
0
5
3
0
3
1
1
2
2
0
1
1
0
2
0
3
0
1
0
1
0
1
2
2
0
0
0
0
2
0
3
2
1
2
3
8
3
1
0
0
3
2
1
1
1
2
2
1
0
2
0
0
1
1
0
1
0
2
1
0
0
2
0
1
0
0
0
0
1
1
3
2
1
0
1
6
0
5
0
0
0
1
0
4
0
2
1
0
2
0
0
1
0
0
6
2
1
0
0
2
3
2
1
2
4
5
1
0
0
4
0
0
0
2
1
0
1
1
0
0
4
0
0
0
1
0
2
0
3
5
0
1
0
0
0
0
2
0
0
0
1
3
3
2
1
0
2
6
1
2
2
2
2
3
0
1
0
1
0
0
0
5
0
0
5
0
1
1
0
0
2
5
5
0
4
0
6
0
4
0
0
1
0
3
2
0
2
1
0
0
1
2
0
6
4
0
0
0
4
1
4
2
1
0
1
2
1
1
5
1
1
0
1
1
0
0
4
1
0
0
6
0
1
0
0
2
0
5
1
0
3
0
0
1
2
1
0
0
1
0
4
7
0
1
6
0
0
0
2
0
0
0
3
0
5
1
1
0
2
0
0
0
1
0
0
1
0
0
1
1
1
1
1
0
0
2
1
2
3
0
1
0
0
1
0
2
3
5
0
1
1
2
2
2
2
3
4
2
0
0
0
0
0
0
0
0
0
1
0
1
1
0
1
3
1
0
4
4
0
0
6
3
0
0
0
0
0
0
0
2
0
0
1
2
2
1
4
0
0
2
1
2
1
0
1
2
0
0
1
2
0
2
1
0
3
2
3
1
2
0
3
1
4
1
0
1
0
4
1
1
1
4
0
0
0
1
0
1
0
1
0
0
0
0
0
1
0
2
1
1
3
4
0
2
1
2
1
2
2
1
4
0
3
1
4
1
1
0
2
3
1
2
2
2
3
0
0
3
1
2
0
0
1
0
2
4
5
0
0
1
7
1
0
3
1
3
2
2
0
1
0
0
0
0
5
2
1
5
2
1
0
2
2
2
1
0
0
2
1
1
1
0
0
2
0
1
1
1
0
6
11
3
1
0
0
1
5
3
4
0
5
0
1
1
2
0
1
1
0
1
3
0
1
1
0
1
0
1
1
4
0
0
0
1
1
2
1
2
2
1
0
3
2
2
2
1
0
1
0
0
2
0
3
2
3
1
1
1
0
1
1
1
0
0
0
1
2
4
0
1
2
1
0
2
0
0
0
0
0
1
3
5
0
3
0
5
0
1
0
0
2
0
1
0
1
5
0
0
0
1
0
2
1
5
0
2
2
2
2
0
0
4
0
2
2
1
4
0
2
1
0
1
1
0
2
1
0
5
0
1
3
2
0
2
2
0
0
3
1
0
3
1
4
2
0
2
6
1
3
2
0
0
3
0
3
3
0
1
0
0
3
2
3
2
0
0
2
4
3
0
0
0
2
2
0
2
0
4
1
6
0
0
0
3
0
2
1
0
3
0
0
3
3
7
5
1
1
5
7
4
0
1
1
0
1
1
1
4
0
0
1
0
1
2
0
2
2
1
1
3
1
5
0
1
2
1
4
2
0
2
5
1
0
1
1
5
3
1
0
1
1
2
1
3
0
0
0
3
4
1
2
3
4
4
1
0
0
0
0
1
2
0
1
1
2
0
0
4
0
0
0
0
3
3
3
1
2
1
0
1
1
1
0
3
5
1
1
3
0
1
2
1
2
0
0
0
0
0
0
0
0
1
0
0
1
0
0
0
0
4
2
2
2
2
2
5
1
0
0
2
0
9
5
0
0
5
0
1
0
0
1
6
0
0
1
0
5
3
2
1
0
0
1
3
1
0
0
0
0
0
2
1
0
0
2
1
0
0
0
1
1
2
1
0
2
2
1
2
0
1
1
0
1
2
1
1
0
2
2
3
0
0
2
2
1
0
0
0
0
2
2
0
0
0
3
1
9
1
0
0
0
1
0
0
2
0
0
5
0
0
0
0
1
0
0
0
3
0
0
0
0
0
2
1
0
1
1
1
0
0
0
1
1
0
0
3
2
0
0
2
5
1
2
1
0
3
3
0
3
0
0
2
0
3
1
2
0
1
2
1
3
8
3
0
2
0
1
0
3
2
1
1
2
2
0
0
0
6
2
3
0
0
2
1
1
0
0
2
1
4
0
2
1
3
1
1
1
1
0
3
1
0
6
2
0
1
0
0
0
0
0
0
1
0
0
0
3
0
1
5
2
2
2
1
0
2
1
0
4
2
3
0
0
4
1
2
0
0
0
0
0
0
0
3
0
0
3
0
3
1
0
0
2
8
1
1
1
3
3
3
3
0
0
1
1
4
1
3
0
5
1
2
0
4
1
5
1
0
1
0
1
0
0
1
1
1
0
9
1
0
3
0
2
2
2
1
4
0
1
1
2
5
0
0
1
5
1
0
5
2
0
0
2
7
0
1
2
0
2
3
5
1
0
0
2
0
1
0
2
3
0
2
1
2
1
1
1
2
0
6
0
1
0
0
1
0
0
0
3
1
3
1
0
4
0
0
0
0
0
0
1
0
1
1
2
1
1
0
0
0
0
1
1
3
4
2
3
0
0
2
2
1
0
0
0
0
2
1
0
0
0
2
1
1
2
0
4
0
1
2
1
1
2
1
1
1
1
3
1
3
2
0
5
0
0
1
3
2
0
0
1
1
2
0
0
0
0
0
0
0
0
0
2
1
0
1
4
1
3
0
1
0
3
0
1
0
0
0
2
2
2
3
1
1
1
1
0
4
0
1
2
0
0
1
1
0
4
0
2
1
0
0
1
0
0
0
0
0
0
1
2
1
4
2
0
0
0
1
0
0
0
1
4
1
0
0
2
1
3
0
0
1
0
1
0
0
0
2
0
0
3
0
0
0
2
2
1
1
2
3
1
2
0
0
0
0
0
0
0
2
2
1
0
2
0
6
4
0
1
0
1
2
0
1
0
0
4
2
0
5
6
3
1
0
0
1
3
1
1
1
0
0
1
0
1
0
0
0
2
1
0
2
4
0
0
1
2
1
0
0
4
0
2
0
1
1
1
0
1
3
0
0
2
3
0
7
0
0
4
0
0
1
0
2
0
2
2
7
1
0
4
1
0
2
0
0
3
0
2
0
1
0
3
1
0
2
2
0
0
4
0
0
2
3
1
2
1
1
0
1
4
0
3
0
5
0
2
1
2
1
6
1
0
1
0
1
0
1
1
0
0
0
3
3
1
0
2
0
0
0
1
3
3
1
0
2
0
2
0
1
0
2
1
1
1
1
1
3
1
6
1
1
1
1
0
0
3
0
0
0
2
1
1
1
0
1
0
3
1
2
1
8
5
0
1
0
1
1
2
1
5
0
1
1
0
3
2
1
0
1
2
1
3
4
1
0
0
0
0
0
0
2
3
0
0
1
0
0
4
2
0
0
1
0
1
2
0
0
2
0
0
0
0
0
0
0
2
2
3
1
0
1
0
1
0
0
5
4
3
2
3
0
2
3
2
0
0
0
1
1
0
5
0
1
0
0
0
4
1
0
0
1
0
0
2
0
2
0
3
0
0
0
0
0
0
3
1
3
1
0
0
1
0
0
1
2
1
1
1
0
1
1
4
4
2
0
3
0
2
6
1
0
0
0
0
1
0
0
2
2
0
1
0
1
0
0
1
0
3
1
1
7
6
2
0
1
0
0
2
1
0
1
2
1
0
3
2
0
0
0
2
1
3
0
0
1
0
5
0
0
5
2
0
0
0
3
1
2
3
3
0
0
1
0
1
0
1
2
1
2
0
0
0
0
1
1
0
0
1
0
1
0
1
0
1
0
2
1
2
2
2
0
5
2
0
0
0
0
0
3
1
0
0
1
2
1
4
1
0
0
1
1
1
3
4
2
0
4
3
2
0
2
1
3
1
2
4
3
0
2
0
0
1
2
0
1
0
0
2
2
2
0
2
0
1
4
0
0
0
0
3
1
1
4
1
0
1
0
2
1
0
0
1
0
0
0
0
0
0
1
0
1
0
2
0
2
0
0
2
1
0
1
0
0
1
1
5
0
2
0
0
3
5
0
3
1
0
1
1
5
0
0
1
0
3
1
0
1
0
0
0
0
2
0
1
3
2
0
0
1
0
1
1
0
2
2
0
0
0
0
1
0
2
0
1
2
0
0
0
1
2
2
0
0
2
3
1
1
2
0
4
0
0
2
0
1
3
5
1
1
0
0
1
0
0
0
0
0
1
0
0
1
0
2
1
0
1
1
2
0
1
0
1
1
0
0
0
0
0
0
0
0
0
0
0
0
1
0
0
2
1
0
1
1
2
0
0
0
2
0
0
1
3
0
3
0
1
0
0
2
1
0
2
0
0
3
0
0
3
4
0
1
2
0
0
0
0
2
2
0
0
0
0
0
1
1
3
7
1
1
1
0
0
3
4
2
0
2
5
0
5
4
0
0
0
0
1
1
0
3
0
1
0
0
0
1
0
0
3
2
2
1
4
3
1
0
1
0
0
0
0
2
0
0
0
2
3
6
0
1
2
0
0
1
0
0
0
0
0
2
2
1
0
1
0
1
0
2
0
1
7
0
0
1
2
1
0
0
4
1
5
2
0
1
0
1
0
0
0
0
0
0
1
0
1
0
0
1
1
0
1
0
0
2
0
6
0
1
0
0
4
2
2
0
0
0
2
0
1
0
0
5
0
3
2
4
2
1
0
0
3
1
0
2
2
1
1
3
3
0
0
2
1
2
0
0
0
0
0
0
0
1
0
0
0
0
1
1
3
0
0
1
4
0
1
0
0
0
1
2
0
0
0
0
0
0
0
0
0
0
1
0
2
1
1
0
0
0
0
0
0
3
4
1
0
2
0
1
7
0
0
0
0
2
0
1
3
0
0
0
6
0
0
2
0
0
1
0
6
0
1
2
1
0
0
2
1
0
0
2
2
3
1
0
0
0
0
2
5
1
1
1
1
1
0
1
1
5
1
0
0
1
1
3
1
1
2
0
3
3
2
1
4
7
6
2
2
1
0
3
1
0
0
1
0
2
0
1
1
0
0
0
1
1
0
1
1
0
2
1
1
0
0
0
2
5
1
0
0
0
3
0
6
2
0
4
2
1
0
0
0
0
5
3
0
0
1
0
0
0
1
0
0
2
0
1
0
0
1
0
2
1
1
5
1
0
4
3
4
0
0
1
0
0
1
0
0
0
2
1
2
1
0
0
6
2
1
1
0
0
1
0
0
2
2
0
1
0
0
3
2
0
0
4
1
0
1
1
0
2
0
1
0
3
0
1
0
0
1
1
2
4
1
0
0
6
3
2
2
1
1
3
4
1
1
4
1
0
1
0
1
0
0
2
1
4
0
0
1
0
1
0
1
0
0
0
1
2
0
0
0
0
0
0
1
4
1
1
2
1
2
0
0
0
0
5
0
2
0
1
0
0
4
0
2
0
3
2
1
1
0
1
0
1
1
0
0
0
0
0
0
0
0
0
2
2
1
2
0
8
1
2
3
0
4
0
0
0
0
4
3
1
2
0
0
4
0
1
1
0
0
1
0
2
0
4
4
0
4
4
8
3
1
0
0
6
1
2
6
4
1
0
1
2
0
1
1
2
0
0
1
2
1
1
0
1
1
1
0
0
0
3
0
1
0
1
0
1
2
1
0
2
0
2
1
0
1
1
1
2
0
3
0
0
1
0
0
3
0
0
1
1
2
1
1
1
0
1
0
0
0
1
0
1
1
0
0
0
3
1
3
0
0
2
0
2
1
1
1
1
0
3
1
0
1
1
0
0
0
0
0
1
0
1
0
0
2
1
0
0
1
0
0
2
3
0
0
1
1
3
0
0
0
3
1
3
3
2
0
0
2
0
2
2
0
1
4
0
0
0
0
3
0
0
0
4
0
1
0
1
6
1
0
1
0
2
1
0
0
1
0
0
0
0
0
4
0
0
0
1
2
1
1
0
1
0
1
1
1
0
0
2
0
0
2
1
1
3
2
0
2
1
1
0
0
0
2
0
1
0
1
0
0
0
0
1
1
1
0
2
0
7
0
0
1
1
1
0
1
0
1
0
3
3
0
1
2
2
0
0
2
2
0
0
1
1
4
0
0
0
7
0
0
1
0
1
2
1
0
0
0
0
0
0
0
0
1
1
0
1
0
0
0
0
0
4
0
2
0
9
0
0
0
1
0
6
2
0
2
0
0
1
0
2
0
0
0
0
0
0
1
0
0
2
2
0
3
2
0
0
0
1
1
0
0
0
3
0
0
0
1
0
0
3
0
0
0
0
1
1
0
0
1
1
2
0
0
0
5
1
1
6
0
0
1
2
1
0
0
0
1
2
0
0
2
2
1
1
1
4
0
1
0
0
1
3
2
1
2
0
0
0
0
1
0
2
1
2
0
2
0
0
1
1
5
1
1
1
0
2
2
1
2
0
0
0
1
0
0
4
0
0
4
1
0
0
0
0
2
5
1
0
1
2
0
1
0
0
2
3
2
0
2
1
4
0
2
2
0
0
2
0
0
0
6
1
0
0
0
0
0
1
1
3
1
1
0
1
0
2
0
0
1
0
0
3
1
0
1
2
3
1
1
0
2
0
0
0
0
1
0
1
0
0
3
0
0
0
2
0
0
0
0
1
2
0
2
5
2
1
1
0
0
0
2
0
2
5
1
2
4
1
0
3
2
1
0
1
0
0
0
0
0
1
0
1
0
3
1
4
0
1
1
0
3
0
1
1
2
2
0
0
2
1
1
0
0
0
0
2
2
1
1
1
0
6
0
2
0
0
0
1
0
0
1
9
1
4
2
3
0
0
1
0
0
3
1
0
1
0
0
2
2
0
2
2
0
0
2
1
0
0
0
1
0
1
1
0
2
3
0
1
4
0
1
0
1
1
0
0
0
0
0
3
2
0
0
0
2
0
1
1
1
1
0
1
4
1
4
0
0
0
1
0
0
0
0
7
3
3
4
0
0
0
0
1
0
3
1
1
4
1
2
0
1
0
1
0
0
0
0
2
2
0
1
0
1
2
0
0
3
0
1
0
1
2
2
3
2
3
0
0
3
0
0
0
0
0
1
0
0
0
0
0
2
0
0
1
0
0
0
0
1
1
1
0
0
0
0
0
0
1
4
2
5
2
2
0
0
1
0
2
1
2
2
2
0
1
2
1
2
0
1
0
1
1
2
2
1
2
2
0
0
0
0
0
0
1
1
2
4
0
0
1
2
0
1
0
0
0
0
0
0
0
2
2
0
1
4
0
3
2
0
0
0
3
2
0
0
0
0
0
0
1
1
1
0
2
0
0
0
0
0
0
2
3
0
2
0
0
1
0
0
0
1
0
0
0
6
4
1
0
4
0
0
1
0
0
1
1
1
0
0
4
5
0
3
1
1
0
1
1
1
0
0
3
0
0
1
1
0
1
1
0
0
3
1
0
1
0
0
0
1
1
3
0
3
1
1
0
0
3
4
0
0
3
1
1
0
1
0
3
0
1
0
4
0
0
1
0
0
2
2
5
3
0
1
1
0
6
0
1
0
1
0
2
1
0
2
1
1
0
1
0
3
2
3
0
2
0
2
1
4
0
0
0
0
0
0
0
2
0
0
0
1
2
2
0
1
0
6
0
1
0
0
0
0
1
4
1
4
0
1
2
5
0
0
1
1
0
1
0
3
0
1
0
2
2
1
4
0
1
0
1
1
2
0
0
2
0
1
1
1
2
2
0
3
3
0
0
0
1
0
1
2
0
4
1
3
2
1
0
0
3
5
2
0
5
0
5
1
0
2
0
0
0
0
0
1
0
0
2
1
0
3
1
0
0
2
0
2
0
1
1
0
0
1
0
0
0
0
1
0
1
0
0
0
2
0
2
0
1
1
0
0
1
4
4
3
2
5
0
1
0
1
0
0
1
0
3
3
0
2
0
0
1
0
0
0
0
2
1
0
0
0
0
4
4
2
0
1
0
1
2
3
2
1
1
0
2
0
4
3
2
7
2
1
0
0
2
2
1
0
0
0
0
0
0
0
0
0
1
1
0
0
2
0
2
0
0
0
0
1
0
0
0
1
2
2
2
0
0
0
2
0
0
0
0
0
3
0
1
0
0
1
0
0
0
2
1
1
0
0
1
2
1
0
0
0
2
1
0
0
1
1
0
1
0
5
0
0
2
0
0
1
0
1
3
0
1
0
1
0
3
0
0
0
3
2
1
5
0
1
0
3
0
2
0
3
2
1
3
0
4
0
0
1
0
0
1
0
1
0
0
2
1
0
0
0
0
0
3
1
0
0
0
1
0
0
0
1
1
1
0
0
0
0
0
0
0
0
0
0
2
0
0
2
1
1
1
1
6
0
0
0
1
0
1
0
0
0
0
0
0
0
1
0
0
5
2
3
1
1
2
0
0
2
0
0
0
0
0
2
0
0
1
0
5
1
0
1
0
0
0
0
0
0
0
5
0
0
1
1
0
0
0
0
2
0
0
2
0
0
0
0
0
2
0
0
0
1
0
0
0
1
0
0
0
4
1
1
2
0
2
0
0
2
1
0
0
2
0
0
0
0
4
0
5
0
0
1
1
1
3
3
0
1
0
0
2
0
1
0
0
1
0
0
2
0
1
0
0
0
1
0
4
3
0
1
1
1
0
2
2
0
0
0
1
0
1
1
7
0
2
0
1
1
0
2
2
1
0
3
4
3
1
0
0
0
1
0
3
0
1
2
2
3
0
0
0
0
0
0
1
1
0
1
2
0
1
0
5
4
5
2
0
2
4
0
1
0
1
0
0
2
0
0
0
0
0
1
0
2
0
0
2
1
2
0
3
1
0
0
2
0
1
0
0
0
