749
1375
1255
1118
990
961
833
899
892
900
860
884
848
892
904
829
841
799
762
800
814
771
740
667
769
738
771
711
732
668
680
719
722
723
724
660
599
622
666
570
683
684
511
659
650
651
593
652
663
617
655
586
538
567
567
526
601
554
597
533
563
486
563
627
540
622
586
545
561
529
542
552
544
509
521
551
531
552
591
575
539
496
564
464
552
523
469
545
586
521
514
494
468
517
493
464
569
580
549
489
554
512
459
548
544
510
482
510
489
482
394
453
405
461
504
452
558
477
457
501
505
500
357
472
516
471
519
431
466
473
505
425
441
456
476
448
447
487
497
519
486
455
535
446
428
470
463
447
525
504
497
432
315
478
449
418
443
469
496
413
305
406
476
460
451
442
471
477
393
467
459
498
399
392
495
324
409
371
446
463
426
494
497
410
456
410
377
388
494
474
387
435
412
414
415
360
469
407
361
404
340
464
452
440
446
423
430
252
439
394
388
377
296
405
327
349
359
259
387
375
421
375
442
362
373
344
381
312
357
384
410
393
412
410
331
430
364
366
353
342
394
415
363
380
384
364
427
386
375
392
336
292
280
429
398
308
404
420
338
339
272
325
399
395
346
362
407
324
335
359
323
397
307
342
382
404
259
291
283
394
366
266
366
248
356
373
286
335
367
348
343
437
356
407
380
396
338
389
396
271
405
231
384
345
396
346
254
344
381
240
273
353
316
395
305
212
235
329
356
329
349
295
270
354
358
349
300
348
396
366
362
316
338
343
363
366
343
354
381
297
401
228
364
338
399
303
372
328
382
367
319
348
259
213
309
395
376
356
335
350
300
318
296
338
359
277
361
320
333
245
305
363
322
288
225
315
331
327
291
302
341
326
278
199
366
176
336
369
329
377
370
396
317
276
244
284
267
400
336
245
313
301
332
324
337
286
342
340
298
331
200
293
173
342
293
371
322
272
287
306
280
211
195
211
252
371
227
217
284
248
339
343
332
296
293
304
359
325
345
291
312
302
197
316
330
196
322
286
334
248
271
192
316
299
321
195
256
319
212
287
215
263
348
337
298
316
256
290
317
305
211
214
309
267
291
327
243
265
318
254
236
290
286
325
244
248
288
142
362
295
232
205
177
268
325
327
260
240
334
236
266
309
329
287
344
295
274
260
230
242
291
216
285
316
225
331
262
307
290
262
323
293
271
274
294
262
301
165
309
279
326
323
224
290
307
289
334
286
247
318
239
296
233
261
302
267
271
187
296
267
274
245
248
197
283
337
284
196
256
288
230
249
306
165
289
178
223
209
255
225
303
177
256
309
345
306
144
254
157
300
191
311
240
206
270
252
300
183
244
267
262
212
296
244
295
231
244
325
306
256
313
239
229
333
206
207
165
158
245
151
293
279
225
276
231
203
292
196
224
292
233
251
224
249
237
265
205
179
266
182
269
229
288
215
253
196
275
282
260
264
208
171
215
258
231
278
246
259
247
244
292
211
165
169
198
253
204
293
219
235
236
279
246
224
188
295
171
249
254
243
197
213
282
237
238
246
241
234
240
273
291
223
260
285
265
288
220
296
258
244
259
228
161
146
257
177
243
216
128
172
237
235
211
265
244
254
242
245
215
284
270
264
273
194
257
159
213
224
191
244
238
281
272
238
227
215
219
275
238
163
232
153
269
265
107
207
259
145
162
175
222
195
234
183
253
225
157
237
190
238
224
272
155
258
174
258
267
226
272
208
216
218
188
192
168
214
265
184
256
194
245
162
151
204
252
197
117
201
146
188
256
220
255
250
234
179
219
225
224
142
238
190
207
119
233
229
211
229
266
264
176
173
185
188
155
178
202
258
228
226
145
220
250
204
217
211
176
215
228
213
256
200
170
125
239
179
164
218
172
217
273
136
262
165
256
248
254
172
203
223
262
180
144
226
153
164
167
189
202
245
173
233
189
208
240
196
224
230
196
148
206
199
267
258
233
149
148
139
257
138
246
225
147
214
219
179
184
219
237
218
164
206
178
231
215
158
218
252
227
212
169
188
141
228
214
186
183
242
250
178
129
198
170
148
156
196
137
174
188
208
264
257
195
200
148
223
220
161
175
174
163
276
240
175
158
176
235
107
188
122
166
88
195
186
183
121
236
150
169
143
227
203
201
149
204
131
173
188
179
175
235
200
153
152
119
222
199
159
194
214
110
140
173
172
202
137
255
160
125
115
143
175
232
93
105
189
231
223
212
152
167
139
167
196
196
128
192
146
164
179
185
204
124
170
113
181
182
163
240
179
171
149
193
154
156
255
129
143
215
151
220
181
231
183
211
219
139
90
123
165
88
162
178
144
154
178
184
177
203
149
123
207
114
152
154
193
186
184
147
196
167
89
194
214
174
211
212
109
232
191
244
225
180
215
152
177
182
192
143
139
191
251
144
160
188
156
186
212
204
187
148
151
240
182
222
146
187
198
205
216
172
197
131
156
225
147
196
104
187
136
156
186
210
147
221
186
229
215
115
139
122
192
166
176
188
164
170
115
175
178
230
144
190
122
165
200
141
207
192
221
217
214
158
184
203
203
196
194
186
181
195
166
139
133
155
149
219
236
225
195
183
193
119
146
177
98
142
93
166
201
160
182
177
201
153
167
157
215
181
142
91
106
195
131
120
250
145
206
195
125
161
78
196
206
172
155
174
196
259
178
147
158
188
193
125
147
123
228
181
205
201
166
201
169
155
162
194
171
138
80
140
125
130
167
199
120
165
176
99
104
168
149
206
148
167
224
138
183
132
219
130
151
168
124
114
161
139
136
138
101
227
204
163
104
175
161
153
102
155
124
152
92
111
228
148
76
185
165
72
137
136
204
123
217
125
170
177
182
181
140
170
107
134
211
208
185
194
130
227
168
202
204
199
97
149
122
144
112
132
186
177
110
173
131
119
125
139
105
177
132
208
172
154
158
107
128
195
181
166
112
87
148
177
139
136
160
189
188
90
102
131
210
136
203
152
144
181
94
98
212
176
195
106
107
162
133
158
111
129
147
107
143
162
107
149
148
134
131
130
191
127
93
158
149
77
161
157
223
240
195
118
216
131
182
151
190
134
198
159
145
177
160
180
117
125
191
201
161
179
146
153
169
108
189
187
178
112
114
124
109
146
174
165
90
97
152
102
157
134
147
150
179
150
169
123
165
164
206
147
120
113
93
144
174
153
174
162
119
91
220
127
157
90
163
165
158
197
161
149
114
207
145
173
174
192
86
107
145
123
196
122
158
145
70
183
150
133
92
71
76
141
122
151
120
149
94
138
119
84
104
176
208
169
137
155
118
137
146
200
147
128
155
168
100
169
103
114
90
119
172
116
110
185
155
172
106
188
187
137
102
116
112
151
136
108
117
133
118
162
142
124
139
134
150
123
148
138
159
148
106
111
118
120
121
86
127
57
173
106
109
152
152
73
110
145
96
179
170
104
109
134
171
101
142
141
152
136
139
108
101
136
74
192
94
185
105
137
161
103
196
160
108
162
104
118
114
87
153
155
68
107
167
182
118
142
123
130
112
135
131
54
183
158
192
193
121
142
180
115
98
88
103
128
117
132
140
137
113
206
83
167
150
148
106
113
149
163
140
76
77
135
137
109
95
161
145
115
127
167
118
123
87
129
154
150
157
184
62
79
192
133
75
83
169
128
124
168
141
128
126
111
147
160
156
94
93
119
131
84
108
93
109
109
100
188
150
158
98
168
90
86
96
90
114
134
76
179
101
175
111
78
131
145
91
161
176
150
164
169
150
131
92
96
98
133
143
98
126
123
103
59
104
186
130
148
118
45
131
106
149
114
166
148
168
120
158
114
124
94
67
113
130
116
110
115
114
129
121
135
196
126
103
98
142
81
143
113
145
158
98
153
149
77
65
121
106
190
143
159
173
91
99
129
130
176
128
91
110
118
149
115
107
125
117
116
96
134
152
149
170
186
104
123
152
131
102
128
65
104
163
113
111
155
125
182
160
96
68
93
172
123
59
71
133
144
110
126
112
120
57
124
82
74
138
80
144
124
118
137
141
61
64
159
146
147
97
106
101
78
146
139
167
73
112
133
117
160
160
121
188
67
108
80
107
172
157
127
158
39
79
105
115
133
177
141
102
106
138
80
64
100
151
84
129
88
85
114
78
136
113
118
104
151
129
84
94
171
89
167
97
78
170
87
142
107
45
118
149
120
123
82
173
109
138
140
137
155
174
98
149
134
110
120
149
143
150
157
95
168
138
134
124
156
113
142
145
139
96
104
94
87
172
139
143
89
50
102
106
160
111
136
115
113
104
140
136
93
152
157
86
130
136
117
49
96
91
148
134
141
145
76
153
84
125
78
109
69
136
116
116
152
139
115
62
69
112
148
101
129
139
78
105
89
91
69
157
108
113
95
147
140
79
127
136
145
135
142
112
98
139
81
88
110
128
72
81
76
108
96
74
54
93
71
87
62
82
76
42
138
85
120
82
112
82
75
113
132
71
164
114
162
110
72
126
124
120
147
130
136
102
111
135
133
101
142
87
75
72
120
137
79
85
73
83
156
124
66
105
95
83
119
118
83
87
107
162
73
106
141
76
139
114
108
103
72
112
70
116
156
112
128
136
92
87
60
64
67
73
66
142
142
63
42
42
82
96
47
146
92
116
84
160
64
158
88
117
101
126
134
81
81
94
86
59
146
109
71
94
129
100
140
80
102
82
149
105
89
145
77
124
50
132
72
126
59
119
98
90
91
106
132
118
141
106
109
100
75
98
68
71
65
118
109
132
120
125
97
119
149
132
181
128
174
71
104
73
153
118
126
174
112
89
111
124
130
162
122
143
144
61
61
118
95
138
117
108
89
123
80
153
50
61
68
87
107
101
60
126
106
81
96
162
111
118
94
44
124
67
100
126
108
84
105
54
126
118
117
51
113
43
72
122
81
141
131
68
131
62
94
118
133
120
103
86
101
117
75
99
109
112
145
94
142
142
108
92
130
52
91
141
78
85
120
80
93
138
48
89
55
34
111
106
147
147
130
95
86
98
137
75
88
25
104
90
44
137
64
82
108
101
83
85
83
119
116
85
97
81
103
62
105
69
129
70
83
106
76
85
63
128
118
126
110
129
106
143
83
140
120
42
94
113
61
173
89
44
120
103
92
118
120
27
98
60
126
89
140
137
91
125
110
146
90
101
57
49
103
109
115
97
118
119
74
110
96
46
108
134
126
97
90
118
146
125
72
121
93
118
116
141
147
125
140
95
119
49
92
86
98
75
107
97
85
127
92
76
97
127
86
88
93
99
155
82
66
116
91
94
71
73
83
107
82
140
101
125
76
119
111
144
77
89
129
140
65
109
87
74
128
124
62
117
127
118
85
72
139
129
110
43
81
79
84
140
63
62
126
115
64
105
108
163
147
86
75
107
72
57
88
93
114
94
86
115
87
69
144
134
91
152
148
82
109
103
23
123
145
96
83
70
83
111
115
51
69
114
124
93
107
103
78
101
55
73
70
96
60
71
111
99
125
82
81
76
124
84
118
62
61
100
68
58
63
111
104
45
59
91
119
93
78
101
61
75
106
125
47
120
113
77
49
37
43
101
67
88
78
140
47
86
89
56
120
91
119
85
108
57
58
65
100
72
91
130
68
81
76
49
132
104
82
120
83
124
117
64
61
91
71
32
120
89
95
97
128
93
86
72
168
141
85
42
110
112
106
82
78
89
74
75
79
93
52
136
104
121
97
89
118
95
125
110
67
86
70
116
118
68
78
135
41
65
84
106
81
122
112
57
95
113
93
135
67
91
53
126
92
136
96
118
107
121
96
103
33
75
87
69
145
77
45
74
40
136
102
142
19
72
112
107
113
124
104
135
98
58
77
81
71
41
139
79
80
134
107
157
133
117
86
66
73
81
90
67
79
60
69
80
128
52
112
81
39
109
75
130
89
135
31
83
89
127
103
95
148
101
56
43
105
72
87
55
118
48
64
120
108
45
106
76
133
128
59
43
84
124
104
39
102
58
80
69
55
121
80
113
111
115
75
123
47
53
66
121
121
54
92
111
114
104
105
75
105
92
129
77
60
142
59
102
123
80
69
105
96
111
79
111
89
91
83
159
121
45
147
108
88
53
62
135
149
80
51
110
99
54
70
100
134
86
35
50
37
56
48
114
42
105
37
100
77
40
108
90
64
105
110
49
55
55
77
100
68
85
72
44
58
48
60
55
93
117
74
72
107
93
74
65
74
101
84
44
69
69
120
98
100
43
139
33
70
84
58
57
109
130
64
125
87
85
127
60
94
106
57
123
113
130
71
128
73
76
124
65
101
112
84
43
112
102
103
84
94
110
107
69
62
110
130
121
87
104
32
34
67
91
122
85
33
76
54
96
51
40
106
78
81
127
102
68
134
85
81
64
119
107
56
78
98
123
92
72
64
100
93
103
82
38
86
69
126
73
75
74
109
94
88
89
37
84
100
45
58
96
30
46
84
116
38
83
79
43
61
98
98
67
79
69
33
87
54
143
101
64
82
57
56
75
127
97
119
96
95
103
51
128
46
36
79
35
76
80
92
121
122
103
69
67
73
90
103
123
90
77
75
99
78
95
51
77
67
90
46
49
66
70
40
128
123
42
54
55
54
67
133
105
62
60
70
77
63
76
51
107
108
120
38
98
73
90
95
43
67
87
120
80
46
52
64
80
103
40
71
124
91
96
76
55
88
98
47
84
90
61
43
89
108
66
103
73
46
30
80
115
55
75
52
81
85
27
92
69
132
102
77
58
76
67
100
39
79
91
61
82
51
118
81
126
29
83
95
67
113
50
80
132
53
59
80
83
66
61
16
58
121
68
56
70
42
29
71
31
37
96
128
69
48
65
83
36
47
38
53
70
98
42
60
36
64
35
48
65
96
102
62
63
99
80
60
51
57
82
66
90
100
72
91
110
64
100
48
66
74
43
92
81
22
111
108
78
119
74
43
128
96
35
41
99
65
115
88
69
85
95
77
110
39
71
49
107
118
59
65
89
66
109
34
54
62
71
70
43
51
118
100
78
69
78
135
68
111
39
58
99
45
57
33
46
110
77
54
77
61
108
66
92
85
66
60
67
87
104
101
119
55
48
117
43
53
58
61
47
60
55
78
77
96
43
90
60
67
40
98
74
80
46
75
42
91
112
45
103
50
64
81
52
56
105
98
45
93
60
72
92
96
66
109
53
49
23
51
33
64
104
44
87
61
68
92
108
119
19
101
25
101
96
87
71
58
62
28
100
106
43
48
112
29
68
85
110
113
92
115
41
86
35
22
133
134
56
51
66
54
70
72
58
109
64
46
110
130
98
114
69
50
53
34
63
61
77
89
47
72
87
117
66
43
91
43
116
55
123
89
99
100
117
112
72
79
83
127
125
52
46
59
43
70
65
75
99
96
71
77
34
52
55
50
50
103
52
103
18
59
54
50
58
64
79
85
67
85
101
69
69
67
42
86
70
108
73
93
110
124
103
80
74
66
113
72
79
80
96
67
104
78
82
49
58
104
33
73
101
55
119
57
90
61
84
92
62
71
48
34
83
79
81
59
71
59
43
81
60
93
115
69
74
61
97
96
95
27
89
96
29
95
76
110
98
81
61
83
76
70
105
91
82
42
90
51
83
56
97
79
77
37
60
33
66
55
44
116
70
75
69
72
79
51
64
97
104
101
33
58
43
53
63
76
53
60
73
69
79
118
110
95
67
67
58
72
53
31
83
35
97
59
105
106
81
99
65
69
62
68
64
73
68
87
48
68
73
71
104
76
107
35
102
54
97
113
136
44
82
76
25
102
68
112
84
80
74
37
66
71
100
72
110
57
28
46
91
19
41
46
87
98
99
99
85
85
108
116
133
107
116
72
59
78
90
65
36
47
53
49
72
101
59
100
113
46
30
50
36
59
108
56
79
76
48
46
40
82
70
33
50
95
78
59
74
36
46
98
38
48
50
69
58
31
78
101
63
71
84
85
56
86
107
81
34
39
56
72
104
73
64
68
33
36
49
58
55
49
50
73
78
70
63
94
43
24
61
62
42
35
68
74
82
56
28
40
60
85
105
122
62
59
89
108
71
39
72
34
77
72
35
44
87
89
50
90
92
53
32
37
103
108
43
37
16
46
69
41
59
49
30
101
78
59
45
69
29
19
73
80
48
93
100
61
61
87
14
27
78
84
99
64
70
74
79
37
24
80
38
33
40
90
57
54
50
61
58
83
70
45
61
101
70
64
48
41
61
65
72
48
41
44
64
86
76
40
64
107
38
62
122
88
82
55
30
51
42
82
61
46
78
58
57
81
70
87
83
85
94
58
33
88
85
93
62
80
85
66
103
119
61
53
68
90
67
77
34
95
74
51
89
89
101
37
85
37
22
37
126
31
30
57
68
55
48
36
47
92
75
71
102
77
67
57
52
55
67
73
34
85
88
58
65
32
49
53
83
49
57
34
84
73
76
85
78
15
26
42
96
85
56
45
52
69
83
94
20
77
55
79
54
54
45
51
81
99
77
46
79
60
88
25
60
34
57
78
103
37
57
78
66
24
33
71
71
68
57
80
58
60
45
15
55
46
49
59
97
59
62
26
85
55
55
42
48
105
75
48
92
94
33
54
46
24
51
75
124
72
72
73
69
103
51
60
18
80
68
50
71
83
51
50
45
20
40
49
20
85
74
68
61
54
61
54
84
105
81
77
64
58
71
95
31
15
87
56
59
32
87
105
36
56
41
33
48
67
52
88
22
65
77
106
47
57
50
22
61
55
71
30
57
36
68
59
29
68
67
96
80
96
51
70
57
27
42
101
55
77
35
46
56
48
91
61
83
84
51
57
82
69
88
44
35
45
97
42
83
39
83
64
45
83
68
37
27
91
68
63
92
62
23
86
30
39
46
55
40
74
93
56
35
66
64
66
84
45
74
50
61
60
47
29
39
95
52
48
92
111
78
55
89
37
75
39
35
36
55
57
44
59
60
82
35
24
72
42
57
46
27
23
56
54
19
55
75
73
80
49
86
107
69
96
81
59
66
41
96
47
74
86
33
67
80
22
52
38
65
57
74
52
66
42
57
60
82
75
59
49
35
36
59
66
80
76
94
25
50
94
41
44
83
32
67
60
33
13
39
52
52
73
26
79
81
95
72
51
24
37
51
54
92
61
55
58
31
31
45
64
27
72
83
76
41
80
50
109
62
34
52
67
71
60
93
44
47
59
36
61
63
55
82
26
92
38
40
41
40
74
52
56
38
37
51
52
102
79
34
79
47
71
53
104
90
63
97
57
57
58
37
57
57
40
73
30
55
41
93
40
52
70
60
34
39
57
40
99
26
66
41
73
61
58
69
58
78
48
56
37
26
45
36
40
50
67
78
42
40
77
65
54
67
64
68
43
73
42
48
37
51
58
48
47
65
49
39
41
48
45
24
71
82
43
47
53
86
34
65
41
44
73
52
32
60
39
69
74
87
101
79
80
55
43
40
44
44
56
57
32
103
50
40
96
52
52
40
96
74
34
101
51
54
45
32
46
88
49
54
43
29
72
70
72
74
76
56
56
46
69
98
24
56
54
17
42
58
58
18
60
61
58
23
68
53
64
36
67
43
68
60
51
32
75
66
34
44
24
65
74
62
65
96
55
53
32
67
37
84
27
30
31
72
58
99
78
38
53
58
25
43
37
72
46
72
25
28
18
36
64
45
71
74
85
73
69
93
94
75
36
71
31
47
62
53
77
31
69
69
33
25
75
75
39
26
24
52
49
31
50
42
35
33
78
27
29
13
22
54
32
49
67
71
84
29
60
44
30
38
39
34
74
73
52
95
56
86
24
66
47
59
86
84
87
50
59
58
50
59
89
62
74
69
67
57
66
78
62
85
63
69
52
98
95
58
59
40
26
46
22
37
37
91
28
33
42
20
48
48
59
63
33
53
38
76
64
58
82
49
86
60
83
42
73
48
44
13
90
71
17
82
29
77
32
46
54
41
57
65
60
86
47
41
26
27
82
86
74
44
90
42
45
44
79
49
52
15
66
62
58
61
65
41
46
71
16
108
30
60
38
65
91
50
89
37
53
96
53
56
57
34
53
27
33
26
73
48
65
80
56
33
11
20
104
53
62
47
61
93
48
50
53
45
63
33
58
33
36
40
56
74
65
63
43
37
57
42
55
53
32
66
50
35
28
50
52
52
49
81
52
48
50
70
34
68
56
49
23
33
37
38
39
65
57
57
47
66
97
79
37
41
72
61
78
35
42
52
70
70
35
102
37
42
81
63
61
44
51
66
55
44
50
76
60
41
41
52
46
83
84
69
26
55
47
70
67
85
11
34
65
72
71
49
63
58
58
80
72
66
95
70
59
65
45
54
56
66
51
23
97
53
70
23
21
26
66
79
35
62
29
30
40
80
66
80
72
82
52
80
38
82
18
71
58
67
45
51
93
74
16
19
41
32
37
56
57
60
69
22
105
85
85
42
25
61
44
51
74
53
84
19
25
30
63
39
32
82
91
72
71
40
62
26
27
59
74
82
43
25
58
45
17
48
82
45
77
47
40
59
47
37
72
100
16
31
94
34
45
23
89
43
36
81
54
45
35
27
28
44
27
69
14
12
35
75
56
43
16
18
23
51
70
69
60
36
67
50
39
103
10
34
23
76
38
35
77
103
47
62
71
61
39
30
58
56
44
40
80
52
47
41
31
61
20
83
61
48
39
67
37
46
52
18
58
44
63
64
24
22
58
31
84
40
80
30
79
48
38
50
97
20
47
24
39
63
61
47
53
56
53
58
62
31
20
22
38
36
60
58
30
59
61
15
39
37
32
65
27
30
26
71
69
66
33
35
60
85
25
27
28
62
27
56
54
26
38
26
56
39
43
32
46
33
57
22
22
97
70
31
42
71
44
23
23
50
71
50
16
55
49
46
52
28
63
44
37
93
41
71
32
44
44
57
39
59
30
24
51
47
52
63
60
60
79
41
69
60
36
12
97
78
45
39
47
68
32
51
24
27
23
65
61
58
46
49
81
55
50
40
28
22
67
70
51
21
36
30
33
27
35
37
42
63
36
44
34
91
55
27
47
84
50
44
63
55
41
91
23
30
43
43
47
87
53
39
35
43
26
16
72
67
31
40
36
23
41
45
63
56
25
34
63
53
46
34
66
43
36
59
75
17
37
62
60
61
44
51
51
72
50
40
49
64
62
28
35
68
86
56
63
73
42
38
45
45
56
75
64
61
60
20
23
38
67
71
55
45
34
55
52
67
58
40
55
44
38
31
46
50
52
43
40
13
25
24
75
59
23
46
49
81
86
46
37
44
16
40
30
54
63
27
55
50
73
72
26
35
40
41
69
74
28
78
66
57
62
55
23
72
36
71
77
27
34
25
34
72
38
59
35
84
14
24
53
40
29
24
56
32
73
39
45
43
17
27
47
31
30
51
43
42
60
26
45
37
52
40
32
34
45
26
30
55
56
16
33
65
46
71
52
59
60
63
57
42
68
35
33
84
56
47
57
39
31
33
23
45
6
30
70
43
73
25
29
46
56
21
36
15
48
54
16
48
29
49
101
84
93
26
49
64
38
68
51
52
81
83
59
62
72
55
85
42
68
49
44
42
31
63
39
18
35
34
36
24
45
80
81
35
16
27
69
35
65
17
43
28
57
20
41
73
8
32
30
67
34
70
21
56
41
60
9
87
12
29
46
16
53
89
58
44
41
26
70
19
43
51
32
19
66
75
41
66
25
31
52
87
48
64
24
50
24
52
41
27
29
38
22
12
42
70
54
64
52
43
23
38
30
82
52
19
85
17
15
67
23
26
13
26
28
51
76
53
66
41
38
63
47
73
57
35
16
47
52
40
30
61
30
18
52
70
16
20
58
38
26
25
34
16
38
48
71
61
56
41
99
34
33
66
17
81
50
49
40
46
30
17
60
50
33
32
55
21
63
20
29
20
45
34
23
26
13
31
15
16
75
52
72
69
43
86
74
52
35
35
21
33
34
44
28
17
83
27
53
77
45
26
52
84
31
43
32
57
42
49
11
62
48
34
25
26
32
49
52
25
64
37
48
61
29
31
27
34
40
31
30
48
87
48
42
23
51
40
88
34
54
13
41
36
94
41
55
43
63
51
30
14
20
45
35
49
30
61
24
36
24
55
61
39
53
45
36
44
61
59
57
54
75
59
34
57
54
46
45
86
72
48
79
26
35
95
65
60
32
44
65
20
35
21
45
107
40
59
43
42
20
33
54
21
54
46
33
41
66
43
26
38
10
15
40
53
48
34
19
62
66
63
54
30
44
73
63
26
65
67
46
38
38
22
46
18
20
33
32
37
24
57
45
23
49
19
12
60
27
9
6
38
51
54
53
24
57
47
40
31
42
29
38
49
13
68
55
34
37
42
56
39
10
30
45
43
70
29
40
23
47
58
25
38
38
30
46
52
27
53
13
38
53
40
75
72
61
50
17
28
45
21
25
36
45
23
46
49
16
59
79
29
59
37
22
38
20
29
45
36
33
28
19
10
17
17
2
57
14
77
45
14
61
46
23
63
38
40
20
43
43
54
36
34
66
49
59
50
66
12
12
72
20
37
38
61
41
26
53
25
45
46
66
32
64
44
17
49
13
49
51
46
24
58
29
52
54
23
62
47
67
36
35
52
71
47
22
21
22
33
19
56
26
56
28
32
64
33
61
48
31
63
35
72
41
29
28
18
52
38
22
67
39
68
63
25
45
77
54
51
45
40
5
31
35
48
74
74
28
41
43
35
48
41
49
25
56
40
31
58
33
33
34
23
61
56
31
51
76
50
85
48
49
29
39
33
31
24
70
29
12
37
36
22
37
30
41
33
62
61
37
28
41
30
55
41
56
69
44
49
61
34
40
61
52
19
13
76
28
40
45
53
37
31
20
24
33
38
17
14
22
24
69
54
51
43
23
22
43
70
57
34
67
17
9
74
57
30
25
34
34
19
31
24
22
81
34
17
39
38
9
33
76
39
47
33
32
43
47
37
72
58
77
33
46
59
16
68
22
43
47
15
48
50
24
38
20
12
48
15
36
43
21
85
19
29
61
48
51
18
39
30
20
21
49
22
30
54
46
45
69
44
31
41
28
31
21
39
40
34
14
32
55
67
46
16
51
36
21
74
48
66
55
31
32
48
37
41
10
46
60
39
33
48
54
53
35
36
41
64
64
23
20
47
26
31
60
57
36
77
61
53
34
17
41
70
39
36
41
29
71
52
25
22
42
29
52
46
52
27
46
7
65
54
41
49
23
37
38
24
35
43
42
24
49
69
58
17
46
75
54
30
34
66
54
61
47
83
64
59
31
54
19
24
66
9
32
29
33
65
40
31
11
36
29
25
41
53
47
52
25
47
38
33
44
6
25
47
32
37
40
22
20
22
59
42
91
8
34
46
30
29
41
11
36
71
35
25
63
37
40
50
21
74
43
41
88
33
19
41
47
25
55
41
48
28
16
30
52
35
9
52
31
43
26
27
27
25
45
43
43
56
13
20
54
37
59
10
28
33
61
27
38
5
17
18
37
40
52
52
47
18
18
37
75
36
26
61
56
39
37
11
17
14
23
28
17
24
26
41
51
27
25
63
71
58
31
21
28
35
16
17
50
50
30
79
23
29
30
54
24
42
55
40
13
23
21
34
16
19
24
52
30
30
26
34
38
54
62
61
34
45
36
27
34
50
38
28
6
40
23
27
48
41
64
25
69
75
71
62
41
39
49
8
38
20
45
30
27
45
38
24
23
40
61
32
47
59
40
49
24
21
44
27
54
36
52
37
34
29
15
13
81
45
54
33
12
15
28
37
43
55
58
50
49
35
74
45
17
71
48
23
38
22
25
30
57
54
24
13
30
43
41
33
40
24
13
66
44
48
37
25
31
25
27
44
18
31
35
37
55
25
53
57
30
32
18
46
22
31
19
17
46
55
48
42
16
11
47
26
45
43
41
25
39
18
10
20
51
31
78
22
51
34
38
65
46
37
26
29
43
28
33
15
62
56
47
44
51
55
51
58
41
5
59
32
42
33
40
22
18
58
28
39
33
42
19
37
19
55
25
41
18
27
25
12
40
45
37
8
39
29
38
70
45
23
65
55
36
39
41
49
38
52
15
65
41
7
17
27
53
62
25
15
30
56
33
72
50
25
36
19
18
47
51
25
45
47
46
50
30
16
43
67
38
56
36
10
34
21
48
46
36
58
24
24
33
32
54
20
69
38
48
19
25
43
42
52
35
37
59
8
53
53
39
7
55
33
36
23
35
28
50
90
52
54
62
55
16
41
44
15
61
65
28
65
51
65
31
51
35
50
25
34
20
15
24
21
20
27
34
44
31
12
44
47
14
50
28
23
13
31
27
14
34
52
46
41
48
59
41
47
24
15
27
41
45
37
55
28
20
48
27
19
26
13
24
14
20
25
41
18
30
45
42
38
23
44
52
60
13
32
17
40
26
33
51
42
49
29
54
67
40
35
41
31
34
45
18
42
47
29
35
26
55
43
20
14
54
21
26
24
35
57
28
61
33
19
14
48
30
43
49
22
39
67
44
62
12
45
54
58
51
47
44
26
28
35
37
31
22
6
23
15
35
46
68
12
25
34
40
37
31
53
32
19
14
32
36
29
34
16
22
46
61
58
69
22
16
49
28
39
28
32
54
28
37
52
32
22
45
16
36
22
45
39
36
43
10
18
64
44
36
10
57
20
22
25
38
45
15
32
40
24
23
16
13
36
47
16
63
14
24
60
37
21
11
29
39
9
19
19
35
65
44
55
16
22
22
26
33
34
59
42
26
23
44
42
25
41
28
20
63
13
11
22
8
8
12
18
21
25
22
30
33
11
30
56
18
38
25
48
49
55
28
11
44
36
65
54
19
33
32
24
41
17
35
9
19
35
38
31
34
33
47
22
46
40
24
9
25
45
40
26
11
54
21
45
49
8
22
28
22
56
51
58
20
55
48
21
42
14
60
17
29
53
13
21
59
76
53
36
14
13
14
12
19
28
31
40
52
15
29
36
31
54
40
19
30
38
39
57
52
27
55
27
29
29
10
41
49
46
30
7
10
31
11
10
39
31
19
19
15
8
42
19
34
20
45
55
47
43
35
21
39
63
51
46
33
37
23
19
27
23
33
37
13
35
20
36
32
35
27
34
58
18
16
30
27
24
21
28
22
21
20
40
44
27
7
25
10
47
55
60
38
55
40
18
17
44
19
20
17
32
24
26
28
13
48
62
31
40
61
23
23
44
38
65
53
35
16
7
21
49
15
33
21
22
23
46
27
52
23
26
22
28
18
32
34
61
28
26
54
58
35
45
28
29
18
49
23
34
18
12
35
9
16
44
24
40
38
59
62
38
30
32
68
28
66
26
18
25
15
43
40
47
28
49
34
7
25
41
15
56
41
16
52
32
38
8
22
20
47
23
42
47
15
21
30
53
24
18
16
45
48
31
29
24
12
29
40
30
43
25
25
8
33
10
23
30
48
41
36
36
43
37
32
53
20
17
25
34
26
44
44
6
35
21
44
65
22
7
55
32
48
14
35
15
65
14
19
17
37
12
25
44
18
37
37
15
69
27
43
54
40
36
55
9
25
12
24
24
45
23
48
40
37
39
52
32
40
35
24
55
24
23
21
36
45
29
36
62
9
49
37
35
48
37
21
43
10
22
39
14
16
73
19
48
31
48
25
52
20
27
35
75
66
40
27
29
42
20
24
27
48
14
19
16
15
69
55
54
29
36
25
53
51
10
44
51
25
20
13
36
16
44
27
2
39
32
48
23
30
42
34
40
11
43
14
8
30
29
32
18
25
55
67
52
52
37
31
30
16
41
24
19
34
69
25
59
14
35
14
11
43
30
28
43
48
28
33
20
22
30
29
26
16
58
51
51
32
42
20
38
9
46
74
47
64
27
29
7
21
42
22
53
39
32
9
26
21
30
18
32
30
38
16
18
51
49
19
33
39
54
15
49
17
22
52
38
11
17
33
63
39
48
50
30
30
40
59
33
13
61
43
19
27
9
18
40
56
17
25
20
35
12
30
31
63
23
9
25
30
51
34
4
7
15
45
28
31
54
31
32
30
44
18
25
31
18
15
31
21
36
27
44
40
26
21
28
32
51
39
22
26
29
30
13
20
13
14
44
34
10
17
38
19
52
26
7
52
41
9
11
11
12
61
50
32
35
35
40
32
33
44
22
22
11
23
30
50
50
27
31
69
25
27
32
35
6
47
26
37
14
22
25
37
10
45
15
32
30
46
23
39
25
40
40
25
43
43
18
31
40
22
17
36
19
31
15
23
43
14
9
33
27
32
9
38
36
38
8
56
29
50
47
15
22
5
26
36
20
57
15
26
47
42
23
19
31
34
23
26
19
38
44
34
26
15
39
14
24
31
18
23
27
8
53
40
40
29
21
36
54
13
26
22
22
16
17
49
18
34
6
6
31
19
14
17
27
47
32
58
48
38
7
13
25
34
26
28
50
28
27
19
28
19
27
22
14
26
36
32
22
36
43
30
24
21
32
25
42
58
6
21
22
28
46
13
25
10
34
5
4
36
50
53
33
41
28
7
42
7
22
19
41
30
25
13
34
49
35
29
18
12
17
33
47
22
24
19
42
39
11
26
23
30
49
24
23
30
31
24
34
23
32
26
16
37
38
26
40
66
40
19
27
38
33
42
22
14
57
27
46
27
16
15
22
14
36
41
20
15
24
51
29
12
62
21
27
54
32
23
25
19
26
28
23
11
25
28
10
52
46
24
29
33
46
47
33
23
20
10
28
43
50
28
42
57
28
43
30
23
35
14
27
8
22
17
24
33
16
12
21
44
47
49
27
29
15
24
37
12
25
18
12
20
46
29
22
55
22
18
33
35
38
41
44
48
25
23
13
48
57
21
10
11
20
26
23
22
16
32
35
31
34
31
13
18
24
51
37
19
55
54
30
19
36
48
5
20
28
13
28
35
22
32
9
17
37
21
29
37
42
14
16
41
12
51
10
12
33
31
33
21
12
17
13
36
21
38
45
24
39
7
42
12
15
35
18
53
31
23
20
32
26
12
69
33
18
39
30
36
54
18
18
27
28
10
10
38
32
12
41
19
46
56
30
37
24
53
60
16
10
13
19
21
37
28
13
27
37
8
13
12
15
25
33
37
30
11
16
44
44
24
14
19
36
40
20
32
23
40
39
22
32
17
40
51
7
16
10
12
23
55
20
15
9
7
24
8
43
23
43
23
30
38
24
24
22
45
24
16
19
38
34
23
34
14
18
34
36
6
34
41
20
11
53
38
13
30
36
33
18
25
27
9
39
29
21
24
24
11
19
24
21
12
25
44
15
20
36
69
27
44
40
48
47
37
39
63
51
9
41
35
21
24
46
46
26
24
38
48
29
32
20
8
9
56
9
53
62
50
44
23
27
29
33
24
27
16
22
9
27
11
24
38
28
23
10
14
34
23
36
19
18
19
21
22
28
19
25
42
41
15
33
3
24
40
25
53
12
23
28
22
46
37
53
38
27
38
35
22
33
44
50
29
14
11
26
17
52
28
28
21
19
31
6
21
20
24
18
11
24
17
35
28
36
31
7
24
3
27
17
53
23
20
55
24
19
22
37
16
30
52
20
10
28
45
17
8
25
17
49
18
23
25
32
20
17
31
7
29
9
31
22
22
13
30
52
19
49
15
26
16
15
19
22
7
44
48
26
22
42
8
33
17
37
12
22
48
35
31
23
11
59
36
26
27
22
38
41
30
19
16
9
29
33
36
18
12
25
21
37
42
30
16
37
10
22
26
7
29
30
29
14
35
48
43
27
31
55
22
19
19
16
48
25
17
21
16
22
36
14
24
13
19
12
9
14
7
20
17
58
47
7
11
21
22
20
29
12
19
14
8
33
10
41
15
11
63
25
33
50
50
16
22
30
32
32
42
18
30
15
42
24
41
23
8
27
42
31
38
8
6
15
6
29
24
16
11
29
24
49
35
27
22
54
29
13
60
36
16
21
46
30
5
12
37
57
16
23
25
27
56
20
26
55
23
22
20
23
8
45
72
39
22
24
15
32
18
29
11
33
17
10
18
53
31
25
45
19
25
19
15
20
12
21
26
26
24
42
19
7
22
24
18
14
26
41
26
31
17
10
19
22
12
24
4
44
10
27
11
3
7
36
10
7
14
30
10
23
41
24
37
26
20
19
18
15
5
33
31
26
27
7
49
28
13
34
49
22
42
13
31
22
12
35
22
31
12
42
46
31
23
45
18
20
59
15
10
14
16
25
7
10
37
47
22
21
18
39
17
29
37
32
60
59
22
10
19
20
18
36
37
15
16
37
13
19
15
18
41
25
36
47
11
1
35
30
4
11
33
48
16
11
17
28
8
12
29
30
28
22
29
31
20
25
48
21
34
30
23
31
23
25
20
25
44
4
30
47
12
15
54
20
10
53
23
34
27
20
13
26
25
27
26
18
22
9
53
6
23
6
21
27
16
28
23
52
24
51
14
11
39
29
29
12
19
27
23
24
31
16
34
16
12
21
18
49
34
30
12
27
22
20
29
36
24
30
42
32
27
31
34
12
28
31
29
15
26
9
31
25
24
43
28
37
44
35
30
36
22
29
43
39
31
11
24
27
11
26
18
24
21
13
11
45
43
43
13
11
50
36
45
22
23
34
29
26
14
23
7
30
51
27
36
22
37
13
21
30
21
21
17
39
20
7
51
13
11
47
46
20
33
25
12
21
13
52
54
28
20
48
43
21
21
24
15
18
27
33
45
11
36
36
55
16
35
27
23
32
17
16
58
17
27
45
38
34
15
15
5
28
32
55
34
22
6
9
5
16
25
26
22
25
36
49
14
27
20
31
15
42
27
40
15
22
18
15
13
53
14
22
32
23
26
31
27
28
56
22
34
23
12
36
17
11
18
34
7
19
18
12
24
12
12
22
28
29
29
19
31
23
26
23
38
8
30
12
26
14
7
0
22
30
27
21
20
27
20
28
30
35
12
15
22
13
12
9
27
21
31
12
17
46
7
16
17
22
11
34
8
23
23
28
19
8
40
35
31
41
22
41
27
29
20
21
50
25
36
31
20
47
18
40
21
43
26
18
5
23
22
21
13
28
36
23
9
37
10
21
17
16
27
23
14
47
9
45
16
8
8
37
24
25
23
6
8
10
30
29
33
38
13
27
48
32
8
8
17
31
13
34
30
44
36
49
13
30
27
45
7
1
32
29
23
30
31
50
11
36
23
18
10
12
18
16
19
26
34
32
3
7
44
15
9
14
56
16
35
34
21
48
48
33
30
21
51
30
25
25
17
28
11
17
6
41
27
31
38
18
19
18
11
35
15
23
29
31
14
21
42
25
20
10
9
26
19
16
12
8
26
38
8
13
21
42
8
14
19
27
36
13
31
5
6
34
18
26
20
42
4
44
28
25
11
30
16
12
12
29
10
21
23
49
41
33
25
12
31
27
31
21
29
14
29
16
24
30
25
25
13
20
16
35
55
29
17
11
18
21
16
43
20
10
25
26
15
40
11
21
20
11
9
31
30
43
34
29
13
5
27
10
29
21
44
16
30
31
22
33
39
14
22
20
56
37
23
23
23
19
24
12
38
15
18
23
8
35
17
23
20
18
22
8
42
13
39
30
40
9
26
35
16
13
20
26
22
47
23
19
6
32
16
41
22
24
11
25
46
36
37
13
23
36
28
21
47
16
9
23
13
10
11
18
29
18
8
16
27
21
25
30
36
23
17
15
20
40
10
15
18
2
36
19
13
37
28
28
27
32
14
27
18
8
12
10
13
19
14
37
11
17
44
12
20
24
46
41
33
19
17
27
29
29
20
22
51
5
6
20
24
29
28
14
16
34
34
19
44
23
19
28
20
36
21
41
10
27
7
31
44
26
45
18
14
22
9
24
11
61
27
37
14
11
24
13
9
15
0
32
20
39
30
41
44
8
35
36
47
7
28
43
25
50
22
11
21
9
20
32
31
20
33
24
32
31
11
46
17
9
26
34
23
7
52
30
24
29
36
50
49
26
8
44
12
14
26
20
28
18
16
23
36
62
36
59
10
32
32
23
1
33
47
16
54
31
21
28
25
8
14
38
25
26
35
7
27
30
15
20
30
21
32
54
37
29
17
35
35
33
22
7
33
12
32
18
24
25
9
10
39
22
16
26
23
24
17
24
52
10
23
47
36
29
22
30
10
4
17
4
8
45
28
32
31
56
24
21
25
42
35
11
48
36
16
11
11
21
22
48
6
6
25
42
8
38
57
56
35
33
17
11
21
12
29
30
16
23
12
18
30
2
39
28
15
20
35
13
21
22
10
42
20
29
13
36
1
11
33
6
11
2
10
36
23
25
35
23
26
37
26
15
21
53
7
10
26
13
28
18
33
12
35
27
23
30
10
1
32
6
10
23
22
17
31
19
18
51
48
49
10
40
15
38
25
37
40
18
31
38
30
9
23
9
3
21
13
30
23
16
24
43
14
32
7
41
39
27
23
27
12
19
12
18
27
22
24
17
44
20
26
22
14
2
38
28
24
26
5
11
33
22
19
35
12
6
22
21
19
29
18
22
20
49
17
27
12
17
26
38
17
17
13
28
15
12
15
22
4
33
19
15
16
22
20
18
20
4
8
33
6
11
14
30
32
27
4
18
19
23
25
9
18
40
25
14
23
14
40
16
15
10
13
11
30
12
29
17
7
39
14
14
36
33
6
23
32
22
36
43
23
25
12
10
19
31
18
14
32
32
25
21
30
24
20
18
49
26
12
28
41
11
10
21
38
23
8
15
13
15
32
4
5
20
6
51
38
19
27
32
36
31
33
16
2
21
12
21
19
36
19
36
24
25
20
28
14
14
13
15
10
25
48
16
16
8
23
20
20
16
26
35
13
10
43
26
16
5
19
19
15
16
39
28
46
10
30
33
23
11
19
1
5
29
10
8
14
4
8
43
26
27
16
5
7
12
33
18
41
25
25
37
23
18
27
1
42
17
21
24
6
32
20
10
27
30
18
23
29
20
13
19
42
9
11
21
25
41
32
16
18
30
8
5
35
30
10
39
36
19
50
22
15
14
40
28
6
34
17
11
7
2
14
10
11
4
5
14
31
34
16
32
25
18
15
5
14
24
30
9
27
18
8
26
28
20
21
16
21
14
23
21
31
25
25
28
17
4
23
39
25
30
10
41
38
22
25
24
14
13
23
12
19
17
37
34
27
32
49
8
39
39
32
24
18
36
11
25
22
33
13
20
20
4
22
12
10
11
35
13
21
28
32
34
25
9
17
40
10
24
21
9
8
28
26
12
13
9
20
21
31
37
16
11
22
12
8
33
40
6
14
29
22
22
16
25
41
37
5
2
12
16
9
13
14
26
11
11
10
27
49
22
16
10
12
28
10
17
21
36
29
16
22
28
34
15
34
31
40
44
29
37
2
22
23
36
28
34
45
25
26
16
31
36
21
27
16
34
36
23
11
26
10
12
46
18
20
15
19
49
42
29
44
17
23
9
20
30
9
47
16
36
39
35
45
5
35
11
21
5
35
19
21
17
40
29
10
20
12
7
21
27
17
20
13
15
7
25
9
35
10
22
13
24
27
39
28
33
19
14
24
35
27
9
21
9
37
38
22
24
38
15
33
44
32
21
51
28
25
29
27
30
13
15
18
10
20
8
8
24
7
43
43
14
12
13
18
5
7
23
24
34
5
25
30
16
24
29
9
24
40
23
11
9
8
44
40
21
15
22
5
42
27
20
19
32
12
8
45
28
22
35
4
20
17
11
18
4
21
21
12
22
18
18
15
11
26
22
17
3
37
24
30
14
14
17
24
36
20
9
12
28
30
44
30
18
35
27
35
25
25
16
24
30
23
19
22
6
15
23
25
17
6
13
17
35
7
35
15
28
21
14
20
27
10
19
16
35
25
31
19
6
29
19
27
33
16
19
21
34
19
23
40
34
40
19
32
29
18
8
54
31
13
11
36
18
11
12
17
5
9
14
38
14
25
21
50
2
29
11
31
34
9
7
13
34
38
11
16
29
9
28
22
14
39
6
14
6
11
31
22
21
43
11
11
32
17
21
21
12
10
3
16
16
10
24
20
18
35
5
24
10
25
22
25
27
14
14
31
14
10
28
19
38
24
9
24
28
5
10
32
19
12
25
14
4
6
12
23
26
13
36
18
12
17
26
3
6
12
20
8
24
19
24
33
27
10
24
10
39
34
23
2
20
32
27
9
29
28
23
25
20
22
20
17
14
20
19
23
18
17
6
28
42
1
13
7
16
15
17
22
4
18
14
21
24
35
25
6
26
29
15
19
23
7
16
17
11
7
35
30
21
18
41
27
10
18
10
26
37
33
37
30
26
14
6
25
37
9
17
17
26
20
36
10
12
5
34
46
3
20
24
16
26
6
10
6
20
11
29
18
34
11
27
40
9
26
23
27
30
26
15
25
9
26
24
10
15
8
16
32
16
19
10
18
13
59
29
15
19
18
21
17
18
27
35
36
12
17
27
18
25
17
9
15
35
27
39
14
23
13
5
22
39
29
15
5
17
23
8
23
6
9
6
8
28
25
14
19
14
36
10
5
11
21
9
15
38
7
5
10
16
5
12
12
13
8
26
19
19
22
24
26
29
30
15
7
27
19
19
6
4
26
21
40
36
28
29
31
2
19
28
24
34
15
15
24
14
22
15
6
18
22
11
12
5
32
14
34
55
6
26
2
12
2
8
4
9
15
48
24
25
7
9
35
33
17
19
35
18
40
22
17
16
6
11
12
20
14
18
15
7
4
28
18
11
9
1
18
18
14
12
8
11
7
21
18
21
21
28
34
9
20
14
20
24
7
12
10
8
12
24
19
4
14
19
31
8
7
8
35
15
13
29
18
27
39
19
12
18
20
22
15
17
39
26
46
32
14
30
24
22
12
31
44
16
16
9
20
36
28
5
12
12
10
18
23
21
37
22
29
11
17
33
20
18
10
9
33
7
22
8
13
23
29
38
44
25
35
34
25
19
5
14
15
27
21
32
5
17
28
7
9
24
6
8
7
14
18
10
30
24
26
19
26
12
47
42
33
16
7
20
18
29
23
16
26
7
28
19
12
12
24
26
35
25
46
27
26
14
5
8
14
6
14
35
13
4
21
12
34
14
35
10
25
8
33
22
26
38
23
15
5
22
6
18
18
11
21
30
29
2
21
16
11
12
18
5
12
11
20
31
43
25
19
32
29
16
12
15
23
45
6
23
16
5
10
14
18
4
38
17
12
4
33
11
31
17
25
19
24
22
18
20
19
31
13
5
4
28
7
23
22
19
9
9
42
24
18
21
27
36
10
2
10
5
37
31
8
24
14
9
13
2
28
27
36
25
25
13
41
6
33
13
7
9
18
13
16
22
22
48
46
33
7
39
32
17
14
10
17
32
20
40
24
7
3
16
14
28
44
13
25
35
20
30
30
5
10
16
21
23
10
17
5
17
17
35
17
27
15
23
21
15
9
7
11
16
15
20
5
17
15
19
15
18
35
7
21
21
20
11
22
7
3
16
17
16
26
43
8
1
24
11
22
39
16
16
29
24
10
18
13
25
39
8
24
8
29
13
15
17
23
8
19
10
16
14
21
4
38
19
3
12
9
18
6
10
5
27
25
6
9
36
26
21
7
23
32
14
19
32
14
6
19
4
30
12
14
11
19
30
14
8
21
37
36
43
6
9
11
8
32
29
19
19
11
9
26
5
26
13
19
8
23
32
13
20
9
15
22
23
14
16
18
5
9
13
13
3
3
41
14
32
8
11
8
16
21
10
46
27
14
5
25
35
13
16
21
15
23
3
36
23
32
4
14
21
33
13
10
10
38
23
6
32
6
26
8
10
30
7
22
8
18
40
2
11
8
9
13
16
12
11
19
5
15
27
17
8
32
18
8
21
35
31
32
30
3
17
28
11
17
45
12
12
7
16
27
9
22
27
14
3
29
20
13
19
28
20
15
32
19
11
16
1
5
13
23
18
4
11
10
18
14
7
21
9
12
20
17
24
35
11
21
18
7
18
20
11
29
6
10
12
11
31
43
18
16
23
20
14
7
8
24
8
12
21
20
9
16
13
18
21
1
9
19
5
15
7
7
24
3
4
33
12
9
28
21
16
31
7
13
20
27
19
10
7
12
14
6
18
24
18
8
13
20
30
17
5
6
9
2
14
18
10
12
18
7
10
24
11
18
14
25
11
4
21
6
34
15
18
29
5
4
2
34
33
5
24
17
21
40
12
14
16
12
5
15
26
16
6
34
4
11
15
12
24
6
20
10
20
12
14
43
11
7
17
5
4
22
22
23
7
8
14
6
23
18
20
27
18
21
23
12
7
28
24
21
16
13
8
7
5
20
10
5
18
8
27
17
7
7
30
17
7
19
12
26
17
14
22
34
32
23
26
33
11
3
31
31
0
19
9
29
31
29
16
6
22
16
15
15
8
20
16
29
13
7
20
16
29
22
10
10
6
21
26
29
18
11
15
2
7
10
12
27
34
11
28
20
15
18
17
18
14
15
46
43
42
9
21
18
9
27
5
19
18
8
19
6
26
10
10
16
12
33
12
6
26
2
5
29
20
19
24
38
19
15
13
29
9
33
18
31
5
15
22
4
13
14
29
31
15
24
9
6
35
27
35
10
31
6
6
24
15
18
21
9
18
32
30
17
5
6
19
7
5
25
11
7
25
20
8
15
5
24
32
13
27
19
15
12
15
8
22
10
17
6
19
16
3
4
31
27
7
4
23
25
7
36
28
3
1
8
5
16
6
13
11
15
25
12
24
24
26
23
9
10
11
37
39
18
12
24
13
15
8
16
9
27
20
17
10
17
14
30
27
8
20
26
31
13
27
14
16
7
26
4
23
7
16
16
5
9
11
6
15
30
7
8
14
12
11
31
23
17
16
22
7
40
28
14
21
14
11
18
30
21
12
18
1
16
16
17
6
6
19
14
22
15
8
19
16
30
12
29
21
2
35
12
31
36
13
24
7
8
42
26
7
29
19
17
43
9
13
12
27
5
22
29
17
15
15
19
45
32
29
6
26
35
14
14
15
8
13
4
20
21
6
12
16
19
32
32
32
28
17
10
11
14
18
9
4
11
8
4
16
24
28
7
13
13
7
18
30
41
13
4
5
5
25
17
22
19
6
11
8
8
4
12
6
15
23
7
17
21
14
33
15
1
7
30
27
22
21
18
9
28
31
17
5
17
30
38
27
10
14
3
32
23
46
18
22
19
28
23
4
14
3
29
5
9
11
9
25
20
7
26
19
16
27
26
19
30
37
28
47
14
34
24
18
22
31
4
11
17
12
9
15
11
16
14
31
27
3
2
13
46
10
5
20
11
13
13
20
6
3
11
13
12
22
10
35
2
15
2
10
8
16
25
9
18
9
18
19
16
30
12
9
41
11
8
8
31
12
21
12
5
15
25
31
15
21
8
2
31
15
12
21
35
6
20
40
22
30
21
20
25
19
2
11
19
22
22
11
34
22
27
24
27
16
15
24
29
21
5
3
9
26
13
19
9
25
2
3
11
12
8
18
18
14
9
15
35
5
12
4
14
13
28
18
9
16
7
13
10
13
13
17
26
0
7
4
13
20
6
8
27
13
22
16
23
31
26
19
15
8
22
30
32
13
40
8
27
14
21
14
16
5
9
20
13
7
8
6
17
14
23
15
14
7
12
12
3
36
8
28
10
24
7
12
16
11
26
24
12
13
29
34
21
13
2
7
10
14
9
26
18
8
9
23
14
14
25
17
7
16
15
8
27
16
17
19
11
28
6
25
17
11
13
6
14
3
19
24
24
26
22
13
23
4
18
29
3
2
8
22
15
4
10
8
14
17
13
9
4
15
10
13
13
5
8
1
4
18
7
2
19
13
12
20
12
13
44
2
16
13
5
6
9
4
16
6
8
22
34
12
10
17
11
26
5
17
13
13
21
8
24
30
9
11
23
12
17
13
8
8
8
16
16
21
30
16
28
19
20
9
14
16
16
17
28
8
13
15
16
21
19
5
5
15
16
9
22
15
12
25
14
17
21
12
9
20
11
26
4
21
33
35
26
14
11
15
23
22
13
23
16
23
15
16
6
35
12
7
8
9
11
13
5
4
9
19
5
19
34
16
2
26
31
24
13
8
18
28
10
5
10
28
6
19
3
29
9
26
11
37
21
27
15
12
14
23
8
5
27
9
15
22
31
11
16
18
24
5
22
19
15
14
13
8
16
5
5
4
1
12
21
15
29
4
2
14
10
8
3
40
16
9
11
11
11
2
13
7
1
32
16
14
29
9
13
17
14
15
27
35
18
21
17
8
14
24
2
4
8
36
10
12
22
21
27
16
12
7
28
12
10
13
10
10
5
30
10
33
12
2
21
13
13
15
31
10
20
18
34
5
11
3
34
11
12
19
21
12
18
25
13
19
17
28
18
12
23
8
12
28
31
25
21
27
17
37
11
23
26
16
10
6
9
16
21
2
14
31
40
17
23
10
13
8
30
21
10
19
6
15
6
5
3
25
5
14
22
33
6
11
4
16
14
17
16
10
24
25
7
5
1
4
9
37
25
22
21
23
11
10
1
3
16
12
6
25
31
14
6
7
21
19
13
14
37
15
10
9
6
25
2
10
3
32
5
9
16
27
4
14
12
10
23
10
11
13
7
5
12
23
19
19
35
18
8
12
8
24
10
16
11
8
12
5
15
3
6
28
16
6
7
11
21
15
19
14
15
20
5
13
9
12
37
21
20
10
8
9
7
25
17
42
7
5
15
20
13
10
3
5
2
0
33
16
32
36
26
4
18
33
11
3
10
5
15
5
19
18
10
3
17
35
9
30
2
14
17
23
16
5
35
24
20
30
21
29
18
12
18
6
11
21
23
10
12
16
23
21
22
20
12
19
18
30
12
17
13
7
22
18
20
12
25
3
27
12
20
5
12
20
21
25
26
16
12
2
14
13
12
12
6
16
9
22
16
16
19
17
13
11
13
14
13
34
9
12
16
19
14
15
10
7
9
19
30
9
15
13
9
29
0
8
8
11
10
29
17
6
8
21
16
10
28
16
18
10
16
10
7
1
19
4
12
12
5
19
11
8
22
17
3
6
14
33
18
7
24
14
9
20
1
8
15
19
32
10
5
11
41
28
18
13
9
25
3
1
18
9
17
3
12
35
22
24
8
22
10
19
29
13
1
5
10
8
13
8
13
15
16
28
2
9
14
22
13
12
5
12
19
13
14
14
19
12
14
11
7
4
23
11
2
25
29
15
10
15
15
27
16
32
13
18
11
24
26
5
4
13
13
27
13
1
8
1
30
30
3
30
19
21
28
13
9
9
3
5
19
25
12
16
5
15
8
6
22
16
12
11
37
6
5
4
3
14
16
7
30
24
9
2
9
7
9
16
25
8
7
23
21
21
19
14
27
21
14
19
7
12
40
14
35
19
6
25
12
13
9
6
36
3
18
6
11
27
13
7
13
28
13
17
15
10
28
8
24
3
8
5
39
35
15
1
14
2
7
13
5
2
15
19
13
10
29
29
2
8
10
40
3
19
12
16
24
28
5
3
6
5
7
6
21
40
8
13
29
23
6
2
4
14
31
22
3
18
10
12
8
7
27
12
14
19
38
14
18
3
16
4
7
3
6
34
15
2
4
14
12
9
22
10
10
23
23
22
21
18
5
7
15
9
6
5
13
8
25
9
14
18
16
7
8
6
9
20
7
2
9
10
7
23
29
26
21
15
3
4
12
8
13
13
10
21
9
25
5
5
6
17
4
16
39
9
1
8
18
17
10
36
24
9
19
6
26
5
6
2
15
11
19
34
12
40
8
21
32
13
19
6
18
10
28
13
4
11
19
23
22
26
19
21
9
5
22
18
11
18
4
11
7
12
6
9
31
18
8
20
13
8
6
9
15
19
11
13
14
6
6
12
6
20
7
7
8
14
14
6
1
32
8
12
13
12
8
21
15
21
32
19
17
10
10
22
27
5
8
8
4
24
9
12
15
9
20
25
14
26
25
33
7
18
28
15
26
17
25
33
26
8
6
6
16
24
26
3
15
19
6
15
4
7
9
7
23
11
9
20
17
13
18
14
35
21
26
26
8
5
15
37
24
21
0
33
11
34
15
2
23
7
13
16
38
9
4
23
4
13
13
6
6
21
14
27
11
18
8
15
0
5
10
8
8
8
12
3
36
10
5
6
6
4
16
26
3
29
5
17
39
25
21
19
15
10
20
28
16
28
12
17
30
3
8
3
6
7
21
11
36
24
9
10
10
4
14
13
2
7
1
17
13
13
9
11
13
13
3
7
8
13
9
17
26
5
4
5
5
8
6
0
17
6
3
19
7
4
9
8
30
3
21
29
25
8
17
10
12
25
23
2
11
23
24
34
13
24
5
13
15
4
6
27
24
16
22
2
8
6
13
37
19
17
4
16
23
3
12
27
12
6
30
10
2
10
11
24
4
16
17
30
16
7
13
8
19
5
41
40
6
17
19
12
11
7
6
13
27
28
14
14
20
19
12
12
37
23
27
10
20
4
12
15
24
18
22
19
6
18
25
25
12
23
6
19
2
22
2
18
4
15
10
14
16
17
7
15
24
15
15
14
15
10
23
15
5
6
4
10
8
13
14
11
6
11
21
12
8
29
6
7
18
25
37
25
26
12
14
22
3
9
13
38
28
1
6
28
6
15
18
16
22
24
9
13
6
2
10
7
7
10
29
25
5
13
9
10
3
5
9
12
29
25
16
10
17
9
24
7
12
8
12
19
0
17
10
7
15
14
4
9
9
19
19
28
13
14
9
7
24
7
4
29
24
8
7
18
11
18
22
16
2
15
19
11
32
20
24
19
9
9
11
10
11
16
8
2
3
7
16
36
10
9
2
16
17
12
5
8
11
17
1
9
12
4
8
7
16
18
27
15
35
17
6
3
26
36
7
10
17
27
10
35
30
15
16
18
8
15
12
3
23
10
6
9
29
30
22
15
4
8
18
26
36
10
6
9
26
6
1
13
2
4
17
16
10
30
16
16
26
14
11
24
10
4
20
6
7
7
23
16
17
18
17
3
1
6
19
9
14
6
18
20
25
6
12
5
5
20
14
32
37
2
5
34
2
17
11
13
17
5
25
27
2
16
4
9
6
16
9
14
3
9
2
2
2
26
18
22
9
2
18
5
19
14
20
4
9
13
16
28
15
17
2
12
34
9
28
27
13
9
28
4
6
3
30
8
7
5
16
16
18
2
4
23
20
10
11
10
16
24
3
5
11
21
18
6
13
8
12
8
7
14
16
27
13
4
27
20
3
6
20
15
8
9
24
14
12
12
21
20
9
14
2
10
6
25
18
6
2
2
8
5
12
14
21
7
10
7
8
8
3
15
17
17
26
19
8
4
2
18
13
5
8
9
5
7
3
3
14
9
30
15
23
3
3
26
12
16
7
7
16
22
28
4
5
1
18
26
20
22
36
30
8
5
1
6
22
8
7
2
4
10
23
6
15
25
13
6
10
26
12
10
30
17
16
8
22
7
12
8
9
28
1
4
2
13
13
2
4
1
17
5
12
10
18
19
8
9
5
9
2
21
27
6
13
10
22
2
26
4
29
18
12
7
16
14
9
10
27
7
15
8
7
14
19
16
6
8
9
4
7
21
7
7
24
7
16
16
21
22
6
23
9
18
29
17
8
10
5
19
4
15
26
28
14
8
14
4
12
7
3
7
24
4
12
4
2
5
10
15
18
8
4
12
13
7
21
12
4
1
14
10
14
5
6
12
11
6
11
6
3
9
15
5
8
8
5
13
5
25
30
18
19
23
14
9
7
20
8
31
14
19
3
9
4
13
10
27
11
28
20
15
0
23
2
3
15
2
7
6
16
5
21
4
29
7
15
7
8
20
6
17
16
4
35
21
18
7
16
24
9
6
17
4
12
14
8
20
17
3
2
13
5
4
32
4
2
17
6
11
12
5
2
16
11
11
10
2
21
23
16
6
22
16
20
13
13
25
4
4
10
10
19
10
19
9
16
5
12
17
14
9
3
13
6
9
12
4
18
18
16
23
12
20
25
25
6
3
1
2
4
3
20
3
13
17
20
6
25
15
19
25
7
3
26
20
10
18
6
24
12
22
9
19
18
23
14
14
21
15
13
8
14
10
26
14
11
15
6
13
18
28
37
2
6
11
20
9
16
7
15
18
8
3
15
17
20
12
15
9
24
17
10
4
12
10
3
2
20
6
14
12
17
13
9
24
1
19
9
14
26
24
14
34
11
8
15
19
10
20
19
23
9
5
14
20
38
28
19
9
17
7
13
21
23
18
3
16
17
6
10
5
10
6
14
4
32
5
9
6
5
13
20
0
4
15
2
0
9
19
21
6
2
13
9
21
2
7
13
21
12
3
25
23
17
8
23
5
22
22
19
19
12
5
4
6
9
9
7
18
3
18
5
11
13
23
12
11
18
1
6
14
16
3
3
11
18
6
5
12
8
14
16
24
29
33
13
2
14
6
13
2
16
2
17
11
1
9
17
10
15
4
18
25
14
9
16
12
15
10
13
18
1
5
32
5
7
10
4
21
30
8
18
8
10
11
1
21
4
12
8
21
6
9
17
20
18
19
12
9
13
9
10
10
30
17
18
11
23
13
15
12
15
5
8
12
5
3
14
7
16
23
3
23
20
5
4
8
10
14
6
4
8
18
7
9
2
45
17
17
17
2
6
13
2
14
15
16
14
2
4
3
17
11
16
14
39
6
11
12
19
14
6
20
21
16
3
10
7
10
16
15
36
28
25
8
18
8
17
8
10
21
6
8
22
5
7
20
13
0
2
8
1
2
18
24
5
26
11
20
11
16
6
16
13
18
15
19
5
10
3
14
9
12
3
3
11
28
13
4
3
24
14
7
12
0
26
23
18
7
18
15
11
6
33
14
5
26
21
14
20
6
23
25
7
15
5
13
9
5
17
7
24
23
6
12
17
5
11
10
14
23
16
4
1
4
9
0
3
29
24
16
14
23
6
30
16
7
5
14
11
12
15
3
22
13
15
10
18
18
16
11
21
10
7
4
9
5
8
3
5
10
15
8
19
14
8
10
13
4
20
17
5
11
13
9
9
10
18
9
9
17
3
7
9
5
9
8
16
16
3
16
11
7
9
4
24
6
3
4
14
17
8
9
13
18
8
25
10
4
4
4
12
9
19
8
20
17
13
2
5
32
28
19
35
15
28
18
0
13
7
16
7
13
1
9
17
14
14
18
8
11
11
24
14
3
8
6
17
22
2
4
8
4
2
24
13
11
12
16
4
29
16
9
15
3
28
10
13
3
4
6
2
4
11
11
7
11
6
24
7
13
27
22
3
12
14
5
7
11
8
5
6
1
5
29
24
11
22
27
20
25
32
10
13
5
25
3
12
5
32
2
24
3
20
25
26
16
12
20
1
2
19
22
20
26
5
15
7
1
4
21
22
2
11
6
12
7
14
24
29
36
7
16
8
8
26
23
4
21
9
7
9
27
14
5
6
19
12
5
12
15
3
17
26
12
10
20
12
24
10
6
7
8
19
18
18
25
19
9
13
19
22
33
4
16
11
7
4
4
16
6
2
9
22
11
7
0
17
28
20
12
12
8
7
4
5
3
18
5
4
6
13
21
11
13
9
10
22
17
3
19
25
15
16
7
10
6
5
7
6
14
14
20
8
9
26
17
15
9
3
11
9
15
25
14
9
9
16
7
7
10
10
21
12
26
1
10
14
11
16
13
5
11
8
19
9
8
17
5
7
13
18
10
3
25
1
11
25
14
27
15
16
11
15
19
21
8
21
8
8
4
12
9
21
14
6
7
14
14
2
22
10
3
6
14
11
8
5
10
13
8
3
17
9
9
19
14
13
6
14
7
7
4
13
6
2
20
6
15
16
16
5
5
19
20
7
13
14
6
7
25
5
16
17
22
5
10
12
11
10
13
9
4
15
15
4
6
7
34
6
16
10
6
4
13
20
12
14
6
3
34
5
4
15
18
12
11
9
4
6
9
9
31
6
6
6
7
1
6
9
8
20
6
3
14
7
23
22
8
12
2
6
1
10
10
16
32
17
19
13
15
10
5
10
11
22
22
12
14
5
23
32
6
8
7
24
11
6
25
27
10
16
12
18
7
19
24
31
27
2
10
16
19
13
25
2
2
10
12
8
4
6
6
10
12
25
2
12
10
12
28
6
21
28
11
2
19
18
8
15
7
18
4
6
5
21
19
8
7
3
17
4
1
13
16
16
9
4
4
12
2
19
14
16
8
24
17
16
18
18
15
6
20
16
8
17
4
10
16
6
6
13
24
14
9
10
6
17
16
30
4
10
22
3
7
12
10
5
3
5
10
19
11
9
2
16
19
10
6
13
9
14
6
9
3
21
21
6
2
25
8
0
20
20
5
23
8
22
7
9
6
5
9
16
19
15
11
18
15
6
11
19
7
12
5
15
6
16
12
8
11
8
14
13
5
7
19
13
11
10
16
0
10
13
17
18
12
7
11
22
24
18
10
0
18
5
3
21
17
9
5
3
9
6
4
16
9
0
31
1
4
14
2
3
7
7
10
8
8
7
27
19
14
6
10
20
6
2
10
12
15
15
9
6
23
21
13
23
16
11
2
17
11
5
2
11
3
10
18
22
9
11
2
18
15
10
8
7
8
13
16
3
2
4
5
11
7
6
9
9
6
16
16
8
7
5
0
1
2
8
14
7
7
25
12
6
7
16
7
11
4
4
8
20
2
18
7
10
6
3
3
18
29
14
1
22
4
14
2
7
13
7
15
10
17
4
21
15
17
25
19
8
15
8
3
20
15
12
27
13
18
3
12
9
7
8
6
8
3
24
21
8
1
24
17
5
1
2
3
20
11
20
4
17
4
16
15
17
2
13
16
14
24
25
21
2
10
15
5
11
8
16
10
15
7
22
3
3
8
4
2
4
9
27
12
15
6
10
25
9
5
4
24
13
2
3
9
7
6
1
7
9
14
3
18
6
11
5
24
15
25
5
5
29
3
22
2
0
19
5
4
23
9
3
7
18
0
1
10
16
5
1
13
16
24
21
14
10
7
12
4
25
8
7
19
5
4
19
13
9
12
5
5
12
8
18
3
13
10
2
2
1
8
3
7
17
10
28
19
16
10
11
24
18
5
6
5
31
10
9
6
11
3
24
4
10
6
1
18
7
2
10
6
4
7
8
6
3
3
10
3
4
6
27
1
14
3
2
14
14
8
6
21
20
9
6
4
27
0
4
19
12
17
19
14
3
10
6
6
2
3
18
19
16
8
22
21
8
17
14
3
6
4
11
9
6
23
2
10
15
20
10
4
6
12
12
20
2
12
13
3
3
9
19
10
7
2
12
1
4
6
9
6
4
7
12
14
13
10
26
12
1
20
6
7
4
27
7
27
31
4
2
10
6
8
8
26
2
9
6
5
14
11
22
3
9
4
1
4
5
12
14
8
4
18
21
6
13
22
24
5
12
12
4
21
5
0
7
9
6
7
10
7
9
8
7
15
8
10
6
18
13
12
10
5
1
4
9
7
24
5
8
9
3
10
19
12
24
10
10
18
7
8
3
2
8
22
9
24
13
11
19
3
8
13
22
7
3
6
16
5
6
20
15
10
14
13
7
10
6
29
5
8
11
34
2
10
9
22
5
7
18
8
10
5
13
13
7
3
7
6
18
1
20
4
1
6
15
5
15
19
35
8
11
12
16
7
6
12
11
3
13
9
12
4
8
8
9
15
9
1
14
10
10
3
6
23
6
14
6
6
12
11
15
14
10
10
6
7
8
8
5
17
29
9
7
23
19
14
6
6
9
17
4
11
6
14
4
10
12
11
27
6
7
9
12
12
17
16
4
1
10
8
26
19
0
13
9
5
9
12
6
7
16
25
4
0
3
17
2
10
19
7
9
3
8
19
2
11
4
13
1
9
10
11
7
5
12
8
6
16
2
17
1
7
20
7
2
12
11
4
11
4
32
43
7
6
17
7
15
25
6
8
5
16
16
20
5
2
2
8
6
6
23
9
8
14
11
8
11
10
4
9
1
19
18
2
14
5
9
15
6
17
3
7
11
7
23
22
8
18
15
20
4
1
7
1
19
4
2
2
1
9
19
14
16
4
2
7
3
25
6
11
8
18
0
5
4
5
5
8
8
8
5
11
11
36
1
3
14
24
0
3
4
5
12
10
11
9
10
11
6
8
10
8
28
5
4
17
4
3
6
4
1
25
15
6
10
4
9
11
25
14
9
8
3
4
17
15
3
8
3
13
5
17
6
2
1
2
13
2
22
6
0
12
9
4
5
15
8
16
0
17
8
7
30
21
7
1
14
4
5
8
4
2
3
6
19
3
1
13
10
22
10
6
9
20
14
27
19
8
12
3
12
3
8
8
7
0
7
4
6
17
1
13
9
10
5
12
15
17
5
5
4
11
19
1
13
3
6
10
15
20
2
8
14
11
9
3
6
6
14
2
9
10
10
5
14
4
1
6
7
5
14
13
5
13
6
0
23
13
12
8
3
5
0
11
17
11
11
7
2
2
8
13
9
7
9
15
20
3
1
14
3
13
6
21
7
8
12
7
10
16
18
5
7
5
12
23
24
6
23
11
10
12
13
13
16
9
10
11
3
8
11
4
15
4
8
9
7
9
7
11
9
6
29
3
3
12
12
13
1
5
6
6
2
4
1
3
3
5
21
25
12
5
2
6
8
22
22
10
4
11
5
13
13
2
12
6
14
16
9
9
4
18
15
0
15
19
17
12
20
2
6
14
5
19
22
13
10
16
7
21
22
7
13
10
13
14
11
6
11
20
3
8
14
8
2
5
12
5
13
1
18
3
12
4
10
17
7
5
12
36
9
11
2
14
17
3
1
22
10
11
11
3
13
2
6
3
10
11
10
10
10
14
24
7
12
11
3
14
3
6
19
4
9
19
2
20
8
7
2
4
19
18
17
10
15
17
21
24
11
25
4
3
5
13
6
3
6
6
9
5
1
5
4
18
14
15
10
14
1
16
0
5
22
1
9
0
15
9
2
7
11
1
2
19
18
6
23
2
7
13
19
8
17
13
6
15
19
13
4
16
5
7
10
16
17
10
13
3
13
21
8
13
2
30
22
10
9
23
11
8
9
7
13
17
5
4
10
10
4
7
18
20
13
2
21
20
1
3
1
1
11
7
5
4
8
19
22
6
5
14
6
2
1
6
4
5
13
6
7
10
5
10
24
11
17
23
11
15
17
11
7
5
4
2
19
3
6
10
4
13
7
2
2
9
6
1
17
16
2
30
26
12
2
0
14
3
24
4
20
19
18
8
26
8
9
7
7
24
22
11
5
9
3
7
14
20
5
0
1
5
10
4
2
9
18
3
7
4
7
8
4
7
9
1
7
2
24
6
7
9
8
10
13
11
14
7
11
17
2
7
14
20
23
0
15
3
7
6
12
2
4
6
15
13
15
1
16
6
3
2
23
1
4
2
8
9
8
1
12
9
5
12
13
12
6
7
2
12
9
17
10
13
6
3
17
5
6
6
5
22
23
4
0
9
14
6
15
15
10
22
18
0
7
4
1
6
12
20
21
6
5
2
5
12
5
1
18
4
7
12
15
8
7
5
11
8
10
1
1
7
7
12
9
6
5
21
15
12
17
8
5
9
12
21
5
12
21
14
14
21
18
6
17
2
2
4
12
8
14
14
3
6
7
8
9
14
7
1
8
22
11
23
10
15
5
7
13
16
22
7
17
8
8
8
6
6
11
12
5
6
14
4
18
2
7
13
12
5
11
11
15
4
8
5
5
8
21
20
28
25
6
7
7
9
5
10
19
9
8
5
5
3
6
14
15
21
32
6
19
21
5
8
11
11
11
6
1
7
7
15
5
14
8
13
5
6
1
3
14
7
1
5
7
5
10
12
2
7
16
7
3
7
3
15
18
4
5
6
3
4
3
1
10
4
2
8
5
12
11
21
1
6
9
9
9
6
0
25
10
9
22
8
0
11
4
13
14
7
4
4
18
8
6
13
8
4
4
4
18
8
11
2
3
16
9
25
24
20
2
6
12
3
2
12
9
8
2
17
7
19
0
9
7
15
1
2
4
4
20
16
10
2
8
8
4
16
10
6
2
3
10
19
5
8
28
5
13
17
12
10
9
11
6
4
12
15
14
0
4
6
7
6
8
4
14
0
1
4
12
5
16
22
10
14
15
18
11
16
10
4
13
8
2
24
22
13
11
5
2
6
14
1
4
16
0
5
6
9
16
4
4
8
14
14
9
19
2
21
11
9
4
10
18
29
8
11
6
2
9
6
3
7
14
14
3
9
22
10
14
3
2
5
3
2
4
3
9
20
6
4
3
22
13
15
13
9
2
7
0
8
0
6
0
28
11
14
2
21
20
7
8
5
6
11
8
31
24
5
2
4
14
6
5
1
2
6
9
0
17
5
9
2
3
3
8
10
1
7
4
20
14
5
5
6
12
7
10
3
3
4
14
19
1
8
1
3
2
1
3
14
1
5
0
4
5
3
7
2
5
4
14
7
1
12
10
0
8
8
16
7
8
20
27
10
24
1
12
10
5
21
8
8
4
5
3
11
0
9
6
7
9
1
3
3
18
1
3
0
7
6
2
9
2
9
14
2
5
2
5
17
1
21
22
13
9
12
4
5
7
6
11
7
7
0
9
3
9
6
9
1
6
21
16
10
12
8
1
0
16
1
3
11
16
10
15
12
8
11
21
6
3
8
12
11
4
2
3
8
9
13
16
0
4
5
0
23
13
6
7
8
4
3
7
10
11
9
8
18
6
1
6
8
6
4
7
6
4
10
14
14
7
9
4
3
6
10
7
26
12
3
7
20
7
7
2
16
12
1
1
2
15
21
4
24
8
2
1
3
4
13
26
10
1
1
9
19
3
7
1
15
13
12
20
21
4
18
8
5
6
9
2
7
12
10
3
22
12
5
14
9
7
12
4
14
6
2
15
15
0
9
7
11
7
8
7
5
9
14
5
4
15
11
18
6
3
1
1
19
5
9
23
1
19
13
1
5
6
17
19
0
15
6
5
15
3
23
9
4
5
6
13
5
5
4
12
9
12
18
1
10
12
11
10
1
15
4
20
1
6
14
16
21
16
11
18
5
10
2
7
8
25
3
9
4
1
16
23
5
5
3
8
2
5
4
8
8
5
8
1
23
15
4
14
5
28
8
8
14
15
4
10
6
14
2
12
11
0
1
8
5
2
3
8
5
12
16
0
5
7
9
5
5
23
9
4
13
0
1
5
21
10
0
3
1
1
7
4
5
9
10
7
12
10
10
9
18
6
12
13
1
16
3
4
7
2
3
5
3
4
9
11
11
6
9
4
4
4
1
17
3
3
2
3
16
5
13
6
11
1
9
13
8
11
8
5
21
6
12
8
4
4
5
2
25
0
5
6
12
0
17
11
8
8
8
8
3
10
5
8
22
12
17
6
24
4
10
7
9
4
7
3
4
22
9
5
10
5
4
11
5
7
6
7
12
15
2
2
3
8
12
8
21
9
8
6
10
6
10
2
20
6
8
9
1
14
2
2
16
1
4
12
9
3
0
4
3
8
6
26
5
6
11
15
11
3
11
15
7
12
2
5
9
5
5
10
14
16
4
2
21
3
8
7
3
19
6
5
5
5
8
4
3
7
20
3
4
12
19
12
4
8
8
12
18
15
10
9
8
4
9
5
4
15
5
9
7
21
8
14
8
19
10
23
11
8
12
5
5
4
4
8
10
13
5
0
16
16
15
21
9
10
4
6
14
5
3
15
11
11
3
5
14
1
6
3
2
6
3
9
15
6
6
11
13
11
10
2
3
10
6
9
6
0
2
0
13
8
2
1
3
4
2
6
0
16
5
4
3
3
3
13
10
3
7
12
9
0
3
10
10
3
17
15
9
19
8
1
19
6
6
7
15
10
14
11
3
11
8
1
12
16
14
3
2
13
5
7
5
11
5
8
3
11
9
4
8
2
17
6
10
4
7
4
13
10
5
16
6
4
14
9
10
15
5
4
16
2
9
3
1
9
12
10
15
15
10
8
16
2
6
14
8
8
5
5
11
0
7
1
13
9
9
4
3
5
16
3
7
11
1
19
17
18
22
3
11
2
1
7
11
6
5
9
2
4
8
8
5
18
1
18
12
3
0
3
11
11
7
11
4
6
2
18
7
17
12
7
17
5
5
13
28
3
5
6
2
3
8
10
8
15
5
4
3
6
7
11
4
11
3
5
12
4
8
9
9
13
12
12
2
6
8
14
10
2
1
4
5
12
3
8
4
12
9
27
4
8
2
2
10
1
9
9
5
8
5
16
4
4
5
8
13
6
7
4
14
9
5
7
9
23
4
5
13
15
5
22
2
8
11
18
7
12
8
3
6
8
4
0
3
3
4
1
3
1
3
5
6
6
7
11
10
17
20
3
16
5
6
12
10
11
0
8
10
1
9
5
21
13
10
5
6
5
5
12
12
19
14
3
2
4
13
6
2
4
9
8
8
9
7
6
8
15
6
9
7
5
11
13
9
16
24
6
2
10
8
2
8
1
16
7
15
5
6
11
9
0
2
3
3
19
15
6
8
4
11
19
2
10
9
5
13
13
13
8
17
3
9
4
10
3
3
3
3
0
4
14
9
6
0
18
13
7
0
7
3
11
9
1
2
9
6
6
22
17
29
8
7
14
15
15
1
3
2
14
1
9
3
0
6
6
4
4
6
10
10
16
3
8
3
4
11
3
11
5
8
3
0
23
14
4
3
18
7
8
18
3
4
19
7
14
4
18
24
13
7
15
11
8
9
7
16
8
23
3
12
7
12
5
1
1
3
22
4
8
9
4
1
1
12
2
1
19
28
7
27
0
2
5
7
4
2
9
3
4
7
12
9
11
11
10
4
6
5
5
12
14
4
1
8
6
13
6
16
21
7
5
0
6
2
17
10
9
8
15
2
2
6
7
3
12
4
11
3
2
4
10
5
8
4
9
2
5
8
4
7
2
18
11
5
14
1
14
2
3
8
9
7
4
7
6
14
22
12
2
11
9
16
3
2
4
2
9
3
6
15
13
4
4
4
12
7
2
3
1
10
3
11
5
3
20
5
0
12
7
19
8
1
8
19
8
12
5
11
8
3
4
10
9
3
7
6
1
8
11
14
19
4
7
2
7
21
20
0
6
9
7
10
5
5
14
5
0
6
5
2
11
10
9
3
9
5
9
5
13
16
5
5
9
4
7
10
18
7
5
17
10
15
2
10
1
2
14
5
11
15
8
11
3
0
6
7
5
3
17
4
8
0
6
16
5
4
4
4
24
6
6
17
1
5
15
17
17
8
2
5
8
10
8
23
11
5
7
17
5
2
9
7
9
23
2
6
0
11
8
11
1
3
13
5
21
9
9
7
9
8
6
2
15
7
16
12
0
2
5
20
3
2
1
6
4
12
6
3
10
13
3
14
21
2
8
17
3
13
5
5
6
4
1
11
3
6
5
2
4
3
13
3
0
0
17
3
6
8
17
4
2
14
5
1
4
4
7
10
7
5
12
4
25
2
10
22
12
11
8
7
16
4
5
8
1
15
11
12
2
4
8
1
7
1
9
18
2
12
2
6
9
13
17
5
6
18
4
3
13
13
7
9
10
6
10
2
6
6
5
6
11
9
6
6
8
6
4
13
5
5
14
8
12
10
1
12
15
10
10
23
8
25
8
15
23
2
24
0
4
6
18
9
4
3
6
7
10
8
9
6
1
5
2
6
1
11
15
10
2
0
0
3
4
14
5
5
6
5
10
9
16
4
4
7
4
6
5
5
9
4
9
2
4
12
7
1
4
27
4
9
13
6
8
4
0
1
22
6
14
2
6
5
4
8
6
7
9
12
11
1
6
9
1
4
24
0
4
23
4
5
5
4
4
14
3
4
7
6
9
5
4
9
12
9
12
14
2
19
0
6
17
8
4
1
14
21
2
2
15
10
7
25
10
4
5
12
1
2
7
17
15
2
4
5
18
8
11
5
13
8
5
6
8
4
4
6
6
10
1
8
6
9
18
17
1
7
1
4
1
14
18
16
13
3
8
12
7
11
7
2
7
5
4
13
2
5
2
9
13
4
2
3
19
7
7
7
18
8
8
8
17
1
18
18
6
10
2
0
18
15
17
11
3
0
10
10
4
3
8
4
14
4
3
6
13
14
4
7
5
23
5
0
3
8
1
1
3
9
2
2
2
2
5
0
12
5
9
13
10
5
8
1
0
2
14
8
3
4
4
7
4
2
8
13
7
5
13
7
10
2
8
2
12
5
25
5
3
15
5
16
6
8
11
8
12
8
16
3
9
7
3
7
7
5
8
7
17
7
2
2
5
7
2
1
9
9
15
4
0
14
13
4
2
6
14
6
5
18
6
2
17
15
1
7
12
5
16
8
5
12
2
12
10
1
8
7
11
1
9
2
6
4
2
7
9
17
4
11
18
1
10
9
7
20
4
18
23
14
5
4
3
2
5
6
3
7
9
3
0
4
3
1
7
2
3
1
10
3
14
7
4
18
9
6
1
16
2
6
1
12
4
7
2
3
4
5
19
6
5
6
7
14
3
10
16
4
17
3
4
0
6
6
13
19
10
12
6
5
16
6
7
3
3
2
11
10
1
6
10
10
9
6
8
3
1
3
1
4
1
1
1
0
6
2
19
18
4
13
4
5
22
5
3
4
10
19
7
0
0
2
5
3
6
12
3
1
1
0
4
5
8
2
11
5
9
2
5
5
13
8
7
9
17
6
12
10
17
13
3
1
8
12
9
9
4
5
3
4
6
2
20
4
11
8
7
9
5
3
21
9
11
6
4
9
17
9
10
2
4
5
14
0
15
8
2
2
4
3
4
7
3
2
4
23
2
0
3
3
6
3
5
8
6
2
12
11
2
13
6
2
12
0
10
13
4
15
16
13
2
4
1
12
6
15
3
4
7
6
14
5
6
2
10
7
2
1
2
3
9
1
18
3
2
5
9
6
2
13
8
1
5
10
1
16
4
9
13
16
7
6
7
6
9
8
5
3
1
1
5
4
2
9
5
8
5
7
3
15
0
10
13
7
8
11
3
5
1
11
0
5
4
1
4
14
16
4
2
2
4
1
4
1
10
6
10
11
11
1
8
16
7
13
12
3
17
17
5
2
11
2
1
5
6
2
7
4
6
12
1
7
10
2
7
1
9
0
2
7
20
9
13
11
4
16
17
4
2
8
15
6
1
18
5
13
2
2
4
3
4
3
5
19
6
0
0
9
6
11
9
4
6
3
5
1
6
7
3
6
18
12
26
3
21
0
5
12
8
10
16
7
4
18
28
3
2
5
3
5
6
10
1
5
1
14
2
8
2
10
9
13
8
0
11
4
5
8
2
4
12
1
6
4
10
2
19
4
3
8
0
4
5
6
2
5
2
1
5
6
9
1
3
6
1
3
6
7
7
6
14
13
12
5
5
4
4
7
3
3
0
9
7
2
5
3
23
10
11
8
5
4
1
4
0
1
1
5
1
7
10
28
5
6
0
7
11
2
2
2
3
8
10
5
5
13
8
13
10
10
16
6
5
5
2
1
0
1
6
6
15
8
6
6
10
4
14
4
11
12
9
1
4
16
6
3
10
6
11
5
5
6
11
8
16
14
3
6
14
7
12
8
0
5
11
26
12
3
5
4
4
4
14
0
12
12
14
9
14
7
10
11
0
8
1
12
11
7
6
2
20
4
1
1
18
3
6
5
4
4
19
2
7
5
13
4
15
6
7
8
8
10
4
2
5
13
8
15
11
4
8
2
17
2
20
7
14
9
4
8
23
7
5
2
9
7
1
3
10
3
7
4
2
6
7
11
2
12
5
5
3
9
7
9
11
11
3
3
4
19
13
7
11
2
3
6
5
10
11
2
5
2
5
21
2
10
12
4
3
1
12
3
6
0
15
17
10
6
1
3
3
6
14
7
19
8
2
5
7
15
6
2
11
8
11
6
6
6
8
7
8
5
2
12
4
1
2
10
4
21
14
3
5
16
8
4
5
5
5
2
12
4
15
5
1
3
2
4
24
17
2
15
10
3
5
10
3
9
0
7
7
0
5
11
2
9
1
10
3
3
1
17
12
7
19
8
10
11
5
5
12
6
8
1
1
2
8
3
3
21
11
3
6
5
3
3
9
2
5
5
2
3
14
0
13
9
8
18
4
9
2
13
8
1
13
5
10
6
3
5
10
1
5
13
2
11
2
6
3
6
6
5
8
12
10
7
5
3
6
3
8
0
12
1
0
8
20
7
10
4
13
3
13
2
2
8
7
5
1
8
5
5
9
2
4
12
11
5
12
7
5
4
9
3
5
13
17
5
10
13
11
6
0
5
3
3
3
9
13
7
15
5
0
13
4
0
5
5
2
17
17
3
4
3
8
10
1
28
12
18
6
3
9
1
4
17
0
21
0
2
14
3
3
5
5
16
3
5
10
8
1
5
1
2
7
3
10
8
0
1
7
4
3
12
17
11
6
6
4
3
7
12
5
9
4
18
20
21
0
3
8
1
2
5
0
3
3
8
6
1
5
3
3
13
17
4
8
1
4
12
12
1
1
1
17
3
7
1
5
6
5
27
0
1
3
9
7
5
11
3
13
2
3
5
5
5
3
4
11
4
11
3
0
10
3
2
1
17
18
2
2
5
8
4
4
4
4
9
8
7
6
0
5
5
18
0
6
7
3
6
5
0
7
4
5
12
14
5
3
11
13
1
5
9
23
8
12
8
2
1
11
15
2
10
2
16
7
16
24
15
11
6
6
5
2
3
10
3
13
16
3
2
7
7
15
9
3
6
3
3
5
5
5
4
2
0
8
7
5
9
8
18
12
6
5
2
8
7
6
9
20
7
8
15
5
5
8
20
2
4
13
21
17
15
4
4
2
16
0
3
17
7
3
13
0
15
19
2
5
11
4
2
2
0
3
3
8
15
10
14
6
10
2
10
16
10
6
6
20
22
8
15
5
4
11
4
0
10
3
6
5
0
3
12
14
12
1
10
2
5
4
5
2
9
12
5
7
2
8
7
15
3
3
9
2
6
9
4
2
6
6
4
6
19
3
7
5
5
4
1
5
2
17
1
7
5
3
1
18
7
7
8
5
9
15
5
0
14
5
2
5
15
21
16
2
8
1
3
8
6
1
5
7
14
9
2
6
9
21
9
4
2
15
14
1
8
7
6
0
5
4
5
17
7
7
2
7
5
17
13
5
7
6
9
9
3
6
7
12
9
2
0
0
22
3
9
3
7
11
2
2
11
4
3
2
4
5
15
13
9
6
12
0
11
2
3
4
11
0
4
12
5
12
4
2
12
4
7
1
1
1
5
15
8
9
7
5
15
11
7
6
13
9
11
4
8
2
2
3
5
8
7
3
15
13
18
15
4
0
2
2
2
6
2
1
9
10
7
15
19
0
1
11
7
6
12
11
13
7
6
8
4
3
16
1
10
1
1
1
0
10
3
1
3
6
10
1
4
15
11
5
10
2
9
9
4
7
1
11
9
2
1
1
2
2
2
0
5
1
3
0
3
1
3
2
7
6
5
12
21
6
12
10
2
0
0
6
4
1
5
7
2
4
7
10
12
4
9
3
2
1
16
9
13
7
13
16
13
11
9
0
5
10
7
7
3
7
6
3
0
9
12
4
5
17
8
18
5
1
11
3
3
1
7
5
11
6
2
10
11
8
2
19
10
5
11
3
3
12
1
6
12
6
3
9
18
5
6
9
5
8
0
5
5
7
5
3
4
1
5
4
2
6
10
5
4
4
9
2
13
6
1
11
8
4
8
2
2
1
10
7
0
5
3
5
5
1
3
14
2
6
0
19
9
3
16
4
13
13
1
7
13
5
1
3
4
0
2
2
7
6
14
2
7
7
14
16
18
3
16
4
14
5
7
6
7
5
5
3
12
15
5
4
7
9
5
2
2
9
5
8
4
14
3
3
7
18
2
4
4
2
3
0
3
5
12
6
4
0
9
6
12
1
7
9
13
13
2
7
7
1
6
8
17
12
6
13
14
2
12
5
9
7
7
13
3
5
4
4
10
2
0
1
7
9
4
0
5
3
6
7
6
2
15
7
16
10
4
7
4
5
6
13
6
9
7
4
3
7
6
18
4
7
1
9
4
5
11
9
4
16
11
4
9
1
14
2
3
2
3
11
1
11
1
5
12
4
2
2
1
6
3
0
13
4
4
12
6
2
8
9
1
4
18
4
10
2
0
2
8
16
13
2
1
0
5
3
2
14
1
13
2
23
2
17
4
0
6
10
0
0
19
9
3
9
21
3
3
5
6
3
7
14
5
7
4
4
12
3
0
6
1
1
2
4
12
12
5
8
8
3
4
0
9
9
4
3
0
17
2
12
4
3
4
13
1
1
3
12
2
7
3
5
3
12
11
5
3
3
10
2
2
17
4
4
2
4
2
1
4
3
15
4
4
5
7
2
2
0
6
3
10
1
11
7
3
3
5
7
2
7
0
10
0
1
8
14
7
4
12
12
13
7
5
2
5
2
6
2
3
2
5
10
10
10
1
12
10
11
6
5
6
7
5
4
12
8
6
1
16
8
14
8
1
3
12
0
4
12
4
0
1
3
0
14
15
0
14
4
6
10
4
8
10
2
0
7
10
12
20
1
3
6
3
9
8
8
19
2
18
11
0
8
2
0
0
5
13
0
1
3
0
0
4
6
13
1
1
6
10
8
8
1
2
17
6
5
23
13
3
4
10
3
1
2
4
3
2
11
0
13
0
3
8
9
8
2
0
9
7
1
4
6
4
11
6
9
6
1
0
8
7
10
0
9
4
1
6
11
2
1
2
3
7
3
7
15
8
3
11
11
5
6
14
12
14
3
8
1
5
1
9
2
11
0
11
7
11
7
15
4
6
14
7
17
2
1
5
9
9
4
1
2
4
8
1
6
7
9
20
8
7
10
4
7
3
0
8
8
6
1
1
3
11
10
11
4
9
5
7
3
10
12
10
1
11
5
3
4
1
13
5
2
7
9
1
4
5
5
2
15
13
1
1
5
4
7
5
8
17
7
12
9
1
3
2
1
0
1
6
3
2
8
2
2
5
16
11
11
0
0
4
7
5
2
13
7
12
6
9
1
1
6
11
6
4
7
2
3
2
2
4
4
2
11
6
7
11
2
5
6
6
4
5
3
5
7
7
17
3
9
8
1
14
7
10
9
4
1
6
5
0
7
3
4
3
1
13
5
1
10
6
5
3
1
2
14
7
3
5
6
12
2
10
10
7
8
1
2
2
11
0
4
6
1
5
2
5
3
2
11
0
0
4
5
2
4
14
20
7
2
4
7
2
9
6
4
19
5
4
2
2
6
5
8
7
0
5
1
2
7
1
11
3
7
11
5
2
11
13
7
2
9
1
9
2
3
6
3
2
8
1
4
18
5
3
3
3
2
9
5
1
5
3
6
5
4
6
4
10
11
7
10
5
7
2
7
0
2
1
3
10
8
6
3
4
11
10
2
5
2
1
11
0
8
5
5
0
2
2
9
7
2
3
5
1
1
3
0
1
18
7
6
8
12
8
1
6
4
12
5
1
2
6
2
8
1
12
5
8
3
10
8
0
4
5
7
11
11
4
3
16
13
5
10
6
3
8
2
2
15
8
7
3
6
1
2
2
9
2
8
9
11
14
14
2
9
13
4
3
7
4
9
4
5
1
3
10
8
4
5
4
4
18
2
9
0
9
7
7
4
3
5
1
1
5
8
6
4
1
12
0
14
17
9
4
3
5
7
2
4
13
5
4
13
2
2
1
3
4
1
7
1
0
4
1
7
11
8
2
11
11
5
0
0
0
1
4
10
2
4
2
2
1
7
3
4
7
6
7
7
8
3
11
10
15
15
5
17
11
4
3
5
12
7
2
4
4
2
3
3
2
3
0
2
1
4
10
3
3
5
10
2
5
7
2
3
5
9
8
6
5
13
2
3
15
9
5
0
16
2
11
9
3
2
8
15
2
1
3
8
3
1
4
0
0
6
9
1
1
4
9
3
3
4
7
1
7
0
9
5
4
1
1
5
4
7
6
4
12
10
8
8
2
2
6
0
2
9
9
6
11
3
1
6
8
4
6
2
7
21
2
2
5
9
4
9
11
9
4
4
14
4
6
6
6
3
3
2
3
1
7
8
9
5
11
1
3
5
10
1
3
7
7
7
12
1
2
2
13
1
6
4
2
1
6
12
13
11
5
1
15
6
3
5
2
12
2
8
1
5
6
0
4
7
6
10
3
12
8
4
8
4
14
2
5
5
3
3
5
10
6
5
7
10
4
9
5
3
6
4
6
14
10
2
3
6
6
3
2
11
6
10
3
2
6
3
0
2
3
1
9
2
2
5
1
1
12
5
1
0
2
5
4
3
0
11
1
4
9
8
10
3
3
5
24
5
10
10
8
7
2
3
2
4
2
13
4
7
2
1
2
5
7
4
2
6
6
1
5
3
6
15
1
4
5
9
0
2
5
2
9
3
1
8
1
6
22
5
7
2
14
1
7
0
2
8
5
3
9
0
3
1
9
1
5
1
2
9
17
6
4
0
5
1
3
0
12
4
2
12
3
1
4
9
2
8
11
10
2
4
1
7
6
5
2
7
1
0
0
3
7
1
1
12
3
13
0
0
3
4
1
0
17
11
1
5
5
4
4
3
2
5
10
3
6
15
1
10
4
4
3
0
7
9
6
0
8
11
8
2
1
4
1
0
11
1
6
13
14
4
5
2
11
0
14
2
13
11
17
5
4
12
1
6
6
16
2
0
5
4
3
3
2
1
5
11
8
9
12
3
5
5
5
2
2
7
12
11
1
7
5
1
2
3
13
3
2
2
12
2
6
3
9
9
0
10
3
0
0
10
1
7
8
2
4
12
11
2
1
3
6
6
0
10
5
9
14
0
4
8
6
2
11
12
1
10
23
22
4
2
6
3
5
3
10
4
2
0
3
3
12
3
10
5
4
2
13
1
4
11
12
0
1
20
3
0
2
6
6
1
10
10
13
6
11
10
3
9
4
4
9
6
5
9
13
8
13
7
9
7
2
7
7
6
0
2
3
8
2
8
4
7
11
6
3
6
4
5
3
5
14
8
17
0
7
14
3
1
12
14
5
4
3
3
10
15
4
4
2
7
6
5
3
5
8
5
7
3
2
8
1
17
0
5
8
5
8
5
6
11
10
11
5
5
3
5
9
6
3
7
4
11
6
7
6
3
5
5
4
0
6
9
1
2
5
9
4
7
2
17
1
15
0
8
3
3
8
12
13
0
7
1
0
2
2
5
10
2
9
1
12
4
5
8
21
3
2
6
6
7
2
5
8
3
1
0
4
16
5
1
10
0
1
5
1
6
23
10
3
0
8
8
10
2
0
5
7
7
3
8
7
5
3
11
6
5
2
3
8
4
10
0
1
7
27
0
0
2
3
3
5
1
0
10
9
5
10
6
3
0
5
3
5
2
7
3
5
2
6
5
4
18
1
1
6
9
5
4
9
2
0
9
2
1
4
9
4
1
9
6
7
9
2
5
4
0
17
5
11
4
15
4
10
1
2
8
6
6
3
3
6
8
1
1
1
3
6
3
5
1
1
2
8
7
5
14
2
4
7
5
3
2
12
8
10
5
1
6
8
2
1
10
3
2
1
10
2
3
13
7
0
3
12
9
4
14
6
10
1
7
5
9
9
2
5
2
0
12
1
8
7
9
1
2
2
1
0
0
0
0
7
3
4
5
3
2
5
4
11
2
12
12
1
3
1
1
1
2
0
2
6
2
4
2
10
1
9
5
2
1
5
3
9
0
2
6
10
5
1
4
2
1
6
2
7
0
8
5
4
1
0
9
14
7
2
0
6
2
8
8
11
8
4
1
7
2
5
0
5
7
14
2
3
2
4
2
0
9
3
6
4
8
9
3
17
3
2
6
5
4
1
1
2
20
1
8
4
10
5
5
6
11
9
2
1
6
5
7
4
1
4
3
4
1
5
3
15
5
5
5
7
0
13
10
5
9
10
2
9
3
1
12
2
7
12
7
2
2
1
0
5
9
8
6
2
6
8
8
3
5
5
2
10
7
5
6
1
11
2
2
4
1
3
6
0
7
4
15
9
1
1
0
0
2
1
13
4
2
16
4
5
6
0
6
1
5
7
0
7
8
5
0
7
4
0
0
3
1
3
2
2
6
5
2
2
1
6
15
1
1
3
6
0
6
6
8
13
2
8
2
5
5
5
0
1
5
12
8
5
12
10
2
3
3
4
6
7
5
3
5
4
13
0
7
4
2
5
13
0
0
1
11
0
7
3
2
2
5
3
10
0
10
4
5
20
2
5
4
8
7
16
5
7
5
4
1
5
2
2
7
7
15
8
3
11
10
6
10
13
2
3
0
2
4
4
2
1
0
3
7
0
3
4
5
1
4
0
13
1
1
6
9
0
2
2
2
1
4
15
4
2
1
1
6
3
11
1
3
8
3
2
11
6
2
4
7
13
12
4
7
6
3
5
4
1
3
5
1
1
5
3
2
0
2
2
7
8
4
0
1
8
7
3
4
3
2
8
4
10
2
2
1
4
3
2
6
7
4
4
3
3
4
9
3
1
2
7
10
7
13
2
1
3
5
8
6
6
2
3
4
4
6
6
4
13
9
6
1
0
0
1
0
3
6
1
7
1
7
1
4
3
1
2
2
7
1
6
3
0
3
2
5
2
1
5
3
13
12
9
9
0
6
1
18
4
10
7
9
7
4
5
2
4
9
2
2
7
0
13
1
15
7
2
2
3
2
3
11
2
1
3
11
11
2
19
5
3
6
7
7
1
6
20
3
1
4
18
3
7
6
3
4
5
7
7
3
0
12
6
0
2
2
5
7
0
8
5
8
4
2
3
10
9
5
1
0
15
9
10
11
13
2
3
3
2
9
4
5
4
2
1
4
0
1
10
4
1
2
4
9
10
1
3
3
1
4
6
3
4
4
1
2
4
3
2
4
1
4
12
9
7
0
19
11
3
13
7
1
9
6
5
6
1
2
6
6
5
6
0
4
1
4
1
5
5
2
9
1
12
7
0
5
4
3
1
11
8
9
15
0
2
15
9
8
8
9
2
1
2
2
6
6
5
6
2
2
4
12
3
8
0
7
2
3
8
3
6
8
3
3
3
15
1
2
5
7
13
1
1
9
6
8
1
7
4
2
3
18
3
9
6
3
0
6
9
4
3
1
14
4
7
6
0
15
7
8
2
7
8
3
3
2
3
1
0
5
3
1
13
6
0
4
3
5
1
8
6
6
14
4
0
2
8
1
3
8
3
8
1
2
5
8
12
5
6
1
3
7
6
2
3
6
3
1
0
9
1
3
3
6
4
4
7
7
8
16
1
13
12
2
1
13
3
15
4
0
3
0
8
2
0
1
7
3
1
2
6
1
4
6
2
5
6
1
1
3
6
9
4
4
6
11
4
2
1
8
12
4
2
3
11
4
6
8
10
4
4
8
9
1
8
1
3
6
6
8
4
6
1
15
7
6
0
6
11
4
7
8
4
12
6
6
5
5
0
3
3
3
3
7
3
0
2
3
6
3
0
1
2
5
4
0
6
4
2
7
3
2
4
3
2
5
6
8
4
6
2
1
1
4
4
5
1
0
8
5
9
5
13
7
1
11
9
4
10
4
3
7
7
6
4
1
5
3
10
10
4
5
0
1
11
1
2
0
5
5
4
6
2
4
6
4
3
2
16
1
6
4
7
1
4
10
1
10
6
0
0
5
4
6
2
6
2
1
4
4
5
2
4
17
15
11
1
3
4
2
3
10
0
7
4
5
1
4
3
9
6
6
2
10
2
10
2
4
4
0
6
6
6
3
7
10
4
1
3
4
2
5
8
6
3
10
12
13
5
3
1
1
6
3
1
6
2
6
4
4
3
4
3
2
6
1
2
3
1
6
2
6
6
11
7
3
0
1
2
9
3
5
3
3
0
16
0
13
8
11
4
2
7
0
8
5
11
2
17
1
5
1
9
5
7
9
2
1
3
1
11
7
13
5
2
8
7
2
6
3
0
2
5
6
0
3
2
16
3
5
5
6
5
4
1
6
2
5
6
1
8
7
8
6
4
6
6
2
10
0
1
11
8
4
10
4
4
0
1
1
7
5
2
5
2
4
14
9
6
5
5
6
7
5
2
4
10
12
3
4
10
20
17
5
4
9
4
10
0
7
4
0
2
3
7
4
10
6
2
3
2
1
2
4
5
14
1
3
13
3
0
7
0
4
2
3
2
2
9
2
7
10
3
2
3
6
2
10
6
1
4
10
1
4
2
1
3
7
5
3
7
1
23
3
0
11
2
2
7
10
3
8
8
16
8
1
2
2
5
7
0
11
1
3
2
5
8
4
3
4
2
1
2
6
2
3
2
2
0
5
2
8
1
8
8
2
1
2
6
2
5
8
2
5
3
3
2
3
1
12
2
1
6
2
3
5
18
1
2
3
7
5
3
0
8
5
2
3
3
3
0
3
8
9
3
1
18
9
2
2
11
2
3
3
6
5
0
5
3
7
13
21
8
4
4
9
4
1
7
3
6
5
3
2
5
2
1
13
5
4
2
2
2
10
8
2
3
2
10
0
7
10
4
3
4
4
6
2
3
1
1
5
3
5
4
8
6
4
3
2
2
5
7
7
0
5
1
4
1
4
1
1
3
3
2
2
3
0
12
2
0
11
2
6
1
9
4
8
5
2
1
3
4
8
3
7
1
13
5
7
8
11
5
4
6
1
5
3
2
1
6
3
7
12
4
6
6
3
7
0
5
8
2
6
3
4
1
0
3
11
9
18
6
2
3
9
6
1
2
11
0
2
8
3
2
8
1
6
4
1
7
11
7
2
5
0
0
8
7
0
0
11
3
11
9
5
3
3
5
1
2
8
5
10
10
4
11
3
3
0
8
6
14
8
16
13
3
13
1
12
4
1
1
1
3
12
9
4
2
12
4
8
15
5
2
11
2
8
7
14
7
15
3
1
2
8
6
6
5
9
14
10
7
12
4
2
3
5
5
8
8
6
8
9
2
17
0
5
5
7
3
4
6
2
5
4
9
0
2
4
5
9
3
1
4
7
4
5
7
0
3
10
2
0
1
1
2
0
3
4
6
1
1
3
8
3
4
4
0
2
12
9
6
6
2
0
1
4
4
5
1
7
2
7
3
10
6
1
2
5
3
4
5
2
2
2
0
4
1
4
3
6
1
3
5
6
1
2
0
1
2
0
4
10
2
6
3
1
1
0
6
3
1
8
8
8
6
4
1
3
0
4
3
2
12
4
3
0
14
6
18
3
3
12
5
5
8
3
2
11
0
3
8
2
1
1
1
1
4
4
2
6
3
5
6
1
0
8
9
8
2
3
1
6
6
17
9
3
9
1
1
2
0
2
3
1
9
3
4
1
9
2
5
6
5
13
4
1
1
11
2
14
2
1
4
0
2
8
6
5
5
4
7
10
0
13
0
8
8
4
4
3
7
11
7
5
0
4
10
3
2
5
3
4
2
5
6
13
15
9
4
0
4
6
7
7
0
0
11
1
9
4
7
2
2
2
1
1
4
2
6
3
4
5
5
0
0
3
11
0
2
1
4
10
3
12
2
1
7
3
4
13
0
5
1
0
1
0
1
1
6
1
0
8
2
11
13
2
2
3
6
5
9
4
8
1
1
10
7
4
1
11
1
0
1
4
11
0
13
9
0
5
2
0
4
12
3
1
7
1
0
2
6
1
3
3
1
5
8
11
8
8
5
5
5
10
2
5
4
2
9
6
5
8
4
1
9
8
14
0
4
3
0
0
1
5
15
2
6
10
1
6
6
6
7
8
2
13
4
11
1
0
5
6
3
13
15
2
5
2
3
2
12
1
9
2
2
5
2
1
1
4
10
3
3
7
3
3
1
5
10
0
3
1
7
1
11
1
3
15
5
6
6
4
6
6
8
4
2
1
5
5
6
2
3
0
4
2
2
1
3
0
2
4
2
0
4
2
2
6
2
4
1
6
10
4
8
2
6
8
1
3
6
1
6
7
4
11
3
8
0
13
13
5
1
10
9
0
3
2
5
2
11
2
2
11
0
4
5
2
1
1
2
6
5
1
4
8
0
1
5
2
6
0
2
0
0
10
3
4
7
13
15
10
2
4
10
20
1
3
4
4
11
10
2
5
2
2
6
4
6
1
4
4
1
1
2
2
2
6
15
4
12
10
8
13
9
8
9
6
5
2
0
2
2
5
0
5
4
0
5
3
8
3
1
3
3
1
7
4
0
0
1
10
1
5
15
3
1
0
7
12
3
0
5
2
7
4
8
3
8
1
5
3
8
1
1
14
14
10
3
3
7
1
1
5
5
0
3
7
2
1
3
11
4
1
9
5
1
1
5
3
4
3
4
8
0
1
6
5
1
3
5
0
4
3
0
1
5
5
4
9
5
7
1
6
5
5
3
2
2
4
0
2
7
3
1
3
8
6
4
0
7
8
3
1
8
5
0
4
2
2
7
0
4
0
5
5
11
14
2
2
3
1
2
6
8
1
3
5
7
3
4
3
7
5
1
4
17
4
1
1
9
6
6
0
16
11
4
0
9
2
3
0
0
0
1
7
3
4
11
9
1
1
3
11
5
2
8
6
1
8
5
1
1
1
7
4
5
0
2
3
0
1
8
1
3
1
1
3
1
6
5
10
1
2
10
1
6
16
4
8
5
8
3
2
3
3
2
2
0
4
2
4
3
1
0
6
14
5
0
0
11
11
5
4
4
2
0
3
3
1
3
6
5
7
11
19
6
2
1
11
7
6
9
10
2
1
18
9
3
1
17
3
1
3
0
6
6
1
0
13
5
1
5
9
5
3
4
5
3
8
1
1
4
6
1
6
2
2
7
10
4
3
14
2
4
5
1
4
2
6
12
1
1
7
4
2
5
12
5
1
11
0
6
7
0
2
10
2
1
0
2
2
2
5
13
3
11
2
1
2
8
3
2
4
9
1
3
4
2
1
0
2
4
4
1
7
3
4
3
4
7
1
0
0
3
3
0
5
1
1
1
6
4
8
7
0
7
13
1
7
1
7
9
14
1
2
3
9
1
13
5
2
0
4
5
2
3
12
1
16
9
0
6
5
3
1
0
4
3
0
0
7
8
8
0
2
8
1
3
1
2
5
2
6
11
15
14
9
4
13
12
4
8
0
11
2
12
9
3
10
5
2
4
1
3
2
1
3
1
0
9
5
2
4
2
2
0
1
7
3
0
2
9
4
12
6
6
2
0
9
4
12
5
10
4
3
9
1
4
7
1
3
0
6
4
7
3
9
6
2
4
6
3
3
8
6
3
2
4
9
1
5
4
2
0
5
5
9
8
3
5
3
11
3
2
0
2
8
1
6
2
0
18
14
1
7
3
10
2
2
2
2
3
5
1
2
8
7
6
6
2
2
1
12
8
5
1
1
1
0
6
6
1
4
10
0
3
2
12
4
6
4
6
8
2
2
0
11
7
3
4
6
7
2
5
5
2
0
1
0
7
1
0
4
4
2
1
4
3
8
16
4
16
11
3
0
0
0
5
2
4
1
17
5
11
0
8
10
0
7
3
2
6
10
1
2
1
5
5
13
5
6
9
3
1
2
1
6
3
2
4
2
1
1
1
7
13
1
1
2
12
3
9
0
7
3
2
0
0
0
0
6
4
1
1
15
0
2
4
15
2
12
17
11
0
1
5
1
0
2
0
1
11
0
5
1
13
3
7
0
5
12
8
2
0
2
1
6
1
3
4
4
2
5
10
1
1
6
9
9
4
7
5
4
0
8
8
5
2
5
4
0
5
3
2
7
4
0
13
1
6
6
3
6
2
0
3
4
6
7
3
2
1
0
2
2
10
4
2
3
7
0
5
2
6
5
1
4
5
3
5
3
4
4
8
1
2
1
0
0
9
3
0
4
4
7
3
2
11
0
4
4
14
3
2
6
1
2
3
2
4
3
5
3
3
7
8
3
6
1
2
2
4
9
1
7
3
4
1
4
5
7
1
5
9
17
3
11
6
1
2
7
5
8
1
4
5
7
4
2
1
5
2
3
1
4
6
3
14
2
0
4
5
5
1
2
2
0
6
1
4
6
2
2
0
7
12
1
0
5
6
5
7
5
0
0
4
3
2
4
0
3
3
3
1
3
7
5
4
3
3
2
2
9
0
1
1
0
6
4
3
0
5
7
7
4
5
4
7
2
9
1
1
1
1
3
2
13
4
3
4
2
0
3
5
3
9
1
8
3
2
2
6
0
6
3
2
5
7
6
1
7
10
3
1
3
2
9
5
3
0
4
2
0
10
11
1
2
4
6
10
0
2
3
1
5
5
3
0
8
1
0
4
3
11
4
1
7
5
10
2
5
11
2
7
1
4
6
6
1
3
6
9
9
4
4
4
0
0
2
2
2
10
6
0
0
4
1
1
3
1
5
5
1
3
3
3
2
0
1
1
1
1
0
2
4
9
10
1
8
2
2
0
4
1
0
0
1
3
1
2
10
4
10
3
1
6
6
0
2
0
8
2
5
6
3
9
17
10
2
2
8
3
0
4
4
2
5
1
1
2
3
3
9
3
4
6
5
6
9
6
2
1
2
6
9
6
3
4
6
1
2
2
4
0
3
1
1
3
9
3
0
2
1
0
0
3
1
4
5
4
0
4
11
3
6
5
6
4
1
4
2
1
1
0
0
7
5
10
4
3
1
11
1
3
7
5
4
1
1
0
1
3
2
1
1
3
0
4
6
2
10
0
2
3
3
5
1
3
3
4
15
1
1
5
8
1
5
0
4
4
3
1
4
1
0
11
0
4
1
7
1
2
5
6
2
9
2
0
3
5
1
2
0
2
3
3
1
6
3
8
5
1
2
1
1
8
1
1
5
3
3
3
0
1
1
2
0
0
0
4
0
8
3
1
2
2
3
0
3
1
0
1
0
3
9
0
5
6
10
8
7
0
6
2
7
7
1
4
3
2
1
0
8
5
7
2
4
0
14
3
2
0
4
6
5
1
1
14
0
1
3
7
2
4
4
8
5
4
1
9
3
8
7
4
1
3
5
1
1
0
0
1
3
5
1
2
3
3
0
1
0
6
7
5
6
1
3
12
1
2
6
0
3
3
5
0
7
6
0
3
3
2
4
2
8
11
0
11
4
2
1
2
0
5
11
9
2
4
2
2
1
2
1
13
6
7
1
0
2
4
0
8
2
0
9
14
5
3
8
4
3
4
0
1
3
7
3
4
2
7
5
7
2
2
0
4
3
4
7
1
6
6
1
6
6
3
2
0
6
1
10
0
4
5
2
5
4
2
3
3
3
4
2
5
7
2
8
2
0
5
0
3
0
6
0
0
4
5
2
10
1
8
7
8
2
3
1
5
1
2
8
0
4
1
1
2
4
0
3
0
6
8
0
6
2
2
2
3
4
0
4
3
2
8
1
3
15
7
2
9
0
1
2
0
1
0
1
8
5
3
1
2
1
1
2
4
1
2
0
10
2
3
1
3
6
5
2
4
10
0
7
7
2
0
1
11
0
2
9
3
5
7
4
9
4
4
2
6
9
2
2
11
6
1
5
8
3
18
6
10
8
9
9
3
5
3
4
5
2
0
3
2
5
5
3
8
2
1
6
3
1
4
1
2
0
1
3
0
3
8
7
1
0
1
0
2
10
5
3
2
4
1
1
8
5
4
3
2
1
0
5
3
4
6
2
3
2
0
6
1
1
4
2
1
6
7
8
1
11
1
3
4
3
0
3
3
3
1
3
2
13
6
13
4
4
3
3
6
5
5
1
5
14
1
1
3
12
1
3
1
5
4
2
3
1
3
2
5
10
2
0
12
7
3
0
15
9
3
1
5
2
2
1
4
0
3
2
3
0
3
3
1
7
4
3
1
0
5
7
5
1
7
3
2
3
2
2
1
5
6
2
3
0
0
9
11
3
0
5
3
2
2
2
6
2
4
0
3
7
7
1
4
2
5
8
2
2
7
4
7
2
6
2
5
2
3
6
1
4
4
4
11
4
0
6
8
9
3
0
4
4
7
6
5
1
0
0
6
1
4
0
0
0
2
4
16
7
3
8
6
2
4
1
3
9
6
6
1
1
3
1
1
3
1
0
4
1
3
3
6
6
6
0
1
0
1
1
6
7
2
4
0
2
1
3
0
9
6
9
2
3
2
3
6
2
6
5
0
2
1
3
6
11
3
5
15
5
3
4
8
1
1
8
2
0
6
7
0
0
5
7
0
0
0
4
1
7
2
0
5
0
1
4
4
3
8
7
10
5
3
5
4
3
0
4
6
0
2
10
0
1
0
2
2
5
9
2
2
7
3
8
3
8
10
1
1
4
3
5
0
1
3
0
6
3
1
1
2
3
1
4
5
0
1
4
3
6
3
2
5
1
0
2
4
8
2
9
2
10
6
4
0
2
3
7
4
5
0
3
2
12
0
0
10
4
3
1
4
2
5
3
1
3
1
7
1
2
1
5
1
12
9
7
5
2
2
0
2
3
2
4
1
4
2
5
1
4
8
2
0
4
5
0
3
5
5
2
5
3
15
3
2
7
5
0
1
2
7
2
4
4
3
2
4
0
5
1
10
0
12
6
4
2
9
1
0
4
8
3
1
4
2
0
2
2
0
1
3
2
0
2
0
4
2
10
4
1
5
3
1
0
10
2
3
4
4
1
2
0
4
1
1
2
16
1
1
1
2
6
0
1
3
2
3
10
4
0
1
1
4
3
2
6
4
13
3
7
1
1
4
5
6
11
1
4
3
2
6
4
1
1
4
5
1
1
9
2
3
7
4
10
3
4
0
7
6
4
4
0
8
2
2
7
0
3
0
6
3
2
2
1
3
2
3
7
1
9
1
7
6
0
3
4
4
3
2
3
8
3
6
6
3
1
7
1
5
3
0
9
6
1
3
9
2
9
3
0
0
3
7
0
8
5
4
0
4
3
8
2
7
1
3
1
3
9
2
1
1
3
6
1
10
0
1
3
0
2
3
0
1
0
8
4
1
2
13
12
8
0
8
3
2
0
0
9
3
2
0
0
4
4
2
4
4
3
1
1
18
8
5
1
3
0
4
5
8
1
3
5
1
0
2
1
5
8
3
0
0
6
5
4
2
2
2
3
5
3
9
2
2
5
2
4
1
1
1
6
5
1
2
1
2
6
4
3
5
1
3
8
5
3
1
1
6
0
0
7
0
0
9
5
0
3
3
0
2
4
5
0
10
1
11
6
4
10
9
0
1
7
2
3
1
5
0
6
0
0
17
10
5
3
1
0
3
8
0
4
0
0
7
12
3
1
5
9
3
4
6
4
0
3
6
7
0
0
1
0
0
0
0
1
9
1
1
0
3
3
7
9
5
3
2
10
1
1
0
1
3
0
3
5
14
2
3
3
4
1
0
0
6
3
4
1
7
0
9
9
1
4
5
8
2
1
3
2
1
2
5
3
2
3
2
0
3
4
10
1
1
5
0
8
1
5
1
4
2
6
7
4
8
3
2
1
1
2
1
1
5
1
3
4
6
5
4
0
4
0
1
1
5
3
2
1
0
1
1
2
4
4
2
9
1
4
14
5
1
1
4
2
8
8
2
2
7
0
3
6
2
7
1
1
1
0
8
3
4
3
11
5
2
7
9
6
5
3
1
5
1
3
4
2
2
8
8
1
0
1
0
2
0
2
4
8
1
6
3
4
4
11
5
1
4
0
2
1
0
1
3
1
10
10
3
3
3
7
1
3
3
2
3
2
4
1
4
1
3
5
1
0
0
2
2
6
3
9
4
0
4
5
1
0
2
2
9
7
4
1
3
8
0
1
2
6
9
1
7
4
0
2
1
1
7
6
3
5
3
3
0
1
1
3
7
10
0
7
3
13
4
3
3
2
3
4
3
0
7
7
19
5
0
0
1
5
2
1
8
4
9
3
2
5
6
4
4
5
1
0
0
8
2
0
0
2
0
11
2
2
1
4
2
5
3
4
7
3
3
6
2
0
0
2
1
3
0
1
0
1
1
7
10
4
7
3
0
7
1
5
1
10
6
4
7
2
3
0
3
7
2
6
1
7
4
6
2
7
5
8
2
1
0
4
1
0
1
1
4
2
0
4
1
1
0
1
1
6
2
6
1
12
0
2
1
3
1
6
1
2
1
2
3
1
0
2
8
3
1
9
9
7
11
2
5
0
2
3
1
3
2
14
1
1
7
4
1
5
1
3
3
6
10
1
6
8
2
1
2
0
2
3
0
3
3
1
7
1
3
5
7
0
1
1
4
3
9
3
0
6
4
4
2
1
1
0
2
2
2
3
3
0
2
1
1
3
1
4
5
0
1
0
4
6
5
7
9
3
3
0
1
6
0
3
5
2
5
0
0
15
15
5
3
7
1
7
6
7
7
2
5
9
4
1
0
1
1
4
7
2
2
0
5
3
1
0
6
9
6
1
1
1
4
3
2
2
3
0
4
1
4
2
6
3
2
1
0
2
0
0
1
2
2
6
6
1
3
7
2
2
1
0
2
7
8
5
1
12
2
2
1
2
0
5
3
1
4
0
0
3
9
1
7
1
1
0
3
5
7
2
1
1
2
8
1
6
1
2
0
1
2
3
3
1
4
2
3
0
4
6
2
1
5
2
1
1
2
4
1
0
4
3
1
2
0
3
3
0
0
5
2
2
1
2
4
2
1
3
4
0
0
0
1
4
1
8
1
1
4
6
4
1
1
0
3
6
11
5
6
0
0
1
6
5
4
5
8
4
5
7
2
4
0
3
2
0
2
5
4
6
6
4
5
1
4
13
2
3
2
5
5
2
7
4
1
7
0
9
1
10
1
2
16
5
4
6
7
2
2
2
5
2
5
1
0
2
1
3
1
2
2
4
21
5
1
0
1
2
4
7
1
2
0
5
2
4
3
2
4
2
2
1
4
1
8
5
2
2
1
3
1
7
0
4
4
0
3
3
3
1
6
3
0
0
0
3
5
4
3
6
1
2
0
6
1
4
6
2
4
4
1
8
4
1
0
0
1
3
3
3
5
6
3
0
4
4
7
3
0
1
1
3
3
0
1
3
1
0
7
2
0
0
1
6
0
0
6
4
5
1
3
1
2
1
1
3
7
0
5
2
6
6
3
3
0
6
7
5
8
3
2
0
6
4
1
1
2
0
2
3
5
6
3
1
7
8
0
1
1
15
11
7
5
1
0
1
0
1
0
4
6
8
1
7
3
6
1
0
1
2
2
4
4
3
1
8
2
7
2
2
3
3
14
4
0
4
1
2
7
6
6
0
2
5
1
0
7
0
2
0
0
4
5
1
5
5
2
2
0
6
0
1
2
0
2
1
3
2
1
1
10
0
3
1
1
4
3
4
1
3
0
0
2
3
0
5
4
1
4
2
7
1
3
1
3
5
0
1
8
3
3
8
0
0
1
2
4
1
7
6
1
3
3
0
2
1
1
1
1
2
4
3
1
2
4
2
5
0
0
0
0
0
2
0
0
0
0
7
6
5
3
0
0
2
1
5
4
4
10
8
1
3
1
4
0
3
1
4
8
0
3
0
1
6
3
3
5
4
0
0
2
3
1
1
1
5
6
2
2
0
16
5
0
8
1
3
3
1
0
0
4
7
5
2
8
7
2
3
4
4
0
4
10
4
0
1
1
0
0
9
2
2
0
3
3
4
4
0
2
1
0
1
1
5
3
0
10
2
4
2
7
1
4
2
2
5
4
2
13
2
0
2
7
0
1
1
0
1
0
1
6
0
3
1
0
4
1
6
4
3
6
5
7
1
5
1
6
10
0
7
2
5
2
3
6
2
8
0
6
2
2
12
2
2
2
6
2
2
2
2
10
0
0
5
0
2
0
6
9
6
4
12
10
11
6
3
1
3
0
5
6
4
1
1
2
2
0
1
3
4
4
0
6
1
3
1
3
0
5
2
1
8
3
7
6
3
2
14
3
1
3
1
0
1
4
1
7
2
9
1
6
3
3
3
3
9
6
2
8
0
0
5
5
3
11
1
0
0
0
1
0
1
1
3
3
0
4
0
4
8
6
5
5
3
8
8
3
3
3
4
6
2
0
1
14
3
10
3
3
2
0
0
1
2
5
2
0
3
0
1
0
0
3
1
2
2
3
7
5
5
8
6
6
8
3
3
1
1
1
3
2
4
8
2
6
1
1
5
8
1
12
3
0
0
0
0
0
12
2
3
3
0
1
5
3
2
0
2
7
1
0
1
1
0
3
1
10
3
7
0
6
1
0
4
0
0
3
0
1
0
2
0
9
0
0
11
5
1
8
0
0
3
1
2
1
0
1
2
4
6
2
4
0
2
4
0
0
0
0
5
6
0
3
14
1
0
0
3
3
0
2
1
2
1
10
3
4
2
3
1
2
13
0
10
4
6
0
3
2
2
3
5
7
0
4
4
0
2
8
1
6
1
0
0
2
0
1
1
2
4
3
2
0
0
4
0
3
0
2
0
3
1
1
4
1
3
4
2
1
2
1
6
1
4
2
6
4
2
0
10
1
4
8
0
1
0
2
4
8
5
5
6
8
5
0
4
8
4
4
1
1
3
6
0
0
0
11
2
1
2
2
3
6
2
0
2
1
0
5
2
3
2
6
4
0
0
2
1
0
4
1
2
2
3
7
0
1
3
3
3
6
6
4
1
4
3
1
6
0
1
4
3
4
1
8
3
8
2
10
1
2
4
1
1
1
0
0
1
0
2
0
8
9
1
2
1
6
3
5
2
4
0
1
9
4
8
2
0
3
1
1
3
0
0
1
5
6
1
1
3
0
14
2
5
4
2
0
1
1
1
3
1
5
1
3
0
3
1
2
5
0
0
0
3
2
5
4
6
0
0
2
7
1
1
0
1
0
2
1
13
0
0
3
8
5
2
5
1
5
8
1
4
2
4
10
0
7
1
5
9
1
1
1
2
3
1
1
3
14
0
1
1
10
6
3
5
2
5
3
4
1
3
3
8
3
5
1
0
3
1
6
13
6
0
0
5
7
8
4
0
2
2
4
1
1
6
7
6
3
1
6
4
8
0
6
3
0
4
3
1
2
0
1
5
1
2
1
0
1
6
1
5
4
1
3
1
1
1
0
0
0
9
0
6
2
2
4
1
2
0
2
4
0
3
3
8
0
0
5
2
5
4
2
3
1
3
1
2
5
1
8
7
7
0
2
5
2
1
2
3
1
7
8
3
10
3
6
1
4
7
2
2
4
5
3
0
7
1
0
0
2
5
0
0
0
0
0
3
7
5
4
3
0
2
1
0
5
1
9
10
2
2
18
14
3
1
5
2
8
5
0
5
2
2
13
7
4
6
2
1
0
0
0
4
3
3
4
1
4
6
2
2
4
1
0
0
4
1
1
4
12
0
5
1
0
0
1
9
1
0
1
3
3
4
0
1
1
8
7
7
8
1
0
0
1
1
2
2
3
5
3
4
0
2
1
0
2
0
4
0
7
0
5
0
2
1
1
1
0
3
8
8
3
6
1
5
3
4
4
5
4
0
1
2
3
3
0
5
0
7
5
3
0
4
1
6
0
2
3
3
1
0
2
0
0
4
7
6
0
0
0
0
2
7
2
7
0
3
4
2
1
4
0
2
0
4
0
1
0
1
5
4
7
4
4
6
4
1
4
1
3
6
2
3
4
3
0
0
6
1
1
3
3
3
3
4
3
5
2
4
6
1
2
1
2
0
3
0
2
0
1
8
2
1
1
1
7
8
2
4
4
4
6
4
1
9
0
11
0
2
1
1
4
2
2
3
4
2
1
1
4
8
3
1
1
0
5
4
0
6
4
0
5
3
3
1
0
1
1
3
0
0
0
1
4
4
4
0
3
5
0
1
6
4
3
3
5
0
4
7
0
3
5
1
6
4
6
0
0
1
2
4
2
0
8
7
0
11
5
2
1
1
0
4
0
1
1
1
2
2
2
1
0
4
7
6
1
4
1
0
0
8
9
5
4
7
0
1
2
1
2
6
0
5
13
4
4
2
2
1
4
3
9
1
1
1
2
0
1
2
5
4
4
1
2
3
1
6
2
0
2
2
2
0
0
1
5
6
0
2
7
2
1
2
7
0
1
1
3
6
5
3
2
0
1
3
6
0
0
1
7
0
0
5
6
4
3
1
1
0
2
0
2
6
4
6
3
1
4
1
0
3
3
1
2
8
0
5
3
7
4
2
2
4
10
0
4
3
6
0
0
1
0
4
1
6
1
1
1
5
3
1
4
3
3
1
1
9
15
14
0
7
3
1
5
6
2
0
1
2
2
5
3
1
3
3
4
0
7
4
0
1
10
2
9
11
3
3
2
6
1
1
2
4
3
1
4
3
1
2
3
2
10
1
0
0
1
0
4
3
5
0
0
4
2
0
2
5
3
1
2
6
1
0
2
8
5
3
3
9
4
0
0
9
1
1
1
12
3
1
6
3
1
8
3
0
3
1
12
1
1
2
4
1
2
9
7
4
0
4
0
2
5
6
2
1
3
6
6
4
1
2
0
2
12
4
0
1
10
5
7
6
7
4
2
1
1
1
1
3
1
1
2
1
0
12
1
3
0
0
11
12
0
0
1
2
3
0
2
1
1
1
0
0
2
0
7
3
0
1
1
2
1
5
2
4
4
6
9
2
0
1
4
1
5
1
2
0
1
0
0
5
5
4
0
0
7
3
3
1
4
6
2
1
1
0
0
2
2
0
2
0
3
2
9
3
8
9
2
3
0
3
5
2
3
4
1
1
0
2
0
3
2
0
1
1
2
2
1
3
0
5
3
6
4
6
6
5
9
6
0
0
3
1
6
12
1
0
1
0
2
7
9
1
6
7
6
1
4
3
6
7
2
1
1
1
1
8
10
3
3
0
6
7
0
4
1
0
0
7
2
2
1
1
8
4
2
3
3
2
2
1
4
2
1
1
3
10
8
0
4
3
4
6
4
2
1
10
2
1
2
1
1
1
1
0
8
3
1
0
0
3
3
2
2
0
5
3
6
7
5
0
0
0
3
4
1
3
0
2
4
3
0
2
0
5
5
4
2
1
4
0
4
1
0
3
0
3
0
0
7
3
2
4
2
7
0
3
4
3
0
4
7
5
7
0
2
2
0
2
5
4
4
0
3
4
5
1
3
7
2
2
1
2
3
3
1
1
1
7
1
4
8
3
1
2
1
2
3
2
5
1
5
1
0
0
4
2
0
0
0
2
9
6
1
0
1
1
2
1
0
5
5
2
4
0
0
0
3
1
1
2
0
10
2
0
8
1
4
6
3
6
1
0
0
4
4
6
4
3
1
4
5
8
1
2
1
1
2
0
4
5
2
6
4
0
0
1
0
6
0
1
2
11
1
5
11
5
4
1
0
1
3
1
4
6
3
4
9
1
1
2
3
6
1
3
2
2
3
4
1
2
0
3
4
0
0
1
3
0
2
0
2
2
1
3
0
0
5
11
1
2
0
4
0
2
2
5
9
3
6
5
13
6
3
2
6
0
0
9
0
3
1
3
4
5
4
14
2
1
6
2
0
0
2
3
9
11
1
0
5
4
0
2
1
6
3
1
4
5
1
0
10
5
4
3
1
6
2
0
2
1
1
2
1
5
4
3
1
0
1
1
0
4
4
4
3
5
0
7
2
2
1
0
5
1
3
3
0
8
1
6
1
2
0
1
4
1
2
0
2
0
1
6
4
3
4
6
10
0
0
4
6
3
5
8
9
3
0
2
1
1
3
0
2
0
3
4
14
5
9
2
4
5
1
0
1
3
1
0
7
6
0
0
1
0
0
3
5
1
7
0
5
8
0
0
3
2
4
3
1
4
3
11
6
0
1
4
1
3
3
5
2
2
6
3
1
6
2
4
10
1
2
1
2
1
3
3
2
8
8
1
8
3
1
6
9
4
3
9
4
6
1
0
1
6
2
8
0
4
2
1
3
3
0
0
1
3
6
5
0
8
4
2
3
6
2
6
3
4
1
5
1
5
5
1
2
2
0
11
3
1
0
3
7
0
3
5
3
2
1
0
0
6
3
1
0
2
0
1
3
3
3
6
2
0
2
2
0
1
0
1
0
4
5
0
0
1
1
2
1
0
0
4
1
0
2
8
3
3
3
2
4
1
1
2
2
1
2
7
4
0
0
5
0
6
0
0
3
0
2
1
1
0
11
2
1
3
5
1
1
1
19
1
1
9
6
3
3
1
1
3
3
4
1
2
3
3
0
7
4
4
2
1
4
3
7
0
1
7
2
1
0
1
2
0
1
4
4
2
3
0
1
0
1
0
1
0
1
1
2
2
3
6
5
0
3
1
3
2
2
0
2
10
0
2
1
4
2
1
0
1
1
0
0
2
0
3
1
2
2
2
4
3
1
3
6
0
1
0
2
0
2
4
0
1
0
3
2
9
2
3
0
0
4
2
0
7
2
7
3
3
2
5
5
5
7
1
3
4
1
5
3
1
0
4
7
6
7
6
0
0
6
1
0
3
2
0
1
2
2
1
4
0
1
6
0
1
0
1
3
3
4
3
0
2
5
2
0
2
1
1
3
3
1
3
3
0
1
0
2
3
0
0
0
2
2
3
1
3
0
0
6
10
1
0
6
2
0
2
4
4
7
1
3
3
1
0
8
1
4
2
0
1
1
0
8
10
4
5
8
5
6
3
2
2
2
1
1
2
5
4
9
1
3
1
3
1
3
2
2
2
0
2
2
3
1
2
5
5
4
1
1
0
4
7
1
1
4
0
1
4
0
1
0
0
1
12
2
0
0
0
9
1
1
1
1
9
1
3
2
1
2
2
12
3
3
4
1
3
1
0
1
6
0
1
5
1
2
0
6
4
6
2
2
5
3
3
2
3
9
2
0
2
0
0
2
3
4
4
0
5
1
2
5
0
4
3
0
0
3
4
0
6
0
3
1
4
4
4
2
2
0
2
2
0
1
1
0
0
1
0
0
5
4
1
2
6
5
0
1
1
5
8
0
1
6
1
1
5
3
0
1
0
5
6
5
2
7
1
2
4
8
1
3
1
2
4
4
5
0
3
4
2
1
9
1
1
1
2
6
2
2
4
5
0
2
0
3
0
0
2
0
9
5
0
1
6
0
3
4
2
0
0
1
0
4
1
1
3
0
2
1
4
5
2
0
2
1
2
0
3
2
1
0
3
6
2
1
3
1
5
2
3
1
8
1
1
2
1
2
1
0
0
2
0
2
3
0
2
2
3
3
2
1
0
0
11
5
1
0
4
1
5
0
8
2
0
6
0
0
6
0
4
1
0
2
2
2
0
2
2
2
8
1
6
0
0
2
5
0
3
2
2
2
0
0
2
0
2
4
2
1
1
0
2
11
3
2
4
9
1
0
1
0
1
0
0
3
1
1
0
6
0
1
3
0
8
2
2
6
5
1
2
1
2
2
7
11
10
9
1
1
5
2
1
6
5
0
2
2
0
2
2
2
3
2
1
1
0
5
2
3
1
2
2
2
1
4
4
1
5
1
6
2
3
11
0
11
2
2
1
5
4
0
3
2
1
2
1
1
8
0
2
9
6
5
1
5
1
2
0
2
2
4
0
1
4
3
2
1
7
3
11
0
3
1
0
1
3
3
0
6
0
6
0
10
0
6
1
2
0
0
9
0
0
3
3
1
0
0
0
0
2
0
0
0
3
3
1
0
1
1
2
5
4
1
3
3
2
0
2
2
2
3
0
6
0
3
0
6
0
6
7
1
0
2
0
2
0
2
1
2
1
2
2
0
7
2
14
11
6
5
11
6
9
3
2
7
4
4
1
5
2
0
0
1
0
3
0
0
6
0
1
3
5
3
0
6
4
4
1
6
6
3
3
2
0
0
0
4
1
1
6
8
1
4
0
0
5
6
0
2
0
1
0
0
9
0
2
1
4
3
4
0
2
1
0
4
11
2
2
2
6
0
2
1
2
7
2
1
7
2
0
0
2
3
2
4
5
7
5
0
2
0
1
0
0
2
4
2
0
2
1
4
1
3
1
4
0
1
6
3
2
2
4
1
1
5
0
1
0
1
2
1
0
0
2
0
0
6
1
0
5
0
2
5
3
0
0
0
4
1
0
6
2
2
5
1
3
2
0
0
4
2
2
4
0
4
0
11
4
0
4
1
3
2
3
1
4
5
2
1
3
0
3
2
0
1
1
0
2
2
0
4
3
5
13
2
0
3
1
1
0
5
4
4
7
0
1
3
1
0
0
0
0
2
2
1
3
0
2
0
3
8
5
3
8
6
4
0
0
0
8
7
3
1
0
2
0
4
4
3
1
8
14
0
1
0
2
1
1
2
0
4
4
1
3
1
9
8
1
13
4
4
0
0
1
3
0
1
0
2
1
0
2
3
0
0
0
3
2
0
11
1
0
1
15
2
4
2
1
0
0
0
2
4
0
0
1
0
0
1
6
1
2
1
0
3
3
0
2
9
0
0
3
5
4
1
4
5
1
0
0
0
2
5
2
5
2
0
4
1
1
3
7
4
5
0
0
2
2
0
0
0
1
1
0
0
3
2
5
4
1
1
2
5
3
6
8
4
2
8
6
0
4
1
3
1
3
2
2
1
0
1
11
4
0
1
4
0
0
2
0
2
2
2
3
4
0
2
5
5
2
5
0
3
0
0
4
6
1
10
0
0
2
2
1
2
8
7
9
5
1
3
3
5
1
0
6
3
4
8
0
6
2
1
0
1
3
2
8
4
1
0
0
3
4
2
1
5
11
1
8
9
1
4
3
1
1
8
5
2
4
3
6
6
1
1
1
2
2
1
1
2
4
4
4
0
6
8
2
14
0
1
5
1
2
4
2
5
4
6
0
0
3
3
3
0
0
1
5
1
1
2
2
2
3
3
2
0
6
0
4
0
1
0
0
7
3
2
1
1
0
1
2
0
0
1
0
2
1
1
0
1
1
1
3
3
5
2
0
2
8
2
0
1
10
1
0
1
0
2
3
2
1
1
5
0
2
11
2
0
2
1
2
1
7
0
1
6
2
2
5
3
2
3
0
0
0
2
8
3
5
5
3
6
4
0
1
6
0
2
2
2
13
0
6
2
1
6
6
4
3
3
1
2
2
4
1
1
0
0
2
0
5
4
0
0
0
5
6
4
0
0
2
2
4
6
0
1
0
4
0
7
4
5
2
2
4
9
0
2
1
10
3
8
6
3
5
1
1
2
8
7
0
1
1
3
0
0
5
10
0
3
0
2
1
0
0
2
2
1
0
1
1
1
3
1
5
1
0
0
5
0
3
7
2
3
0
1
2
1
1
9
2
1
4
4
1
0
2
1
8
2
0
0
2
4
1
3
3
1
0
1
3
3
0
5
1
0
1
2
12
4
1
0
1
0
0
7
1
9
2
1
0
0
3
2
0
4
1
0
1
3
1
3
3
2
0
0
6
5
2
1
0
4
1
5
0
6
2
0
1
1
2
4
4
0
0
4
4
8
9
3
3
1
2
2
6
2
6
2
3
2
2
1
1
6
1
3
1
3
6
2
5
3
0
1
6
13
5
1
0
8
5
0
1
6
3
3
0
0
6
2
3
5
4
1
1
5
1
4
1
5
1
0
0
1
6
10
1
1
1
1
2
3
2
2
5
3
4
1
3
0
8
2
4
3
2
1
0
8
4
2
3
0
0
0
1
1
4
5
1
3
1
1
3
0
3
3
3
4
1
4
1
1
3
1
3
3
1
2
2
0
2
2
2
2
2
2
3
0
3
0
1
7
0
3
1
3
4
1
5
9
3
2
1
2
1
0
1
2
1
7
3
5
0
2
8
4
1
10
2
1
0
2
2
5
0
0
1
4
8
0
7
1
4
4
1
0
0
4
3
0
3
0
2
3
0
2
2
1
2
5
6
10
7
6
0
0
3
1
0
1
1
5
0
2
4
3
2
4
0
7
3
6
0
10
0
0
0
2
3
12
0
1
1
1
0
2
2
0
3
0
2
0
1
1
0
6
0
0
4
2
2
0
4
6
1
3
0
0
2
5
3
2
5
5
1
4
0
7
0
2
4
5
3
3
5
1
3
1
1
0
0
2
2
3
0
2
5
2
0
0
0
4
4
3
0
8
1
4
7
9
0
5
0
3
3
0
1
4
1
2
3
1
2
0
1
2
2
7
3
0
1
0
2
2
4
2
4
1
1
20
2
12
1
0
2
5
1
4
1
6
5
0
0
0
2
5
6
1
0
1
3
4
0
5
0
0
0
0
0
1
0
0
1
0
2
2
4
3
3
4
2
4
4
3
1
2
2
12
1
0
0
3
4
5
3
3
3
6
1
3
3
5
5
2
0
2
1
1
0
2
6
4
6
1
2
0
0
0
1
1
6
1
3
1
2
3
0
1
0
0
1
8
2
0
4
1
2
0
7
1
0
4
2
3
8
0
0
1
2
3
0
1
4
13
2
3
0
2
1
1
1
0
6
1
2
1
0
0
2
3
1
1
5
4
4
4
0
0
0
0
1
2
1
2
2
1
0
2
4
3
5
3
1
4
1
3
3
1
10
1
6
1
1
4
4
4
3
6
1
1
2
2
1
2
4
0
1
1
0
0
0
2
0
9
0
8
8
7
5
1
1
0
0
1
0
0
0
3
5
1
0
0
1
9
3
4
7
1
0
0
1
1
7
0
5
0
2
3
3
3
3
6
2
3
0
1
6
0
1
2
1
1
7
1
1
7
2
2
0
0
1
1
5
3
1
2
0
1
0
2
2
2
2
2
2
8
3
1
6
1
0
4
1
1
3
0
2
1
1
3
2
2
6
0
5
0
11
1
0
0
11
4
5
5
10
6
5
2
11
0
1
0
0
2
4
2
0
8
6
1
4
0
1
2
7
7
2
3
5
1
3
6
0
1
1
1
0
0
8
2
2
1
4
0
1
9
3
8
1
0
6
2
2
0
1
2
0
0
2
0
5
2
2
4
0
1
0
3
6
3
0
4
0
2
1
6
0
3
0
1
2
3
0
7
0
1
2
2
0
1
1
2
1
2
2
2
5
1
4
0
0
3
1
0
0
2
0
0
1
1
6
2
1
1
0
2
0
4
2
0
0
5
0
4
5
5
0
3
1
0
4
4
1
1
2
6
2
9
1
1
0
1
3
0
0
7
1
2
3
0
5
5
0
0
4
2
4
7
2
1
4
2
3
11
8
1
0
1
3
5
1
2
0
1
5
1
2
0
2
0
6
10
2
4
5
1
2
2
4
3
0
0
2
0
1
4
3
1
3
0
0
0
7
3
4
1
1
3
0
0
2
7
1
0
3
7
2
3
2
1
0
4
3
5
2
1
3
0
0
2
7
0
0
11
3
1
2
1
4
2
0
5
7
1
1
6
2
1
0
0
0
1
2
5
2
2
4
0
4
3
1
2
1
1
3
1
0
1
1
0
0
6
0
1
5
3
0
2
0
2
5
2
2
2
0
2
1
2
3
0
5
0
3
1
0
0
0
2
0
6
1
2
1
0
3
4
0
0
6
2
3
2
0
2
3
0
1
4
0
7
1
0
2
3
4
3
2
1
4
5
2
0
8
4
5
1
0
2
2
1
0
0
1
1
0
2
1
5
0
1
2
2
0
0
4
5
2
1
1
2
0
2
1
3
2
4
1
0
2
3
5
1
4
2
1
3
2
0
2
0
5
1
1
0
0
2
2
1
8
1
1
2
5
0
2
2
1
2
1
4
0
1
0
0
1
0
5
2
0
2
0
6
0
1
0
1
1
2
2
0
2
1
0
0
2
1
6
0
6
3
4
3
4
3
7
3
2
0
6
4
2
0
4
3
2
3
0
1
5
11
3
3
1
0
1
0
1
4
0
0
7
2
3
7
6
4
2
1
0
4
1
1
2
0
0
1
6
0
1
2
1
6
1
10
6
5
0
0
1
1
3
2
4
1
4
6
4
0
7
6
0
4
2
1
0
2
2
5
11
2
0
2
7
0
0
9
2
2
3
0
2
0
3
0
2
5
4
0
5
2
6
5
1
2
0
1
3
1
1
0
0
0
3
5
3
2
0
3
9
1
3
0
1
3
0
4
2
1
1
1
2
1
4
0
5
2
3
3
0
10
6
2
3
1
1
2
2
8
0
3
6
0
0
2
1
2
1
0
3
2
1
3
1
1
3
3
0
0
6
0
0
2
7
4
1
0
1
2
1
4
9
0
1
2
2
0
2
5
4
0
1
1
4
0
0
2
0
10
1
4
3
3
0
2
4
10
5
0
1
0
1
0
2
0
0
8
3
0
0
0
0
1
1
2
1
4
1
0
9
1
0
0
1
1
1
0
8
2
0
3
1
3
2
1
0
0
0
1
2
0
0
0
1
5
0
3
0
1
1
0
3
0
2
7
0
0
4
0
9
1
2
0
2
3
1
2
1
2
2
0
5
0
3
5
0
2
4
2
1
5
0
0
3
4
5
1
3
4
2
2
1
1
0
0
1
0
0
1
0
3
6
0
3
1
1
2
6
0
0
7
1
0
1
1
4
0
2
6
0
3
1
6
2
0
0
0
4
1
2
0
4
1
4
2
1
0
1
1
0
8
0
3
3
4
3
3
0
3
1
3
1
6
4
0
3
7
0
5
0
1
0
3
0
0
0
0
2
1
1
2
1
1
0
2
1
0
0
6
2
8
9
5
2
0
3
2
0
0
0
2
0
3
0
1
3
1
3
7
7
7
8
0
0
0
3
3
0
2
2
2
1
5
2
1
0
2
0
0
3
0
0
1
0
1
0
4
2
0
0
2
1
5
5
1
0
4
1
5
1
9
1
0
3
4
1
6
0
2
3
5
2
1
0
0
5
1
2
0
4
2
7
0
2
1
3
3
1
0
6
7
5
5
10
1
0
10
1
2
2
4
0
0
0
0
0
0
3
3
0
1
1
1
1
10
3
1
0
1
2
4
2
1
0
1
1
1
4
1
0
0
8
3
5
12
2
2
0
0
3
5
2
3
6
0
2
2
10
0
0
1
0
0
1
1
3
3
0
0
3
4
1
4
4
2
10
1
9
1
0
2
1
0
0
1
1
2
7
2
1
0
5
4
4
0
1
2
0
3
0
1
0
1
3
2
1
0
0
1
0
2
1
2
0
6
2
3
1
0
2
1
1
1
0
1
1
3
1
7
2
1
0
2
1
3
0
4
2
7
2
6
8
2
2
1
6
3
9
4
0
4
4
0
0
1
0
0
1
1
6
3
0
0
0
2
0
0
0
0
1
1
1
1
2
3
8
3
1
0
9
2
1
1
0
2
1
2
2
2
0
1
1
5
1
2
4
0
0
2
3
1
3
4
1
0
1
1
1
4
1
0
1
2
1
2
1
1
3
0
7
3
0
0
6
3
2
8
0
2
3
0
4
3
3
2
1
0
1
1
0
0
1
0
0
2
2
2
7
2
0
0
8
7
5
1
3
2
2
0
3
1
1
0
1
1
0
0
7
4
1
1
0
0
1
1
4
2
3
4
0
0
0
7
4
3
0
1
1
9
3
3
1
0
0
0
0
1
0
0
1
1
2
3
2
4
2
6
4
1
3
4
1
2
1
0
0
3
5
1
0
2
0
0
0
2
0
3
0
1
4
2
1
3
0
0
1
3
1
0
6
0
2
6
0
5
1
1
3
2
3
0
3
4
5
1
2
2
1
3
2
3
1
0
0
0
0
8
4
0
2
4
1
2
2
0
0
0
0
3
3
4
1
1
0
1
1
2
0
4
2
1
5
7
3
1
2
4
2
3
2
3
1
3
1
3
0
2
7
3
0
0
0
0
8
1
0
7
0
0
1
5
1
4
4
4
2
5
5
2
0
0
0
2
9
2
0
11
6
1
1
0
6
1
2
2
1
2
1
2
5
4
0
2
0
1
8
8
2
2
1
2
1
2
4
4
1
0
0
1
1
0
0
0
0
2
4
1
3
1
2
1
2
4
2
0
0
2
3
0
0
0
4
8
2
2
0
0
2
2
0
0
3
0
0
6
1
2
10
1
0
1
0
8
3
0
0
2
0
3
0
1
3
0
0
1
8
7
1
0
0
0
1
2
0
2
3
10
0
2
0
0
0
1
2
1
8
1
0
2
1
3
2
3
3
0
1
1
1
0
3
2
1
0
0
5
1
0
4
1
3
3
8
4
3
0
1
1
1
1
0
1
3
2
0
3
0
1
0
1
3
0
0
3
4
7
1
1
0
0
2
8
3
0
0
3
1
0
3
2
6
2
2
2
1
0
2
0
1
0
10
3
3
9
3
4
6
0
6
1
2
3
2
1
0
0
4
1
0
0
1
1
0
1
0
6
1
1
2
3
5
0
5
8
0
2
2
0
2
1
3
0
2
1
1
2
3
1
1
2
1
5
1
0
2
0
2
3
2
3
3
2
0
0
0
0
0
7
2
3
3
1
7
0
0
11
2
0
3
1
1
2
2
0
5
6
1
0
2
1
1
2
1
0
0
15
13
2
2
3
5
2
0
5
2
5
1
2
11
4
4
8
2
0
3
1
0
2
1
0
2
0
1
0
0
1
3
1
0
0
3
0
0
1
0
3
1
4
3
1
3
1
8
6
0
3
5
0
0
1
4
3
1
0
1
3
3
6
3
0
0
4
1
1
0
0
8
0
1
1
0
0
0
1
0
1
2
1
1
0
0
1
4
0
6
0
0
1
0
1
2
2
0
2
2
3
1
8
0
2
1
0
0
2
2
3
0
4
2
1
0
4
0
0
2
7
4
0
0
1
5
1
1
1
4
0
3
1
2
0
7
1
1
1
1
1
2
0
5
1
3
0
2
0
0
0
3
2
0
0
0
0
4
0
3
3
2
3
2
1
3
6
1
0
0
0
11
3
0
0
2
0
1
9
6
1
3
1
6
1
0
0
0
2
4
0
1
1
3
1
3
0
4
3
0
4
0
5
1
1
1
0
3
3
2
4
3
0
0
0
2
1
0
1
2
0
0
4
2
4
2
5
6
0
0
2
0
7
3
4
0
1
0
3
1
1
5
1
1
2
3
3
2
7
1
0
0
0
1
5
2
0
1
1
0
0
1
0
1
0
0
0
4
2
0
0
1
3
3
1
1
2
2
0
2
1
2
5
1
3
1
1
3
1
0
2
1
1
1
1
6
0
0
2
0
5
1
2
5
3
2
1
7
4
1
0
3
8
4
3
1
3
2
1
0
2
2
0
2
0
2
0
2
1
1
1
6
1
0
3
1
3
0
3
1
5
5
3
3
1
2
11
0
0
3
2
2
2
2
1
0
4
2
3
0
4
1
0
1
1
0
5
2
0
0
0
2
3
8
0
0
1
0
2
3
1
5
0
0
6
2
1
3
3
1
0
3
0
1
3
4
3
2
0
0
0
0
1
6
2
1
5
1
3
0
5
3
2
7
1
2
2
3
1
0
1
1
0
7
3
1
4
0
1
1
2
1
0
0
0
0
1
0
8
0
1
0
0
1
4
2
0
0
6
1
0
5
0
3
0
7
0
0
3
0
4
2
2
0
4
2
1
6
3
1
0
0
1
4
2
0
0
1
4
1
2
4
1
0
4
4
4
1
7
2
1
7
0
2
0
0
1
1
0
0
2
1
2
0
1
2
5
2
1
1
2
0
1
1
1
7
5
3
0
0
1
3
1
3
2
1
0
1
3
4
4
3
1
2
1
0
3
2
0
3
3
2
0
1
2
1
1
2
3
2
2
1
2
1
0
0
0
0
1
1
1
3
7
3
5
3
3
0
7
0
2
1
1
1
2
2
0
1
3
2
0
1
2
3
3
3
1
4
0
2
0
1
2
0
0
0
0
0
8
5
1
4
3
3
2
1
2
1
0
1
1
0
9
0
1
3
3
5
6
1
1
0
0
0
3
6
0
1
0
1
4
8
3
1
0
0
6
0
2
2
1
5
1
1
4
0
3
5
1
1
1
0
4
7
8
6
4
4
1
3
1
1
0
1
1
2
0
1
0
1
0
3
3
3
3
4
0
3
1
2
1
1
2
0
0
1
0
5
3
1
2
0
3
1
1
4
2
0
0
0
1
1
1
0
2
3
2
5
1
3
0
2
2
2
5
1
0
1
5
0
5
3
0
1
1
3
2
1
3
3
1
1
7
1
0
3
4
2
1
1
2
0
0
2
3
2
0
5
4
2
8
8
1
2
2
0
4
0
2
1
0
0
1
4
0
1
0
2
0
4
0
3
0
1
1
3
0
0
0
0
1
0
3
3
1
4
1
0
1
1
1
3
0
1
4
1
0
0
2
2
1
1
0
1
2
1
0
7
0
1
4
0
2
5
0
3
1
2
0
2
1
6
0
1
1
1
0
2
0
1
2
0
1
2
0
1
0
0
2
1
7
4
3
4
1
4
0
5
5
1
4
0
0
3
2
3
0
2
1
0
1
0
1
4
0
7
2
4
2
2
1
0
2
1
0
1
1
2
1
1
3
1
4
2
5
1
5
4
3
0
0
2
1
0
1
5
0
2
1
2
2
0
0
3
0
0
0
5
1
1
3
2
1
1
2
1
3
4
2
2
4
0
7
3
6
1
5
0
1
1
2
0
1
6
5
3
2
0
0
3
5
1
0
1
1
4
2
0
0
0
0
0
1
0
0
0
0
3
0
1
2
2
4
0
2
8
4
8
1
2
0
4
2
0
0
0
5
3
0
4
0
0
0
0
1
0
3
1
0
1
1
0
0
3
1
3
0
6
5
2
10
0
3
1
0
2
1
0
1
2
0
0
2
1
1
6
5
3
0
0
0
2
3
1
4
2
4
8
0
0
0
0
5
7
1
1
0
0
1
2
10
0
1
2
1
1
6
0
0
5
4
2
1
0
0
1
0
2
1
1
0
1
0
1
4
1
0
1
1
1
1
1
0
6
3
0
2
0
1
0
2
1
0
0
4
4
3
0
0
2
2
9
1
0
0
8
0
1
2
2
0
5
2
1
0
1
1
5
1
0
3
0
0
3
0
0
4
1
6
0
1
3
4
1
0
0
0
0
0
0
2
1
0
0
4
0
1
1
1
3
2
1
7
2
0
2
0
6
3
6
2
2
6
0
4
2
1
0
3
0
2
1
2
2
4
1
4
1
1
1
1
6
4
1
1
0
7
1
3
1
1
0
3
1
0
0
0
1
0
1
0
0
0
0
0
4
0
0
3
2
1
1
1
0
3
3
2
0
8
0
1
3
1
1
3
1
1
5
1
0
0
1
1
4
3
2
1
1
1
0
1
0
2
4
2
1
5
0
7
5
1
2
0
4
1
3
0
7
1
0
0
2
3
4
5
3
3
3
2
2
0
2
4
1
0
0
0
0
1
2
2
0
5
1
4
5
2
2
8
0
1
5
1
1
2
0
5
2
0
5
1
4
0
0
0
3
0
1
1
0
0
5
2
1
6
2
0
2
1
4
2
1
0
0
3
1
4
0
0
0
3
2
0
1
0
3
2
5
2
6
0
2
0
2
4
1
0
5
1
0
1
1
2
1
0
1
1
1
1
2
5
2
3
1
3
1
5
1
0
2
0
5
2
8
3
0
1
0
0
0
0
2
0
0
0
0
1
0
2
1
5
1
1
2
1
2
0
0
2
1
0
4
1
4
3
6
5
2
0
0
0
0
0
8
0
0
0
0
1
2
0
0
2
1
1
1
2
3
0
2
0
4
5
4
0
7
0
2
2
0
6
6
5
11
3
0
2
0
2
0
0
3
3
5
7
2
5
4
0
2
0
2
1
3
7
0
0
4
2
2
0
1
0
1
0
3
1
2
4
3
0
0
1
2
1
3
0
4
5
3
1
0
1
2
1
1
1
7
0
0
1
5
3
1
9
0
2
0
4
1
0
0
0
0
8
0
5
0
0
3
1
0
0
0
2
1
6
2
0
1
1
1
0
0
1
4
1
0
0
0
0
0
5
1
4
2
0
1
0
3
3
3
1
0
1
0
0
8
3
1
1
1
5
0
1
2
4
4
0
0
0
1
1
1
3
0
0
0
1
1
0
0
1
3
0
2
0
0
1
2
1
2
0
3
4
1
3
1
0
2
1
3
1
1
1
0
2
1
1
1
2
1
0
1
2
0
0
0
7
1
0
0
2
1
1
0
1
1
1
3
0
2
0
0
3
0
0
1
2
0
5
2
2
3
2
1
4
1
2
2
0
6
0
1
1
7
3
0
0
1
2
0
2
0
2
1
0
1
2
5
2
1
1
2
3
1
1
0
0
5
1
1
3
0
0
2
0
2
1
1
0
3
2
0
3
1
0
2
5
5
2
2
0
6
0
0
3
1
1
2
0
0
0
1
1
0
2
2
1
0
0
1
3
4
0
3
0
1
0
4
0
1
1
1
3
0
3
1
5
3
1
5
2
1
0
2
2
0
1
2
3
1
2
0
1
6
3
1
2
3
0
1
1
3
3
2
3
3
0
0
0
0
0
2
0
3
1
0
1
0
0
0
1
4
0
0
2
0
0
1
1
2
0
4
0
2
1
6
0
3
1
6
0
0
3
0
0
0
2
4
7
3
4
0
3
4
5
0
1
1
1
0
0
6
0
3
0
2
6
1
2
1
3
1
2
0
0
2
0
1
6
0
2
4
0
0
2
1
1
0
1
0
4
0
1
2
1
1
0
3
3
7
7
3
4
3
4
0
0
3
6
2
2
1
0
0
0
2
3
0
3
1
1
2
1
6
0
6
1
0
1
4
3
7
1
0
3
2
1
0
0
2
1
2
0
3
0
0
0
1
8
1
1
0
1
1
2
0
2
0
0
2
1
1
0
0
2
2
3
7
0
5
2
4
2
1
5
0
2
0
0
0
0
1
0
1
1
5
1
1
2
1
2
6
0
2
0
0
4
1
7
1
0
0
3
1
0
0
5
7
1
4
2
1
1
1
0
0
2
1
1
4
2
0
1
2
0
0
1
3
1
2
0
1
3
0
1
0
4
0
1
0
0
4
3
3
3
0
0
4
2
1
3
0
2
0
2
0
1
1
0
3
3
1
2
2
1
0
3
1
2
0
0
0
0
4
0
0
2
1
0
0
3
0
1
1
0
0
5
2
3
4
3
1
0
2
3
0
1
2
1
2
2
1
4
0
0
1
0
2
0
0
4
2
5
0
4
2
3
1
5
2
0
1
0
1
1
1
0
6
4
0
4
2
1
3
0
1
1
1
0
0
2
1
4
1
0
1
1
2
2
1
2
3
2
0
2
0
5
3
4
3
2
0
0
1
6
1
0
2
1
0
0
1
3
0
0
1
4
2
0
0
1
0
3
4
1
3
2
2
1
3
1
0
2
3
1
6
1
1
1
0
1
0
1
2
3
0
1
2
1
1
7
0
3
0
0
0
2
6
6
1
1
1
2
0
4
0
0
0
0
0
3
2
1
4
8
2
4
1
3
3
4
1
1
4
1
5
2
0
0
0
1
4
1
1
3
0
6
3
0
3
0
1
1
0
2
6
1
0
0
5
0
3
0
7
1
1
0
3
1
0
1
2
2
0
0
1
3
0
2
6
0
0
0
0
0
1
0
1
1
2
2
0
6
1
0
2
4
0
4
1
0
4
3
1
0
0
1
3
0
0
0
0
1
1
0
0
1
0
0
0
0
0
9
0
2
1
0
3
1
0
4
1
0
1
1
2
0
1
0
1
0
6
0
2
2
3
2
2
0
2
1
0
3
3
1
1
3
2
4
5
3
0
0
1
0
0
2
1
4
2
1
2
1
3
2
2
0
2
3
0
2
2
2
0
2
0
0
5
0
0
0
2
4
1
0
2
1
2
3
2
0
0
1
3
0
0
2
0
0
1
0
1
2
2
0
1
6
1
6
0
1
3
0
1
0
4
2
1
1
5
0
1
0
0
6
2
5
1
0
4
0
1
0
7
1
1
1
5
1
1
4
4
0
2
5
0
1
3
1
2
3
0
1
1
1
2
1
5
0
1
5
1
1
0
2
2
1
1
0
1
0
3
2
0
4
1
2
0
3
0
0
1
0
1
5
7
2
0
3
2
4
1
8
3
0
9
4
0
1
2
1
1
1
1
1
0
1
2
2
0
0
3
1
1
2
3
1
2
2
1
0
1
2
1
6
0
0
1
1
0
1
0
1
0
1
0
3
3
0
6
0
0
0
0
5
4
0
2
0
0
0
5
0
0
0
4
1
0
0
0
2
4
0
2
1
2
0
0
2
0
0
0
1
0
1
1
2
9
7
0
3
1
1
1
1
4
1
2
1
1
5
3
0
0
0
1
0
3
0
0
0
5
2
1
0
1
1
0
0
0
4
4
2
3
3
1
1
7
8
4
0
0
0
0
0
1
0
1
1
1
2
0
0
4
1
0
0
9
0
0
0
0
0
1
0
3
2
1
0
0
1
1
2
2
0
4
2
1
3
0
1
2
2
0
1
0
5
3
0
0
2
0
0
1
2
1
0
0
0
2
0
4
0
0
0
0
0
0
2
2
1
3
0
1
0
4
0
2
0
0
2
0
0
1
0
0
6
0
1
2
3
3
2
1
0
4
1
2
2
0
2
2
0
1
3
1
1
0
0
1
4
0
1
2
0
2
0
1
5
1
7
0
0
0
0
0
1
2
3
1
1
0
5
1
1
1
4
0
3
0
1
4
0
1
0
0
2
2
3
0
0
0
0
0
0
2
0
0
0
0
0
0
5
0
2
3
0
1
0
0
3
1
1
0
4
0
1
0
1
1
1
2
3
1
0
0
4
1
2
1
2
1
0
0
2
1
0
1
4
0
1
2
4
0
2
1
5
0
3
0
1
0
1
2
1
1
1
0
0
1
3
1
0
1
0
0
0
1
1
0
2
2
0
1
1
5
5
5
1
1
2
1
3
8
2
10
0
4
1
0
2
1
0
2
0
1
1
0
3
3
3
0
2
0
1
0
2
1
1
1
0
1
1
4
1
1
3
0
0
0
2
0
1
1
2
1
1
0
0
1
0
3
5
5
0
0
0
2
3
0
0
1
0
4
2
4
1
1
2
0
4
7
5
1
3
2
0
0
2
0
1
1
1
1
4
1
2
1
3
1
0
1
0
1
2
5
0
1
7
2
3
1
2
0
0
0
0
1
0
1
0
0
0
0
0
0
4
1
1
0
1
1
3
1
0
1
0
1
0
0
0
1
0
0
2
0
1
1
2
1
1
0
1
4
0
3
5
0
1
0
3
0
1
0
0
1
2
0
0
2
0
0
2
0
0
1
1
0
2
0
1
2
0
0
1
0
1
0
3
0
2
2
0
5
3
0
0
2
2
4
2
1
0
2
0
2
0
2
8
0
0
1
0
3
1
5
0
0
1
4
1
2
2
0
0
0
1
0
3
2
1
4
1
0
2
0
1
2
1
1
0
0
3
5
3
4
0
3
0
6
2
0
2
2
0
0
5
1
0
2
4
2
1
0
1
1
1
0
0
4
0
1
1
1
2
4
3
0
0
1
2
3
2
0
0
1
3
2
0
0
0
2
4
1
0
3
0
0
2
0
1
3
3
1
2
0
0
5
6
0
2
1
0
3
1
3
0
1
0
2
0
1
2
1
1
1
1
1
3
0
2
8
0
0
5
2
0
0
1
0
0
3
7
3
1
0
2
0
2
0
0
6
1
0
1
1
0
1
2
1
0
1
0
4
1
1
0
1
6
1
3
4
0
0
0
1
1
0
4
0
0
2
6
3
0
0
0
0
0
0
1
0
0
1
2
1
1
0
2
0
1
0
2
0
1
5
0
1
6
0
2
1
0
2
0
0
3
0
1
0
0
0
8
0
4
0
0
0
4
0
0
5
4
0
2
1
4
6
1
1
3
0
0
5
0
1
6
0
1
1
0
0
2
0
1
3
1
2
0
1
6
3
3
3
2
2
3
1
2
0
0
0
1
0
0
4
3
2
2
4
3
3
1
4
1
6
1
1
3
4
4
1
0
2
1
2
2
2
1
0
4
5
2
0
4
3
3
0
2
0
0
0
2
2
3
0
0
0
1
1
0
1
1
0
4
0
1
0
0
1
2
1
6
0
0
0
0
2
1
3
1
2
5
0
0
2
2
3
1
1
3
2
1
1
3
3
2
1
1
3
2
0
0
0
1
2
1
0
8
0
3
2
2
0
2
2
1
0
2
7
0
1
0
1
2
0
0
3
4
0
5
3
2
1
2
1
6
0
2
1
0
2
1
1
1
2
6
0
2
3
2
3
1
0
2
3
0
0
2
5
4
0
1
0
1
0
8
2
2
2
0
2
2
1
6
0
0
3
0
0
1
3
7
1
0
2
0
0
1
7
0
0
0
4
8
0
2
2
4
2
1
1
1
2
4
1
0
0
0
0
6
2
1
0
3
0
1
0
1
0
0
2
2
1
0
1
0
1
1
0
1
2
7
6
0
2
0
8
0
3
1
2
0
0
3
0
2
5
1
2
2
0
0
4
4
1
0
2
1
2
8
1
3
1
1
0
5
0
0
2
2
0
1
0
0
0
2
6
5
1
2
5
4
1
6
0
2
4
0
2
0
0
2
3
1
2
0
0
4
6
1
2
0
6
0
0
0
0
5
0
0
0
2
3
5
6
1
1
0
6
6
5
2
2
1
1
3
1
0
0
1
1
3
2
0
2
1
1
2
2
1
1
0
1
6
1
2
1
3
0
1
5
6
0
1
0
0
2
1
1
0
1
2
2
2
3
1
2
1
0
1
1
6
2
0
4
1
1
0
2
2
3
2
0
0
0
0
3
3
0
1
0
2
0
1
0
0
1
1
2
0
1
1
1
4
1
0
4
1
2
1
2
2
0
1
1
2
1
1
7
2
2
0
0
1
0
1
3
1
0
6
5
2
0
0
0
0
1
3
1
1
0
1
4
0
0
3
2
0
1
0
1
2
1
0
0
3
5
1
5
2
1
0
2
0
0
0
1
0
1
0
0
2
3
0
3
6
0
2
2
0
3
0
5
4
4
5
4
1
0
1
0
3
0
5
1
1
8
1
3
1
0
2
0
1
0
0
0
1
2
2
2
0
1
1
0
2
2
1
2
2
0
2
8
0
5
3
3
2
0
0
1
0
1
0
4
1
2
0
3
1
2
1
1
0
4
0
0
1
5
2
2
2
1
0
4
5
1
1
0
0
0
2
0
3
1
0
3
8
0
4
2
1
0
2
0
0
2
1
2
0
0
1
1
0
1
0
0
0
0
0
1
3
2
0
2
3
1
1
2
4
1
0
0
1
2
1
0
1
1
2
1
0
0
0
0
2
0
0
0
0
6
0
0
1
4
0
4
0
3
1
1
1
1
4
0
0
0
1
0
2
0
4
2
0
2
2
0
1
1
0
0
1
0
0
1
0
2
1
0
0
2
1
3
0
2
2
0
1
3
0
3
0
1
0
0
4
0
0
1
0
7
0
3
2
0
3
0
0
2
0
0
1
0
2
0
0
0
0
8
1
0
0
0
0
0
4
1
0
0
1
4
1
0
2
3
1
2
0
1
2
0
0
1
0
2
1
0
1
1
1
1
5
4
1
1
0
0
2
4
1
0
3
1
6
3
1
1
1
0
1
0
0
1
2
1
3
0
1
1
3
1
1
2
1
1
3
1
1
2
1
1
2
1
0
2
0
0
0
0
0
7
3
0
0
1
2
1
1
0
1
1
2
2
3
0
2
2
3
0
1
0
1
4
0
1
2
2
0
0
1
0
1
0
5
1
0
1
1
2
2
0
0
0
1
1
0
1
3
3
1
3
0
1
1
2
0
0
5
0
1
0
1
2
0
0
0
1
1
5
1
3
5
3
0
2
1
0
2
1
1
0
0
2
1
1
1
2
2
1
2
2
1
2
0
0
2
1
1
1
1
0
3
1
1
3
3
3
1
1
1
1
0
1
1
1
2
0
0
0
1
2
1
4
0
2
3
0
0
1
0
1
1
4
0
0
1
1
8
0
0
3
1
0
3
0
0
0
2
0
3
3
4
2
0
0
0
0
0
2
2
7
2
4
2
4
2
5
1
1
4
0
1
2
0
1
0
1
0
1
3
2
1
1
0
2
1
0
2
0
0
1
0
1
1
1
2
3
2
0
9
2
0
3
1
3
1
2
1
0
2
0
1
0
3
7
0
0
1
6
1
1
1
1
3
2
0
1
2
3
0
1
0
0
0
1
2
2
2
1
1
0
1
0
0
1
1
2
1
0
0
1
1
1
3
2
0
2
3
1
0
1
6
0
1
6
0
1
0
0
6
0
0
0
0
0
3
2
3
0
2
0
0
0
1
0
0
0
1
1
0
1
0
0
0
1
0
0
2
1
0
0
2
1
2
0
2
1
2
4
2
1
0
1
0
0
2
3
1
0
3
1
3
1
3
0
2
0
1
0
0
1
4
3
0
1
0
2
1
3
1
1
2
3
0
0
2
2
0
5
5
3
0
1
9
2
5
1
0
0
2
0
1
0
4
2
2
2
4
0
3
1
2
1
3
2
0
0
0
1
4
1
0
0
0
8
3
1
2
2
2
1
0
0
1
0
0
1
4
8
2
1
1
1
2
1
0
0
0
1
1
0
1
0
1
0
4
0
0
0
1
1
0
0
0
2
7
1
2
3
0
2
0
5
1
0
1
1
3
0
1
3
0
2
1
3
0
2
1
1
0
0
0
0
3
0
0
0
1
0
1
0
1
1
1
1
2
2
0
0
1
2
0
1
0
0
2
1
3
0
1
0
2
2
1
0
0
0
1
2
2
0
1
0
0
0
1
0
0
0
1
3
1
4
1
0
2
1
0
0
0
3
1
2
0
2
0
4
6
0
3
1
0
2
0
0
0
0
4
3
2
1
1
0
0
1
0
5
2
1
0
0
1
2
3
1
2
2
7
1
3
0
0
1
1
0
2
0
0
3
0
2
0
0
1
0
0
0
4
2
0
0
2
0
0
0
0
0
0
1
1
0
0
0
1
4
3
0
3
2
0
0
5
0
0
1
1
2
1
1
2
0
0
0
6
1
0
3
0
5
1
1
0
1
6
2
0
1
6
4
0
0
1
1
3
1
0
0
1
1
0
0
0
2
1
0
5
1
4
0
0
0
0
1
0
1
1
0
1
0
0
7
2
1
3
1
0
0
1
7
0
0
0
2
0
2
0
0
3
0
5
1
0
1
2
1
1
5
0
1
1
0
0
0
3
0
0
5
3
0
0
3
0
1
0
2
0
1
2
0
0
0
1
0
0
3
0
1
0
5
0
1
2
0
1
0
0
0
1
1
1
1
3
0
1
4
0
0
3
1
1
4
1
2
0
1
1
0
3
2
7
2
0
0
0
0
0
0
0
0
0
0
0
1
0
2
1
1
1
1
3
1
2
7
7
0
1
1
0
0
0
2
2
0
1
2
1
1
4
7
1
0
0
1
2
0
1
1
3
0
0
0
1
0
3
0
0
1
1
1
1
1
0
3
3
1
1
0
0
1
3
1
2
2
1
1
0
0
1
0
1
0
0
0
0
0
0
2
1
0
3
1
1
0
4
0
5
0
1
2
0
2
3
6
0
0
1
2
0
0
0
5
0
1
3
1
3
0
2
2
3
3
1
0
1
0
0
2
4
2
0
3
0
1
0
0
8
1
2
0
2
1
0
1
1
0
0
3
3
1
1
6
1
0
1
1
0
2
0
1
1
0
2
6
1
0
0
0
1
1
1
0
5
7
8
1
1
0
1
3
1
1
2
2
1
1
0
2
1
3
3
0
5
2
0
4
3
0
4
1
1
2
2
1
0
0
0
0
0
1
2
2
0
0
0
1
1
2
0
1
1
0
0
2
0
2
9
4
0
1
1
0
1
0
0
2
0
0
1
3
1
0
0
3
1
0
0
0
1
0
1
0
1
0
1
1
1
1
3
0
0
0
2
0
0
2
1
1
6
0
0
1
4
0
1
2
5
0
1
2
5
1
0
0
0
2
5
1
0
2
3
1
3
0
1
2
1
2
0
3
2
0
0
2
0
0
1
1
0
0
2
0
0
1
1
1
0
1
2
1
1
1
1
0
0
2
0
2
0
0
3
1
0
2
3
4
0
0
2
1
7
4
0
0
0
4
0
0
4
1
4
3
1
0
0
0
4
1
4
3
0
3
1
0
5
2
2
4
2
1
1
4
6
0
1
1
0
1
5
2
1
0
1
1
0
1
2
0
1
0
2
0
4
1
2
0
1
0
1
2
1
0
0
6
0
0
0
0
2
5
0
0
0
2
2
1
2
2
1
1
4
6
1
2
2
1
2
0
0
0
3
1
0
1
2
1
1
4
3
0
0
2
0
2
0
2
1
2
1
4
3
1
0
1
0
0
2
8
0
5
3
1
0
0
0
0
0
0
0
0
1
0
0
0
0
0
0
0
1
0
1
0
0
0
0
0
0
2
3
3
3
1
2
1
7
8
0
0
4
0
1
0
0
2
3
1
1
1
3
3
5
0
4
0
0
2
3
2
0
2
0
2
0
1
3
1
0
2
2
0
0
0
0
1
3
3
0
2
2
2
0
0
0
1
0
1
4
0
1
1
1
0
1
0
1
0
2
2
0
4
2
0
0
3
0
1
0
2
0
6
1
4
0
0
0
1
0
0
0
0
3
2
0
0
2
1
2
0
0
3
1
0
1
0
1
3
1
0
0
0
0
1
0
0
0
2
0
0
2
0
0
0
5
4
0
0
2
2
1
2
1
0
0
4
0
0
1
0
0
3
1
0
0
3
2
4
0
0
0
1
1
0
0
0
1
0
0
0
0
0
1
3
3
0
0
1
3
2
2
1
1
0
5
0
0
0
3
0
1
1
0
0
3
4
0
5
4
0
1
1
0
0
1
0
2
0
0
0
0
6
0
1
7
2
1
2
1
1
0
1
0
5
4
4
0
0
5
1
4
1
0
0
0
1
0
1
0
0
3
0
1
1
2
0
0
1
2
1
0
1
2
4
2
2
0
0
0
2
2
2
2
0
5
3
1
1
2
1
1
0
2
0
0
0
0
0
1
0
0
0
6
0
1
4
2
4
1
2
0
1
0
0
1
3
5
0
0
7
0
0
0
6
2
1
0
1
1
0
1
1
0
2
5
2
0
2
0
1
0
0
0
1
3
0
3
1
3
3
1
4
2
1
4
1
1
1
0
1
0
0
3
2
4
1
1
0
2
0
0
0
1
1
0
3
1
2
3
5
0
1
1
0
0
0
0
0
1
5
0
5
0
0
2
3
1
0
0
1
0
2
1
0
0
0
0
0
1
0
0
1
0
0
1
1
1
0
1
0
1
0
1
2
3
1
0
5
0
2
1
1
1
2
5
3
0
3
0
0
0
0
1
0
0
1
0
0
2
0
1
1
0
1
1
0
2
1
1
4
3
0
0
4
1
1
1
3
0
0
2
0
2
0
0
2
0
0
1
1
0
4
0
1
0
0
0
0
0
0
1
0
0
0
2
5
0
4
2
2
1
1
0
0
0
1
0
2
0
3
1
0
0
2
0
2
1
1
0
0
1
0
2
0
1
3
0
0
0
0
0
0
2
1
6
0
0
0
0
1
4
0
0
0
2
0
0
0
0
0
4
0
1
0
0
0
2
0
0
0
1
3
1
0
3
5
1
0
0
1
0
2
2
1
2
0
0
2
1
1
0
0
0
0
1
2
1
1
0
2
2
2
2
1
1
6
2
3
0
1
0
1
0
1
2
1
0
3
2
0
5
0
1
3
0
0
0
0
1
1
1
4
6
2
0
3
2
0
0
1
2
3
1
1
0
0
2
2
1
1
3
0
1
0
0
0
0
1
2
3
4
1
0
1
0
2
0
3
3
6
0
2
1
1
2
7
0
0
0
0
0
0
0
1
0
0
4
2
1
2
2
0
1
0
0
0
4
0
1
1
2
0
2
0
4
0
1
1
0
1
1
2
0
3
4
2
0
0
2
1
0
4
2
0
0
0
1
1
0
0
0
0
3
2
3
0
3
6
1
1
3
0
2
0
0
6
0
1
3
1
0
0
0
0
1
5
0
2
2
0
0
0
0
0
0
1
2
3
0
0
0
0
3
2
2
0
0
0
0
2
3
0
3
2
0
1
2
0
0
0
0
1
3
2
2
0
1
0
0
0
0
4
1
3
5
4
0
2
2
0
2
0
0
3
6
1
5
1
1
0
0
1
5
2
0
1
0
1
0
2
0
0
0
6
0
0
1
1
0
1
7
1
1
0
0
0
0
1
3
2
2
0
2
2
2
1
0
1
3
0
0
1
1
1
4
2
0
1
0
0
1
1
0
3
1
1
0
0
0
2
0
2
2
1
2
0
1
7
3
1
2
1
0
3
2
0
1
0
0
0
3
2
0
1
0
2
0
1
0
0
3
0
4
0
0
3
1
0
0
0
7
3
2
3
2
0
2
2
1
0
1
0
3
1
2
0
0
2
1
2
1
2
0
0
0
0
1
0
0
0
4
2
2
1
1
3
0
3
3
0
1
1
0
2
3
0
0
0
3
0
0
2
2
3
0
1
2
4
1
2
1
0
2
3
5
1
1
1
2
5
3
1
5
0
1
0
1
0
0
1
1
0
0
1
2
0
0
4
1
1
1
2
0
0
0
2
1
1
3
1
1
5
0
0
0
1
0
0
1
0
2
1
1
1
1
0
1
0
0
1
3
0
0
1
1
0
0
1
0
0
1
3
0
0
0
0
1
1
2
2
0
0
4
0
3
0
0
0
1
6
4
0
0
1
0
1
0
2
2
2
1
0
0
0
1
0
1
2
0
1
1
3
3
3
1
0
0
2
1
3
3
1
0
0
1
4
3
1
1
1
1
1
0
1
0
3
1
0
1
1
0
1
1
1
1
0
1
1
1
1
0
5
0
0
0
0
1
0
0
2
0
3
0
1
2
0
0
0
1
0
0
2
1
0
0
0
0
4
0
0
0
1
1
3
1
1
1
0
0
0
1
0
0
0
1
2
2
2
0
1
2
3
2
0
1
2
2
2
1
0
1
0
1
0
4
2
1
3
1
2
0
1
1
1
0
1
0
0
0
2
0
2
4
3
1
2
0
0
0
1
1
0
0
5
1
4
3
2
0
3
0
0
1
0
0
0
1
2
0
2
1
0
2
7
3
5
1
3
1
2
0
0
0
0
1
0
0
0
1
4
2
2
5
2
4
0
0
1
4
0
0
1
1
0
2
4
1
1
1
0
1
0
3
0
0
3
0
0
0
2
1
0
0
2
2
1
2
0
0
1
0
3
0
0
0
0
0
0
0
2
1
0
1
1
0
0
0
0
3
1
7
0
0
0
0
4
0
1
0
0
0
1
0
5
0
2
5
0
2
3
1
3
1
0
0
1
1
0
0
4
1
0
6
1
1
0
4
2
1
0
1
0
1
0
1
1
1
1
0
0
0
5
0
2
0
0
1
3
2
1
1
0
2
3
2
1
0
0
0
0
0
1
0
1
0
0
0
0
0
1
0
0
0
0
0
0
1
3
2
0
0
0
1
2
0
0
0
1
1
3
1
3
0
0
0
5
2
0
1
1
0
1
0
1
0
2
3
1
0
1
0
3
2
1
2
1
0
0
0
0
1
0
3
3
1
1
1
0
0
0
1
1
3
0
1
1
4
0
0
0
1
1
0
0
5
2
0
6
7
4
1
4
1
0
7
5
0
0
2
1
1
0
1
1
0
2
0
0
6
0
2
2
0
0
0
1
2
1
0
2
4
1
0
2
2
2
1
4
1
1
1
3
0
2
0
2
0
0
8
0
0
1
1
1
0
0
1
1
1
0
2
0
0
0
0
0
0
1
6
0
0
1
2
2
0
0
2
0
0
2
0
0
0
1
1
2
0
1
0
2
1
0
2
1
0
0
1
0
0
4
0
1
2
0
1
2
0
1
3
2
0
0
1
1
2
0
3
0
2
1
4
0
0
1
0
0
4
4
0
0
6
1
0
3
0
0
1
3
3
2
0
3
1
3
0
2
0
4
1
5
1
1
0
1
0
0
1
2
1
2
2
1
1
1
1
0
0
0
0
0
3
0
1
0
0
3
0
6
0
2
2
2
0
1
0
0
0
4
2
6
1
0
2
0
0
0
0
0
0
0
0
0
0
0
0
1
1
0
2
2
0
2
1
1
6
1
0
1
0
2
0
1
0
1
2
1
5
3
0
0
2
0
1
1
1
0
2
1
2
0
3
2
1
0
1
0
1
2
0
0
3
0
4
3
4
2
0
2
2
0
1
1
4
3
2
0
1
0
0
0
4
0
2
0
2
0
2
0
2
0
1
0
0
1
0
0
2
0
2
2
1
3
2
0
1
0
3
0
0
0
0
0
3
0
0
0
1
1
3
1
0
1
0
0
0
0
1
1
2
1
1
0
1
1
1
2
0
1
1
0
3
0
0
0
0
0
4
2
1
1
0
0
0
2
0
0
0
0
1
0
1
0
0
1
0
2
1
0
2
4
0
0
2
1
0
0
0
1
3
1
0
8
2
1
1
0
0
0
2
2
1
2
0
2
4
1
1
0
0
0
2
2
1
0
2
4
0
0
1
2
0
2
2
3
0
1
0
0
0
0
4
0
3
0
2
2
2
1
0
0
0
5
1
0
1
0
0
0
0
2
0
3
2
3
1
2
2
1
6
0
2
0
0
0
0
1
4
0
0
0
0
0
0
1
1
0
6
0
1
0
0
0
1
1
1
2
0
0
0
1
2
1
0
1
0
3
1
0
1
1
2
0
0
0
0
4
0
0
0
0
4
2
1
0
0
0
0
0
1
1
1
0
1
2
0
0
3
0
0
0
8
1
0
0
2
0
0
0
1
0
2
1
1
1
0
0
3
1
5
0
2
0
0
0
0
0
0
0
3
1
1
1
3
0
2
3
0
1
0
0
1
1
1
2
0
0
1
1
5
1
1
0
0
1
2
0
1
3
3
1
0
0
0
0
1
0
0
0
1
3
2
0
0
0
3
1
0
1
0
6
0
0
1
0
2
1
0
1
2
0
1
4
3
4
0
0
1
1
0
0
1
2
0
0
0
0
0
0
0
3
1
2
0
3
3
1
3
4
1
0
0
0
1
2
2
0
0
2
3
2
1
2
0
0
2
0
0
2
3
0
5
0
1
3
3
3
0
4
2
0
1
1
3
0
0
1
5
0
0
6
0
0
0
1
0
1
2
1
2
0
0
0
1
0
2
0
0
0
0
1
1
2
0
0
3
5
6
1
2
2
1
0
1
0
2
0
0
0
0
3
0
0
0
2
1
2
0
0
0
0
0
6
2
0
2
1
0
0
0
0
0
2
2
1
1
3
0
0
1
4
0
0
0
0
0
0
0
1
1
0
1
0
7
2
6
0
0
2
0
1
0
1
0
0
1
0
1
2
0
0
2
0
0
2
1
5
1
0
0
1
2
0
1
3
1
2
1
2
1
1
3
1
3
0
1
0
0
2
0
0
0
0
1
2
0
0
2
0
4
0
1
1
0
0
0
0
0
0
3
0
0
1
0
1
1
0
5
0
0
0
1
2
1
1
1
0
0
0
1
2
5
2
0
0
0
0
2
3
0
1
0
0
0
3
0
0
1
0
0
0
0
0
6
2
0
2
2
1
6
0
1
0
0
1
3
0
1
1
1
1
1
0
1
0
0
2
3
1
0
0
0
0
0
0
0
1
0
3
1
2
6
0
5
2
1
1
1
1
1
0
0
0
0
4
0
1
1
0
0
0
0
0
0
0
0
0
0
0
1
0
0
1
0
2
0
2
3
2
0
0
0
1
3
0
1
0
1
2
2
0
2
0
0
0
0
4
0
1
1
1
0
3
4
1
1
3
3
1
0
0
0
0
0
1
1
3
1
1
1
0
0
1
0
0
0
1
0
0
1
1
0
1
1
4
0
1
1
0
0
0
2
0
1
0
0
0
2
0
0
0
3
2
0
0
0
2
0
0
0
1
1
1
0
0
0
0
1
0
0
2
0
0
3
2
2
1
2
4
1
0
0
1
1
0
0
0
0
2
1
0
0
2
0
1
5
1
1
3
0
1
1
0
0
0
4
0
2
1
3
0
1
1
0
0
1
0
0
2
1
2
1
3
0
0
0
1
5
5
3
2
1
1
0
0
0
0
1
0
0
0
8
0
0
1
3
0
0
1
1
2
3
4
4
1
2
2
0
0
0
0
1
0
0
2
0
2
0
1
0
3
4
1
0
0
3
3
1
1
0
0
0
0
0
0
0
3
0
0
0
0
1
2
0
0
0
0
0
4
0
2
0
0
1
0
1
5
0
1
1
2
0
0
2
2
0
0
0
1
1
1
0
1
2
3
4
0
0
0
1
4
3
2
0
1
1
0
1
0
2
1
0
3
0
0
0
0
0
2
0
2
0
5
0
4
3
1
0
0
0
3
1
1
2
1
6
0
0
1
0
0
0
1
0
4
1
1
1
0
0
2
2
0
0
0
0
1
1
3
1
0
0
1
0
1
0
0
0
0
2
0
2
0
2
0
1
0
3
0
0
0
0
3
2
4
5
5
0
2
0
1
1
0
1
1
5
4
0
1
0
1
2
0
0
1
1
7
0
2
0
0
0
1
0
8
1
0
2
0
0
1
1
1
0
0
1
1
3
2
5
1
1
0
0
0
1
1
1
0
0
0
0
4
0
3
1
0
0
2
0
3
2
0
1
0
0
0
1
1
0
0
0
0
2
1
1
2
0
2
1
1
1
2
1
2
1
0
1
0
2
2
0
0
1
0
0
2
0
1
0
0
1
0
0
0
0
1
0
1
0
5
1
1
1
3
0
0
1
0
0
1
0
0
0
1
0
0
1
1
1
3
0
0
3
0
3
1
0
1
0
3
0
3
1
5
1
2
2
0
7
0
0
1
0
0
0
0
0
4
1
3
0
0
0
0
1
1
4
0
0
2
4
3
1
0
1
0
2
2
0
0
2
0
2
0
1
0
1
0
3
2
0
4
1
0
0
2
2
0
1
0
0
0
1
1
2
0
0
0
0
0
1
0
2
4
0
4
2
3
2
1
0
1
1
0
0
0
0
0
0
0
2
0
0
1
0
2
1
1
1
1
0
0
2
2
0
0
0
0
1
0
0
0
2
0
0
1
0
1
2
0
0
0
0
1
0
2
0
0
0
0
1
0
0
4
2
0
2
0
7
0
0
3
0
0
1
8
0
0
0
0
3
1
0
0
6
1
0
0
2
3
0
1
0
0
4
0
1
3
0
1
1
1
3
5
0
0
1
0
2
1
1
0
0
1
0
1
0
0
1
1
0
0
2
0
0
0
5
1
2
0
0
0
0
2
0
0
4
2
2
1
0
0
0
0
0
2
0
1
3
3
1
2
0
0
0
0
0
2
2
2
0
0
3
0
1
1
0
8
1
2
0
2
3
0
0
1
1
0
0
3
0
0
0
0
0
1
1
0
1
1
2
1
0
2
2
1
0
0
2
0
0
1
2
0
