965
781
820
785
747
705
710
685
728
637
648
603
582
617
622
558
587
586
579
593
612
573
584
551
569
551
536
568
553
500
551
524
527
533
513
552
523
507
496
569
533
577
556
533
461
505
464
471
492
452
530
447
515
512
443
510
484
490
517
477
480
443
438
493
478
465
469
453
383
468
454
479
465
428
510
435
447
462
423
451
467
420
411
431
499
430
418
447
426
470
472
476
383
427
446
500
450
433
416
404
415
449
398
443
367
436
438
364
422
440
375
345
428
367
413
397
397
410
418
424
441
399
383
385
385
444
419
388
470
504
408
430
423
404
399
384
376
434
441
369
381
435
391
399
389
387
376
377
385
368
388
368
394
378
418
408
417
445
342
372
347
386
309
404
340
385
431
389
291
394
319
413
370
363
364
388
356
376
371
391
392
398
398
308
332
385
327
378
403
414
334
388
388
269
364
351
354
296
366
380
362
323
366
311
369
370
339
350
388
382
382
350
375
406
354
334
355
361
355
393
304
375
304
367
306
348
357
332
341
388
379
322
386
313
276
366
338
338
305
323
382
401
324
367
346
372
380
296
365
426
347
371
303
363
321
386
370
361
380
341
370
307
351
348
350
305
378
308
368
361
312
333
351
367
316
254
345
365
382
372
352
352
329
372
361
310
270
362
314
350
359
315
311
228
395
302
345
309
305
291
353
350
366
309
327
348
297
354
331
350
343
324
357
275
248
322
317
299
341
331
293
336
341
272
358
307
339
316
364
311
302
314
355
283
286
340
295
335
320
295
330
288
309
304
258
276
324
337
269
367
334
312
298
335
292
251
323
290
305
319
263
302
308
295
310
323
271
240
306
286
283
313
270
225
264
309
294
377
287
283
272
306
305
303
333
304
306
273
257
196
323
268
334
314
311
317
252
277
289
319
299
351
218
311
290
282
327
247
239
251
269
293
281
261
283
307
331
316
264
270
209
241
247
266
299
248
289
307
301
271
327
298
239
297
301
296
234
224
270
245
214
178
250
240
323
279
273
268
267
204
215
312
314
238
197
318
276
168
261
291
295
275
306
289
306
290
279
255
264
245
205
274
298
230
200
287
246
320
301
275
303
286
238
310
252
236
273
339
252
257
303
303
291
245
289
281
276
264
316
287
298
236
237
256
305
255
276
237
268
266
313
282
279
243
272
271
292
298
234
244
301
271
273
230
302
277
277
216
234
272
285
209
233
244
217
269
169
198
242
236
262
238
225
293
198
301
299
259
248
290
214
244
240
255
220
257
256
254
271
304
313
337
209
273
293
273
268
195
276
243
258
298
256
269
272
179
251
272
173
226
242
284
295
209
258
244
298
237
212
205
228
236
281
221
251
248
303
287
101
236
247
273
309
275
246
185
260
243
254
204
266
291
245
285
227
258
194
257
259
274
244
265
291
201
154
280
277
259
250
253
216
256
248
192
220
295
268
237
220
173
240
174
250
288
270
181
267
202
268
274
249
258
159
264
266
257
196
246
213
181
240
219
291
221
249
283
240
283
256
251
276
191
297
160
251
200
288
267
201
231
232
170
229
284
201
213
230
272
240
217
269
254
202
210
204
251
257
282
241
220
229
215
223
238
275
221
262
222
238
141
258
198
217
203
252
295
249
210
255
182
213
271
252
233
265
226
144
235
260
248
166
206
194
255
127
209
230
208
264
241
191
179
250
273
171
203
217
233
273
218
198
257
243
247
171
182
211
212
231
216
239
179
218
172
203
183
237
219
215
214
232
133
234
282
242
183
260
189
250
253
238
221
247
153
208
229
224
200
175
218
162
217
185
214
259
237
201
191
179
176
134
233
247
261
241
217
228
239
233
240
239
164
206
195
200
253
223
242
253
125
269
166
180
166
204
193
201
137
237
173
178
237
141
229
216
229
197
215
237
148
209
225
192
183
225
233
213
238
184
211
197
229
225
206
220
239
225
183
272
138
219
233
190
201
254
220
252
187
228
204
248
183
176
211
235
189
160
150
214
241
268
237
227
236
220
216
221
249
216
151
208
195
181
193
258
229
212
218
182
247
263
204
203
186
120
158
155
238
168
213
163
243
197
221
237
164
204
206
216
217
224
256
249
137
218
194
205
235
207
161
183
213
259
138
185
145
194
176
180
238
218
206
221
155
116
172
205
190
105
157
222
156
140
177
119
164
187
137
213
239
206
163
234
191
167
158
136
257
225
211
123
219
133
183
195
223
157
175
224
214
207
170
162
162
182
225
204
176
171
172
216
137
194
200
208
135
198
104
222
220
218
179
208
129
221
190
195
160
225
168
204
155
220
161
195
204
167
183
181
232
156
164
237
176
141
148
150
115
220
218
207
219
224
182
208
167
203
209
191
228
244
138
112
207
200
197
164
181
172
156
176
168
176
106
190
168
186
193
192
170
166
195
170
94
224
173
161
229
132
149
166
123
225
161
200
196
137
215
213
179
147
183
117
128
173
140
196
132
225
236
222
208
107
219
80
154
161
116
175
140
106
165
149
207
202
220
159
173
186
158
157
142
158
187
176
201
171
123
211
229
200
175
171
178
172
184
183
162
185
198
226
175
126
122
204
237
205
197
139
142
170
113
187
167
138
100
222
182
124
135
118
168
200
191
122
157
190
175
125
145
124
189
136
125
208
216
194
122
124
227
181
178
182
99
174
124
216
198
108
202
209
181
185
200
221
219
132
192
142
135
147
135
96
159
129
181
155
187
166
182
87
176
180
180
128
176
171
210
129
155
135
158
140
212
192
211
212
119
107
198
140
229
161
194
147
162
174
198
149
184
208
182
215
174
220
172
187
165
174
185
168
123
185
137
205
142
117
200
129
198
157
181
112
168
165
206
149
220
194
157
141
178
131
210
183
128
176
174
149
151
127
151
177
98
229
112
225
178
177
61
157
106
128
161
174
207
187
83
114
149
181
181
181
158
151
199
127
155
161
185
185
159
209
192
160
152
166
165
138
181
162
198
104
153
186
115
187
151
160
118
154
167
179
108
161
175
190
188
166
177
145
205
187
176
94
165
157
155
132
158
186
190
173
186
198
212
140
148
204
234
172
104
194
114
102
174
194
173
176
120
165
211
135
114
211
207
141
151
54
143
147
201
125
187
195
183
117
127
125
128
176
97
155
193
131
199
152
177
97
151
131
198
152
179
181
163
113
204
140
154
186
179
139
150
183
140
122
107
99
153
142
139
146
165
143
156
144
222
166
118
108
161
168
248
181
168
120
140
141
119
158
175
113
191
174
177
143
207
154
171
148
135
143
172
138
156
100
117
108
199
154
182
141
156
142
185
135
188
134
78
127
144
102
148
193
178
105
127
195
147
196
174
162
175
185
162
124
145
183
76
148
161
142
71
146
140
175
132
203
168
178
149
171
135
149
109
154
113
125
203
162
136
151
112
192
153
172
208
150
169
150
143
166
183
163
187
112
115
131
126
139
133
147
187
199
137
188
211
163
57
135
156
188
167
79
172
127
102
192
84
129
141
100
136
126
191
149
101
67
147
137
154
152
141
109
94
122
156
122
162
132
155
122
141
162
181
167
116
101
160
185
130
149
159
138
91
151
153
166
149
159
175
99
122
144
143
128
146
96
66
64
135
112
174
158
100
172
178
125
112
109
114
177
100
136
161
78
139
158
149
103
121
146
131
152
151
153
135
128
99
87
148
176
137
172
148
160
100
116
147
53
115
85
123
105
141
162
137
73
112
118
183
167
155
186
139
127
166
124
134
130
169
168
153
113
146
148
62
137
107
82
155
135
73
133
169
166
207
147
99
166
121
114
146
116
90
118
82
128
163
110
153
125
110
95
106
148
149
117
81
165
160
102
106
153
133
84
130
90
103
161
162
177
92
81
82
118
104
127
68
175
93
90
154
151
123
104
133
169
174
87
117
145
141
114
92
103
118
145
155
155
136
162
173
166
77
130
130
81
171
144
78
162
153
112
157
186
103
170
98
99
134
121
189
129
134
127
83
126
132
115
106
141
183
103
101
128
171
123
115
167
146
89
202
124
70
111
98
136
143
132
110
142
132
154
152
155
81
134
80
155
128
179
179
156
123
110
66
121
168
112
82
157
124
193
158
156
151
168
177
143
156
76
167
167
128
125
83
80
150
125
141
169
100
140
164
169
168
159
168
156
172
145
176
164
132
150
154
123
160
96
71
97
152
104
131
148
121
131
145
138
131
124
51
146
143
136
179
164
105
90
156
95
162
84
171
162
134
141
172
141
106
101
47
156
161
82
112
117
149
132
97
163
132
98
142
95
117
149
91
155
87
115
138
88
160
149
86
119
163
139
173
133
118
137
79
160
99
125
156
193
129
84
164
121
160
140
122
115
195
109
147
148
114
191
140
113
139
52
138
113
128
98
173
176
76
122
85
169
89
150
148
81
119
97
103
93
83
153
148
109
171
107
142
123
93
149
165
123
99
73
88
110
124
122
88
104
158
110
108
138
106
114
137
146
96
121
136
161
114
88
82
45
123
145
103
124
173
189
158
155
127
141
117
132
143
130
146
139
161
133
154
86
71
134
125
149
133
52
121
120
149
73
65
95
104
54
99
115
102
167
185
77
89
120
115
123
73
136
143
134
105
137
85
161
108
67
177
99
154
124
151
93
92
89
87
120
163
110
132
110
59
158
125
145
130
164
168
119
61
165
132
70
106
113
170
116
101
126
144
125
114
69
104
93
117
85
74
125
88
60
130
119
152
73
48
157
110
119
103
69
68
98
67
153
146
134
138
116
165
134
103
144
69
63
151
121
85
100
74
99
132
100
85
92
72
178
27
119
110
136
105
101
105
67
164
125
129
135
84
107
106
159
152
123
76
107
92
156
132
93
102
84
59
144
47
85
104
52
132
111
144
103
111
64
123
83
159
96
108
104
89
59
83
96
51
104
108
115
147
67
130
136
143
101
138
172
79
113
109
115
126
90
127
136
140
135
103
112
116
110
142
89
74
107
104
130
61
75
105
134
124
151
37
128
109
73
155
126
87
134
116
110
71
104
113
176
125
134
58
61
95
128
96
98
47
86
106
137
81
169
146
101
99
97
117
51
108
110
43
106
116
94
67
125
73
84
82
134
123
93
81
85
106
103
130
149
91
53
64
64
53
86
126
146
133
154
108
121
163
64
108
84
157
94
147
96
80
107
93
88
124
81
48
92
119
117
101
111
89
84
121
109
78
88
74
57
92
110
141
116
101
52
75
130
92
51
152
145
46
65
85
76
66
68
61
98
121
107
85
102
117
68
73
71
70
90
110
68
40
77
61
122
126
99
93
76
94
108
96
71
62
61
39
54
142
93
104
71
71
67
119
134
68
76
86
88
94
99
121
111
108
113
130
97
119
83
114
63
107
61
87
86
109
93
85
59
46
72
75
80
106
99
141
129
80
122
90
133
108
87
115
80
51
56
101
48
46
55
105
147
100
98
136
70
127
130
113
82
65
62
78
88
106
104
72
78
104
110
137
114
73
110
94
103
98
102
61
114
107
138
44
66
83
114
93
44
76
92
73
127
45
73
107
96
77
92
48
57
72
107
84
69
145
138
83
105
87
59
82
122
89
94
88
92
73
85
91
140
94
100
85
56
94
134
93
116
87
67
67
104
73
86
98
70
77
107
101
167
145
108
140
149
123
64
45
108
137
69
90
93
106
111
95
106
93
87
132
138
115
110
135
79
62
66
150
115
79
62
87
72
105
160
56
125
107
70
111
108
132
108
137
107
119
72
120
147
72
132
135
141
84
90
119
119
44
55
102
98
97
71
112
127
91
101
118
121
149
136
129
59
66
141
81
103
87
87
70
45
89
140
106
106
75
55
51
130
76
65
63
63
106
116
55
98
87
132
50
62
103
144
61
94
132
92
62
54
80
94
118
81
91
84
89
94
115
96
110
57
128
113
122
68
136
62
131
93
116
79
141
115
84
86
99
88
120
121
74
97
99
111
45
111
70
53
70
99
118
108
87
98
54
81
89
100
55
85
133
104
97
73
71
76
79
78
80
53
58
119
53
129
109
123
100
84
58
85
60
118
103
113
62
46
83
93
94
139
95
67
81
57
85
103
38
74
50
69
102
105
125
111
104
102
64
76
118
58
133
65
101
112
102
99
101
97
103
47
70
120
91
89
56
50
124
89
140
98
116
137
101
114
48
110
68
62
77
82
99
86
91
133
48
102
126
107
145
93
87
108
89
104
53
102
89
116
55
54
92
44
127
139
129
156
100
98
66
90
82
102
70
88
64
116
94
83
69
74
45
50
88
58
77
107
90
81
102
134
99
119
105
91
96
72
92
107
111
111
115
103
131
124
98
117
86
125
142
63
84
106
67
49
116
38
63
33
78
84
110
108
59
122
86
76
33
125
137
109
58
78
114
142
115
70
97
63
52
78
96
62
94
99
89
77
53
81
58
112
82
75
18
64
69
59
107
139
59
90
92
131
110
65
106
30
108
38
51
40
105
67
87
68
88
111
70
77
46
91
37
58
76
92
67
73
81
80
136
76
65
45
107
55
75
93
86
124
118
55
52
86
48
64
58
86
85
80
100
103
74
93
81
41
46
64
33
37
108
100
109
83
107
62
74
122
65
56
113
130
124
39
123
150
55
83
81
49
53
104
95
130
72
111
64
33
115
133
101
84
105
104
104
98
44
87
54
85
73
119
114
49
57
84
74
72
32
104
44
89
76
93
73
100
40
119
107
39
111
125
108
54
52
115
118
59
39
61
80
89
79
82
53
54
63
102
78
58
44
70
84
55
70
75
47
91
105
65
119
61
43
45
79
41
71
43
121
81
97
74
49
105
129
60
124
73
82
87
61
102
113
55
74
71
111
108
83
112
119
152
91
110
109
128
105
114
89
103
105
91
60
57
127
42
68
55
99
35
117
66
61
95
105
112
114
76
99
88
107
60
79
113
79
105
88
121
120
117
60
62
99
102
121
80
97
77
37
40
63
129
78
41
63
124
54
96
64
71
51
112
90
89
82
57
80
74
108
68
114
111
127
61
51
94
66
115
70
85
95
78
129
65
28
84
103
110
84
112
103
125
72
43
87
66
60
73
69
72
115
61
96
31
81
62
40
64
99
136
55
70
79
101
72
80
95
75
67
81
107
143
87
73
41
42
96
107
68
135
102
102
93
112
52
65
82
70
73
115
112
84
47
86
91
65
97
65
55
59
50
95
22
70
81
47
119
113
81
34
94
88
90
50
46
52
79
103
70
39
123
73
34
105
41
57
47
87
116
105
81
61
77
94
66
65
92
84
68
58
63
92
38
81
42
49
20
105
92
67
56
63
55
40
49
59
55
92
70
100
117
80
84
95
82
60
70
88
104
65
65
79
62
81
58
79
97
26
28
48
113
64
82
85
93
81
31
82
31
63
62
121
69
83
119
105
133
89
121
122
115
79
76
71
104
72
49
74
103
81
48
79
92
65
71
119
48
90
70
68
67
58
72
108
69
47
50
85
82
79
114
92
60
46
84
53
29
43
118
53
88
58
117
57
83
78
77
60
94
94
80
52
52
77
86
70
42
77
54
79
74
36
63
82
65
62
57
51
87
89
121
77
98
76
55
40
61
60
81
59
60
76
30
66
91
129
81
95
59
69
88
76
79
86
59
74
79
58
57
73
111
75
103
32
78
67
48
64
54
32
46
42
52
46
84
49
50
91
122
81
82
37
57
109
77
49
69
87
83
60
72
78
72
81
103
47
99
87
87
77
107
59
44
51
36
126
88
108
113
38
51
38
114
59
47
45
58
37
74
69
92
111
54
86
100
63
68
68
111
37
70
36
96
39
83
100
81
68
98
69
121
41
78
83
67
107
39
66
71
111
65
105
98
94
38
73
59
106
84
30
79
77
69
40
141
59
65
81
62
43
87
76
47
56
44
63
90
62
78
39
63
55
88
45
102
62
58
59
68
58
67
88
56
85
48
107
74
53
90
108
105
84
49
59
47
82
105
96
82
42
42
49
111
43
66
45
38
93
63
96
121
93
74
51
26
53
79
67
62
82
77
55
96
48
60
40
72
58
83
55
69
30
45
69
28
43
94
46
90
73
100
114
102
49
57
67
43
61
87
58
105
97
117
81
116
43
34
118
74
54
128
92
48
144
109
43
78
65
108
70
64
78
79
95
114
44
43
100
62
47
76
45
63
79
81
36
79
75
87
97
16
72
38
76
40
67
55
98
75
64
52
22
53
56
94
106
92
94
54
99
75
55
55
64
61
46
47
58
44
35
45
96
55
45
25
53
85
98
82
95
98
77
29
70
46
73
102
55
63
105
105
39
84
85
104
97
72
82
79
94
48
58
60
87
77
84
58
86
48
92
35
64
95
105
107
66
47
57
54
48
87
48
33
44
57
48
85
85
60
31
64
22
47
32
71
83
72
114
61
53
48
35
75
95
73
98
28
52
66
62
54
65
54
35
61
98
72
64
69
51
71
83
77
72
93
73
62
24
94
97
36
75
55
38
66
74
41
41
53
78
56
49
67
81
50
72
62
100
59
98
46
87
65
46
86
49
58
69
104
55
54
81
101
49
82
68
88
88
53
83
96
78
78
39
97
50
56
39
38
90
86
58
45
66
74
69
53
73
89
50
67
109
50
45
75
47
59
52
83
51
55
74
81
66
58
60
95
63
91
44
62
78
102
35
56
41
49
27
90
62
43
31
68
76
53
71
69
76
89
109
81
63
81
95
93
96
69
69
48
68
81
55
87
49
73
60
42
32
73
96
51
44
43
67
58
113
102
64
54
70
50
33
79
43
59
112
49
55
102
96
95
117
56
79
51
83
72
52
95
64
70
33
58
48
41
37
61
77
38
40
90
63
40
41
78
40
72
71
68
100
46
68
77
31
59
42
54
36
87
67
47
100
37
30
95
42
32
29
63
30
99
91
44
86
113
66
27
39
120
47
77
77
81
79
35
47
73
92
62
125
56
31
63
87
38
41
87
49
99
46
118
82
53
60
100
55
51
45
28
66
53
74
74
90
92
92
63
52
40
74
54
75
56
47
126
59
92
83
73
43
79
76
59
60
103
70
73
26
52
51
28
51
26
77
85
68
61
57
32
74
78
41
91
94
108
73
77
95
53
30
97
48
48
51
69
65
47
70
46
46
23
106
50
56
84
72
84
45
87
105
62
68
38
53
47
87
53
57
24
43
52
81
89
62
70
35
52
81
65
50
47
61
51
59
44
61
50
36
43
55
81
78
72
48
27
47
36
83
67
74
63
66
47
58
32
62
81
87
90
34
78
83
32
59
121
34
80
80
102
49
89
66
45
58
64
36
42
79
80
43
56
44
47
90
96
61
73
32
40
42
76
38
51
56
50
56
75
39
54
28
33
70
53
60
42
43
66
36
59
47
40
61
72
27
72
100
56
62
83
58
76
23
34
52
88
44
27
86
28
40
50
56
56
85
26
52
114
52
60
70
43
40
53
68
125
56
49
44
93
79
50
32
80
53
46
36
53
62
60
73
68
77
59
37
16
47
50
85
71
19
40
85
95
40
101
43
76
55
30
67
61
58
46
60
50
53
86
48
72
23
20
65
70
58
35
85
48
47
56
47
111
43
46
45
57
35
80
32
63
90
59
80
69
69
55
67
59
38
63
59
58
28
103
103
27
56
65
79
76
42
58
53
43
80
78
92
86
63
79
32
71
64
76
50
26
80
44
50
48
53
44
55
29
73
33
57
51
26
49
38
92
63
85
34
53
77
71
46
31
56
76
76
37
62
63
61
29
73
65
67
80
52
54
55
61
39
80
51
20
89
41
30
53
35
48
73
52
16
30
34
87
93
53
65
60
70
91
93
32
69
30
122
42
73
95
76
41
43
35
70
24
41
66
118
80
61
50
28
69
54
58
65
47
69
29
39
40
51
36
63
88
71
71
75
63
78
50
52
63
42
64
71
41
17
35
76
74
39
82
40
61
28
58
45
50
67
61
30
37
67
76
80
90
50
41
57
40
49
56
57
58
40
54
68
70
40
60
56
62
31
47
85
74
92
45
29
62
55
26
69
43
64
64
66
35
11
76
44
13
43
86
26
36
40
30
71
92
32
21
38
72
48
66
65
63
64
35
62
79
38
75
51
37
53
39
31
25
30
43
27
69
41
45
31
68
50
42
30
43
31
52
51
49
63
55
53
42
51
52
38
53
32
45
46
64
34
20
79
84
58
69
57
94
88
29
49
43
30
49
63
50
33
39
61
63
50
34
47
50
72
43
50
77
82
78
90
75
82
38
94
20
42
51
49
72
98
52
94
53
26
22
38
46
74
87
16
56
47
28
35
52
54
36
69
32
67
93
19
34
53
38
57
81
71
54
45
28
72
57
81
91
43
78
75
46
45
57
42
32
81
76
99
89
76
34
59
63
36
12
37
47
15
18
57
77
41
62
71
71
46
45
38
65
82
72
43
52
69
62
42
73
43
58
93
50
60
56
96
36
36
47
38
53
54
28
98
87
59
51
68
72
34
88
44
63
33
95
56
51
67
37
56
20
77
77
33
56
87
66
65
53
46
33
75
56
38
33
72
57
84
39
24
52
26
68
45
56
71
43
50
64
27
42
42
42
59
45
44
48
44
29
72
54
39
37
51
91
78
38
40
24
71
49
58
58
39
25
51
83
74
26
54
67
39
50
70
43
43
54
55
59
31
49
61
58
35
70
69
48
90
38
26
15
45
75
21
18
47
49
38
47
25
35
63
78
33
69
26
95
81
41
41
49
43
105
52
37
49
77
76
55
51
87
46
25
30
85
61
57
61
19
27
58
35
52
41
57
44
64
70
30
22
35
66
37
92
42
41
17
47
32
67
51
32
70
33
63
23
32
50
57
64
45
28
37
37
73
29
33
27
59
64
72
24
44
61
26
73
74
36
60
32
45
66
20
24
44
90
44
81
39
53
70
43
40
42
35
64
25
30
24
64
68
16
42
46
50
66
48
86
68
21
64
56
67
26
56
48
27
50
62
56
22
26
35
59
38
47
60
29
46
41
35
54
87
21
21
38
64
67
50
57
30
67
15
55
52
62
82
63
54
40
31
45
39
16
9
77
35
53
31
43
47
47
36
38
60
56
64
50
78
43
30
46
91
55
41
36
39
51
68
63
28
52
42
75
40
46
73
27
24
71
27
60
35
88
31
71
43
33
37
56
41
70
59
71
65
93
42
58
58
63
47
52
37
29
44
37
70
50
81
48
47
20
76
100
36
34
71
56
64
42
24
34
25
43
53
39
72
28
31
48
46
89
31
41
52
23
75
66
39
27
40
62
64
64
41
62
51
20
68
30
45
31
60
55
38
23
37
64
27
35
33
49
45
40
65
28
48
61
42
42
59
72
81
25
27
33
22
49
64
39
34
32
30
67
57
23
66
17
106
76
29
78
72
52
59
57
84
24
16
86
36
37
20
52
36
42
25
35
78
35
56
40
55
52
49
38
66
70
53
53
54
14
56
40
28
47
67
45
37
46
42
53
71
40
41
42
52
76
54
33
37
84
30
53
59
16
73
67
38
57
25
21
46
44
49
92
26
37
93
58
24
56
55
46
61
51
51
95
27
63
11
26
74
41
98
47
62
60
26
79
51
53
57
66
38
47
42
85
29
81
17
36
21
59
45
16
40
37
29
49
81
66
28
18
70
61
38
57
27
49
48
12
51
10
25
62
22
50
75
35
88
69
37
43
29
42
32
34
36
51
35
51
24
44
38
53
48
38
101
43
44
74
57
20
63
52
61
37
43
11
33
81
49
26
24
72
44
40
15
14
42
43
86
58
80
20
28
72
68
67
54
52
77
49
65
53
55
27
31
43
57
47
27
44
41
31
32
59
36
41
28
62
30
46
43
48
75
99
64
21
32
42
22
16
16
61
31
9
47
27
26
44
41
50
36
67
39
72
69
57
35
68
23
79
31
72
64
62
47
66
25
31
47
42
15
56
105
36
51
46
42
28
37
28
23
15
63
66
20
73
60
72
31
36
35
86
78
28
38
44
27
86
13
40
77
37
101
59
40
23
62
50
38
40
77
28
36
64
50
24
30
25
15
79
38
68
65
39
43
29
59
49
60
41
33
63
50
24
10
30
35
17
12
54
52
41
28
58
55
14
34
45
57
74
22
50
23
56
59
32
21
42
34
64
32
52
54
51
93
10
24
26
33
62
52
53
72
30
71
48
55
66
22
26
41
25
80
55
52
37
19
74
63
39
56
32
43
51
26
53
68
50
43
54
33
40
39
64
29
47
31
85
41
21
34
52
70
28
37
38
41
46
16
66
61
57
35
34
52
37
25
56
34
40
58
15
36
39
51
64
25
37
28
26
27
14
34
32
66
57
32
42
47
47
84
100
41
22
33
26
73
35
28
31
63
37
14
44
42
65
27
60
42
69
45
29
41
29
48
60
61
39
50
55
71
37
67
33
65
20
66
56
19
8
54
36
44
18
28
23
45
53
27
41
59
29
34
30
14
17
72
42
61
59
47
21
51
45
58
48
35
40
59
41
30
12
15
41
18
25
50
43
20
51
46
48
41
27
36
29
28
79
9
57
29
26
32
42
25
54
23
11
31
52
57
37
19
39
20
38
13
43
38
53
45
46
39
51
61
61
59
56
38
39
41
41
58
31
29
22
38
34
30
40
63
44
51
46
23
42
97
48
39
18
39
33
57
33
47
57
66
42
26
37
62
53
40
36
27
51
67
43
31
62
41
29
43
18
27
17
66
9
36
21
57
49
40
30
62
54
30
44
54
55
39
37
65
73
30
41
52
41
16
12
38
63
63
64
81
63
59
71
57
20
62
32
74
57
30
24
62
16
32
21
19
57
24
58
62
12
24
31
31
73
38
44
72
34
39
26
28
43
60
55
59
65
51
56
37
38
49
47
41
30
62
63
70
24
16
26
60
48
54
58
67
25
44
69
19
47
69
26
37
27
61
32
25
19
51
60
22
27
24
45
28
35
49
28
13
51
39
37
86
66
59
56
32
39
63
35
42
40
27
28
41
36
61
52
33
39
83
22
47
30
83
29
57
34
43
54
44
46
15
51
54
17
44
37
21
52
64
76
33
37
17
69
32
62
76
40
28
39
56
32
39
44
46
49
36
47
53
60
64
46
13
32
35
71
42
41
34
18
38
41
55
72
61
59
49
24
66
42
45
45
18
48
35
61
26
8
58
41
80
31
50
50
32
21
47
28
75
44
30
38
45
52
20
54
45
32
23
69
46
40
70
43
65
70
57
43
46
38
79
28
41
41
58
43
47
73
39
23
38
71
67
75
47
59
22
21
78
14
20
71
33
27
34
58
48
31
68
24
66
54
26
65
54
23
12
51
28
31
60
61
40
38
18
31
17
14
11
57
50
27
73
23
20
45
33
59
55
16
50
37
37
55
38
41
15
21
40
49
59
13
11
47
25
20
77
41
29
28
26
29
43
19
30
63
27
29
61
47
32
37
20
49
23
35
67
75
38
31
63
23
28
27
43
19
58
29
47
36
17
61
24
25
69
53
55
23
40
65
34
33
27
68
16
61
30
35
49
28
30
10
21
27
26
51
42
58
30
40
19
15
43
43
29
36
50
24
58
71
47
24
53
50
47
38
68
42
38
18
61
39
70
55
25
75
68
41
23
31
56
50
54
21
30
45
22
16
33
25
23
20
21
56
25
38
20
38
46
49
64
49
37
46
59
24
39
35
36
47
72
70
16
38
24
55
58
48
29
31
49
47
47
22
41
15
61
76
67
41
47
54
48
31
65
23
34
34
33
35
24
14
43
22
80
20
28
29
53
30
37
35
42
31
70
63
18
15
55
34
17
58
25
41
58
40
25
50
33
15
41
47
19
23
37
11
41
51
30
40
21
53
35
19
45
24
19
50
42
19
53
10
21
43
29
85
73
86
73
66
72
53
62
32
37
30
21
40
11
27
22
18
40
13
31
32
37
62
39
44
14
19
60
27
57
29
16
46
10
27
35
28
76
32
65
15
15
28
35
48
19
31
27
59
70
49
48
59
14
29
67
21
20
22
25
24
17
36
50
24
46
31
16
23
21
34
38
37
54
47
18
40
41
48
39
56
43
78
24
21
34
30
22
35
66
53
43
52
39
25
34
40
54
56
40
30
23
32
31
15
16
11
30
49
69
51
40
31
75
43
25
14
22
16
66
27
33
50
7
36
45
44
33
62
57
63
55
63
23
26
59
29
69
50
51
31
70
53
47
61
57
56
54
45
32
36
61
44
47
10
24
46
28
31
20
48
8
38
50
58
56
54
32
31
16
30
45
36
39
12
54
17
32
36
22
48
56
35
19
61
71
46
27
21
16
24
16
37
55
63
34
33
29
56
34
64
38
70
28
70
35
28
55
58
36
51
13
26
19
13
17
53
36
34
26
33
73
61
14
42
43
41
39
31
73
12
36
44
47
24
31
46
27
14
51
35
48
49
47
42
11
60
33
46
16
18
24
41
44
54
14
20
25
45
42
51
37
31
36
38
50
14
9
19
64
30
55
33
36
58
20
22
39
21
23
14
19
32
50
30
19
25
29
66
65
10
45
37
30
20
57
61
32
22
57
45
38
14
34
58
20
55
55
27
21
34
18
6
59
54
54
22
66
47
43
33
33
39
40
12
22
33
29
15
27
49
46
54
47
23
17
7
36
25
38
34
32
9
44
49
32
72
20
17
40
62
61
17
54
20
28
54
26
17
23
66
12
56
35
42
32
61
48
58
42
15
34
20
45
40
37
42
55
17
45
32
22
17
26
66
45
49
31
13
32
66
25
27
64
31
61
29
25
14
7
62
27
42
7
60
46
62
16
56
29
35
17
16
20
54
21
23
42
17
23
42
39
49
30
31
40
38
19
51
23
36
30
47
40
26
64
33
68
43
29
24
43
31
42
39
18
35
23
36
32
72
13
23
17
27
14
29
28
26
25
33
45
27
37
21
57
69
22
33
14
13
31
11
17
43
52
65
18
51
53
24
20
47
16
13
61
54
40
70
47
18
14
16
28
74
37
10
19
18
34
25
26
23
71
65
32
39
12
65
23
34
39
18
47
32
13
44
12
19
26
48
47
31
49
47
38
17
13
32
59
17
27
46
55
7
35
32
35
37
41
41
37
19
57
56
42
25
31
33
37
48
38
6
42
48
12
31
25
35
24
23
6
46
17
32
44
48
38
25
31
38
14
36
11
29
25
13
32
60
74
21
43
34
51
31
29
18
67
18
38
24
15
50
22
40
43
43
33
63
67
25
28
9
22
22
40
27
35
12
44
34
15
48
18
37
50
9
55
37
44
20
40
63
37
39
22
26
15
37
26
29
23
22
18
28
17
29
30
20
40
34
22
14
36
17
40
25
44
40
21
17
6
35
30
47
40
16
31
27
58
27
54
59
36
80
35
21
27
41
57
22
56
55
51
50
13
11
49
54
49
21
21
32
44
34
23
32
40
36
19
37
32
49
52
45
31
41
39
58
41
20
34
36
32
40
18
38
23
57
17
43
48
30
24
26
30
18
19
51
23
56
48
20
7
62
58
51
53
16
20
39
28
11
41
36
10
32
40
30
62
36
26
53
22
30
34
21
27
23
53
31
31
28
57
11
33
50
55
43
37
32
21
23
57
22
83
60
17
31
14
48
59
9
10
32
23
58
51
29
23
78
32
18
7
58
39
46
27
23
37
57
12
27
35
6
9
9
29
47
32
43
31
15
28
26
69
39
34
38
19
57
30
39
23
13
10
69
53
32
42
43
22
31
21
14
51
25
54
38
52
20
18
49
6
41
22
46
37
36
35
43
13
18
40
33
27
16
50
43
33
26
19
34
13
34
39
23
51
45
19
33
24
31
33
15
10
33
14
41
52
34
31
13
33
27
32
40
7
42
27
31
74
25
24
18
17
15
28
33
27
33
37
51
24
57
15
59
21
25
37
38
22
42
28
6
20
34
12
48
21
37
47
8
1
29
39
29
62
16
39
34
14
27
14
18
33
47
28
38
61
34
42
38
43
10
16
40
46
35
33
17
21
13
14
22
35
41
56
7
18
47
21
33
39
27
31
23
32
57
55
49
34
25
30
27
46
17
41
26
18
33
31
15
21
70
10
17
18
15
15
54
24
30
69
25
25
21
57
18
37
11
15
17
51
42
65
36
8
52
40
22
28
19
56
24
25
41
15
22
30
20
28
52
49
23
8
32
60
23
24
8
15
54
25
22
13
38
14
32
31
50
32
48
33
28
23
26
60
64
13
25
5
15
19
9
27
39
20
20
28
54
40
51
24
26
36
32
29
32
31
43
43
41
30
22
10
25
32
39
33
25
21
46
23
31
23
59
19
18
38
19
15
50
30
8
20
37
20
25
45
30
44
60
18
53
42
40
9
13
25
18
20
54
33
20
25
37
24
41
49
45
29
14
26
20
18
47
25
27
26
16
10
20
43
34
8
38
54
22
46
27
45
40
32
18
16
32
18
16
10
11
4
35
35
31
31
11
63
37
29
50
22
21
58
40
26
34
15
29
35
55
33
51
40
24
33
31
7
42
44
22
13
18
14
34
26
42
12
29
13
24
57
25
54
15
40
14
38
23
12
23
19
16
26
44
38
45
41
50
42
19
42
24
53
44
8
52
20
50
40
47
46
43
45
20
37
46
12
25
33
42
36
23
12
42
37
28
17
42
31
29
16
23
38
27
54
25
24
11
27
30
25
46
42
40
47
31
47
7
42
25
22
29
41
29
38
15
26
29
20
28
11
20
32
36
23
69
53
37
48
41
35
30
21
57
37
28
21
26
9
29
30
47
41
23
47
30
39
34
19
30
47
21
32
26
15
11
8
17
54
67
33
17
37
54
9
34
37
36
23
12
20
17
11
20
48
29
38
19
40
66
25
29
25
53
10
27
11
11
25
14
23
45
53
49
39
31
32
51
26
20
51
19
28
41
19
32
57
23
23
13
28
55
20
28
11
15
37
62
60
20
58
56
34
69
33
35
28
46
30
52
21
6
21
56
24
13
24
24
29
15
33
28
30
7
43
9
55
34
10
45
31
32
32
60
22
27
9
35
22
30
33
25
10
12
29
35
31
64
28
75
47
40
41
38
16
38
23
48
33
39
38
20
9
32
16
30
17
43
10
30
36
15
36
42
32
48
19
18
21
21
39
39
34
24
11
8
6
12
28
37
48
28
3
19
57
14
10
44
16
17
39
14
21
60
15
28
38
26
55
9
24
40
13
39
14
28
39
39
19
30
28
32
51
43
20
22
22
65
28
11
3
30
11
42
15
32
66
35
70
18
35
27
41
35
32
54
42
37
33
37
12
5
24
49
18
45
51
26
12
18
11
11
15
42
21
40
12
20
28
12
35
7
31
27
19
50
27
22
37
54
8
33
30
11
53
23
5
24
49
49
23
16
35
32
25
39
38
37
7
10
37
61
54
46
68
20
20
15
12
45
13
13
35
41
16
17
33
17
48
46
86
16
16
22
26
27
24
19
13
19
11
37
27
27
34
36
45
38
18
17
44
20
34
36
35
22
11
14
46
11
44
19
28
30
22
22
19
40
24
8
34
25
43
51
18
13
47
49
54
12
16
11
58
27
8
54
31
12
9
33
64
34
45
46
18
40
15
30
11
15
9
28
30
31
12
42
35
12
12
22
36
49
36
43
22
57
35
56
24
37
17
42
33
9
10
62
39
11
17
9
22
37
17
21
19
15
33
39
16
17
19
18
15
21
24
16
47
16
45
32
24
12
13
18
43
42
16
19
50
19
34
19
21
34
30
63
28
46
20
16
7
20
11
24
21
16
32
13
24
15
37
40
13
11
20
30
27
14
25
17
60
26
48
6
30
23
24
7
39
24
14
21
15
54
53
50
24
13
38
31
45
32
25
8
37
36
24
14
34
42
43
30
19
32
19
27
34
17
22
8
34
32
35
10
17
12
15
21
25
19
23
6
39
20
20
25
27
52
34
20
19
24
59
38
37
42
26
53
45
52
16
12
25
39
7
16
14
24
13
17
44
31
24
19
20
16
34
28
37
23
23
13
48
25
14
21
29
36
33
43
14
26
15
9
25
29
11
8
44
21
14
31
10
24
12
46
44
6
22
57
36
24
30
16
40
40
42
32
30
18
9
45
34
36
38
45
53
20
36
34
7
22
29
15
43
36
19
20
51
25
16
32
29
52
32
32
44
26
44
21
32
4
27
31
30
21
29
13
28
31
15
14
17
29
7
47
56
41
14
22
24
14
8
25
17
30
15
20
28
14
19
15
8
23
7
54
34
37
40
41
4
54
16
25
36
17
36
30
32
38
6
19
26
26
43
14
9
20
50
14
27
20
40
21
54
39
24
46
39
39
38
18
23
9
20
10
44
19
64
9
3
47
34
19
20
5
31
20
23
44
61
30
24
26
32
7
38
30
27
9
32
16
30
13
18
11
14
10
70
54
12
14
23
12
12
24
30
22
17
21
31
23
50
31
29
8
16
15
26
46
34
24
10
40
28
45
24
16
10
53
13
53
31
25
39
29
39
9
31
10
30
20
23
32
23
14
11
58
48
15
34
34
10
19
61
30
14
12
31
19
30
17
13
31
23
36
17
8
11
11
36
32
37
22
37
31
17
18
26
35
35
17
61
19
21
9
23
46
17
33
50
11
29
19
11
9
60
27
28
49
20
32
10
25
13
18
12
26
10
38
42
39
32
31
22
8
28
44
44
51
47
18
24
28
28
23
30
24
22
20
20
41
24
21
28
37
18
33
24
15
23
12
28
55
38
19
28
12
26
15
19
47
23
21
49
46
4
20
35
45
37
30
24
46
14
20
28
29
17
9
17
12
24
47
29
23
58
15
11
53
13
22
28
17
29
46
26
16
32
13
27
24
32
6
19
36
50
37
38
61
31
46
50
19
13
20
41
18
33
23
11
26
39
33
22
48
19
24
32
24
45
44
28
33
28
59
28
17
26
26
8
15
39
51
55
35
7
23
13
18
38
42
23
32
23
11
5
53
25
20
23
21
19
13
12
39
41
29
33
49
41
39
16
42
25
45
30
21
49
49
30
30
36
10
25
11
7
42
8
13
16
28
16
15
42
15
25
31
24
24
16
35
20
26
16
19
12
6
19
24
25
39
8
19
51
40
43
11
35
42
25
26
19
17
47
13
16
20
17
24
4
20
22
20
21
27
20
20
5
22
8
32
32
21
33
46
9
46
38
16
20
25
35
32
11
6
21
22
24
52
18
28
12
17
13
7
25
8
18
36
35
23
19
20
35
19
33
23
21
47
14
9
9
11
3
10
17
6
10
14
10
20
21
20
30
37
29
35
15
31
16
16
51
9
10
28
20
13
21
24
41
21
17
26
24
18
11
15
21
16
8
32
19
43
27
24
30
21
12
27
7
30
11
26
17
32
28
18
33
27
39
24
46
6
26
39
15
33
9
22
33
24
20
25
41
19
7
41
30
38
32
18
20
19
21
17
50
8
36
34
37
30
12
4
20
19
21
63
17
39
28
14
32
31
29
19
29
12
16
29
26
17
41
13
28
56
16
41
65
22
36
47
1
26
19
21
17
10
24
28
23
61
16
22
22
34
20
29
29
12
31
24
30
6
62
32
14
8
33
19
21
17
22
56
18
27
38
30
22
10
54
22
24
16
7
23
28
13
46
21
20
27
45
21
14
17
31
25
27
16
51
44
50
19
22
25
71
65
32
27
13
16
36
35
19
28
29
12
7
44
25
16
10
30
40
41
37
9
19
15
37
23
18
25
18
16
24
19
32
49
21
35
22
20
4
29
18
32
22
15
18
12
27
19
13
21
8
17
16
27
28
32
18
12
16
31
13
46
15
16
44
12
12
21
41
28
22
15
19
24
49
29
20
15
40
18
34
13
38
36
16
40
33
11
28
34
14
10
10
12
27
7
28
22
50
20
50
10
23
13
29
10
7
20
65
30
36
29
13
9
25
11
15
9
23
17
19
23
23
31
43
7
16
10
3
21
22
7
32
33
35
8
13
31
22
3
12
19
17
12
26
10
36
36
59
18
23
36
10
12
23
39
17
6
16
45
19
5
8
51
44
11
14
18
15
38
27
29
38
10
23
19
15
10
7
8
21
18
19
20
16
11
55
11
28
25
33
34
26
20
18
5
31
32
11
23
16
17
23
21
17
8
9
27
32
24
30
6
14
3
36
43
26
20
17
13
21
6
16
28
28
23
28
9
12
15
33
11
33
8
22
11
5
27
10
37
22
18
24
34
15
23
42
29
34
35
35
23
4
13
23
40
37
23
21
29
13
10
26
15
35
22
24
18
36
10
7
32
32
14
17
27
10
12
16
15
3
5
4
13
7
31
26
15
37
44
30
29
26
31
27
13
11
30
24
19
31
32
33
21
17
24
59
23
35
30
35
25
17
20
44
31
11
27
19
13
34
51
18
6
22
24
8
40
6
32
14
5
22
31
40
16
26
22
12
13
12
42
29
10
29
13
9
32
45
20
26
12
14
10
10
10
9
30
16
17
27
18
17
35
47
20
15
29
16
19
52
50
13
20
10
9
49
47
27
1
21
47
6
35
3
22
19
12
26
12
23
12
21
9
29
34
24
24
11
26
31
12
28
16
26
26
33
16
31
32
17
8
41
11
12
13
44
15
56
24
10
14
32
23
28
18
12
15
41
34
57
40
46
19
18
20
21
25
42
19
7
40
28
27
28
13
23
29
4
10
18
13
25
23
23
24
9
16
17
25
33
40
25
13
22
33
2
5
7
27
18
39
11
13
22
12
14
12
5
27
17
17
9
13
16
30
46
35
22
21
29
5
30
25
12
38
23
16
25
30
15
25
34
21
14
29
33
16
22
9
28
18
49
16
27
31
30
22
21
8
40
24
31
12
47
7
40
19
20
24
20
26
36
7
24
4
39
14
28
30
21
18
14
36
20
16
19
21
12
30
5
18
29
18
19
14
19
23
30
49
16
19
47
29
12
47
29
1
2
25
18
13
21
25
14
6
13
23
34
15
9
12
36
32
10
12
35
12
31
14
51
44
26
39
27
14
13
16
18
23
13
14
31
14
32
13
59
60
9
30
15
58
60
20
42
22
38
16
29
12
15
33
17
49
24
28
39
26
22
14
14
24
14
16
7
16
48
50
47
60
7
21
48
18
25
16
16
5
31
10
21
12
9
11
12
17
16
3
7
20
18
41
48
31
7
37
19
18
19
31
11
18
14
27
26
25
10
13
22
19
22
8
29
6
7
15
18
26
33
9
23
8
34
20
5
24
16
17
42
27
23
26
12
7
19
31
18
35
16
22
46
15
7
17
17
22
11
21
17
8
16
14
34
39
20
15
17
17
5
6
35
27
16
15
2
31
8
45
7
18
7
14
45
23
11
23
10
28
16
5
23
18
13
17
39
16
35
15
44
25
22
25
29
15
51
13
4
8
14
33
21
17
7
23
34
25
5
21
47
38
27
9
18
26
43
1
27
38
29
18
19
14
27
22
29
16
15
28
20
26
24
24
31
26
13
18
33
24
23
23
21
28
11
15
20
14
17
13
23
27
20
24
11
18
30
6
11
33
38
10
8
16
16
19
28
27
19
21
13
49
58
21
37
32
11
31
14
8
15
18
15
37
7
16
15
47
4
9
15
8
45
57
20
18
6
15
7
12
18
26
23
24
16
7
23
22
9
9
20
25
11
4
53
11
41
45
55
21
17
10
12
20
17
11
6
20
8
12
12
25
20
28
24
46
3
29
18
30
23
37
30
16
12
37
44
31
6
10
26
13
21
22
28
29
6
17
18
14
17
4
16
15
30
18
36
28
28
21
27
48
15
11
26
7
19
18
8
20
22
40
35
43
5
27
29
11
9
19
15
14
36
20
41
7
26
5
23
26
7
7
15
10
23
18
39
17
6
11
21
15
25
17
21
28
46
37
15
12
21
16
6
5
3
7
18
37
23
6
28
26
18
6
9
8
15
23
13
31
8
21
42
10
11
27
13
8
24
12
29
18
24
14
9
18
39
24
19
20
44
40
18
15
4
27
29
9
14
10
14
20
11
14
34
19
38
33
25
19
25
3
28
17
16
35
16
11
52
14
4
10
11
25
46
8
21
24
10
13
36
36
32
19
19
17
13
29
26
23
21
33
7
17
28
15
22
20
25
33
13
20
9
12
6
13
23
3
10
14
39
11
20
17
16
24
9
53
3
60
12
26
23
24
12
10
31
10
21
40
20
13
34
30
22
7
43
14
12
51
18
31
44
29
4
19
25
22
9
32
15
13
31
9
10
17
55
21
30
32
14
15
15
19
28
29
14
33
8
21
9
10
52
4
19
24
10
15
48
50
33
19
24
31
24
10
4
12
30
26
7
9
6
30
45
15
22
19
29
11
9
31
21
16
28
23
28
34
49
10
29
6
5
24
20
9
12
22
2
15
2
9
15
38
34
11
10
24
10
7
34
18
10
27
8
6
12
17
17
44
16
14
18
16
39
18
23
11
26
21
5
28
19
27
13
13
8
32
20
6
29
28
32
19
41
22
6
15
24
29
32
22
30
17
27
23
20
17
21
14
14
34
15
24
22
7
23
30
58
19
23
13
30
6
21
39
5
13
11
9
17
7
28
28
11
16
29
31
12
32
11
28
6
30
29
29
41
27
9
14
33
47
28
21
37
18
13
12
11
9
23
24
18
12
39
17
15
17
13
25
6
36
6
29
26
28
32
28
24
16
16
22
23
22
16
37
7
9
26
24
29
16
29
42
34
35
13
12
18
7
11
36
19
22
40
26
22
35
7
26
27
12
5
15
7
24
29
11
12
18
16
27
9
20
11
27
13
49
13
40
39
36
27
21
10
14
33
29
8
11
16
4
12
19
16
6
12
16
4
10
13
11
37
23
17
36
38
40
40
30
19
18
28
16
11
1
30
19
21
8
13
28
25
10
30
26
19
39
29
43
10
27
13
13
43
10
27
12
12
10
11
15
20
27
13
26
10
14
41
24
22
18
25
21
26
21
14
2
6
25
22
12
45
5
12
14
7
5
36
38
8
19
11
15
39
35
36
37
27
10
17
30
22
7
17
30
23
16
29
31
30
30
30
55
15
32
44
8
22
26
19
4
15
11
13
15
26
34
10
27
29
6
19
23
13
20
37
37
13
15
25
21
9
32
12
21
24
2
15
34
23
4
12
19
23
19
33
25
13
27
31
13
15
23
24
12
21
11
6
3
17
12
29
27
20
48
31
50
23
39
52
53
55
11
16
33
11
16
26
35
10
13
21
28
11
23
19
21
35
18
31
17
21
6
11
24
6
11
39
31
17
12
14
23
10
17
9
9
20
22
38
8
18
23
4
6
28
16
12
26
10
0
6
11
26
15
6
20
8
3
28
8
7
15
30
22
23
16
20
24
20
28
5
21
8
19
12
20
11
11
11
20
6
6
17
7
11
26
27
23
23
11
9
10
24
24
5
26
25
1
22
20
8
15
14
17
9
28
15
41
35
22
8
10
23
14
26
29
22
12
21
22
25
19
33
27
30
40
8
8
44
17
29
9
23
34
9
25
32
23
34
33
30
5
6
15
38
28
9
34
27
29
15
10
13
4
10
13
26
12
28
37
44
14
14
13
11
12
10
16
15
13
10
24
10
32
30
9
26
26
30
19
22
23
19
25
41
12
35
27
11
22
7
15
19
17
44
11
21
19
17
18
25
7
5
17
20
13
41
4
6
8
3
25
5
26
17
33
4
22
13
21
37
14
22
6
9
17
31
13
11
10
5
10
13
22
34
15
22
18
5
46
4
24
18
20
36
34
10
18
36
16
15
13
17
8
4
15
16
42
21
27
18
3
25
24
13
16
13
5
5
29
33
8
11
11
7
4
35
43
7
10
15
25
20
46
24
14
23
14
9
11
5
13
29
34
1
17
38
20
10
12
15
22
7
16
53
27
40
35
25
13
19
28
15
8
3
9
31
4
9
21
3
15
12
6
17
9
14
10
9
14
6
14
23
8
18
12
29
11
23
12
28
11
6
9
11
11
14
13
3
6
26
7
17
10
9
23
20
7
35
32
9
22
32
22
35
37
37
16
16
12
6
43
25
1
23
7
9
37
11
10
31
23
3
33
23
24
16
11
10
7
14
30
18
24
24
19
45
7
54
2
15
23
3
18
15
18
7
20
8
26
21
25
35
10
10
14
22
7
10
10
11
9
35
14
22
13
29
5
32
4
30
11
28
6
18
25
33
10
18
27
13
20
8
33
19
11
22
49
35
5
22
17
13
5
35
35
16
19
27
16
5
2
2
24
31
23
15
7
7
41
7
30
19
7
21
21
24
10
52
7
50
12
27
18
46
26
22
28
18
10
37
8
7
28
36
38
17
14
5
34
21
41
9
16
12
27
35
15
19
29
15
26
2
7
9
34
8
30
5
15
29
19
10
27
36
11
42
31
13
25
7
5
20
3
24
3
18
14
22
25
12
2
4
11
28
17
37
24
9
13
5
32
10
22
8
20
19
7
17
31
16
17
8
15
23
7
11
25
38
26
42
24
24
27
24
42
33
12
14
12
5
23
32
37
17
25
12
21
13
25
14
16
21
13
19
24
24
23
13
25
27
17
26
17
10
44
25
10
23
13
22
21
4
8
10
10
8
8
39
14
16
15
15
19
30
24
38
10
19
31
19
9
10
10
27
19
9
36
10
21
18
10
21
20
12
9
16
6
37
3
3
22
19
10
22
10
25
4
9
12
17
8
29
20
21
17
33
23
18
41
35
7
3
28
14
14
31
20
30
27
27
36
15
14
12
16
7
24
32
21
23
11
20
13
15
10
15
35
37
10
5
50
9
33
39
22
19
13
27
14
35
9
30
8
20
32
17
21
8
13
21
10
16
47
16
13
31
4
7
12
16
15
8
26
15
37
19
16
11
22
8
24
22
6
29
9
17
29
18
24
21
15
9
20
10
7
12
12
12
21
2
25
9
16
2
22
19
7
3
2
14
9
9
20
9
13
14
22
25
12
28
7
14
21
24
14
16
17
25
11
6
5
14
13
11
12
13
35
14
25
4
23
15
16
20
22
24
10
17
17
5
6
27
5
8
26
10
11
17
13
21
2
23
19
30
23
12
25
21
25
15
6
18
17
23
39
8
14
7
10
11
12
30
5
10
26
5
12
13
23
12
20
15
44
28
6
7
31
31
30
14
12
30
4
5
14
6
45
13
22
5
12
9
20
15
32
3
13
17
21
22
17
12
17
11
12
38
20
18
33
20
28
17
10
7
41
15
9
21
16
12
5
29
14
14
29
26
33
14
12
4
29
33
23
9
40
5
5
25
16
22
13
6
29
12
27
8
17
30
7
24
18
2
12
7
17
37
9
35
27
7
5
9
3
8
23
14
8
4
7
7
3
16
20
28
8
48
23
10
13
14
22
7
28
15
21
6
8
22
18
24
9
17
13
17
13
9
30
24
13
27
10
4
25
43
23
7
14
27
9
10
11
12
23
10
25
26
13
19
21
9
7
6
3
23
9
33
11
30
21
19
34
23
23
21
22
10
14
21
8
18
21
7
26
18
19
20
25
28
28
11
7
21
11
19
17
4
15
8
8
11
3
2
4
5
7
9
4
3
5
4
27
36
3
23
26
27
17
14
35
23
12
9
16
25
21
12
27
18
16
10
4
20
6
15
22
6
21
15
7
30
41
13
36
3
5
20
26
15
30
12
10
20
3
4
4
4
15
24
18
22
6
21
16
5
23
39
10
19
24
22
29
11
5
7
9
14
25
12
28
42
20
22
21
11
19
20
21
12
4
22
4
11
16
38
10
0
24
17
8
11
23
16
9
20
18
17
12
13
23
17
6
6
15
6
12
29
34
13
31
28
6
17
18
23
29
11
16
30
10
14
17
23
8
16
4
18
17
9
18
7
30
9
14
5
15
26
7
13
44
14
8
37
6
7
5
3
10
13
28
13
15
14
15
33
26
2
17
8
7
13
7
12
13
25
11
10
5
17
18
12
7
41
31
7
24
3
9
19
42
10
17
37
10
13
18
32
17
35
30
42
9
4
27
4
24
34
22
5
10
3
23
8
8
15
11
28
11
13
23
22
10
14
16
27
10
1
34
1
10
36
16
25
16
34
30
17
19
24
36
20
7
28
15
11
11
24
11
9
20
2
17
36
41
9
6
13
12
12
20
7
28
33
11
10
13
3
29
15
22
25
18
9
13
31
11
25
15
7
24
9
18
25
37
21
16
9
20
26
7
7
19
21
18
4
8
3
16
16
9
9
9
4
17
17
12
33
24
14
23
11
15
19
24
3
18
17
29
18
39
7
12
6
3
27
21
22
23
8
11
19
4
27
15
9
34
20
22
7
10
19
24
15
10
35
14
12
15
45
13
6
23
1
9
7
28
22
32
25
16
12
6
36
47
9
4
6
17
9
6
10
7
39
37
21
12
32
23
14
12
23
22
13
13
11
19
32
9
3
30
21
27
6
14
18
7
5
8
9
23
7
19
17
7
18
25
24
8
7
22
11
21
29
14
15
7
13
3
8
16
25
21
19
13
24
11
17
12
7
23
17
16
14
19
17
29
14
3
16
17
9
19
18
30
10
4
11
36
14
17
13
38
13
19
2
6
30
24
11
6
31
18
11
7
7
9
21
6
26
31
35
5
12
18
21
10
17
8
12
12
2
8
5
8
5
4
14
8
4
5
24
7
19
20
22
21
5
3
12
32
20
26
13
28
15
24
33
12
8
12
14
18
19
21
23
13
31
11
21
7
11
16
12
16
12
21
9
14
6
4
12
5
37
8
13
7
15
14
4
11
37
8
9
2
5
3
9
27
14
12
1
18
14
26
27
6
4
52
8
14
16
22
3
17
7
34
4
24
10
20
16
7
20
18
32
9
33
20
24
4
31
37
28
9
11
6
4
12
10
15
10
28
35
8
39
11
10
7
8
8
17
14
12
8
16
35
7
19
10
5
10
31
20
13
30
15
13
6
22
21
24
4
4
5
7
10
8
11
4
31
16
17
17
38
40
6
4
16
4
9
25
9
8
14
18
48
13
6
6
16
14
2
7
29
19
32
22
16
20
6
28
8
12
21
16
29
25
15
13
8
19
7
9
28
17
22
2
24
8
29
12
4
16
6
18
23
4
6
7
19
22
8
23
15
7
12
10
23
15
10
27
15
21
14
21
18
12
18
27
10
12
26
22
21
29
8
6
6
9
13
10
16
8
13
26
9
2
13
9
6
16
15
26
16
33
6
5
19
34
11
13
9
19
18
1
21
15
14
9
22
29
6
15
4
20
44
42
8
12
16
8
12
12
8
29
16
15
16
15
4
11
7
12
12
17
9
21
9
6
14
24
24
21
6
14
13
3
12
4
19
21
24
23
29
19
8
6
5
6
34
11
10
13
18
7
26
14
22
15
0
9
9
18
22
29
16
5
19
36
8
14
14
19
24
33
12
9
17
18
9
26
10
15
17
32
18
12
16
13
22
2
32
15
11
6
3
4
13
8
11
9
13
11
2
18
18
6
38
15
9
9
22
27
2
2
20
5
14
12
16
16
22
9
27
4
3
5
19
3
15
25
3
13
13
1
7
21
7
14
29
7
9
25
7
18
14
8
21
7
15
3
11
10
12
10
15
9
17
16
3
29
9
5
4
22
20
26
15
24
17
3
9
4
9
3
16
9
16
16
21
20
14
11
16
22
4
21
14
24
22
21
15
10
7
4
21
3
18
12
25
14
13
16
9
24
21
13
14
3
28
33
15
8
4
28
30
13
15
6
17
7
14
15
6
3
19
16
11
22
29
30
9
20
41
14
11
18
10
9
10
16
21
16
6
15
2
12
31
5
13
25
16
6
16
7
4
59
6
8
19
17
20
26
30
20
17
5
1
15
5
13
4
4
4
30
3
18
21
34
12
13
27
18
14
33
26
9
1
13
19
17
19
19
14
28
5
13
8
11
19
2
2
10
6
23
13
7
14
8
16
5
22
6
32
9
9
15
32
10
20
14
14
17
13
4
12
10
9
16
5
9
12
4
19
10
15
4
16
24
34
46
6
11
13
5
10
13
10
23
8
17
2
18
17
11
8
10
8
17
15
26
10
6
12
42
16
5
22
18
29
18
10
32
35
5
20
1
21
17
6
33
7
11
28
7
10
15
13
5
11
11
4
4
30
11
12
7
10
12
4
9
11
22
36
5
11
10
11
3
5
14
11
6
8
4
3
13
15
29
21
26
21
2
7
14
3
2
17
22
0
5
15
21
1
12
22
13
6
11
13
16
32
26
18
4
3
12
23
14
21
17
8
24
5
20
25
14
14
4
9
16
40
11
6
5
16
20
22
7
33
15
26
8
27
11
22
5
6
10
18
8
14
39
21
7
14
9
7
15
11
7
28
15
27
1
36
36
14
15
24
13
12
38
12
15
3
11
11
7
22
22
9
21
7
30
8
15
10
4
8
8
5
4
5
13
6
15
5
10
1
10
1
23
9
2
3
28
6
37
6
6
23
3
6
14
12
38
11
11
4
10
46
43
9
19
30
6
15
2
31
15
11
18
20
2
6
31
25
7
2
28
42
5
9
8
4
16
10
9
17
13
26
2
24
8
18
13
14
21
4
1
15
31
8
31
16
15
12
13
12
13
19
14
2
15
6
3
22
15
3
4
30
11
5
7
10
17
11
23
3
8
4
19
25
29
28
32
7
24
19
10
18
12
14
7
7
0
4
13
18
13
20
5
8
9
3
3
10
21
10
23
26
19
21
19
24
17
17
11
2
18
18
35
13
17
5
0
7
12
17
28
17
23
10
4
3
7
25
6
28
19
5
22
11
4
22
2
42
6
14
10
15
23
6
14
9
25
9
15
11
10
5
4
16
3
11
4
8
9
18
12
8
18
8
2
6
10
9
4
6
16
11
11
14
12
17
7
17
18
3
7
4
9
22
4
13
4
16
11
9
18
15
14
4
18
6
17
11
7
18
13
2
8
7
21
28
29
2
9
28
10
25
2
24
39
21
8
6
20
20
10
13
10
35
22
6
12
26
9
23
5
21
4
3
12
7
3
10
25
6
7
16
12
5
10
8
9
11
7
8
1
20
5
31
13
6
4
14
4
12
22
11
10
0
9
2
18
28
31
5
9
5
9
4
29
21
13
8
10
10
8
7
6
7
3
25
23
9
7
11
12
2
9
33
22
33
28
7
12
16
19
0
5
20
26
27
10
5
7
14
15
33
39
9
11
18
16
13
30
16
6
13
12
29
9
21
6
22
10
14
9
9
11
7
8
13
4
1
12
7
30
14
8
18
12
8
10
2
6
8
16
36
10
10
21
22
5
3
20
3
4
24
18
15
1
14
8
3
8
22
13
7
7
23
6
11
25
16
4
8
6
22
5
38
7
6
23
10
12
8
14
4
15
10
3
16
36
11
6
11
22
10
6
23
8
2
5
31
14
28
5
9
11
9
19
18
13
12
6
6
11
13
21
2
5
14
6
26
14
20
12
17
5
10
23
23
9
12
11
15
19
16
21
18
13
21
26
20
7
19
18
16
7
18
7
10
7
6
11
10
16
6
17
5
13
12
10
6
6
5
0
5
18
9
34
2
10
8
14
18
32
12
7
15
11
19
10
29
26
22
21
19
3
13
13
2
20
9
5
6
10
11
32
9
12
21
19
18
3
12
14
12
13
23
5
20
21
7
23
17
16
14
4
25
19
24
9
20
31
9
7
1
17
0
14
7
11
18
33
19
7
20
3
7
21
20
6
23
34
16
11
14
8
18
23
15
43
15
30
27
3
4
12
22
10
14
1
3
11
3
18
11
36
2
21
22
5
10
10
19
13
10
7
9
12
22
5
6
13
24
4
6
11
3
39
5
8
0
24
1
28
26
16
27
5
13
18
17
9
30
11
10
3
27
14
8
9
5
21
26
36
7
4
12
19
13
25
25
11
15
16
13
20
20
24
6
4
7
10
5
5
9
24
11
19
10
18
2
28
6
18
14
4
11
36
1
13
5
17
6
1
26
16
32
2
6
20
7
19
1
19
11
20
4
13
15
15
11
20
14
18
16
4
38
2
17
18
2
18
7
7
1
4
18
40
3
1
27
22
14
18
14
3
7
12
18
12
2
6
8
19
11
11
1
8
16
21
9
19
11
7
13
9
17
9
9
16
20
14
11
8
19
3
25
4
9
7
18
7
9
13
2
18
4
14
13
4
2
5
1
13
4
22
35
14
21
25
16
22
15
9
9
11
12
33
15
25
5
26
29
25
27
7
21
27
6
7
8
5
26
22
2
2
12
13
13
19
22
23
32
10
14
26
9
19
24
8
10
10
12
23
13
4
1
11
8
7
8
14
5
0
25
23
16
12
10
19
4
6
5
7
11
3
27
10
20
6
31
16
10
9
11
12
7
10
8
5
5
11
1
16
12
0
4
5
20
20
0
10
3
26
6
2
7
7
17
21
11
9
19
15
23
14
5
18
4
22
13
23
22
18
38
24
16
16
17
13
12
3
7
5
9
4
24
21
9
11
15
5
3
15
9
0
5
6
7
7
6
12
5
10
11
32
11
33
6
11
3
4
4
4
25
7
8
2
10
19
4
14
14
8
21
8
19
19
12
27
22
4
6
17
14
6
7
15
12
7
13
12
6
5
2
9
9
5
13
21
9
5
11
12
1
6
15
13
17
10
13
4
2
14
32
9
7
2
9
10
17
22
2
12
4
9
13
11
11
6
19
5
20
8
16
4
14
14
11
13
23
3
3
20
3
15
16
13
10
4
7
4
8
27
9
12
6
26
14
13
27
4
13
10
7
7
5
28
13
12
1
17
4
14
6
4
20
16
13
34
8
19
22
32
17
3
9
8
5
19
7
22
11
19
3
11
11
9
14
11
12
11
7
19
12
22
33
33
4
7
18
5
8
19
24
5
5
28
24
9
19
12
12
19
5
9
6
3
15
3
6
11
11
5
17
2
9
12
3
13
11
10
3
10
6
20
13
11
9
19
4
41
24
12
19
13
15
0
6
11
9
17
4
12
17
15
14
14
0
8
6
14
20
2
13
4
17
4
5
7
8
7
34
25
17
14
7
17
8
15
4
3
19
22
10
4
2
10
6
5
9
11
12
6
7
13
17
7
12
7
9
7
5
7
14
4
4
2
3
17
15
15
6
11
4
6
18
6
8
10
2
4
7
7
32
9
28
6
7
1
11
3
5
8
9
7
10
20
14
15
3
28
5
20
7
14
20
8
9
6
6
14
8
11
9
12
16
4
21
33
22
12
5
9
7
10
2
3
29
8
0
9
5
11
3
24
11
12
22
5
8
4
1
27
9
30
2
7
8
11
24
19
15
3
6
16
4
13
15
4
25
14
16
13
10
30
4
8
7
3
7
18
7
0
23
15
7
8
18
18
4
2
5
16
12
5
6
13
7
26
11
4
18
13
4
11
6
16
4
6
6
2
10
17
3
12
7
12
6
19
24
2
17
11
5
4
18
34
7
4
12
7
13
17
7
3
8
29
41
8
26
2
21
13
3
10
13
13
7
8
2
8
8
12
12
2
14
22
10
1
17
4
11
15
5
20
18
13
15
1
2
31
10
13
10
17
5
4
14
20
8
18
10
13
19
11
9
13
4
13
8
10
17
2
10
21
11
21
4
7
16
12
9
5
3
1
0
1
14
3
1
11
5
16
3
10
8
4
13
17
12
12
22
24
8
15
7
17
16
23
12
3
14
10
3
9
9
18
13
4
5
5
9
20
4
5
8
5
5
11
14
24
10
6
6
6
11
9
20
22
9
1
2
14
6
5
10
6
6
11
15
14
10
2
23
13
9
8
5
6
17
3
6
15
14
10
6
5
14
19
10
18
17
10
26
23
13
15
10
13
4
4
24
9
22
0
7
1
10
22
4
19
3
1
5
11
27
21
17
2
23
10
6
0
8
8
6
24
10
22
17
4
7
6
6
10
13
26
16
7
26
4
5
8
8
4
16
7
10
15
20
36
16
20
10
20
15
7
2
9
20
5
3
4
20
20
6
18
17
2
13
4
16
13
11
4
3
11
12
6
4
13
25
14
10
14
15
13
11
6
12
15
17
13
9
5
21
24
1
15
2
4
14
30
21
5
18
9
4
19
33
17
19
8
3
1
22
7
6
29
14
18
13
20
22
10
11
11
4
8
14
13
11
11
12
6
13
3
14
9
24
11
12
5
16
18
1
7
6
33
10
25
6
19
9
6
9
13
14
6
3
4
10
9
4
10
1
13
11
12
9
5
7
32
9
21
2
5
28
13
5
4
16
22
5
13
11
8
1
14
12
4
16
20
8
13
24
18
21
5
25
16
8
8
17
10
1
21
20
7
16
9
11
13
10
16
14
11
19
6
9
27
19
8
0
10
4
6
5
14
10
13
19
4
11
15
3
24
29
11
8
13
11
4
5
31
15
4
15
14
30
5
5
23
12
22
6
24
26
10
10
7
6
10
16
8
2
13
8
11
8
6
6
23
30
20
1
5
13
16
14
13
18
16
7
4
11
5
25
9
2
10
9
10
3
9
9
6
2
2
8
13
9
14
18
7
11
5
8
27
13
9
1
4
3
6
3
14
4
6
14
12
7
10
8
2
14
5
14
10
5
2
19
17
13
4
16
20
15
10
7
4
11
19
8
9
15
5
15
7
31
9
27
24
21
14
9
2
0
6
11
9
6
1
4
13
1
8
21
14
25
26
4
9
3
16
12
8
5
9
6
14
16
8
10
21
16
3
1
10
13
13
10
9
25
18
13
4
5
26
11
20
12
12
13
6
5
6
11
8
4
18
6
9
9
7
20
3
8
12
10
9
4
1
11
6
2
20
17
14
10
9
2
40
7
5
26
13
21
9
10
4
12
6
9
9
0
31
26
13
10
27
13
4
17
9
7
17
13
10
4
14
12
3
18
20
29
6
2
4
16
12
19
4
2
3
19
4
5
3
18
3
17
10
22
12
11
10
16
6
13
7
2
29
30
14
15
16
18
3
15
17
5
13
12
14
9
9
10
0
8
11
2
27
15
2
9
15
14
11
15
7
4
25
24
18
11
9
29
18
7
11
30
0
31
13
19
9
6
4
3
12
19
13
11
9
8
30
6
5
4
2
2
6
1
9
13
5
2
9
11
7
4
18
5
2
26
4
4
2
3
7
6
12
17
11
6
20
7
10
12
2
7
18
25
4
7
4
26
3
9
19
18
1
5
4
3
9
4
7
11
19
6
8
13
15
8
14
8
14
0
7
9
10
12
2
4
9
35
5
22
18
16
4
15
15
11
7
24
33
24
16
13
13
20
28
14
5
3
6
5
8
14
15
1
1
6
6
21
2
14
11
4
13
13
11
11
6
23
13
7
8
2
7
8
8
14
7
9
26
2
11
27
1
4
3
12
6
5
16
15
12
3
7
15
8
17
12
16
5
9
7
12
12
5
11
1
34
1
15
6
9
24
8
5
9
15
11
2
7
7
15
16
18
12
4
3
32
16
10
1
17
12
6
26
14
9
28
17
7
6
19
8
11
10
5
5
8
5
7
1
8
18
18
5
10
7
17
9
10
3
7
7
3
7
1
3
7
14
16
4
8
1
15
12
1
3
22
13
26
14
16
10
5
7
6
26
6
14
31
2
5
10
3
13
29
11
11
10
7
20
10
3
24
4
5
5
4
18
22
17
10
18
1
1
4
0
12
14
4
5
3
2
1
16
16
10
2
8
4
40
8
24
22
12
16
12
5
10
18
2
9
9
10
8
11
24
6
7
7
16
16
3
9
5
3
28
12
11
4
6
3
1
3
7
1
9
4
15
18
4
12
8
8
6
2
15
11
12
9
15
29
3
9
4
1
7
1
18
19
5
4
1
16
9
2
3
4
4
21
14
6
9
17
2
1
16
14
29
13
26
17
6
1
13
15
11
17
10
11
9
9
3
19
13
9
5
2
4
14
15
3
8
5
19
2
2
9
29
12
12
17
2
8
3
6
10
14
5
21
8
9
8
19
25
14
7
16
9
25
17
12
8
4
9
16
6
13
13
0
15
7
18
7
9
15
19
29
4
14
2
23
8
12
1
22
11
6
18
0
3
3
10
15
20
24
10
32
4
9
4
8
5
14
2
7
3
12
11
8
4
23
0
9
18
7
8
20
20
1
25
1
5
13
6
8
7
14
2
30
7
7
10
4
8
5
8
5
27
22
4
12
17
9
17
11
7
2
16
16
11
2
5
6
12
26
19
6
15
15
9
7
5
4
2
5
14
11
10
6
6
5
10
7
8
6
7
15
7
9
7
10
10
18
28
5
10
15
5
14
8
8
6
3
21
20
9
1
0
2
13
7
8
8
6
12
13
1
3
17
12
3
9
11
3
16
13
1
7
19
9
2
3
0
9
7
7
14
16
15
10
18
2
29
1
13
2
3
22
29
10
16
16
7
6
19
4
9
25
18
13
7
11
6
6
24
14
9
17
2
4
9
13
5
3
2
1
2
6
5
10
11
20
13
7
15
4
26
10
4
5
3
15
9
13
6
3
17
15
9
15
11
19
29
11
9
22
6
10
10
19
7
12
17
15
29
24
14
7
5
14
11
7
3
10
15
7
19
7
17
7
3
3
2
23
18
14
17
5
7
8
15
1
7
13
0
15
8
17
3
9
0
14
5
10
10
12
27
16
14
4
0
6
17
8
8
7
9
5
10
11
18
8
12
6
31
26
3
10
14
18
3
18
3
23
13
1
24
10
19
33
10
22
3
5
11
0
15
3
8
7
13
11
22
2
24
4
3
8
9
3
14
3
4
5
6
12
15
20
15
14
10
0
24
28
24
10
14
12
8
19
32
18
12
0
8
11
3
9
26
7
3
4
10
4
3
16
16
8
9
17
14
10
4
7
16
23
8
10
16
15
9
3
20
3
11
19
9
15
11
12
20
20
4
14
19
17
6
19
8
18
20
12
9
19
8
3
5
5
12
16
5
16
11
1
31
29
9
14
18
8
8
8
9
14
6
17
19
6
8
11
15
0
4
17
5
10
9
5
5
3
1
25
12
3
21
26
10
3
5
6
7
4
11
7
20
15
7
16
6
6
11
12
11
14
14
5
15
10
9
4
15
5
8
5
0
10
11
1
2
7
14
19
22
7
7
10
22
20
17
8
12
2
2
7
4
4
3
2
6
5
4
20
5
8
7
3
21
6
15
8
24
0
19
26
18
4
11
17
5
18
10
7
3
10
1
12
9
6
0
0
11
5
0
1
14
13
35
5
20
11
1
20
7
9
12
3
9
7
9
9
10
28
2
3
4
23
6
4
20
14
15
1
3
4
8
3
12
14
16
2
6
18
29
7
12
21
12
19
6
17
6
13
9
2
9
8
30
4
8
10
2
3
16
7
10
4
7
7
1
7
0
17
9
23
4
13
7
24
17
11
7
2
19
25
12
9
22
13
12
15
1
12
11
15
23
5
6
9
13
10
4
1
1
3
10
3
6
4
1
8
7
3
3
2
5
3
2
6
5
8
24
31
5
8
2
2
4
9
23
4
3
2
5
4
2
6
8
9
2
7
2
0
2
4
13
11
8
10
1
4
20
4
3
17
4
7
2
16
8
1
1
12
6
6
3
5
23
4
1
3
16
2
4
8
2
10
24
4
16
6
13
5
2
2
4
12
11
16
6
7
8
5
6
9
14
8
30
4
15
22
7
36
19
3
20
12
11
15
13
4
7
10
3
12
33
22
7
22
12
5
12
0
2
4
9
14
6
14
13
2
23
9
22
6
8
5
2
14
3
17
10
3
3
14
27
25
9
1
8
3
2
4
8
1
1
35
15
5
8
1
9
13
21
21
12
8
16
6
1
12
11
8
5
15
4
10
3
9
18
2
10
6
2
17
11
1
2
5
11
17
6
3
9
24
6
6
3
14
8
6
6
34
6
5
1
3
2
6
7
15
28
11
1
13
10
4
8
6
10
5
17
16
1
3
10
9
13
20
8
12
21
0
9
3
12
19
15
22
4
6
7
5
3
6
18
29
2
10
5
19
12
5
12
5
4
1
3
3
9
8
22
9
43
31
2
7
2
13
11
22
4
9
13
4
16
21
4
10
3
14
12
6
6
29
17
25
10
12
0
2
11
7
20
12
11
12
10
3
4
19
6
11
3
1
17
3
7
3
21
15
7
26
7
4
8
6
10
15
5
4
6
8
4
7
4
16
10
4
14
14
1
7
6
17
5
18
11
8
0
15
17
17
2
3
5
3
1
15
7
9
3
6
4
15
8
8
4
9
30
12
16
16
9
11
14
8
6
7
15
11
10
0
2
10
16
23
20
11
14
5
9
5
10
21
24
0
4
8
8
3
12
6
12
8
5
6
4
4
5
10
7
12
15
14
25
10
15
4
5
18
5
14
6
5
11
4
27
6
1
9
4
9
5
8
14
9
1
6
2
8
0
6
6
4
15
7
1
4
2
23
13
5
17
10
3
2
6
4
0
14
8
11
1
2
10
4
0
4
3
13
10
0
21
7
3
11
1
16
26
16
19
2
6
2
1
10
11
3
14
21
18
10
4
6
9
5
2
14
10
7
3
4
4
1
7
10
12
15
16
2
15
2
10
12
9
8
4
0
10
7
6
7
1
8
12
10
6
18
1
4
17
3
3
7
16
12
11
3
9
10
5
12
22
9
4
3
1
12
4
27
8
23
5
2
4
23
9
7
9
7
7
9
14
4
13
3
6
17
13
6
4
15
4
6
4
8
6
11
12
5
8
6
4
5
9
17
6
3
9
26
7
6
12
11
11
9
10
3
14
12
5
13
11
12
7
19
11
6
13
4
4
4
8
8
16
5
3
9
7
14
3
23
1
11
20
18
3
19
18
4
21
10
13
4
9
3
6
3
7
7
10
20
12
5
1
7
13
2
21
5
7
27
12
7
3
8
7
5
7
17
6
5
8
9
16
12
11
2
2
25
4
4
1
3
0
9
9
10
19
7
4
11
8
4
9
14
27
6
10
13
6
2
2
3
3
7
3
13
4
12
6
4
3
23
5
8
16
2
3
16
3
3
3
0
6
1
5
3
6
7
25
7
4
5
10
10
16
2
4
25
1
5
12
3
9
10
7
22
22
1
9
15
17
1
16
4
5
1
3
8
9
4
9
1
9
4
7
11
23
6
6
18
11
4
5
4
25
26
11
8
3
4
9
1
23
9
18
9
6
9
8
29
6
21
7
6
2
13
19
13
7
2
8
17
2
9
2
8
9
2
4
7
11
15
6
14
4
7
6
11
11
4
3
8
11
8
12
9
10
1
21
3
5
3
1
1
2
13
9
7
5
1
1
1
6
5
17
9
11
5
1
3
6
23
7
11
7
13
14
11
6
7
23
15
5
7
15
4
13
2
7
24
12
8
8
8
4
7
9
11
2
7
5
1
3
5
8
7
7
10
15
20
4
3
13
7
14
4
4
6
6
8
8
2
2
2
18
5
2
1
5
0
3
13
8
1
2
15
5
8
6
11
7
13
7
14
9
1
4
14
4
4
14
4
7
5
6
6
17
25
4
6
12
6
7
3
8
3
2
7
13
8
3
9
15
8
10
4
2
9
14
8
21
9
8
8
4
1
0
4
5
16
3
4
2
7
15
10
5
14
20
10
2
9
11
18
7
2
5
2
15
10
6
0
6
9
8
9
1
0
1
7
7
4
14
1
12
2
1
11
2
18
13
15
3
13
12
5
13
16
24
12
7
3
7
17
17
9
13
8
3
7
25
1
16
7
14
3
9
14
2
5
7
5
5
5
13
6
6
1
12
20
4
17
5
4
2
5
19
18
9
17
15
9
7
3
6
12
9
5
1
10
2
1
4
16
5
11
6
12
7
3
10
12
5
12
3
5
5
13
3
2
12
5
2
11
5
14
2
15
5
1
7
6
23
17
8
11
14
6
20
2
5
14
17
12
12
8
6
4
13
6
1
6
9
9
6
22
20
3
17
10
0
16
8
14
16
3
4
2
2
9
8
2
3
3
7
13
1
11
20
5
4
9
14
1
3
1
4
1
8
10
6
2
7
14
8
3
20
2
1
13
15
3
5
6
18
5
2
1
13
18
8
7
13
6
0
21
15
5
1
29
8
10
8
7
1
2
11
9
10
10
6
2
2
3
8
12
7
0
9
3
11
3
8
15
5
20
11
25
10
10
17
2
3
3
9
4
8
13
4
6
5
2
11
19
0
15
15
4
4
4
9
8
4
6
7
5
5
5
5
14
3
5
10
31
7
11
6
8
0
14
1
6
7
9
4
5
13
4
4
14
12
3
13
23
16
15
12
2
5
7
14
12
5
2
13
18
8
17
6
0
6
14
8
2
13
4
3
23
0
4
7
15
3
5
1
14
1
1
8
2
10
11
5
8
9
14
8
3
24
8
19
8
12
18
7
2
10
7
9
8
9
0
14
9
6
2
15
7
5
5
10
5
2
4
14
13
2
7
7
2
6
3
10
5
2
3
3
6
0
21
1
2
12
2
11
4
6
1
7
4
8
4
5
7
6
10
3
10
12
5
11
0
6
5
3
4
3
3
0
4
2
9
8
4
5
4
7
3
10
5
15
5
0
6
8
7
5
4
15
19
14
5
5
11
10
7
2
15
14
14
6
2
6
4
3
8
10
26
34
14
4
5
21
8
9
8
4
6
15
4
3
3
12
10
26
23
15
6
17
2
5
0
6
13
5
2
6
0
12
5
5
6
4
8
8
4
5
12
12
10
2
3
3
7
11
6
4
13
10
7
14
12
11
11
10
1
5
14
9
1
8
10
6
4
12
4
5
10
5
15
2
2
0
14
7
3
7
7
15
11
16
3
2
5
6
4
12
10
4
7
23
8
3
6
1
7
8
4
2
13
13
6
11
0
8
4
7
13
10
1
3
6
9
5
3
0
10
23
6
9
7
4
21
10
6
8
5
3
2
7
6
17
13
5
2
1
4
9
7
15
20
4
5
19
2
10
20
20
19
2
17
5
11
15
19
19
14
20
8
12
5
0
5
10
6
13
6
9
7
12
12
2
1
8
21
6
12
1
2
0
8
13
18
12
12
8
5
16
12
8
5
0
1
7
8
1
11
1
0
3
1
6
2
8
10
3
7
13
13
16
2
5
5
8
8
14
7
3
8
8
7
1
3
7
14
3
26
17
5
4
4
16
13
3
3
1
3
11
5
7
3
15
7
4
2
16
9
18
1
11
3
9
3
2
12
3
7
16
1
13
11
10
2
5
4
0
11
11
4
5
5
8
5
3
1
7
6
7
2
1
1
1
12
11
0
4
17
7
14
2
3
2
13
3
28
10
0
6
15
2
8
12
2
4
7
7
1
1
5
4
3
2
1
11
6
12
3
5
6
3
7
4
13
10
7
1
10
2
6
8
2
2
12
7
9
10
17
1
2
4
3
5
9
13
15
17
3
7
3
1
7
24
40
4
6
2
19
4
2
3
7
4
5
10
2
4
3
2
2
22
3
2
8
13
8
3
5
4
23
5
6
11
9
15
3
6
0
5
6
6
4
7
4
7
4
9
12
24
9
3
4
5
6
10
15
7
14
8
6
14
4
10
9
22
15
16
4
8
11
8
7
7
10
5
3
5
7
9
1
22
10
4
6
8
2
3
5
10
0
5
8
6
0
3
16
3
1
6
8
5
8
11
6
20
8
5
10
0
2
13
3
12
1
24
8
3
10
5
6
3
6
3
1
12
19
17
3
8
6
15
4
10
3
0
6
13
9
3
1
4
7
2
9
3
10
6
7
9
10
4
7
4
2
12
5
13
12
4
1
5
14
4
12
23
3
2
15
27
1
2
1
21
5
10
19
6
1
2
8
7
19
7
3
10
7
7
16
18
8
0
3
0
14
2
3
13
9
11
14
7
3
4
7
6
6
5
11
6
19
13
11
13
3
19
3
3
13
5
2
2
5
3
6
2
9
6
15
2
1
2
4
4
9
19
26
10
25
7
2
6
4
10
6
4
4
23
10
16
8
2
5
3
3
20
8
2
6
4
2
10
7
16
19
2
26
15
12
5
1
0
5
9
2
8
4
21
5
8
2
12
3
2
5
11
15
3
7
10
17
9
1
1
10
1
13
12
4
6
5
4
21
16
11
1
7
15
0
4
22
13
8
1
3
11
10
10
2
4
1
4
11
14
9
2
15
7
18
17
0
14
25
13
12
16
11
6
1
1
6
0
4
14
3
2
4
5
11
2
6
1
15
7
1
10
5
7
3
10
8
4
1
6
7
3
10
3
6
9
1
6
1
3
9
12
22
16
8
17
5
19
10
7
6
5
4
4
8
4
1
1
4
11
1
0
5
7
0
6
7
2
25
3
6
11
1
0
11
10
12
5
2
2
14
8
5
11
9
4
14
10
0
6
9
19
1
17
20
3
4
5
16
4
4
7
23
3
4
12
12
5
7
3
16
8
8
7
5
5
15
8
2
6
5
3
2
1
5
3
6
8
8
2
3
2
6
10
11
20
4
3
0
4
4
10
9
6
10
1
6
0
1
2
5
3
10
9
13
9
3
7
14
0
8
4
0
3
6
13
7
5
2
9
6
4
1
0
11
1
0
4
12
6
10
4
6
14
1
1
8
13
5
4
3
2
3
19
6
13
6
9
4
20
2
9
6
6
4
9
0
1
7
15
7
2
6
2
2
13
6
9
3
4
1
4
1
14
13
6
18
4
2
15
5
7
1
12
5
3
7
12
3
14
16
7
5
3
1
15
1
7
14
3
7
11
12
3
10
12
3
7
20
5
2
9
3
3
3
5
7
6
4
7
8
5
1
1
10
10
3
7
3
8
5
9
1
11
12
7
19
4
3
6
8
12
16
6
7
4
4
8
11
5
4
4
10
5
8
9
3
2
19
11
4
2
5
17
2
0
7
5
16
6
2
8
7
11
4
10
4
10
23
4
4
4
9
7
6
2
12
8
2
1
0
14
7
3
3
4
6
14
5
10
16
6
12
19
14
5
11
3
13
4
3
10
6
5
6
17
21
11
9
5
8
19
4
14
13
6
2
13
11
7
1
8
3
3
9
0
1
14
9
19
1
10
10
28
4
4
16
8
1
12
19
1
6
5
1
3
10
9
5
18
8
15
11
3
16
12
6
10
0
1
3
10
25
13
15
10
8
4
13
1
18
1
3
4
15
7
0
10
4
2
3
7
11
2
4
4
12
3
1
2
4
7
16
0
1
4
1
20
10
0
14
16
8
2
6
2
10
2
1
4
14
12
7
7
12
17
9
16
20
10
14
9
4
3
7
11
3
2
8
0
4
1
12
4
9
4
7
9
12
4
21
4
1
10
7
3
6
1
1
2
6
15
5
5
6
4
11
6
1
4
12
7
8
3
8
7
4
2
2
5
3
3
1
1
0
2
6
3
3
8
4
17
6
2
10
16
4
0
8
2
8
3
2
8
5
7
6
10
1
13
38
1
3
8
1
6
2
4
21
6
3
0
0
9
16
12
21
5
5
10
8
7
16
3
5
10
2
2
5
5
4
0
8
1
11
8
5
6
9
4
1
2
4
8
11
29
7
7
9
5
0
4
12
4
6
5
1
6
4
0
23
9
10
0
5
2
9
5
8
4
15
3
7
10
0
8
8
18
20
16
10
5
8
0
12
7
15
0
0
8
4
0
4
3
4
5
3
21
2
11
6
10
3
5
2
10
5
1
11
7
9
12
13
17
15
2
2
5
4
3
2
0
4
14
4
6
4
10
4
3
5
3
0
4
4
1
9
6
0
1
5
18
9
1
1
11
12
4
8
2
6
8
18
4
2
3
2
19
6
23
6
1
0
1
0
2
1
1
7
5
3
5
0
5
8
6
3
2
1
8
20
7
18
1
5
4
8
13
12
3
2
0
1
2
4
0
0
14
24
2
17
4
12
1
10
13
6
15
21
4
7
2
5
1
3
0
5
11
5
2
3
5
9
4
11
7
4
10
5
10
5
2
4
2
10
2
0
2
5
5
4
4
2
13
2
4
11
15
5
15
18
9
3
4
2
3
3
1
5
0
2
24
2
10
2
5
2
1
5
10
8
1
2
9
3
7
2
16
4
2
17
6
2
10
7
4
5
4
13
6
7
5
11
8
12
7
8
3
12
6
4
0
13
14
15
11
4
5
10
4
3
9
10
15
3
7
2
7
9
11
16
5
1
0
0
2
7
5
13
6
9
3
1
8
3
8
4
8
10
6
3
14
0
2
2
3
5
14
6
1
2
5
9
3
0
6
12
9
4
13
1
16
7
6
21
11
2
12
13
4
7
6
9
13
7
0
0
12
5
15
8
8
19
1
12
2
4
14
1
9
2
7
1
3
1
3
17
10
11
1
8
6
11
14
19
10
7
5
9
5
2
16
3
7
3
2
16
3
3
1
4
5
2
2
1
9
13
4
8
4
4
15
1
2
2
4
7
16
13
2
1
10
8
7
5
9
9
3
9
5
3
8
5
3
19
3
3
14
3
3
14
4
1
5
8
19
5
7
1
6
9
12
4
7
2
5
4
2
6
1
8
2
17
17
6
11
4
8
3
4
4
8
13
8
7
9
15
4
8
1
2
11
9
6
8
8
18
4
5
4
5
3
8
12
23
10
1
2
3
8
1
13
16
12
10
12
6
9
7
2
1
2
2
6
4
16
2
3
4
5
3
4
2
5
14
15
11
1
3
8
5
5
5
5
7
6
3
2
2
11
5
12
3
3
4
18
7
13
14
2
3
16
2
9
6
1
2
11
16
9
19
2
2
2
7
4
8
9
4
13
4
3
6
2
0
13
6
8
9
10
6
6
6
19
1
8
6
4
10
4
5
4
0
6
3
16
14
12
20
11
3
7
1
1
0
0
1
13
18
3
4
16
10
5
11
1
1
4
2
13
7
7
18
7
14
10
2
8
8
3
4
15
2
7
8
2
5
5
9
10
2
1
4
2
12
18
12
4
7
8
1
10
8
9
5
7
4
6
12
11
8
9
16
15
2
7
2
15
6
0
4
17
3
1
5
8
4
11
7
5
10
11
5
14
9
8
3
0
9
2
7
6
3
4
8
6
1
5
1
4
8
13
1
3
4
5
1
2
14
10
3
12
7
10
7
5
17
21
2
15
13
5
11
10
11
6
4
10
8
7
11
10
20
2
4
8
9
10
4
2
2
5
18
9
0
9
7
12
12
0
17
12
3
4
5
10
18
4
12
2
3
4
5
7
9
7
19
10
5
9
1
16
3
2
7
15
3
10
4
0
14
5
5
3
7
20
3
2
2
4
11
9
11
17
8
3
0
15
0
1
5
8
2
2
7
12
5
1
8
8
2
13
6
3
8
5
6
10
2
4
17
4
8
9
0
12
2
2
1
14
1
1
5
5
1
1
25
4
20
9
12
5
9
17
5
7
2
3
5
1
5
11
8
11
4
2
1
11
3
21
2
17
4
7
5
8
0
5
2
2
6
12
17
4
6
4
1
9
6
18
8
9
10
9
2
4
0
3
7
7
3
18
10
9
9
13
1
6
4
2
1
4
12
18
9
6
14
6
13
5
10
5
1
9
3
16
2
3
4
3
7
10
11
2
4
7
11
17
0
10
15
2
3
7
12
8
2
25
1
2
0
3
7
6
13
7
12
5
4
8
8
12
4
2
3
0
2
3
8
1
3
1
20
12
10
2
3
2
5
4
16
4
3
2
7
2
16
13
2
4
6
0
0
12
11
12
14
3
1
8
9
5
9
2
9
4
3
2
17
4
1
9
7
4
12
5
3
7
0
1
8
12
1
7
6
11
0
16
2
9
23
20
8
2
5
2
2
9
10
4
1
2
7
2
1
5
3
1
8
9
13
9
3
3
7
0
4
2
0
3
6
7
7
6
22
20
3
16
3
10
4
6
4
6
16
8
6
5
4
3
2
4
1
2
3
10
5
15
0
23
2
13
7
15
14
1
11
3
8
2
1
2
10
4
17
5
4
16
6
5
19
10
5
0
9
4
7
1
4
19
14
1
5
4
4
2
3
16
1
3
14
6
5
0
21
5
2
0
2
13
20
6
8
8
9
4
11
3
3
1
1
2
1
2
7
2
7
0
6
11
6
2
10
19
11
10
20
9
15
4
11
1
0
14
1
7
16
5
8
18
8
15
3
9
6
19
23
9
6
15
8
9
13
5
1
10
11
2
8
12
14
4
3
1
3
12
15
2
3
5
9
2
9
6
8
0
11
12
11
2
8
0
8
3
10
18
1
1
1
1
6
10
0
1
0
5
9
5
1
3
11
3
3
4
4
1
0
13
3
6
9
12
4
2
12
5
18
9
7
0
2
3
1
2
6
10
4
6
15
6
10
4
19
9
7
2
4
3
3
0
2
2
10
17
19
3
5
2
5
13
3
2
8
7
3
1
4
10
5
0
17
8
15
1
4
8
3
11
0
13
7
3
1
10
4
2
7
4
3
10
10
3
3
2
5
7
4
8
7
6
2
15
7
4
1
10
19
14
0
0
7
0
11
7
2
19
13
1
8
4
9
15
4
7
5
3
2
7
3
6
4
0
3
2
3
3
4
13
5
6
5
1
4
2
5
0
0
8
1
3
4
7
7
6
1
6
11
11
0
9
6
8
6
6
18
4
1
6
0
5
7
17
13
1
2
11
2
4
5
14
3
10
2
22
9
12
9
0
6
5
6
5
7
0
7
6
5
7
12
3
3
1
17
4
13
2
4
8
12
3
4
3
3
2
14
7
0
8
11
3
3
0
10
0
8
7
2
6
0
9
3
3
4
6
11
9
0
11
2
3
0
1
17
4
9
3
14
20
16
2
4
15
4
4
2
18
6
11
5
7
7
4
12
13
16
13
12
1
5
11
1
0
0
4
3
12
12
0
14
3
1
27
15
13
4
9
28
11
2
2
13
1
6
9
16
13
4
16
2
12
2
8
3
6
3
13
3
1
1
0
7
7
3
0
4
9
1
3
3
2
8
6
2
3
6
25
9
8
5
6
9
0
4
9
6
10
8
2
1
14
3
9
6
4
0
5
0
5
16
7
1
3
3
2
5
4
12
4
7
8
1
4
6
13
5
5
8
7
2
1
10
1
0
0
2
12
10
3
0
1
2
4
3
1
0
1
3
1
1
2
0
1
1
8
3
13
3
10
4
1
1
1
8
5
5
4
0
4
9
8
8
12
3
1
0
0
7
10
5
4
10
1
12
5
9
6
4
8
0
2
6
6
16
7
1
0
5
11
8
11
8
3
3
2
0
2
5
0
12
6
9
7
3
2
10
0
4
4
10
9
3
2
2
4
2
4
5
6
3
0
1
5
1
0
13
1
6
1
23
8
4
2
17
15
6
7
8
10
4
2
6
3
9
12
12
2
6
0
1
5
4
1
5
2
10
4
5
1
2
1
0
1
5
14
17
1
4
3
14
4
8
11
0
5
9
5
6
3
3
7
9
7
5
2
2
0
17
8
7
14
4
5
12
5
8
12
4
14
15
3
4
5
4
9
6
9
3
14
0
22
0
3
2
16
1
9
15
1
5
4
7
7
1
18
4
2
4
8
7
5
4
2
5
1
4
1
8
9
0
3
8
4
2
5
6
7
4
9
17
7
9
5
12
1
3
12
5
13
12
15
11
3
17
3
9
10
2
4
0
3
1
3
7
11
8
17
7
6
2
2
6
22
1
4
2
1
11
10
3
3
3
5
16
4
20
3
0
2
17
3
11
1
0
7
6
2
21
4
4
13
3
2
3
1
9
1
0
3
8
5
8
2
0
1
5
2
6
14
10
1
2
1
4
8
16
5
2
4
3
5
2
1
3
1
7
4
4
9
6
4
15
10
6
1
2
1
1
6
5
3
3
2
14
13
6
4
7
10
8
9
11
3
13
10
4
3
6
1
9
0
10
7
13
1
5
24
1
5
3
1
3
0
0
1
2
1
1
16
6
2
5
8
7
15
17
5
14
5
11
2
2
1
2
10
2
4
8
3
3
14
4
0
2
2
9
1
1
13
7
2
5
4
11
5
2
2
0
12
11
7
4
6
2
3
7
5
8
1
18
4
13
11
3
3
17
17
14
1
1
2
10
6
9
1
11
14
5
2
15
8
2
5
2
5
2
11
5
6
4
3
3
3
6
14
0
2
21
16
1
6
13
7
5
4
10
2
1
4
9
5
2
3
25
4
22
8
7
5
4
13
4
0
0
0
4
10
6
4
9
10
3
6
2
1
6
1
6
5
2
9
1
3
0
3
13
6
4
11
10
2
1
3
10
5
7
1
2
7
1
11
4
10
5
10
2
0
5
0
1
6
7
4
1
6
2
5
10
8
1
4
2
6
8
13
5
11
1
5
0
0
16
7
3
2
11
2
0
14
4
16
15
12
19
3
0
2
2
9
5
2
1
4
4
3
10
3
15
4
0
3
15
2
22
6
5
4
8
1
2
1
3
0
0
4
3
5
1
5
0
8
2
2
4
2
15
4
8
11
1
1
3
15
5
0
2
8
5
6
5
6
0
6
8
4
9
1
3
2
5
14
6
5
2
2
5
10
7
8
7
1
15
2
19
3
1
3
5
13
8
4
3
4
0
9
6
14
5
3
8
17
7
2
3
1
3
16
1
3
2
7
0
4
7
5
2
5
1
5
5
14
1
16
10
6
10
3
6
7
7
2
5
7
1
9
20
4
2
15
8
14
2
12
5
2
1
3
7
0
4
3
3
7
11
0
7
8
3
4
7
2
4
0
21
4
2
1
6
6
0
8
2
9
13
7
0
16
2
2
11
3
1
2
21
1
4
0
1
3
6
4
13
2
3
10
10
2
5
7
5
6
7
4
0
2
2
12
2
6
0
1
16
2
9
1
0
7
5
10
0
3
0
3
1
13
4
9
10
12
3
9
10
3
4
3
17
4
0
4
7
2
6
13
12
7
16
9
4
2
2
1
9
1
1
1
0
6
0
5
11
0
2
10
6
11
13
2
6
3
3
5
1
0
15
11
1
7
1
1
6
12
21
2
10
3
2
0
0
4
4
4
0
0
3
4
6
1
3
4
12
0
7
3
5
3
7
2
5
2
4
4
10
1
0
0
3
13
5
5
12
5
2
13
20
4
1
10
1
7
6
8
18
7
0
6
1
6
10
1
0
16
12
5
1
2
4
5
10
6
3
2
2
2
13
4
19
8
4
2
7
6
1
5
6
3
7
10
5
8
3
9
2
1
12
2
1
0
9
7
3
10
0
4
3
10
8
2
4
3
1
0
1
15
9
0
6
2
6
1
0
1
2
9
5
13
4
0
0
3
9
6
9
6
0
4
6
3
4
6
4
10
14
5
3
3
9
8
2
4
6
4
4
0
0
4
4
10
7
8
3
18
1
6
10
16
6
3
2
4
3
6
6
12
10
3
5
3
0
0
2
12
1
7
6
3
0
21
12
2
4
8
18
10
12
5
7
0
4
3
6
5
20
14
9
15
3
13
30
5
3
1
2
1
1
3
7
9
3
5
3
8
3
6
11
12
4
5
14
0
6
3
3
9
9
10
7
4
1
1
1
6
5
3
16
4
4
0
10
12
1
20
6
2
19
1
0
3
11
5
0
1
0
8
11
8
7
6
0
6
1
15
4
4
1
1
2
4
1
3
5
16
2
1
3
1
9
3
4
6
0
2
8
1
6
9
1
5
15
9
2
11
9
4
18
15
8
5
8
7
4
0
6
12
4
1
0
3
4
10
5
1
0
0
7
2
0
18
2
5
2
4
2
5
9
6
1
1
1
14
9
15
4
3
1
1
1
2
2
0
5
2
1
0
1
0
12
12
26
4
3
16
5
6
3
12
3
1
11
2
4
9
1
0
2
7
2
1
0
0
9
6
9
5
1
6
3
2
3
2
9
0
24
5
6
3
7
0
3
3
5
0
6
3
0
8
7
14
3
9
4
6
1
2
3
1
8
4
1
0
3
5
4
3
15
7
4
0
13
3
4
2
7
4
2
1
3
17
5
6
2
5
10
0
2
2
5
4
1
4
3
9
1
2
6
2
3
0
0
5
1
4
0
4
0
2
5
3
1
7
2
1
1
15
12
16
1
7
3
2
11
5
2
6
7
9
3
11
0
6
0
11
10
2
11
3
2
3
4
3
2
11
6
10
1
1
3
4
1
1
2
20
15
1
5
4
4
0
5
6
10
4
1
15
3
5
2
7
27
1
1
4
6
6
5
4
15
5
1
0
0
1
10
9
3
2
18
11
13
3
1
8
5
5
7
10
4
6
10
6
4
2
8
10
22
9
7
7
13
4
8
4
12
7
2
1
3
0
1
9
8
5
17
1
5
9
1
3
3
4
1
10
2
2
3
9
0
6
21
14
9
9
6
0
2
1
1
5
5
9
7
14
8
0
3
8
3
17
0
7
1
1
6
3
0
1
8
10
11
6
10
1
10
0
1
2
2
0
3
7
4
9
0
10
8
3
2
10
1
1
7
1
0
7
14
11
6
6
5
0
2
2
3
14
3
5
1
6
1
2
4
8
10
2
5
1
1
9
6
9
2
8
4
8
2
1
1
4
7
2
1
0
0
0
7
12
6
13
9
9
14
5
9
3
0
5
6
2
7
7
3
1
4
14
1
2
9
1
2
6
7
4
7
7
6
5
4
4
4
3
4
3
4
0
1
1
22
0
1
8
0
3
2
6
2
1
0
2
17
5
2
7
2
2
10
1
6
15
7
9
4
7
2
15
9
2
9
3
2
9
0
4
6
5
7
7
3
7
5
6
6
5
0
1
5
3
4
5
2
2
2
8
3
3
6
4
10
9
3
2
0
13
6
3
2
1
3
0
9
2
0
11
7
2
8
5
2
12
6
9
0
1
5
8
5
1
1
2
2
4
1
0
1
2
0
7
2
0
11
0
1
3
7
1
1
8
3
9
2
0
14
3
3
1
10
1
1
1
1
8
18
4
0
8
2
5
3
1
0
2
0
4
7
4
1
2
4
4
1
4
15
10
4
2
3
1
12
10
7
2
8
0
16
11
6
3
4
7
3
0
1
3
8
2
5
0
0
13
3
7
6
1
18
5
1
2
2
1
2
5
0
0
2
7
4
1
4
1
0
4
13
13
6
7
0
0
3
7
6
3
3
1
1
1
0
1
14
0
0
10
2
0
0
4
2
3
12
10
2
3
9
1
6
3
3
12
7
2
4
12
3
2
7
2
0
0
2
0
10
8
9
6
2
8
0
4
11
0
4
2
2
0
3
1
15
3
1
3
8
4
2
5
10
8
6
9
0
3
3
1
6
7
4
6
3
6
6
0
10
4
11
9
5
1
3
8
6
2
11
4
2
10
4
6
6
7
5
1
8
5
6
17
1
6
9
0
3
4
9
4
3
1
0
4
16
8
20
3
5
0
3
9
4
2
1
9
1
3
2
2
8
9
0
3
6
6
2
3
12
0
7
8
4
2
10
3
9
3
5
8
4
3
8
2
17
5
0
2
4
9
3
3
8
4
7
4
11
23
4
4
2
4
2
6
18
9
5
6
3
5
6
10
7
0
9
2
1
4
5
5
3
7
5
4
2
6
0
14
9
5
11
6
12
2
4
5
15
2
10
13
10
28
0
2
0
6
6
5
13
11
4
0
7
4
2
2
3
7
6
2
7
6
3
6
0
2
8
1
0
2
1
14
5
8
2
5
2
0
2
1
8
4
6
7
5
13
1
0
7
6
0
4
0
4
7
1
3
1
2
10
1
1
6
7
5
2
3
2
12
2
5
2
12
9
4
3
2
3
3
5
10
0
2
1
12
3
0
2
4
4
3
7
1
4
3
10
0
1
4
3
1
5
3
6
6
7
12
6
3
0
4
0
0
6
3
9
0
11
10
5
0
1
9
1
11
0
2
4
0
8
11
7
2
17
11
4
2
5
0
3
2
6
5
4
9
5
12
2
7
5
9
3
2
3
0
2
11
9
3
5
6
3
8
4
3
10
3
5
21
8
9
15
1
9
2
10
7
1
1
2
0
2
2
8
0
5
10
4
7
12
1
11
1
3
10
4
15
8
17
3
15
10
2
19
8
3
1
3
2
0
4
3
6
9
3
10
4
10
15
2
6
2
9
4
4
3
3
9
5
4
1
1
3
2
1
1
22
4
4
2
4
0
8
4
0
13
6
0
8
5
1
2
5
11
3
6
6
5
6
4
3
7
1
3
12
3
1
0
4
3
13
0
1
12
8
6
5
0
2
2
4
6
3
0
10
2
7
7
7
6
1
13
0
3
1
7
3
3
19
4
1
4
9
8
1
7
4
0
7
11
4
7
8
6
2
3
1
1
7
13
5
8
0
7
7
8
1
5
12
2
1
2
18
0
0
1
2
1
5
4
15
6
4
8
9
0
6
3
4
3
2
6
5
2
4
16
2
3
4
11
15
1
0
2
1
11
2
7
4
9
4
2
4
13
1
0
3
7
11
2
1
3
6
2
8
6
10
18
3
7
3
13
7
0
3
4
3
2
4
6
3
7
5
5
2
6
5
5
4
4
8
5
9
2
9
0
4
4
18
10
6
7
3
0
2
0
4
11
8
3
0
2
0
5
1
0
9
12
5
0
2
2
0
4
3
4
2
4
5
2
4
0
2
2
5
7
0
2
0
3
8
3
0
3
2
7
2
3
9
3
1
2
1
7
8
4
5
16
3
3
0
6
8
2
6
0
7
0
2
7
5
10
1
1
5
3
14
15
18
4
4
1
1
2
4
5
1
0
11
0
1
2
0
5
1
5
1
7
1
0
3
1
4
6
1
13
1
0
3
2
2
2
6
1
3
1
0
5
21
5
3
2
8
6
7
4
2
6
2
2
2
1
2
1
0
6
11
8
1
3
8
5
4
3
9
3
12
6
8
2
6
5
1
3
0
9
2
4
7
7
8
7
4
9
4
6
1
0
5
1
4
3
5
4
6
4
5
0
4
10
11
2
4
6
7
2
8
1
0
3
2
6
5
6
3
5
5
1
1
4
1
2
4
0
1
7
6
2
1
1
1
1
13
9
1
1
0
7
3
9
0
1
3
5
7
8
11
4
5
1
4
1
4
9
7
0
4
7
2
5
3
0
2
6
9
2
11
18
8
2
6
2
3
2
0
3
4
4
0
1
5
2
0
5
11
2
1
3
4
2
8
7
12
1
1
4
4
4
7
11
8
4
7
2
14
8
7
9
2
5
6
7
5
4
2
5
3
7
1
10
6
7
1
6
1
3
7
2
7
9
3
0
7
6
13
5
6
5
4
20
4
13
4
6
16
16
4
4
6
11
6
2
5
0
0
3
0
5
2
2
3
6
4
11
10
1
3
0
6
1
0
2
1
5
3
6
2
0
2
10
4
2
3
1
12
9
7
0
5
7
4
14
18
8
5
2
5
12
11
3
3
1
5
2
1
1
3
9
3
6
3
12
1
3
1
10
2
3
0
2
4
1
0
1
1
4
0
0
3
3
2
1
1
1
1
0
3
6
1
5
3
5
0
2
12
2
1
2
4
2
6
1
2
1
0
5
3
9
10
1
0
1
0
2
1
2
7
14
6
1
1
1
3
0
0
2
5
2
2
13
10
2
0
0
1
0
2
1
2
0
8
1
2
0
1
16
2
3
6
11
5
4
8
2
3
3
4
8
3
0
0
5
3
6
3
7
1
1
12
6
1
6
3
1
3
10
2
0
1
0
1
10
1
13
7
6
5
11
9
11
8
4
6
10
8
3
1
8
3
2
0
5
4
8
0
2
10
2
0
11
5
6
6
2
0
5
4
3
6
0
2
4
1
5
4
3
3
6
2
2
2
0
2
4
2
7
10
6
2
0
0
3
3
3
15
20
1
2
3
19
20
10
4
1
1
7
19
0
3
5
5
6
2
2
1
2
4
3
2
1
0
1
1
0
13
5
3
0
1
7
3
2
2
4
1
0
4
13
11
0
3
4
10
8
6
3
7
2
0
6
1
2
4
0
0
0
1
11
5
9
1
7
0
5
0
0
4
5
10
1
1
9
2
0
6
5
3
5
5
1
4
1
12
8
0
1
5
1
5
2
9
10
8
5
3
1
6
1
8
7
7
5
3
1
2
3
4
2
8
0
1
2
7
1
1
6
5
11
1
5
4
0
7
2
4
7
5
7
4
3
11
5
10
3
5
1
4
3
1
9
0
1
7
1
12
6
2
1
13
4
1
5
5
5
9
8
1
1
0
1
0
7
1
6
8
5
1
0
4
3
8
2
8
2
8
10
2
6
0
9
7
2
7
3
2
8
3
12
4
0
0
6
10
3
5
3
12
6
11
2
0
3
5
11
3
9
9
5
3
3
4
1
2
5
2
0
1
1
0
5
7
12
7
2
1
4
2
2
5
0
0
8
5
0
2
3
7
9
12
7
15
4
4
4
4
4
1
10
2
3
8
5
10
7
3
0
1
6
0
4
4
5
1
4
0
1
11
2
4
4
7
0
5
5
2
4
8
0
2
7
1
4
9
0
10
1
2
11
0
2
5
0
4
13
9
5
10
1
6
2
2
5
3
8
5
5
6
11
1
4
0
9
0
3
4
4
1
3
9
6
2
6
9
14
4
2
5
3
5
1
5
1
5
3
0
4
2
7
2
9
0
1
3
7
1
1
0
1
5
8
9
2
1
0
0
13
16
3
4
11
4
1
0
1
13
1
5
0
1
2
2
5
5
5
18
2
1
2
6
1
4
11
5
1
4
7
2
2
2
1
7
3
2
3
2
2
6
3
1
9
7
4
3
8
4
1
4
2
1
7
6
5
4
0
1
4
9
2
0
4
3
4
2
5
3
9
4
7
6
3
2
2
2
2
1
4
7
3
6
2
9
12
1
0
0
0
7
0
3
1
1
1
13
4
0
2
9
0
1
2
0
1
13
2
2
3
8
8
3
2
11
3
13
1
1
7
0
1
3
0
2
5
3
6
10
2
1
7
2
0
6
0
0
4
0
6
4
5
1
0
2
3
3
4
5
6
10
5
11
2
1
3
3
0
9
4
20
4
8
6
4
4
1
11
6
3
4
2
3
1
4
1
6
0
5
2
0
3
4
18
4
9
8
3
0
2
1
1
2
5
5
3
13
8
1
3
5
2
0
14
6
11
6
1
1
5
3
3
5
1
4
3
1
2
5
1
5
3
12
19
7
1
4
3
1
14
14
2
0
1
0
0
8
1
4
2
8
1
12
3
0
3
5
4
5
2
10
0
2
8
2
2
5
6
4
3
15
3
2
4
8
1
4
3
9
5
10
4
5
5
1
1
11
2
3
10
8
10
0
3
2
3
6
3
9
6
1
13
8
9
3
1
2
0
1
8
0
6
4
9
2
0
8
13
6
16
2
4
6
1
4
6
1
4
0
2
1
1
5
1
9
14
5
2
2
3
4
1
7
6
2
2
3
4
6
2
4
12
1
4
1
1
9
2
0
1
1
5
0
5
7
4
2
5
5
7
9
0
7
6
0
0
1
0
4
6
2
2
13
4
1
4
0
0
9
10
0
6
2
4
2
5
7
2
3
8
4
3
11
3
3
1
14
2
12
1
8
3
7
12
5
3
2
1
0
8
10
10
17
1
5
1
3
6
3
10
5
6
1
0
4
3
6
1
10
7
2
3
1
4
1
9
6
0
4
0
3
8
1
4
1
1
0
8
3
7
6
4
3
1
4
3
4
2
4
3
0
5
0
2
4
3
1
0
3
3
0
1
1
3
1
1
1
0
2
1
0
1
1
14
2
2
3
4
3
5
1
0
4
2
8
6
3
7
5
0
5
2
6
3
1
9
10
0
1
3
4
4
0
1
1
4
0
4
2
3
4
0
4
2
7
3
2
9
1
10
11
2
4
2
7
7
1
4
0
0
7
0
5
6
8
3
1
1
4
4
7
4
1
8
7
0
7
4
5
1
2
0
15
5
5
2
3
20
7
9
3
6
4
0
4
5
1
13
3
0
8
4
0
6
6
0
4
1
1
1
5
6
2
8
7
1
1
0
8
3
6
4
5
7
5
14
4
16
2
4
8
6
3
6
5
4
1
1
2
0
7
2
1
2
6
7
8
6
3
11
0
0
2
1
8
3
0
9
3
1
1
4
4
0
7
7
6
4
2
1
2
12
0
9
1
5
2
0
0
1
15
3
0
14
5
7
15
8
4
9
3
1
0
3
9
6
2
8
3
1
0
4
8
3
1
3
4
4
5
4
0
6
7
14
18
8
6
1
1
6
6
0
6
6
8
5
1
2
1
2
0
8
1
2
1
5
2
1
1
2
4
3
3
13
4
7
8
11
5
6
1
4
0
1
1
0
12
1
0
3
1
0
3
11
2
4
7
3
15
0
7
4
1
2
0
2
1
1
4
6
0
4
2
1
0
7
3
8
5
5
5
5
5
6
2
8
3
1
7
0
0
0
0
3
2
2
4
0
4
7
4
6
4
5
6
4
5
3
1
8
8
2
8
15
8
2
1
2
9
21
8
7
0
10
1
3
0
9
3
10
6
1
5
1
1
3
1
3
3
5
1
0
1
14
11
7
4
1
7
1
10
3
3
6
0
0
5
6
0
5
1
1
2
1
1
1
6
6
1
3
5
1
0
4
1
3
5
1
3
3
3
0
9
3
8
0
1
4
2
1
10
4
3
5
8
4
1
3
4
1
12
3
5
8
2
1
5
2
3
2
1
6
5
1
5
11
2
1
3
1
1
7
8
3
2
8
3
10
3
8
7
4
1
2
0
8
6
0
4
14
0
0
1
3
4
2
4
8
2
5
1
1
0
2
0
1
8
8
2
5
5
6
4
1
16
9
1
1
0
7
6
7
6
2
10
0
8
18
4
1
0
0
3
3
2
0
4
2
9
14
5
0
7
2
7
1
1
2
0
5
2
1
2
1
3
5
0
6
1
1
3
2
4
11
4
2
3
3
1
5
3
0
1
0
3
6
3
3
0
1
4
3
1
4
3
4
5
2
1
8
7
1
1
2
1
1
16
5
1
7
6
7
14
6
0
8
1
1
0
0
5
3
1
1
3
5
4
3
0
1
1
7
16
0
0
5
1
1
3
8
8
2
2
2
5
2
4
5
1
9
2
2
3
6
0
1
4
7
7
3
1
4
1
4
0
2
2
0
2
9
13
4
0
1
1
0
4
3
2
2
6
3
0
3
3
3
12
4
2
3
2
5
5
1
3
1
1
1
3
8
3
0
8
4
1
3
9
2
2
0
6
1
5
4
3
0
5
3
2
5
2
10
2
6
0
0
3
1
2
1
8
1
1
7
3
14
5
1
1
2
3
2
8
1
19
7
1
0
2
11
0
3
0
2
2
1
10
1
4
3
9
0
3
1
7
3
10
3
3
3
6
1
0
1
7
1
8
2
1
2
0
0
0
4
9
3
11
0
2
7
1
1
9
1
1
0
1
0
2
0
5
0
2
3
3
3
1
3
4
1
0
1
2
1
8
2
4
1
0
5
1
6
2
4
2
2
1
0
2
7
20
10
10
3
4
8
5
14
0
6
2
1
0
7
1
7
2
0
1
0
0
1
1
3
8
3
13
7
5
7
6
6
9
0
6
1
8
8
0
2
6
6
4
4
0
2
2
2
2
9
5
1
5
5
2
9
12
3
4
4
3
6
12
10
3
10
6
4
13
5
2
3
9
1
6
2
2
7
4
7
2
3
1
2
13
3
2
3
0
2
1
4
1
5
1
8
8
2
7
6
2
1
1
0
3
4
3
6
5
1
1
4
4
5
4
1
1
9
6
2
3
6
1
1
0
11
2
8
9
0
2
1
6
0
0
1
8
0
10
1
0
4
4
1
11
10
0
6
11
1
7
8
12
0
7
9
3
9
0
3
7
3
6
7
4
4
1
10
4
3
2
6
1
4
1
0
0
3
2
0
1
1
1
0
2
1
0
6
3
0
7
5
12
3
0
5
8
10
0
5
4
8
4
0
6
4
3
0
0
4
14
10
1
10
3
1
5
8
4
4
1
2
0
10
0
7
1
4
7
3
11
10
13
2
1
3
4
0
5
4
10
5
3
5
2
3
0
1
7
0
4
1
9
3
0
0
2
2
2
0
4
10
1
11
3
2
2
6
6
0
2
3
1
0
5
2
0
1
0
0
0
7
2
1
0
10
16
0
1
7
4
7
2
1
3
1
2
2
4
4
5
13
1
1
4
2
0
2
0
8
4
5
15
5
1
1
0
0
6
7
2
8
8
7
2
1
2
4
5
4
9
6
5
0
10
5
5
6
8
2
8
1
6
6
0
5
1
10
2
5
4
4
4
3
3
4
10
1
2
2
3
0
3
3
0
0
0
8
4
7
6
5
2
3
1
0
2
0
2
2
0
4
2
6
1
1
1
0
5
2
10
5
2
7
0
4
0
11
1
7
2
2
0
3
2
5
2
10
6
10
5
1
1
5
1
6
4
5
4
0
3
9
1
1
1
0
3
4
1
2
2
3
6
6
1
4
0
0
1
3
5
10
14
12
3
4
7
3
1
10
0
1
1
0
5
0
0
3
7
1
4
4
8
0
4
5
7
1
3
3
2
8
4
0
1
0
6
0
5
0
6
0
10
1
5
6
3
8
1
1
4
3
7
0
1
1
3
4
3
9
0
1
4
7
3
6
0
1
9
0
11
0
1
6
1
0
1
10
4
12
4
8
3
1
1
1
3
6
0
2
2
4
0
18
3
2
5
5
0
3
4
3
2
1
6
3
2
0
3
3
0
2
1
2
2
1
0
1
3
1
3
1
5
9
1
8
4
3
4
3
2
4
1
2
1
11
2
1
3
11
6
9
3
0
3
2
1
2
5
10
8
4
9
8
4
1
9
1
7
1
0
1
2
3
1
3
1
4
4
8
5
6
6
1
3
5
3
5
3
2
4
4
5
3
3
2
2
0
0
4
4
1
2
4
1
2
7
10
2
12
7
3
9
3
8
2
4
7
5
0
5
6
0
5
0
1
0
5
4
2
3
12
3
5
5
1
2
4
3
0
3
3
6
4
4
11
2
4
3
7
4
1
5
4
0
2
1
2
6
0
4
7
1
3
6
1
4
22
1
0
6
2
1
0
3
0
4
2
0
10
11
3
4
10
0
4
4
1
10
2
3
2
8
2
3
3
0
2
4
0
1
7
7
2
5
4
1
1
0
7
2
1
5
10
7
3
4
3
2
1
2
6
5
4
5
0
1
5
5
12
7
1
2
2
4
2
2
1
1
8
6
1
3
3
3
2
11
6
10
1
8
6
10
1
6
1
1
9
0
2
2
15
6
3
0
3
7
4
1
3
0
1
0
2
0
7
10
0
2
5
0
7
6
11
1
7
2
4
2
3
7
4
6
3
2
7
5
4
5
2
5
4
1
2
1
8
1
8
1
9
7
6
3
8
6
3
7
9
2
2
0
2
4
5
9
6
4
12
4
5
4
5
4
3
2
0
6
5
3
4
3
7
0
3
1
1
3
3
9
8
4
4
6
1
1
0
1
8
3
10
7
6
6
0
1
1
3
1
12
4
1
5
6
6
4
5
5
0
2
1
6
2
7
9
10
3
4
8
6
7
2
1
5
4
5
1
6
4
10
1
5
11
0
3
5
1
1
12
3
2
0
7
16
4
5
1
6
5
7
9
5
4
3
2
3
8
6
9
1
7
1
13
2
4
1
10
4
1
1
0
1
1
1
1
1
6
0
6
0
22
17
10
0
2
7
0
4
1
7
4
0
10
1
1
1
3
2
3
2
0
0
3
2
3
2
2
4
4
2
5
10
2
2
1
3
3
2
0
0
4
2
1
3
0
3
3
0
13
6
16
6
1
3
6
0
1
4
0
0
5
1
3
7
0
11
2
9
1
3
0
0
5
6
11
1
3
3
0
1
4
2
0
12
16
2
0
4
2
12
8
6
2
7
8
13
0
3
4
0
2
4
12
3
3
5
1
2
2
4
3
2
1
2
2
10
4
1
0
9
7
3
0
1
1
2
0
1
1
0
0
0
4
2
5
16
1
2
1
1
1
1
11
2
7
1
3
8
0
4
1
4
0
2
0
0
0
8
7
0
6
4
4
0
0
9
3
5
0
2
3
3
5
3
2
0
0
1
1
3
10
3
3
2
10
4
3
0
1
3
7
1
2
2
4
7
2
6
0
4
6
2
0
6
2
5
1
4
6
2
13
1
1
1
0
0
1
3
8
3
2
4
9
3
6
0
1
9
2
0
2
0
2
1
3
1
1
0
6
3
1
0
5
6
6
5
1
4
0
5
2
4
1
0
4
0
4
1
2
4
0
4
7
3
3
6
7
3
1
1
8
4
4
7
4
0
0
8
4
0
1
9
17
1
3
3
0
7
0
2
12
8
1
4
0
4
5
2
5
3
1
0
0
0
9
5
6
2
0
5
2
3
3
2
0
6
4
9
2
1
0
8
0
2
1
12
9
0
4
8
0
1
5
0
2
1
2
5
2
3
1
12
3
4
2
6
7
1
6
4
2
2
0
0
2
7
7
17
3
0
2
5
7
0
0
5
2
0
1
4
0
1
1
10
2
0
0
1
5
6
6
5
3
7
1
4
5
1
1
9
2
6
0
4
3
0
0
7
1
1
8
9
2
5
7
2
2
4
4
0
6
0
4
1
2
1
6
8
5
3
1
1
1
3
1
2
0
1
4
2
14
5
6
5
0
0
1
0
2
6
0
0
0
4
5
6
1
0
1
1
4
2
0
1
5
7
2
0
2
5
1
7
4
3
4
0
2
0
0
4
1
7
6
1
6
0
4
2
2
0
2
0
0
1
1
2
3
2
5
0
0
2
1
8
5
1
3
2
6
5
1
1
2
5
7
1
4
1
6
1
2
4
2
0
12
0
3
4
0
6
4
6
9
7
7
5
2
1
3
5
1
8
1
10
12
3
8
10
3
4
2
9
2
5
2
1
9
7
1
8
2
2
4
1
4
0
3
1
6
4
1
4
3
9
1
0
6
0
1
2
0
5
1
6
4
1
4
1
9
1
4
3
10
7
3
1
4
7
1
10
0
3
6
8
1
0
3
6
6
5
0
1
9
1
1
1
0
2
1
0
1
0
0
1
6
0
4
8
3
1
4
2
0
1
0
13
0
2
6
3
10
6
4
10
4
2
6
0
6
7
4
6
7
7
2
5
0
6
1
6
10
2
13
7
0
1
2
5
0
2
0
2
2
0
0
3
1
3
9
8
6
3
0
2
2
5
3
2
2
1
1
5
5
1
1
7
4
3
8
1
7
0
3
4
1
3
18
5
9
11
0
3
1
4
1
1
1
0
4
3
0
2
1
0
2
3
3
1
0
0
7
6
1
2
3
4
0
5
13
11
0
2
3
3
3
4
3
4
1
2
3
2
7
0
3
4
0
0
4
5
1
13
13
7
3
2
0
6
9
5
6
4
1
1
7
3
2
1
8
6
1
1
1
3
5
9
11
1
1
0
1
0
2
6
12
1
1
0
5
1
13
4
0
8
2
4
4
5
4
2
1
0
2
2
0
2
0
1
1
15
3
2
1
2
3
6
3
2
1
0
2
3
3
0
4
3
14
17
3
1
1
0
0
3
1
14
7
2
0
0
1
1
0
3
1
2
5
4
2
2
1
5
10
3
3
4
1
0
1
3
10
7
10
5
1
8
6
7
11
8
3
5
1
0
0
1
0
4
2
0
3
1
5
4
1
4
1
2
0
0
0
7
1
0
10
7
2
4
1
0
2
1
0
0
5
3
4
1
7
1
3
0
5
3
5
2
11
5
0
1
2
5
2
2
6
5
2
9
8
4
0
4
1
0
1
0
8
3
4
0
1
7
4
9
0
3
0
2
0
0
6
12
6
2
1
0
0
8
4
2
0
9
0
8
15
0
0
3
2
2
0
3
2
1
1
3
0
2
2
11
1
4
0
0
0
3
0
11
7
8
3
1
6
8
1
1
5
1
3
0
0
0
4
4
1
2
3
2
0
1
6
4
0
4
3
2
1
0
0
0
1
2
0
4
2
3
0
1
1
5
0
11
0
7
6
7
0
1
3
2
2
1
2
0
6
3
5
3
6
1
2
3
0
0
5
1
6
1
1
6
8
1
3
15
8
1
0
3
4
1
2
5
7
1
4
6
0
2
3
0
7
9
2
2
2
1
1
1
7
0
5
1
3
0
1
4
3
0
3
1
4
10
9
4
1
5
8
17
1
1
1
0
1
0
7
0
0
6
0
4
4
2
5
6
1
3
2
2
2
6
1
0
1
2
0
1
4
0
1
9
4
0
2
2
0
1
0
1
1
5
1
1
5
2
0
3
2
0
0
7
3
4
2
5
7
8
2
3
0
0
8
4
11
1
3
8
4
0
2
5
2
1
1
0
3
1
4
0
3
5
4
1
1
0
4
0
1
6
1
0
0
3
0
3
1
0
4
4
0
4
1
4
1
4
4
1
3
2
8
3
2
5
9
3
1
0
8
2
3
3
5
9
4
10
6
10
1
1
0
6
6
3
5
3
9
2
5
2
5
9
2
0
1
0
0
4
1
6
0
2
9
4
12
9
3
9
2
6
7
13
4
7
10
2
1
4
6
4
2
6
3
2
2
2
9
10
4
4
0
7
13
2
1
3
9
1
1
7
5
9
1
4
5
2
4
3
3
0
2
3
1
4
4
0
3
2
0
1
12
0
1
4
2
4
3
4
5
7
10
0
8
5
1
3
0
1
4
1
2
0
6
3
1
1
1
1
4
3
0
0
7
5
1
0
5
7
3
4
7
1
4
3
2
1
1
3
5
4
3
10
7
1
0
1
1
0
1
3
1
1
0
4
1
8
0
1
1
1
8
4
0
0
0
4
0
5
3
9
1
3
4
7
1
2
1
4
0
1
1
1
3
2
0
6
4
2
6
0
0
0
6
2
7
1
6
2
3
5
0
0
4
4
0
8
2
3
4
2
0
6
2
3
0
3
1
0
3
1
0
4
1
0
4
11
2
1
6
7
10
0
1
7
0
1
1
2
3
4
1
1
3
3
8
1
0
8
0
7
2
1
2
0
8
0
0
4
2
2
0
0
4
0
1
3
3
3
1
7
1
0
1
9
6
2
1
2
3
7
4
1
0
1
0
7
9
1
0
3
4
4
7
4
2
0
0
1
8
8
3
0
1
0
2
1
5
1
3
2
3
1
0
0
1
8
4
4
0
0
1
3
3
3
4
5
0
2
9
11
3
3
6
2
4
2
0
2
2
6
8
8
4
0
1
5
10
4
0
0
3
2
0
5
2
4
8
5
2
4
2
7
12
2
5
2
1
1
0
3
2
9
1
0
3
3
0
4
5
14
5
11
10
2
4
1
0
4
1
0
4
7
14
2
2
0
3
8
3
3
11
5
2
2
1
2
4
0
3
5
3
2
7
0
6
1
5
3
3
4
1
8
8
0
0
10
0
3
7
3
0
3
3
6
4
3
4
0
3
0
8
7
0
1
5
3
8
1
3
0
1
1
1
3
1
1
0
5
5
15
0
0
7
3
7
1
2
6
6
4
1
4
7
2
6
5
2
8
0
8
2
0
9
0
1
2
2
0
5
0
3
3
0
0
0
3
9
7
2
0
0
7
4
0
3
3
1
1
1
2
1
4
1
3
2
1
2
1
2
3
4
0
4
2
7
2
0
1
0
3
8
6
5
1
3
0
8
0
3
7
4
2
0
2
0
1
2
1
0
9
0
0
4
7
0
6
6
4
2
0
1
1
0
2
1
0
1
4
4
0
1
2
4
5
2
3
0
1
2
4
6
5
5
4
5
0
3
1
5
4
1
3
1
1
3
10
0
1
2
12
8
6
5
10
1
3
2
2
3
2
3
2
1
2
3
2
1
5
4
1
2
1
4
0
1
4
1
7
0
1
1
1
3
5
4
1
0
7
2
2
5
9
1
4
4
4
0
3
0
1
11
1
2
0
13
0
0
12
9
0
1
0
3
0
3
8
6
0
1
10
2
11
3
8
2
5
5
1
0
2
0
0
4
1
4
1
6
6
4
3
4
1
1
0
2
0
0
0
4
13
8
6
0
10
11
2
1
1
1
1
2
1
3
5
3
1
1
4
7
4
8
8
4
5
0
1
6
4
3
1
9
10
3
4
1
5
3
1
1
0
12
4
0
2
6
9
9
1
2
3
1
2
6
1
1
7
0
1
2
4
1
7
2
1
0
1
1
1
2
6
6
0
0
4
3
5
0
5
0
0
0
5
1
5
2
2
2
2
0
6
6
2
2
2
1
3
2
0
2
1
0
2
3
1
2
0
1
9
1
1
1
8
4
3
6
3
7
1
4
9
4
1
2
0
4
8
2
3
1
1
4
2
0
0
4
7
8
4
4
6
2
3
3
1
5
3
0
0
0
2
1
5
1
3
3
3
7
9
4
3
1
4
0
4
1
3
2
12
4
1
1
6
2
6
1
6
2
7
1
1
7
2
5
0
1
7
5
3
5
5
4
3
9
0
3
2
6
5
3
1
0
2
5
0
2
0
8
0
3
1
5
2
1
3
1
6
0
3
4
4
1
0
1
12
9
0
0
0
3
0
1
1
6
1
2
3
5
1
3
1
3
4
2
6
6
6
5
1
0
1
1
1
5
1
0
0
5
7
7
6
3
1
13
9
0
0
1
5
3
2
4
7
1
5
5
7
4
4
3
3
2
5
1
1
8
2
3
3
0
1
5
1
0
1
7
2
0
0
1
0
0
1
0
1
0
8
4
2
0
1
7
5
7
0
0
3
4
8
0
1
1
2
10
1
0
2
1
0
3
1
4
1
0
1
12
1
2
1
10
3
3
1
4
0
5
2
0
0
0
1
0
2
6
9
0
3
0
5
6
10
1
3
1
2
1
1
1
0
5
2
3
2
6
3
2
1
1
6
2
2
0
3
4
0
3
7
0
0
2
4
1
0
1
2
2
7
1
0
5
0
4
0
4
0
0
3
2
0
3
9
0
0
4
0
1
3
2
4
0
2
6
0
2
1
0
0
6
1
2
1
1
0
3
0
0
0
1
0
8
0
1
4
2
0
2
0
4
0
2
2
5
3
0
2
0
0
2
3
8
3
4
5
2
0
3
1
3
0
2
4
2
1
1
3
3
3
4
8
7
5
0
3
1
3
0
3
7
0
0
2
1
6
11
0
11
0
3
2
1
2
0
1
3
5
1
3
5
3
4
5
0
1
0
0
2
0
3
1
1
1
0
1
0
1
3
5
4
5
3
2
1
3
1
1
3
2
1
5
1
5
2
1
1
1
3
1
1
3
2
0
0
4
0
1
1
1
2
11
3
2
2
0
7
1
0
0
3
0
4
2
3
3
1
6
2
1
0
1
5
2
1
0
7
2
0
8
1
1
1
4
1
6
5
0
3
5
0
3
4
1
0
0
6
1
6
1
2
4
0
2
1
4
2
0
2
1
0
7
0
0
3
1
10
3
5
8
0
0
0
1
1
7
4
10
2
6
1
1
10
3
1
2
2
3
1
3
1
2
4
4
0
3
2
1
1
5
0
0
3
0
5
1
0
2
3
1
1
0
4
0
4
0
1
1
0
1
6
1
12
2
5
0
2
0
0
3
2
5
4
2
2
0
1
4
5
0
2
0
0
1
0
5
4
0
0
3
0
1
3
1
4
0
5
0
14
1
2
8
4
1
8
1
0
2
2
7
3
2
3
3
3
5
0
1
4
0
16
0
0
0
2
2
2
0
6
4
2
7
1
0
0
0
4
1
1
10
7
8
1
0
0
1
9
11
1
1
1
2
1
12
1
3
1
8
2
4
9
4
0
0
0
6
2
0
1
2
3
0
0
0
9
3
5
4
3
2
3
2
0
2
2
4
1
7
5
3
8
3
1
1
2
1
0
11
1
0
3
0
7
2
2
6
1
2
1
0
0
1
1
0
4
2
1
6
0
6
0
4
2
2
6
2
4
1
4
6
5
1
2
4
2
1
0
0
1
1
3
5
3
1
0
1
8
2
3
6
6
4
4
0
0
11
1
5
3
0
4
4
3
0
0
0
3
4
0
0
0
0
1
4
2
5
6
1
0
1
3
2
4
5
6
0
0
5
1
0
2
2
5
11
6
1
1
7
0
0
1
0
1
15
0
0
4
2
1
7
0
3
3
0
5
5
2
5
5
2
6
3
1
4
0
1
0
0
3
6
10
3
2
2
6
4
6
14
3
7
2
1
2
0
1
4
1
5
0
6
2
3
9
3
8
0
7
0
0
3
5
1
2
2
0
2
3
5
1
4
4
0
2
4
0
0
2
0
1
0
3
0
1
1
2
2
1
1
12
2
8
4
5
5
0
9
2
0
5
3
0
5
5
1
1
3
0
2
2
2
4
4
0
4
2
1
0
6
8
6
1
2
2
5
4
2
3
3
4
7
0
1
0
4
4
10
2
2
1
4
5
6
12
0
1
1
1
2
2
2
2
5
2
1
0
8
1
0
11
0
5
1
0
2
1
1
0
6
1
2
1
0
0
1
1
13
0
9
2
1
0
2
3
2
1
7
1
2
5
5
2
2
1
1
5
0
3
1
9
2
1
3
3
3
4
0
3
3
5
10
5
7
5
7
0
3
2
3
0
5
4
0
4
4
4
2
3
4
5
8
5
13
0
0
2
4
3
3
1
7
1
2
5
6
3
9
4
1
8
2
0
0
0
0
0
0
2
2
2
1
4
1
1
0
1
0
9
0
1
1
0
9
1
4
4
1
1
5
0
3
6
3
1
0
2
2
4
4
2
0
1
0
13
3
7
4
2
3
8
2
0
0
0
0
3
4
8
2
4
2
1
0
0
0
2
5
1
0
0
0
0
2
0
0
4
1
6
4
1
2
5
0
2
3
0
4
0
0
0
4
6
10
10
1
12
0
1
0
4
3
0
8
2
8
7
2
0
1
0
1
1
1
1
0
3
2
1
0
0
0
1
0
1
2
13
5
5
6
7
1
3
8
0
0
1
5
2
4
1
4
1
0
0
4
1
8
2
0
0
5
1
1
0
7
3
2
1
3
0
0
0
0
0
17
2
0
0
2
0
5
1
1
2
4
0
8
1
1
3
0
3
3
0
0
4
3
1
0
9
9
1
1
1
3
3
1
6
3
3
3
1
3
2
0
0
2
3
4
5
6
6
1
1
0
0
0
2
0
1
1
6
0
1
3
0
0
1
3
2
5
0
0
8
1
2
8
4
2
0
5
1
2
1
0
4
3
0
0
6
6
4
1
0
0
0
2
4
1
1
4
1
1
1
1
0
12
8
3
5
3
4
2
4
6
3
3
2
5
3
1
1
4
6
2
3
0
0
2
0
0
1
0
2
0
3
0
1
0
2
1
3
2
2
1
1
2
1
5
5
3
4
2
0
1
0
0
1
5
9
6
4
1
3
2
1
7
1
1
1
1
1
1
0
0
7
1
2
6
5
2
2
3
1
3
1
3
1
4
0
1
0
0
0
3
6
5
5
0
0
1
0
0
5
0
0
5
4
1
0
1
2
0
1
1
5
7
2
1
4
2
0
5
1
4
1
1
4
2
2
2
2
4
1
2
4
2
12
3
2
3
2
0
1
3
1
1
3
0
3
0
1
2
0
1
1
2
7
4
2
8
5
0
6
4
3
1
0
6
0
12
1
4
11
6
0
3
0
10
5
4
7
0
1
1
3
1
1
0
3
2
0
0
7
0
0
1
3
1
3
2
2
0
1
1
2
7
0
1
0
4
8
2
8
4
2
1
0
6
2
1
4
1
1
1
2
2
9
0
3
3
4
4
1
3
0
0
1
5
2
1
3
4
1
0
1
2
3
0
1
2
1
8
7
0
1
4
3
2
2
4
1
2
1
0
2
0
3
0
0
3
7
1
1
0
4
5
2
4
2
0
2
5
3
0
6
3
1
0
4
0
2
1
5
1
9
6
0
3
0
0
3
1
7
5
8
0
4
3
3
5
0
1
1
8
6
0
1
2
2
3
5
2
6
3
1
3
4
2
0
1
7
3
1
1
0
2
3
0
3
4
1
0
0
2
8
0
9
4
10
2
7
0
1
2
0
2
3
2
0
0
8
5
0
0
2
1
0
2
7
3
2
0
1
2
2
4
1
1
0
0
0
2
0
2
4
1
5
9
1
0
0
3
0
5
3
2
2
3
3
2
0
0
5
3
3
0
8
0
6
3
1
2
4
3
3
1
3
1
3
1
3
0
5
0
3
0
1
0
0
0
2
2
0
0
1
1
4
3
8
6
0
1
2
6
2
2
1
3
0
0
4
0
3
0
4
6
3
1
5
6
0
7
3
3
1
6
2
0
7
1
1
6
0
8
2
9
0
0
2
3
2
0
1
8
5
2
2
2
0
0
6
2
7
4
7
5
4
8
4
11
1
11
2
4
5
0
6
6
0
0
1
2
5
1
3
3
8
1
1
4
1
0
0
8
1
2
3
0
0
0
5
1
0
5
1
4
0
4
1
5
0
0
2
3
0
1
6
2
4
4
0
2
9
3
1
0
5
5
0
3
1
2
0
5
1
1
0
5
3
0
3
5
3
0
1
3
4
0
1
0
5
2
3
2
1
0
3
2
0
2
3
4
4
1
3
0
2
7
1
7
1
2
3
11
6
2
3
5
2
0
0
6
13
0
0
4
4
2
1
9
6
0
1
0
0
3
1
3
9
0
2
3
1
0
0
3
0
5
3
5
0
3
1
0
3
15
0
1
6
1
2
11
0
0
0
6
2
2
7
7
0
4
2
5
1
1
2
1
1
2
7
5
0
0
6
1
4
2
2
2
1
3
1
5
0
1
5
5
0
2
2
0
1
5
1
5
1
1
2
0
0
6
2
7
6
10
4
0
0
0
5
0
4
2
1
1
1
1
2
3
3
0
4
2
0
5
4
0
2
3
5
2
0
10
5
0
0
2
9
4
0
5
0
10
0
1
3
0
2
3
0
1
0
0
1
4
0
1
3
1
0
0
2
1
2
0
1
2
0
1
1
1
2
0
2
0
0
4
3
3
0
0
2
0
1
2
0
1
0
4
1
3
3
4
7
0
3
1
5
1
0
0
3
0
0
0
0
9
3
4
2
0
1
6
0
3
2
7
0
11
1
1
0
4
8
0
1
1
2
2
0
4
2
0
3
8
3
5
1
6
9
0
7
0
1
2
2
0
8
2
1
9
0
0
5
1
6
4
5
0
7
0
1
0
2
1
1
1
3
3
4
2
1
5
10
3
1
1
5
1
0
3
6
10
0
3
2
3
0
2
3
3
2
6
0
0
4
3
4
0
1
8
9
5
0
1
0
0
0
1
0
2
1
9
0
1
4
2
2
1
5
2
0
4
2
4
1
2
1
2
0
1
0
3
0
1
1
5
3
2
1
3
6
0
2
0
0
0
1
0
0
0
6
7
2
1
2
7
3
4
1
0
2
2
9
1
0
2
1
2
2
2
4
1
1
10
1
1
1
3
1
0
2
2
0
3
1
1
5
6
0
2
1
0
5
2
2
6
6
6
1
3
0
2
0
0
3
6
1
1
4
1
0
0
5
3
5
4
0
3
1
1
4
5
4
1
1
2
3
0
1
0
1
9
2
3
3
1
1
0
4
0
3
0
0
0
7
7
1
0
0
1
6
1
2
1
5
0
10
1
0
1
4
3
3
0
4
6
6
6
3
0
3
0
0
3
0
0
0
0
1
5
0
0
2
4
3
0
0
4
1
5
6
0
14
2
3
3
0
2
3
2
0
4
3
6
0
3
1
1
3
7
0
1
0
1
1
0
1
0
1
8
6
1
2
2
1
7
5
1
4
6
5
2
0
2
2
0
2
0
1
1
1
0
1
4
0
1
3
4
4
2
1
0
1
4
1
1
7
6
0
2
0
3
3
0
4
2
1
3
1
1
5
3
0
0
0
3
1
1
0
1
11
3
6
1
0
0
3
7
3
0
2
2
1
0
11
2
1
0
1
1
8
1
3
2
0
4
1
1
3
1
0
4
0
1
0
0
0
0
0
3
0
0
4
6
4
0
3
0
0
10
6
0
2
4
1
3
3
0
4
7
4
5
1
1
1
1
1
1
0
1
3
0
7
1
2
9
0
7
2
0
2
1
1
5
2
0
0
11
1
1
2
3
1
0
4
3
2
3
8
2
0
0
0
1
2
9
3
2
1
3
1
9
1
11
2
0
0
1
8
0
2
1
2
0
7
0
0
0
7
8
2
5
2
0
2
3
0
1
0
0
8
0
1
1
0
1
0
3
0
3
0
3
0
0
7
9
0
4
0
3
0
4
5
2
0
0
1
4
1
1
3
1
2
8
8
0
1
0
4
0
3
2
1
2
3
2
0
1
4
1
3
3
0
1
4
7
0
3
0
1
0
3
3
1
1
3
5
1
4
4
5
3
3
5
4
7
3
0
0
0
1
1
0
1
0
3
4
8
1
5
1
0
6
0
0
1
0
1
1
3
2
0
6
6
0
2
3
1
5
11
1
1
3
0
0
0
2
0
4
2
1
3
1
4
0
4
0
1
1
1
1
4
1
1
3
0
1
1
0
3
0
10
0
3
1
4
0
7
0
1
2
1
2
5
2
0
1
6
4
11
5
2
1
11
1
5
1
0
3
5
2
1
3
5
2
1
1
0
14
4
2
2
0
2
1
1
4
4
0
1
1
1
2
0
1
1
2
1
4
4
0
3
4
2
0
4
0
3
1
7
0
0
1
0
0
0
4
7
6
5
0
7
1
0
4
2
1
0
1
0
0
0
3
4
1
7
0
1
3
0
0
5
3
0
17
4
8
0
0
1
0
1
1
4
2
0
0
0
1
0
0
1
2
7
0
2
8
1
5
2
3
2
0
1
3
1
0
2
0
5
5
1
3
2
5
3
3
4
3
5
4
3
0
0
1
0
2
3
3
0
4
1
6
4
0
0
2
1
0
2
1
5
1
4
2
0
1
1
0
1
0
2
1
0
0
1
0
3
7
2
1
0
0
0
1
3
4
0
4
2
2
3
1
0
1
2
1
2
2
4
1
0
0
1
4
5
10
4
2
1
0
0
1
1
0
2
6
2
1
0
4
0
5
5
0
0
8
5
1
1
4
9
3
0
5
4
4
0
5
11
1
7
4
3
0
0
2
11
2
7
8
0
7
0
0
5
2
1
2
1
0
6
5
6
0
3
3
1
1
0
7
2
1
5
4
3
0
6
0
6
4
5
1
1
2
1
0
2
1
3
0
3
0
1
1
2
0
1
5
4
3
0
5
0
0
4
3
3
1
6
1
0
4
3
1
0
0
2
2
16
0
3
2
2
4
3
8
0
0
3
3
1
5
0
0
4
0
0
0
0
4
1
0
0
6
11
14
1
1
0
2
1
5
0
0
2
3
1
1
0
1
0
5
7
8
3
3
1
11
4
1
0
2
6
1
2
1
0
2
0
0
2
2
2
4
0
1
0
0
2
0
1
0
0
2
1
2
2
0
1
0
1
1
5
1
1
1
0
2
0
3
1
4
3
4
6
8
0
9
0
1
3
5
2
1
3
0
16
6
1
0
5
3
1
0
1
5
4
2
3
2
1
0
2
2
1
5
5
0
1
1
5
0
6
4
2
5
1
0
3
4
8
1
2
6
1
8
2
1
5
3
3
0
0
3
0
0
4
1
1
2
0
0
1
4
5
2
0
4
3
0
3
2
4
2
0
2
0
2
4
0
1
0
2
0
2
1
1
5
0
0
4
0
0
6
9
5
1
2
0
1
2
0
5
1
0
0
5
1
2
9
4
0
0
1
1
0
0
0
4
0
3
0
0
4
1
1
0
1
1
2
3
6
0
4
2
0
2
2
1
1
0
0
2
3
6
3
9
1
0
0
2
1
1
0
0
0
0
1
0
0
0
1
0
0
0
2
3
3
0
2
5
2
1
3
0
0
0
3
0
1
0
0
1
1
5
5
3
2
1
0
3
5
1
11
1
1
0
1
1
3
1
4
0
1
0
1
5
3
3
4
0
1
0
2
1
0
1
2
1
4
0
0
0
1
0
7
1
0
0
9
1
2
4
2
1
4
1
4
13
4
6
9
3
2
6
1
3
0
15
5
3
6
0
2
2
0
1
2
2
2
1
0
4
2
4
1
5
3
1
0
0
0
0
4
4
0
3
0
1
0
5
1
4
1
0
2
1
0
0
2
2
1
7
4
1
2
4
0
6
0
3
5
11
6
4
2
3
0
0
1
1
2
0
0
0
2
1
1
1
3
5
3
5
3
1
0
0
1
1
0
2
2
1
1
2
3
1
0
1
0
3
1
6
1
4
1
2
0
4
4
7
0
0
1
2
0
0
2
8
10
0
2
0
3
1
3
0
3
2
0
1
0
2
0
3
0
0
3
8
5
1
3
0
0
1
3
3
5
0
4
5
4
1
5
1
1
7
1
1
1
2
1
2
0
2
1
3
4
3
0
6
1
1
0
3
2
0
0
8
1
2
1
2
2
1
0
0
2
1
0
0
2
0
1
0
0
7
2
1
1
1
0
1
10
1
1
0
2
2
0
3
4
0
1
1
3
5
0
0
9
1
4
3
3
4
1
0
4
1
1
0
2
0
0
0
2
0
0
0
10
0
4
0
2
2
1
0
0
2
3
5
2
2
2
1
7
8
5
1
0
0
0
0
3
16
2
0
2
3
0
1
1
3
4
5
1
0
0
2
0
1
6
0
2
0
3
1
0
2
0
1
0
8
1
2
0
6
5
2
0
4
6
1
0
0
0
3
0
7
5
1
4
4
3
2
4
3
0
0
0
0
0
1
1
0
2
1
2
0
7
7
0
1
4
1
2
0
6
0
0
2
0
0
1
5
2
1
4
5
2
2
6
3
2
0
0
0
1
0
2
2
0
1
1
0
0
4
0
7
3
1
11
4
3
1
12
1
0
2
0
0
3
0
1
1
3
1
0
1
1
2
3
6
0
1
5
0
3
0
1
3
2
2
4
1
0
0
0
0
2
4
5
0
3
2
10
2
0
3
0
1
4
5
2
3
4
2
0
1
2
0
2
0
1
3
5
2
1
9
1
0
2
11
5
0
1
6
3
2
3
2
4
6
4
4
1
1
4
3
10
0
0
1
1
3
2
6
0
1
1
1
0
0
1
0
3
1
2
3
1
4
0
2
8
3
2
4
1
7
1
0
1
5
2
0
0
2
3
3
0
6
1
9
9
1
5
2
1
3
0
5
0
2
7
11
2
1
0
0
0
2
9
3
0
2
7
1
0
0
3
0
1
2
4
2
9
1
0
1
0
1
2
3
2
0
0
4
3
3
2
0
4
0
0
6
3
2
6
2
2
2
1
2
3
2
1
2
2
0
2
3
13
1
0
1
4
1
4
6
1
1
0
0
4
3
5
2
0
3
2
1
0
0
4
4
0
2
5
1
0
0
0
1
1
0
2
2
2
7
1
0
1
2
0
2
1
2
1
6
1
1
4
2
6
7
1
0
1
3
1
1
0
0
0
1
5
1
3
0
6
0
1
4
0
0
0
0
0
3
1
0
1
1
3
1
2
3
10
1
1
6
1
0
0
3
2
0
4
0
7
4
5
9
0
0
4
0
3
0
2
4
1
0
0
2
9
2
0
5
3
1
4
3
3
0
0
1
2
0
2
2
0
3
1
0
0
3
1
5
2
4
3
5
1
2
1
0
0
1
1
0
2
4
0
1
0
4
2
0
0
0
5
4
1
7
0
0
1
3
4
2
4
2
1
1
0
1
2
5
0
0
1
0
2
2
3
1
0
3
3
0
6
3
1
1
2
0
7
2
0
5
2
0
0
1
2
1
2
2
7
0
4
11
3
1
1
6
0
2
0
0
2
7
1
1
0
1
1
2
4
1
1
0
4
0
3
2
0
0
0
0
0
8
6
0
1
1
3
1
0
0
0
3
8
10
4
2
3
1
10
0
0
1
0
3
8
1
1
1
1
0
0
6
1
1
0
1
2
1
0
1
2
0
1
1
1
0
0
3
3
1
1
0
3
4
2
4
2
2
0
2
0
3
2
2
4
5
1
1
0
0
1
1
1
0
1
4
0
2
1
0
3
0
1
1
1
0
3
0
1
1
3
0
2
2
1
4
2
3
4
6
4
1
3
2
1
2
1
2
0
0
4
0
1
0
2
1
4
11
3
0
0
0
2
1
2
0
2
5
0
4
1
4
1
0
5
0
0
1
8
2
4
0
6
1
2
2
4
7
4
5
0
2
2
5
5
0
0
4
1
1
0
1
0
5
7
6
1
3
5
6
0
0
0
1
4
0
4
5
2
1
0
10
1
4
4
1
2
1
0
0
0
0
1
3
4
0
11
1
3
1
0
0
2
6
1
1
1
10
3
0
0
3
4
5
1
3
1
0
0
0
1
1
2
6
0
1
0
0
2
1
3
1
0
2
3
2
0
1
6
0
2
1
0
0
0
2
1
0
0
3
1
1
8
2
0
0
1
3
0
1
1
6
3
0
2
1
1
9
0
0
1
1
1
1
1
6
0
2
1
1
2
5
2
1
4
1
2
4
0
1
2
1
0
1
0
3
1
1
1
3
1
2
6
0
2
1
1
1
1
1
0
2
0
4
4
3
2
0
1
1
0
1
1
2
4
3
1
0
2
0
0
0
1
0
1
1
2
0
3
1
0
0
2
2
5
5
0
2
6
1
1
5
0
1
0
0
1
0
2
2
1
2
1
0
2
8
3
1
5
2
4
3
7
3
0
0
6
0
1
0
0
0
0
1
1
0
2
0
0
0
4
2
2
0
1
5
0
3
1
2
0
4
1
0
2
1
1
0
0
1
2
0
1
1
4
0
0
6
7
10
0
7
1
0
1
1
0
10
1
3
1
0
5
2
2
3
0
4
0
0
1
4
3
7
0
2
2
1
8
1
6
2
3
6
3
5
0
0
0
6
5
2
0
0
0
1
3
1
0
0
2
6
5
2
5
0
3
1
1
5
0
1
2
0
3
2
3
3
1
1
0
4
0
1
7
0
5
1
0
0
0
3
0
0
2
4
6
0
0
0
2
6
1
2
0
0
1
3
3
0
2
2
0
5
6
1
6
1
0
2
0
0
1
0
2
8
4
2
1
0
1
7
5
4
1
8
4
0
3
1
2
0
0
0
2
0
5
0
3
3
1
0
7
0
0
4
1
2
1
5
0
2
0
2
4
4
6
1
0
2
3
10
4
1
0
0
0
3
0
6
0
3
4
0
4
4
1
2
5
2
0
3
0
0
0
0
1
0
4
5
5
11
1
2
1
0
3
3
2
1
0
4
0
2
0
0
5
0
0
0
5
3
2
0
1
4
1
1
0
0
0
0
0
0
0
1
0
1
1
3
0
0
2
8
2
3
0
1
1
8
2
4
1
1
1
0
0
2
0
0
0
8
1
1
3
0
0
2
6
4
2
4
7
1
2
2
3
0
0
3
2
2
2
5
0
0
1
1
4
0
0
5
8
1
0
0
0
1
9
1
1
1
2
2
1
5
0
8
0
1
1
1
0
7
1
0
1
1
1
3
7
0
0
2
1
1
3
3
1
5
0
2
2
1
3
0
0
1
3
2
3
5
0
4
1
1
6
1
3
0
3
0
1
1
5
0
5
1
0
1
1
1
1
0
5
1
8
6
0
3
6
1
0
4
4
3
7
0
1
2
0
5
1
1
1
3
0
0
5
0
0
5
0
0
1
2
3
1
4
0
5
3
0
0
4
1
3
2
1
3
3
2
0
0
0
1
1
0
0
1
5
4
3
0
0
2
3
0
0
1
6
5
4
6
0
2
0
3
0
1
2
0
2
0
5
4
0
1
0
2
0
0
0
3
5
1
1
4
0
2
3
6
0
0
0
1
0
2
0
1
1
3
3
2
0
3
1
1
10
1
3
0
1
0
0
1
3
3
0
1
4
4
3
0
0
1
0
0
4
2
4
6
0
1
0
1
0
0
4
1
3
2
0
1
0
1
0
2
1
3
2
3
2
3
1
6
0
2
2
2
0
1
2
2
1
0
1
0
0
0
0
0
1
2
1
6
4
1
2
5
0
3
3
2
1
0
3
0
1
3
0
2
0
0
8
1
4
0
1
5
2
1
2
1
1
0
4
2
1
2
2
3
1
0
1
0
0
3
0
0
0
3
2
5
2
1
0
1
3
6
0
1
1
2
0
2
3
4
3
2
5
0
0
0
3
0
0
0
1
3
1
0
0
2
0
2
1
2
5
4
2
0
4
1
5
1
0
3
0
3
1
2
0
3
0
0
1
6
1
0
7
5
0
0
0
1
8
4
0
0
1
0
0
0
0
5
4
2
0
2
4
2
1
1
1
1
1
0
4
0
8
0
1
1
0
0
1
1
0
3
0
3
6
0
7
2
0
2
0
2
2
4
4
5
1
0
0
0
0
2
8
2
0
2
0
5
1
2
4
2
1
3
1
0
1
1
4
1
0
2
1
2
0
1
0
4
3
4
4
2
2
1
1
1
1
2
0
0
5
0
0
3
4
2
2
5
1
1
2
2
5
0
0
2
0
2
0
1
3
2
2
1
2
2
2
1
1
6
1
3
1
2
7
4
2
2
1
4
8
0
1
4
4
4
0
0
0
1
1
0
2
0
1
0
0
0
1
2
1
4
5
1
2
0
0
0
1
3
1
9
6
0
0
0
0
0
6
1
0
0
0
0
0
2
4
1
0
1
6
5
6
0
0
0
2
0
4
1
3
4
1
1
2
2
1
0
0
1
0
2
0
0
0
0
0
2
1
1
0
0
0
0
1
0
3
1
2
0
2
0
2
0
0
1
0
1
0
4
2
0
0
1
5
2
2
5
0
1
1
1
0
4
1
0
2
2
2
5
1
0
1
5
6
3
0
8
2
0
1
0
1
0
0
0
4
1
0
1
0
3
1
3
11
2
5
2
4
1
1
0
5
0
1
4
0
2
1
0
7
4
0
1
1
0
1
3
2
4
0
0
1
1
0
0
2
2
0
1
0
1
0
0
3
4
4
8
4
0
1
0
6
0
0
0
0
0
6
1
1
1
0
0
0
3
0
5
3
2
0
6
3
0
2
5
0
2
1
3
2
0
1
0
0
0
0
3
3
1
3
1
3
0
0
6
3
0
1
4
1
5
3
3
1
3
0
4
3
3
5
4
3
2
3
4
3
0
10
1
0
2
7
0
3
2
2
1
0
1
1
0
0
2
2
0
2
3
1
0
3
0
0
1
2
0
0
2
2
0
4
0
0
1
0
2
2
2
2
0
1
3
3
3
3
0
1
3
0
1
7
2
1
2
4
6
2
3
2
6
4
0
1
1
2
0
1
0
3
0
2
0
0
2
1
2
2
1
3
1
1
2
1
0
2
4
2
0
0
1
1
0
0
1
1
3
0
0
2
1
0
4
0
0
0
3
0
2
0
4
3
1
1
3
0
1
3
2
7
1
0
0
3
1
1
0
2
6
2
2
0
3
1
5
0
3
1
0
0
3
1
1
2
3
3
4
2
1
7
4
0
4
1
1
2
3
2
0
2
2
0
2
1
3
1
0
0
5
0
9
0
1
2
3
1
1
2
0
0
3
2
5
1
10
4
1
1
1
0
2
2
0
2
0
2
1
2
1
1
1
3
6
0
0
2
3
0
1
0
0
1
0
6
1
4
5
7
0
0
2
1
1
0
0
1
0
1
3
3
2
1
1
2
0
2
0
0
1
0
0
5
3
1
1
2
1
0
4
3
1
2
3
5
2
4
4
2
2
1
3
8
0
0
4
2
6
4
2
1
0
3
2
1
0
0
5
0
1
3
1
3
6
1
1
4
1
8
1
1
4
2
0
5
2
3
0
4
3
0
0
3
0
1
2
2
1
1
0
5
2
0
1
2
3
0
1
0
3
1
0
1
1
4
0
5
0
3
0
0
1
0
2
3
3
2
1
5
0
6
1
0
0
2
0
0
1
1
0
2
0
5
4
4
1
0
2
0
2
1
6
0
7
0
1
0
0
2
0
1
4
2
4
2
2
2
1
1
0
0
0
3
1
2
2
1
2
0
0
4
1
5
2
1
1
1
0
3
0
0
1
2
1
11
1
2
5
0
1
4
0
1
0
2
2
3
3
2
4
0
4
4
4
8
4
2
2
6
0
0
3
5
0
2
1
2
0
5
0
0
0
0
0
0
1
4
1
1
5
0
0
2
3
6
5
0
1
3
2
0
6
2
1
3
1
2
6
0
1
2
0
2
0
5
7
1
2
3
3
3
3
2
3
7
2
0
0
3
1
1
1
2
0
0
0
1
2
4
0
2
0
12
0
4
0
0
2
1
1
0
0
2
0
0
2
3
1
6
0
0
3
3
2
1
0
1
11
4
1
2
5
5
0
0
0
4
9
2
4
2
0
0
1
2
3
3
2
4
4
0
4
3
0
0
1
1
4
0
5
6
2
0
3
0
2
7
4
0
1
0
1
1
0
0
0
1
0
0
1
0
1
7
3
6
0
1
1
2
2
1
0
0
2
0
0
1
1
9
1
3
0
6
1
1
0
4
0
2
0
1
8
2
0
1
1
0
6
3
0
1
0
0
6
5
1
4
0
2
3
3
0
0
2
2
1
7
1
0
1
1
0
0
0
1
1
0
2
2
1
0
5
2
1
0
0
0
3
2
0
5
2
4
2
0
0
2
2
3
0
8
12
5
2
1
0
1
0
0
1
0
1
2
6
3
3
1
0
2
2
1
0
2
3
3
2
2
0
2
1
1
0
3
2
4
0
0
3
0
4
4
0
2
1
2
2
0
1
1
0
1
6
0
0
0
2
1
0
3
0
1
1
4
0
1
2
1
0
0
0
3
1
3
2
3
5
5
0
1
4
0
2
2
0
3
0
0
5
1
0
0
0
1
1
0
6
0
2
3
0
4
3
5
2
1
8
8
1
3
0
2
0
8
2
1
0
1
0
2
0
3
6
0
0
0
3
1
0
4
1
0
1
0
1
3
0
0
2
2
1
0
3
0
1
5
0
2
1
0
0
2
0
1
3
0
1
1
1
1
1
0
2
2
0
5
2
0
0
3
2
0
0
0
0
9
3
1
3
0
1
2
1
1
2
1
0
0
0
0
2
0
0
0
0
4
2
2
7
2
4
2
1
0
2
1
1
0
0
0
1
6
2
3
0
0
0
5
2
5
2
0
0
1
2
2
2
4
0
1
1
2
0
2
0
1
0
1
1
3
1
1
1
2
3
0
2
0
3
0
0
1
2
0
0
0
1
1
0
3
2
0
1
1
0
2
1
0
1
0
5
1
2
0
4
0
0
3
0
0
2
0
0
3
10
4
3
3
0
1
0
0
1
0
0
3
1
1
4
1
2
2
4
0
0
1
0
4
2
1
0
0
5
3
0
0
2
1
1
4
5
3
0
1
0
0
0
0
0
0
2
0
1
1
9
1
1
5
1
0
2
1
0
0
3
2
0
1
3
0
0
2
1
0
1
1
0
0
7
1
5
5
1
3
1
1
1
2
0
3
1
1
3
0
0
4
4
0
1
3
1
2
9
0
0
3
3
0
2
2
2
0
3
0
0
0
1
1
0
13
2
5
1
0
2
2
0
0
1
2
0
3
0
0
1
1
5
0
0
0
9
2
0
0
0
0
2
4
1
1
2
2
1
0
3
0
1
5
0
2
5
2
1
0
1
3
0
3
3
2
6
2
2
0
0
2
2
1
4
0
2
4
2
1
2
1
3
3
5
1
1
7
2
1
2
0
0
0
3
3
0
3
1
4
0
3
1
1
1
4
2
1
0
6
7
1
2
1
1
0
5
0
3
1
0
2
0
1
4
0
3
1
0
6
1
0
1
2
4
0
1
3
0
3
0
2
1
4
1
4
1
0
5
0
1
0
1
1
0
0
1
1
5
2
6
1
1
2
0
0
1
2
0
3
3
0
3
0
0
2
0
0
2
0
0
1
0
0
2
1
0
0
1
1
3
2
0
0
2
6
1
3
1
3
5
4
2
0
5
3
4
0
0
1
0
0
3
2
1
0
0
1
1
2
1
0
1
0
3
0
0
4
1
2
3
1
2
1
0
1
5
1
3
0
6
3
0
0
2
3
0
2
0
4
3
1
0
2
1
0
2
2
0
3
5
1
0
2
5
2
0
0
0
1
1
7
4
4
3
1
2
9
4
1
0
0
1
5
4
3
3
5
1
0
3
2
1
2
0
3
3
1
0
0
5
4
2
2
0
1
2
1
0
2
0
0
3
0
2
0
0
0
0
0
0
0
0
2
0
0
1
2
0
1
1
0
0
2
1
7
6
5
0
2
0
1
2
2
0
1
4
0
0
0
5
0
0
0
1
3
3
0
0
0
2
2
0
2
1
0
0
0
3
0
1
0
3
0
4
0
0
0
1
0
0
1
0
0
0
0
5
1
2
4
0
3
1
0
1
7
0
0
0
1
5
2
0
0
1
2
6
1
3
4
5
0
2
3
0
0
1
1
2
2
0
0
6
0
0
5
7
0
1
0
0
1
0
1
5
4
0
3
7
3
2
2
0
2
0
0
7
0
0
0
6
2
1
1
0
6
5
1
1
0
0
4
0
1
1
1
1
3
0
2
2
0
1
0
2
1
5
3
0
0
0
1
0
0
4
0
2
0
0
1
0
6
0
0
3
0
1
0
0
0
4
2
1
1
1
1
4
0
1
1
1
1
0
0
0
1
2
6
1
1
0
0
7
0
2
2
0
2
2
4
9
0
1
1
1
2
1
1
0
2
0
2
1
2
1
2
1
0
0
0
0
3
7
0
5
1
4
0
4
0
5
0
0
4
0
2
1
0
0
2
0
1
1
0
0
2
0
4
1
2
3
0
3
1
0
0
0
0
3
0
0
2
1
1
2
2
5
0
0
4
0
0
2
0
2
4
0
0
2
2
3
1
3
2
5
0
0
0
0
0
1
0
2
0
0
3
3
2
0
2
1
2
2
1
1
0
2
0
0
2
6
0
0
1
1
7
0
0
3
1
1
0
0
0
1
0
0
1
0
0
1
1
0
1
1
0
0
0
0
3
3
0
0
4
0
0
3
1
2
0
0
3
0
0
2
4
1
0
0
0
1
1
13
3
0
1
0
3
1
3
1
1
1
2
0
1
2
6
1
0
0
2
3
5
0
0
1
3
8
2
3
2
1
0
0
1
0
0
3
2
2
0
3
0
3
1
0
1
1
0
4
0
4
3
0
3
3
1
2
1
0
3
0
4
0
4
2
0
1
0
0
0
1
1
2
4
1
0
2
2
0
3
0
9
0
2
0
0
2
6
1
0
0
0
1
0
0
0
0
1
0
1
0
1
4
0
4
0
0
0
1
0
0
3
4
3
0
0
1
2
4
0
3
1
1
2
4
1
2
4
10
0
2
6
0
1
1
0
0
0
5
7
0
0
0
1
0
1
3
4
0
1
1
5
2
2
2
1
1
5
2
0
0
0
7
0
0
0
0
0
1
4
2
0
0
6
2
0
2
3
3
3
0
3
5
3
0
3
2
1
1
0
2
1
0
0
2
1
0
2
2
0
0
4
0
1
2
1
7
6
1
2
1
4
1
0
6
1
0
1
0
1
3
0
1
4
1
1
1
2
0
3
1
0
1
0
0
3
4
1
0
1
0
0
0
5
0
1
0
2
0
0
2
0
3
4
0
0
4
2
1
1
1
1
1
1
3
3
1
0
2
1
1
4
1
3
9
1
0
0
0
0
0
0
1
2
0
1
1
4
2
2
0
1
1
0
1
0
0
0
4
2
2
3
1
2
0
0
3
0
3
2
2
0
0
3
1
0
2
1
0
1
0
4
0
0
0
3
3
1
0
1
1
0
1
1
1
0
0
0
1
0
1
0
3
3
3
0
1
4
1
6
0
0
0
0
0
0
4
0
2
1
2
1
1
1
0
7
4
0
3
3
1
2
0
0
1
4
4
1
0
1
0
0
1
0
0
0
0
7
0
1
0
0
5
0
0
3
2
0
4
3
0
8
1
0
1
1
0
2
1
3
1
1
4
1
1
3
3
0
3
1
2
4
0
2
0
2
3
0
0
2
6
1
6
3
1
1
1
2
3
1
0
0
7
1
0
2
0
3
0
1
0
0
3
0
0
0
4
0
5
1
1
3
3
0
3
0
1
0
1
1
0
0
0
8
4
5
2
1
3
6
5
0
0
3
0
0
1
1
1
6
1
2
2
2
0
4
4
0
1
3
0
0
1
1
0
4
0
5
5
1
6
2
1
2
1
0
0
1
1
0
3
0
0
1
3
3
1
0
0
3
4
2
2
2
7
6
0
3
0
3
5
4
4
8
0
0
1
0
0
0
7
1
6
0
1
0
0
6
0
0
2
0
0
1
2
2
0
1
3
4
3
5
1
1
0
0
0
1
1
1
1
0
0
4
0
1
0
0
2
0
0
0
3
1
0
0
0
0
1
1
3
0
0
2
4
1
3
2
9
1
0
2
0
1
0
0
3
0
1
0
1
0
0
1
3
2
1
1
3
1
1
1
3
0
0
0
0
3
1
0
1
2
1
2
2
1
0
1
0
1
0
0
0
0
1
2
7
2
2
0
1
0
0
1
0
0
7
0
6
0
0
1
3
0
0
0
0
1
1
0
1
2
0
4
1
3
4
1
2
1
2
3
1
0
2
2
0
0
0
1
0
0
0
0
1
1
2
1
6
0
0
1
1
1
2
1
0
5
2
1
0
0
0
1
1
0
0
1
3
0
1
0
0
2
2
0
1
5
4
0
6
3
0
0
0
2
1
0
1
5
1
0
3
1
4
7
0
0
4
0
3
4
0
4
1
2
0
0
0
1
1
0
0
2
0
1
2
0
0
2
0
3
3
2
1
0
1
0
2
0
0
0
2
0
0
2
0
0
0
4
0
0
0
2
0
1
0
1
1
0
2
3
2
3
1
1
0
3
0
2
0
2
2
1
0
0
2
0
0
0
1
1
1
1
0
0
1
1
1
1
0
0
3
1
1
1
3
3
1
0
3
1
7
0
2
0
0
0
1
2
0
0
5
3
1
1
1
1
0
1
0
3
4
0
0
0
0
1
0
0
2
0
0
4
2
4
3
0
1
4
1
0
2
1
2
5
0
2
1
0
1
0
2
1
3
1
1
1
0
5
3
1
4
3
0
0
0
1
0
2
0
1
0
1
0
0
3
0
0
0
1
0
1
3
0
0
1
2
1
3
1
0
2
4
0
3
1
1
4
1
5
1
1
1
0
3
1
0
0
3
1
0
0
0
1
1
4
0
0
1
2
6
3
0
0
0
0
0
1
0
0
2
2
2
3
1
0
3
2
0
5
2
1
1
0
1
1
2
7
0
0
0
1
2
7
0
1
2
5
2
4
0
2
1
0
4
0
0
2
2
3
0
4
0
0
1
0
1
9
1
0
1
2
2
0
0
3
2
1
1
0
3
1
0
1
0
1
0
0
7
0
3
0
2
0
0
2
0
4
0
1
1
0
4
0
2
1
3
3
6
4
0
0
0
3
0
0
0
0
8
0
2
6
4
0
0
4
1
4
2
0
0
0
0
2
4
0
4
0
3
3
0
0
0
0
0
3
1
0
2
0
0
3
3
2
5
1
4
0
1
6
0
0
1
0
2
2
1
2
3
3
0
0
0
1
1
2
3
1
2
0
0
0
0
2
0
0
0
0
2
2
2
1
0
1
1
0
2
0
1
2
0
1
0
1
2
0
1
1
2
2
1
3
4
3
0
1
1
0
3
1
0
1
0
1
2
1
0
1
5
0
2
4
0
0
0
1
1
1
0
0
3
1
3
0
2
0
2
0
0
1
0
0
2
1
1
1
0
2
7
0
1
0
1
0
0
0
2
2
0
1
0
1
0
1
1
0
1
0
1
0
0
0
3
1
0
3
2
0
3
1
0
2
2
0
0
0
1
0
1
1
1
3
0
3
3
1
1
0
0
0
0
4
0
1
6
2
3
5
3
3
4
5
1
0
0
2
1
1
2
3
1
1
0
1
1
1
2
0
1
0
3
3
0
1
2
0
1
3
2
0
3
0
0
0
2
2
9
3
2
0
0
0
0
1
4
0
0
0
1
0
1
1
1
0
0
2
2
2
5
3
11
3
0
1
4
2
0
0
0
2
1
2
2
2
3
1
1
0
1
1
3
1
1
1
0
0
1
0
1
1
1
1
6
0
0
3
0
1
2
0
1
0
0
2
1
2
5
0
3
3
3
1
7
1
2
0
0
0
0
1
0
3
2
2
2
2
0
0
0
2
0
7
1
3
0
2
3
2
2
2
1
0
0
3
1
0
1
0
0
1
4
3
2
0
1
2
5
1
0
0
0
0
0
0
1
0
1
0
1
1
1
1
4
2
0
0
0
1
1
2
0
0
1
0
1
0
5
7
1
6
0
1
0
0
0
0
0
1
1
0
2
3
1
1
0
1
0
0
2
4
0
1
1
1
5
0
6
0
0
1
1
0
0
0
1
1
1
1
0
1
0
0
0
4
0
0
3
4
1
5
7
0
2
1
7
1
0
2
2
3
3
3
2
1
0
0
0
0
2
3
1
0
5
1
5
0
0
3
6
2
1
0
1
0
0
6
0
4
2
0
12
0
1
0
0
2
0
0
0
5
2
0
3
1
1
0
2
4
2
2
0
0
0
1
6
0
4
0
1
1
1
2
0
0
0
1
0
1
2
2
3
1
0
0
2
2
1
2
0
2
5
1
0
0
1
1
0
2
3
2
0
0
1
3
1
0
0
3
1
1
1
1
0
1
3
0
0
3
0
3
5
1
0
0
0
4
1
0
1
3
0
8
0
3
2
1
1
0
0
2
0
1
0
1
0
1
0
9
4
1
5
2
2
3
0
1
0
0
1
1
0
6
0
0
2
2
6
2
4
1
3
0
4
0
1
0
5
1
1
2
1
0
0
0
0
0
0
0
3
1
3
1
0
0
0
0
1
0
0
0
3
4
0
0
0
0
4
0
5
0
0
0
0
1
2
1
1
0
0
0
0
0
0
1
0
0
4
1
0
0
0
4
0
0
2
3
0
0
0
4
0
0
0
1
0
0
1
0
2
2
0
1
0
0
1
1
1
5
3
1
3
3
1
0
0
2
2
4
0
4
2
1
1
0
5
2
0
0
0
5
0
0
0
0
5
5
0
1
1
1
0
0
2
2
1
0
2
2
1
0
0
5
2
0
0
2
2
2
0
1
1
4
2
0
2
2
2
0
6
1
0
3
0
0
2
2
2
0
0
2
1
0
0
1
4
2
0
3
1
1
4
2
1
0
2
0
3
3
0
1
2
1
0
4
2
1
1
2
3
0
0
1
1
3
4
0
0
0
1
1
2
0
0
0
0
0
2
1
1
5
1
0
4
0
0
0
1
0
0
0
1
0
2
0
0
4
1
0
0
7
3
0
3
5
0
0
0
1
1
0
1
1
0
0
2
0
0
0
2
1
1
0
0
0
0
3
3
1
0
1
8
0
0
0
1
2
0
4
0
1
0
0
0
0
0
2
0
2
0
0
1
1
1
1
0
0
0
1
0
1
0
1
0
0
1
0
3
1
5
1
2
0
4
0
10
1
0
3
0
0
1
0
0
2
0
0
1
2
0
2
0
2
1
2
0
0
2
2
1
2
0
5
1
3
1
2
0
3
0
0
0
1
1
0
1
0
1
3
0
1
3
1
0
0
2
0
2
0
0
0
1
2
4
0
0
3
0
0
2
4
3
0
1
2
4
0
0
1
2
4
2
1
4
3
6
1
2
3
0
0
1
0
3
4
2
2
0
0
5
1
7
0
1
1
0
1
2
2
3
3
0
0
0
2
1
1
0
2
1
0
0
2
0
3
0
2
2
0
0
0
0
9
1
2
0
0
3
1
1
0
0
0
0
0
0
1
0
0
1
1
1
0
0
0
0
3
0
0
0
1
0
0
1
0
0
2
0
2
4
3
1
3
2
0
3
2
0
0
0
3
1
3
0
0
0
3
2
1
0
0
0
5
1
0
0
0
0
2
0
0
0
0
0
0
0
1
0
0
1
1
1
0
0
0
0
3
2
1
1
3
0
0
0
1
0
4
2
1
1
3
2
2
2
3
0
4
2
1
1
0
4
0
2
0
1
1
0
2
3
3
0
0
0
3
0
0
0
2
0
0
1
0
1
3
0
0
1
2
1
0
0
0
3
2
2
0
1
7
0
2
0
1
1
0
2
6
0
2
0
3
0
3
3
2
2
1
0
2
2
3
2
4
4
0
0
0
0
0
0
1
0
1
1
0
0
0
3
1
0
2
1
0
2
0
2
1
2
0
6
2
1
0
2
1
0
6
2
0
1
1
0
1
0
2
1
2
2
6
5
0
0
0
0
0
0
0
1
0
0
0
2
0
0
2
1
0
3
3
0
0
0
1
0
3
0
1
0
0
3
1
2
2
1
0
0
0
0
0
0
0
0
0
0
2
2
1
4
2
4
0
1
0
0
4
2
1
0
1
0
0
3
0
2
2
0
0
0
1
0
5
3
0
0
0
0
0
0
3
1
0
6
0
0
2
0
1
2
0
1
1
0
3
0
0
0
0
2
1
0
4
0
0
0
0
0
0
0
0
0
0
4
3
0
3
0
1
0
3
0
0
0
0
1
0
3
0
1
2
0
2
0
1
0
0
0
0
2
4
0
2
0
0
0
2
0
1
0
0
0
4
1
0
1
0
1
1
1
1
3
1
2
1
0
1
1
1
0
1
0
2
0
0
0
1
4
5
1
2
0
4
3
1
2
2
3
0
3
3
0
0
0
1
1
0
2
1
0
0
0
0
1
1
0
0
4
1
0
1
0
0
0
0
0
0
1
0
2
7
0
0
0
1
0
0
5
0
2
2
1
2
1
2
1
0
1
0
0
0
0
1
0
2
0
1
1
0
4
2
3
2
0
0
0
3
0
3
0
3
0
0
0
1
0
3
5
4
0
2
7
2
3
0
1
0
2
2
0
0
3
1
1
0
4
1
0
1
0
1
0
2
1
0
1
0
1
1
5
2
1
0
0
0
0
2
3
1
1
0
2
1
2
0
1
1
2
0
0
0
2
0
1
2
0
0
3
1
0
0
2
0
2
2
8
4
0
0
1
1
2
0
0
1
0
1
1
2
0
0
1
3
0
0
0
0
1
0
0
0
0
2
5
0
0
1
0
0
2
1
0
0
0
3
1
4
0
0
1
3
0
2
0
0
0
0
0
0
2
1
3
1
1
2
2
3
2
3
0
0
2
0
2
0
0
4
0
0
1
0
1
6
0
0
0
2
0
1
0
0
1
1
0
0
3
1
1
0
1
2
1
4
5
0
7
1
3
0
2
1
2
2
3
0
2
0
2
3
2
0
4
2
0
1
2
0
2
0
3
0
0
0
0
1
4
2
0
2
0
1
2
2
0
2
3
3
2
1
1
2
4
0
0
0
3
0
4
1
1
0
2
1
1
2
5
0
0
0
2
2
2
0
0
1
1
6
0
0
1
2
0
3
3
0
0
1
4
1
1
0
3
0
4
1
0
2
1
2
1
0
0
0
0
0
3
0
0
4
0
0
0
4
3
0
0
4
0
1
2
3
1
0
2
0
1
0
1
2
0
0
2
2
0
2
2
0
6
0
0
0
0
0
0
0
0
0
7
1
0
1
0
1
1
0
0
3
0
0
0
2
1
0
0
1
1
7
0
0
0
0
2
0
2
0
0
0
4
3
1
3
0
1
4
2
4
1
0
1
1
2
2
1
0
0
0
1
0
0
1
0
0
6
0
1
1
1
1
0
0
2
0
2
1
1
0
1
0
1
4
0
5
0
0
2
3
0
5
0
2
2
3
0
0
0
0
0
6
1
0
2
1
0
0
0
0
0
0
2
0
3
1
1
1
1
2
2
0
0
0
0
0
1
0
1
2
0
0
2
2
2
1
1
1
0
2
0
1
1
1
0
0
1
0
0
0
0
3
3
0
0
0
2
0
8
0
0
0
0
2
5
2
1
1
1
0
0
5
0
0
1
3
0
0
2
3
1
0
0
1
0
1
1
0
0
0
1
0
1
3
3
0
0
2
3
0
1
1
0
0
0
2
2
0
1
0
1
5
0
1
1
2
5
2
3
0
0
1
0
1
1
0
0
3
4
1
4
1
0
2
1
0
0
1
0
0
0
6
5
2
2
1
0
1
1
5
1
1
0
0
0
0
1
0
0
0
0
1
1
0
2
1
5
6
4
0
4
3
0
4
4
0
1
1
4
1
0
0
0
2
0
3
0
0
0
0
2
0
3
0
0
1
1
0
0
0
2
3
1
2
0
0
1
1
1
3
0
0
0
0
3
1
0
0
1
0
0
0
0
1
0
0
0
2
0
3
0
0
4
4
0
1
0
1
0
3
0
0
0
0
3
1
0
1
1
5
0
0
2
1
1
3
1
1
4
1
0
0
0
0
0
1
1
0
1
0
0
0
2
3
1
1
1
0
1
5
0
0
3
2
2
0
1
6
0
0
0
1
0
0
2
0
0
0
1
0
0
1
0
0
2
1
3
0
0
2
0
2
0
0
1
1
2
0
0
1
2
4
0
0
1
1
0
0
0
1
1
2
2
2
0
0
1
1
2
1
1
3
3
1
0
3
0
10
1
0
0
3
1
2
2
3
0
2
1
0
2
0
2
1
2
0
0
0
0
1
0
1
1
2
3
0
1
0
0
1
1
3
2
0
1
1
2
1
1
0
0
2
0
0
1
0
6
0
0
2
7
2
0
0
1
1
0
1
0
1
0
0
1
0
3
0
1
3
1
0
0
1
2
0
0
0
1
1
3
0
2
1
1
0
0
1
1
0
0
1
0
0
0
0
1
0
1
1
1
1
0
0
0
2
3
2
8
2
1
5
0
1
5
1
0
1
0
0
3
5
1
0
4
0
1
0
1
0
2
1
0
2
2
0
0
0
5
0
7
0
0
2
1
1
2
4
0
5
1
0
6
6
0
0
1
2
0
1
0
0
0
0
0
0
1
0
0
0
2
0
2
0
0
2
0
0
1
0
1
1
2
2
0
0
0
3
1
1
0
3
2
2
1
0
1
3
6
0
3
1
0
0
5
6
2
0
0
0
0
3
0
1
4
0
5
0
0
0
0
0
0
2
2
2
2
1
0
1
1
5
2
1
1
1
1
1
0
0
0
0
1
0
1
0
4
0
0
0
0
0
0
0
1
0
0
1
1
0
2
1
1
2
1
1
3
2
0
0
1
1
0
3
3
5
1
0
1
1
1
0
1
1
0
0
2
1
1
1
1
0
0
0
0
0
0
1
1
4
1
0
1
2
0
0
1
4
2
3
0
0
1
4
0
0
2
1
1
0
0
0
0
0
0
0
5
2
4
1
1
2
0
0
0
0
0
2
0
0
0
0
0
0
0
0
0
0
1
1
1
0
0
0
0
2
1
1
0
0
0
0
0
0
0
2
1
0
1
1
0
0
0
0
3
3
0
0
2
2
1
0
0
1
0
0
2
1
1
2
1
0
0
1
0
2
0
4
0
4
0
3
0
1
1
1
0
1
0
2
0
0
2
2
0
0
0
0
1
1
1
3
2
1
0
6
0
1
0
0
2
0
0
2
4
2
1
2
0
4
0
1
2
0
6
0
2
3
0
1
1
1
3
0
0
0
0
1
0
0
1
2
0
0
0
1
1
2
0
0
0
0
3
0
0
1
0
0
3
0
0
1
0
7
0
0
2
0
1
1
2
1
0
0
1
0
0
1
1
1
0
4
2
3
1
1
1
0
2
1
2
0
4
0
0
2
1
3
1
1
1
1
4
1
1
2
1
1
0
0
0
1
1
4
1
6
1
1
1
0
0
1
2
0
0
2
1
1
1
0
0
2
0
0
1
0
0
0
1
2
2
0
0
4
3
0
1
4
1
0
0
0
3
0
1
0
1
2
1
1
0
0
0
0
2
0
1
2
0
2
0
0
0
3
0
2
2
2
3
3
0
0
1
3
4
2
0
1
4
3
0
1
1
3
1
1
1
0
0
2
0
0
0
0
1
0
0
6
0
1
0
3
0
0
2
0
0
0
1
0
1
0
2
0
1
1
0
0
1
1
1
1
0
0
1
1
2
1
1
0
1
1
0
4
0
0
1
5
0
2
0
0
4
0
1
1
0
4
1
0
0
0
1
2
0
0
1
0
0
1
3
4
0
4
0
1
0
1
0
0
1
0
2
0
1
1
0
1
3
0
2
1
0
0
0
0
0
3
1
1
0
0
0
0
1
2
2
1
1
0
1
0
1
1
1
0
5
1
0
0
0
4
1
0
0
0
0
0
1
0
0
0
0
0
1
0
1
0
0
1
0
0
1
0
0
1
2
1
1
0
0
0
0
0
3
1
0
1
0
0
0
0
2
0
1
1
0
0
1
2
0
0
0
0
1
0
1
1
4
0
1
1
0
4
0
1
0
2
1
2
0
2
0
1
2
1
0
0
1
0
1
0
1
1
1
0
0
0
0
0
0
0
1
0
1
0
2
4
0
1
0
7
0
3
0
0
0
0
0
0
4
0
0
1
0
1
0
1
0
2
1
1
3
1
0
3
3
0
1
0
6
1
1
0
1
1
2
0
1
0
0
0
1
0
1
0
0
0
3
0
1
1
0
3
2
1
5
0
0
0
1
0
1
0
0
0
1
3
2
1
2
0
0
0
0
6
1
0
1
0
1
0
0
2
0
0
0
0
7
0
5
3
2
1
1
0
0
1
1
0
0
2
1
0
1
0
0
2
0
0
3
1
1
2
1
1
1
1
4
1
2
1
0
0
2
0
2
2
0
0
3
0
1
0
0
0
0
0
0
2
0
0
0
0
0
2
1
0
1
0
1
1
2
0
2
0
0
3
1
2
2
1
1
2
2
5
3
1
0
5
0
0
0
0
1
1
1
1
2
0
0
2
1
0
3
0
1
0
0
0
0
1
2
4
0
3
1
1
3
1
1
3
0
1
0
0
1
0
3
1
0
0
0
2
0
2
2
1
2
0
0
3
0
2
0
0
1
0
0
2
0
0
0
1
0
1
1
0
0
5
3
1
0
0
1
0
0
0
0
0
0
0
0
2
0
2
1
5
0
2
1
0
0
0
0
1
3
0
2
0
2
1
1
0
0
3
2
0
1
1
0
0
0
0
0
0
4
0
2
0
2
3
1
0
0
2
4
3
2
1
0
1
2
0
2
0
0
0
1
3
0
0
1
1
3
1
1
1
2
2
1
0
0
0
0
0
1
3
1
0
1
1
1
3
2
1
0
0
0
1
4
1
3
0
0
1
2
1
0
0
5
0
0
0
0
6
0
0
2
3
1
0
2
0
3
1
1
1
1
0
2
1
0
2
2
0
1
0
0
2
4
1
0
1
4
0
1
0
0
0
0
2
3
0
0
0
0
0
