1169
1168
1127
1146
979
982
1050
949
1006
1038
851
908
868
865
779
934
775
703
851
758
810
729
675
705
642
744
712
622
610
676
636
615
690
677
731
654
668
710
667
621
610
642
569
645
666
582
651
674
593
629
628
588
625
584
550
615
650
654
570
620
616
587
591
572
535
610
580
603
577
560
550
496
565
584
595
521
510
560
455
541
525
582
542
520
518
584
556
515
516
600
551
534
565
528
562
559
540
534
462
604
578
473
442
539
559
547
537
554
544
525
488
495
498
463
516
480
496
433
463
561
452
456
482
486
468
498
526
503
487
492
435
507
498
484
475
401
507
495
440
396
467
407
365
469
471
506
442
475
460
408
446
518
452
387
363
480
495
483
317
453
439
456
385
393
460
318
462
415
426
388
430
405
441
492
423
340
429
452
446
508
386
392
357
445
373
374
417
381
391
417
405
333
436
431
435
381
397
410
448
432
418
428
339
442
405
422
397
424
406
353
304
361
435
363
451
335
379
394
373
347
378
390
460
372
425
338
420
314
331
428
352
418
357
362
400
389
406
383
382
383
351
384
373
335
357
397
318
379
394
373
335
430
446
412
405
364
375
415
289
437
472
385
380
325
416
341
363
316
312
331
409
394
348
350
328
346
347
392
409
405
363
420
400
406
276
311
334
304
321
346
406
361
261
314
344
322
266
307
338
377
306
421
349
296
375
330
323
289
318
329
365
411
357
341
261
395
283
392
295
324
384
304
298
360
300
380
379
286
377
379
340
335
393
321
334
291
381
352
304
366
285
327
303
317
369
349
265
341
364
342
359
394
342
346
375
337
313
311
295
310
369
258
313
296
329
285
330
277
250
309
335
254
352
289
326
297
304
302
314
286
265
361
358
316
349
309
310
325
294
336
330
325
203
351
311
381
275
361
331
410
391
326
279
278
358
320
346
314
259
293
301
257
228
335
362
287
240
341
342
336
217
342
241
371
276
326
319
250
261
253
308
298
357
292
251
257
287
294
260
292
295
247
326
238
336
300
192
276
259
303
305
342
280
239
291
267
173
349
291
315
292
247
320
235
199
269
300
213
275
297
292
296
282
261
237
235
227
317
249
212
234
201
192
268
222
211
182
227
347
273
350
261
244
286
332
236
313
334
345
237
298
263
239
280
307
302
285
283
286
282
179
184
276
258
254
250
292
299
305
324
336
253
290
282
282
307
291
271
304
197
322
239
214
262
284
243
242
222
327
256
250
229
280
261
266
307
242
241
219
270
325
258
231
293
256
232
290
258
275
247
262
272
273
300
302
215
276
177
297
229
233
232
267
188
264
266
219
303
326
292
280
225
289
255
273
312
255
319
293
220
284
225
291
290
208
238
274
289
218
248
289
210
313
176
307
281
201
195
238
216
197
290
253
245
201
328
279
247
292
242
273
302
265
241
212
235
265
253
285
215
207
221
251
172
185
226
192
246
169
235
285
320
279
295
176
244
275
248
208
253
280
295
238
243
198
188
217
305
277
257
213
211
174
221
252
245
279
210
262
196
241
258
242
193
146
235
261
205
277
255
208
264
206
235
294
317
278
137
247
249
232
293
213
251
253
279
227
273
210
300
134
245
254
268
232
299
234
254
286
227
200
246
175
273
260
240
181
235
207
224
234
177
194
196
254
246
228
239
240
294
172
189
250
223
210
178
241
173
215
228
158
218
257
231
208
199
214
156
230
268
214
226
205
252
222
239
226
256
258
262
185
184
255
201
190
192
223
197
211
165
205
207
215
152
280
157
218
205
243
199
212
212
255
131
219
195
233
272
199
277
270
269
249
240
196
138
264
237
216
161
240
233
157
214
254
142
296
266
185
233
230
163
252
232
260
123
234
246
207
273
253
169
228
142
161
210
200
178
235
165
153
186
254
186
183
211
122
192
214
140
227
139
230
190
205
280
227
179
153
174
117
154
150
237
188
182
166
190
161
235
245
189
142
180
211
215
178
197
275
200
182
177
116
215
263
160
219
184
235
249
175
176
143
239
254
254
121
259
188
238
180
170
180
199
217
190
144
207
128
221
225
146
230
217
175
168
131
211
118
192
168
131
172
149
166
130
176
141
226
234
207
175
168
217
163
205
156
204
141
131
214
251
172
224
198
243
191
265
129
172
159
203
254
200
213
170
229
249
148
221
187
173
174
189
184
213
224
211
151
190
202
182
212
180
184
204
259
222
189
171
247
204
125
203
181
213
248
206
141
209
201
180
144
235
166
235
221
134
232
142
203
169
164
193
258
168
264
239
129
228
209
236
162
180
152
165
209
176
107
227
244
235
184
121
151
106
227
168
173
185
215
201
125
233
170
183
201
207
207
235
227
180
203
216
205
161
148
155
170
192
164
142
202
207
228
250
141
249
253
201
195
221
180
184
172
180
238
194
239
182
155
169
161
197
184
196
242
205
213
206
171
146
221
167
154
199
167
130
203
192
171
144
154
138
117
169
201
205
154
188
144
237
225
230
162
161
181
234
198
125
162
140
153
118
164
92
188
154
139
235
148
147
187
236
210
147
223
148
192
153
163
135
152
172
127
137
155
138
227
137
191
137
138
154
211
217
111
138
134
216
186
219
205
138
181
109
210
122
129
173
137
194
134
168
174
150
153
223
224
223
205
219
185
228
225
160
180
194
239
117
177
203
146
215
196
232
182
148
114
117
125
175
172
118
152
174
203
169
194
197
145
179
142
143
158
193
153
195
174
198
137
168
161
111
192
150
102
210
129
234
129
135
151
152
142
190
170
163
170
86
89
160
179
120
209
118
190
119
198
151
205
185
217
146
114
155
218
223
212
120
95
168
148
218
146
191
179
192
137
189
148
171
198
137
117
137
130
98
131
159
187
190
155
119
184
190
140
166
153
161
168
151
132
209
185
148
181
157
145
180
130
125
178
116
170
188
149
100
189
209
129
147
188
200
201
171
181
136
183
140
98
195
163
126
105
166
149
157
129
176
175
187
85
182
181
176
188
178
160
185
176
186
182
172
172
178
153
117
87
101
144
140
190
225
118
158
163
107
120
216
203
156
108
101
170
181
119
144
202
140
167
97
85
138
164
157
193
114
169
81
120
141
180
165
191
124
129
136
199
160
167
186
164
178
121
212
137
140
177
129
158
103
153
175
101
107
157
160
185
199
169
194
125
132
179
130
171
126
196
150
153
121
167
186
112
188
174
119
130
80
111
119
127
157
212
200
98
206
107
185
130
133
113
151
188
196
152
138
178
203
197
160
133
122
172
113
152
144
119
133
144
146
127
166
183
78
100
102
103
84
190
176
80
139
135
128
184
102
147
127
136
145
157
119
175
179
134
119
105
126
108
96
189
150
165
192
124
180
156
144
132
177
196
197
170
142
190
203
81
119
179
170
160
149
159
158
166
91
192
125
150
155
113
200
159
124
85
84
88
100
122
121
73
127
156
193
190
162
185
80
78
121
156
198
154
84
185
134
116
124
149
131
127
140
152
137
112
107
133
134
201
114
158
219
122
169
150
150
93
147
218
129
104
183
133
131
132
178
147
141
126
110
132
140
68
105
114
174
153
160
149
158
135
117
90
202
146
140
127
122
169
89
92
164
157
81
132
65
178
147
126
168
137
132
101
191
166
104
126
142
99
142
108
144
160
129
89
176
118
112
103
108
86
91
128
204
144
100
118
137
85
120
170
154
158
104
154
133
110
128
174
181
117
156
140
82
110
116
119
128
151
165
121
86
116
122
91
187
194
148
146
85
132
150
157
177
109
82
104
144
158
131
159
175
122
167
113
72
130
128
157
128
147
139
146
146
95
93
167
192
101
124
66
187
103
126
110
128
179
161
178
149
119
204
123
192
184
100
164
127
168
115
167
177
124
115
164
92
77
102
166
166
81
134
72
153
165
166
149
180
182
110
167
156
169
170
128
148
98
119
118
118
228
171
72
71
169
138
134
168
116
108
112
74
162
89
127
145
73
144
121
139
79
135
97
110
89
98
101
130
158
189
160
122
105
147
141
177
157
104
139
111
89
109
91
50
177
116
117
162
139
109
96
93
101
116
141
107
127
147
125
82
64
138
147
71
76
95
96
172
167
193
165
122
117
122
142
119
125
88
154
121
88
99
149
127
110
55
95
158
146
117
89
125
135
109
152
131
94
152
88
170
197
143
123
167
102
90
78
128
140
158
122
125
98
67
74
137
75
81
89
112
100
84
164
138
99
163
107
187
134
84
80
121
174
167
165
145
113
139
65
136
105
87
112
119
62
143
140
81
105
156
118
85
135
118
129
64
95
101
170
67
99
74
176
80
81
105
71
117
115
94
104
154
130
183
185
159
150
106
108
107
82
102
64
101
91
70
92
92
156
103
120
160
55
144
125
158
85
135
133
98
120
109
143
163
72
136
125
79
71
132
131
149
131
111
150
83
141
113
75
70
91
120
80
162
105
162
74
74
179
53
121
94
83
92
77
90
133
127
125
120
116
127
94
88
84
130
112
124
47
168
185
103
138
158
134
134
145
107
111
159
142
110
139
140
67
124
173
86
148
75
96
133
131
166
104
131
83
62
94
131
120
107
66
170
113
129
99
75
136
81
149
63
113
172
109
84
115
147
139
141
78
139
80
105
80
50
96
90
124
127
143
116
137
85
80
156
83
108
91
106
72
153
139
95
116
152
118
90
75
68
155
121
173
119
117
93
81
79
79
118
146
111
95
142
79
81
106
77
129
79
99
106
92
147
114
92
99
113
108
123
78
92
120
115
90
73
69
75
82
78
133
68
68
112
103
183
94
108
162
68
124
96
141
87
71
91
85
72
72
106
130
138
44
114
138
98
148
133
112
73
140
115
117
159
90
101
106
96
152
59
133
111
115
79
86
69
123
113
94
70
104
46
93
131
51
72
133
170
62
84
137
112
103
110
57
142
121
73
56
114
148
125
71
127
126
159
129
127
82
49
105
97
99
87
84
45
106
73
66
69
114
82
73
77
140
107
48
126
95
65
139
113
66
94
93
133
147
103
75
57
88
120
99
127
135
141
102
74
115
108
135
79
50
140
50
127
120
111
143
117
143
123
167
145
74
74
117
117
165
180
136
95
72
145
106
120
110
101
104
146
156
62
99
62
120
87
137
82
59
62
103
72
83
98
88
75
170
94
120
69
75
84
135
136
88
112
120
132
38
96
100
105
116
104
128
118
137
161
136
106
126
98
108
102
88
125
119
95
130
84
97
87
149
68
104
115
84
147
73
69
159
71
99
50
120
72
54
127
121
128
56
84
113
57
58
104
43
83
43
118
66
115
69
153
79
103
89
85
86
66
104
109
113
110
74
91
93
79
99
95
116
130
86
91
54
100
91
104
100
126
69
140
55
89
113
104
97
119
155
136
148
75
78
102
109
89
99
132
126
88
85
94
88
115
115
29
126
120
105
112
93
134
134
110
102
88
74
110
116
68
45
49
102
101
45
81
113
61
69
66
104
77
101
72
72
85
101
80
53
67
86
106
93
115
141
103
139
97
108
99
88
55
68
139
150
152
59
114
102
88
76
121
92
160
67
71
55
97
66
80
73
58
74
110
120
103
47
89
97
85
71
132
114
146
100
122
112
43
108
78
70
74
46
64
109
86
45
56
85
38
133
100
85
140
75
144
126
95
89
110
88
118
75
86
49
81
69
54
86
104
115
156
24
72
109
47
145
91
153
94
141
65
67
89
110
113
49
123
120
138
124
160
55
66
154
57
79
75
115
122
44
96
65
73
119
92
82
115
70
107
124
121
70
134
93
88
103
103
88
119
89
66
91
71
78
125
109
86
104
91
70
102
117
120
66
132
41
110
89
98
111
72
96
95
95
117
97
49
61
126
78
99
115
96
80
58
56
74
77
95
110
86
135
95
110
38
117
46
94
60
88
52
47
123
144
56
101
67
71
75
117
118
62
114
113
121
107
135
94
117
129
29
132
62
45
62
118
43
55
117
128
101
68
90
109
44
69
99
147
98
107
115
31
134
124
137
150
95
62
76
87
54
85
123
124
118
73
33
66
64
86
100
85
99
138
69
75
93
110
99
83
115
68
56
87
46
82
93
118
122
72
110
83
82
53
77
99
134
115
118
113
99
104
77
126
84
56
125
53
81
100
91
74
117
59
102
91
94
131
58
115
55
41
117
100
83
54
113
87
66
66
97
115
58
80
45
100
86
93
113
81
120
47
48
84
57
84
85
88
57
96
91
99
60
70
89
114
77
101
111
84
83
147
62
61
79
68
103
54
64
75
76
57
51
39
34
101
75
66
84
76
63
109
111
130
88
52
48
111
120
72
54
100
131
79
116
73
87
47
37
130
44
38
32
85
108
55
63
93
61
99
44
102
107
112
110
39
47
78
111
55
44
47
83
96
41
64
88
141
132
114
98
73
139
49
31
87
67
50
123
106
88
59
99
52
129
87
48
112
86
91
80
61
91
138
94
42
60
121
69
113
90
94
99
66
73
96
71
96
124
61
57
63
130
38
40
94
64
80
76
56
114
82
76
77
120
106
96
68
48
104
100
64
86
58
79
53
60
38
72
47
111
51
53
60
63
66
80
81
106
58
38
44
34
40
134
71
131
48
88
78
98
129
62
109
97
85
57
39
55
82
82
113
60
81
35
52
72
44
81
57
63
90
53
37
86
118
80
83
82
83
37
89
69
136
71
75
86
109
94
44
50
63
96
89
43
66
71
31
32
37
104
124
105
47
47
75
49
84
85
79
60
36
117
76
68
96
108
52
117
95
97
84
63
59
82
85
140
58
46
76
135
113
56
119
123
76
66
61
120
107
127
30
71
54
75
28
51
66
100
73
52
104
86
66
51
60
104
80
38
85
57
60
71
98
89
90
74
132
57
55
109
57
86
57
85
89
116
94
89
70
85
52
37
85
56
63
82
46
46
73
84
77
68
25
103
96
59
83
118
41
94
50
83
61
112
99
82
81
60
88
75
63
68
99
68
93
67
63
84
100
79
124
109
71
114
79
53
62
81
51
79
36
69
99
66
76
72
62
87
56
79
34
85
98
59
89
78
98
70
44
42
76
76
104
46
95
112
70
117
101
81
59
50
44
69
43
47
82
55
33
131
89
33
124
69
67
74
90
63
41
39
77
39
61
61
41
114
83
71
50
32
85
103
77
59
95
40
46
48
26
64
118
52
49
42
48
32
65
51
66
49
62
73
51
84
97
78
91
101
50
53
71
78
89
101
99
80
80
47
105
33
46
75
77
62
75
21
65
52
85
67
94
61
41
32
60
117
98
75
92
29
62
73
58
55
51
49
60
36
99
84
85
98
88
80
89
77
80
42
58
93
45
60
45
66
97
68
53
110
94
96
87
49
60
48
76
86
78
62
69
69
115
43
73
76
124
107
75
79
100
78
121
90
97
34
57
43
88
69
79
43
67
109
72
69
63
61
69
136
68
78
93
121
81
119
118
91
65
111
111
111
59
95
81
110
81
84
51
64
46
97
41
82
71
52
113
96
89
65
82
99
132
23
135
39
106
60
73
99
75
52
40
72
97
58
52
85
79
64
68
35
94
57
54
55
95
70
74
65
61
77
75
64
103
104
130
49
109
99
56
56
57
61
38
74
26
97
80
86
114
98
107
97
72
67
28
72
83
113
82
49
77
81
67
49
42
66
120
81
86
78
80
65
41
45
58
82
63
61
79
71
94
112
46
98
110
94
51
135
84
37
81
88
52
30
23
54
89
48
49
83
88
78
81
62
62
37
88
42
50
33
68
81
70
78
98
105
66
63
95
95
71
92
113
43
74
30
41
78
57
55
133
63
66
72
88
101
64
41
74
58
74
115
84
111
80
115
125
71
77
87
70
69
43
73
54
45
97
116
92
78
89
77
89
53
32
45
61
63
66
112
59
79
60
33
103
63
33
59
81
38
64
57
78
72
52
41
84
77
78
31
52
71
68
94
99
90
88
125
98
48
52
85
75
78
21
50
58
87
73
67
53
67
84
67
55
58
106
41
100
61
75
109
100
100
79
22
87
40
66
24
39
35
101
81
40
85
53
42
66
78
64
55
61
68
73
82
63
54
73
75
69
58
33
101
63
61
62
32
99
89
46
33
65
90
44
47
65
53
93
68
82
99
72
55
61
31
65
93
68
31
60
40
67
31
66
49
37
69
40
68
98
56
71
71
47
35
95
30
54
76
77
44
38
61
46
73
48
46
42
75
48
44
47
25
30
85
32
114
75
87
82
97
64
49
43
102
28
31
102
33
39
86
110
63
68
61
61
30
35
72
48
75
57
129
115
67
106
36
74
87
72
43
87
36
40
45
46
75
25
48
69
52
115
41
52
52
20
44
97
98
51
46
41
72
46
68
117
91
32
52
55
57
27
63
44
21
33
46
38
50
85
62
74
45
59
21
29
14
53
56
70
73
65
85
58
78
89
96
59
32
68
75
61
68
93
41
53
46
87
76
83
84
40
53
84
44
49
47
84
86
85
78
43
110
76
29
58
56
64
74
109
62
90
68
71
91
43
87
70
66
56
46
69
91
15
60
77
64
88
29
63
42
36
62
65
73
108
88
90
75
58
49
39
50
40
63
41
61
96
53
116
54
47
64
46
50
64
24
68
54
31
48
48
20
36
106
54
38
50
78
65
68
17
43
60
47
31
55
82
23
68
50
71
23
76
92
87
89
68
71
79
84
25
54
79
84
73
48
58
82
70
65
81
43
32
40
51
59
59
39
96
81
95
87
106
73
34
31
63
59
81
88
41
78
86
58
75
43
48
60
39
34
71
57
67
46
57
63
59
88
64
76
49
95
46
35
62
86
97
52
67
43
71
102
87
44
66
42
37
64
48
38
49
75
30
63
53
51
33
109
48
89
59
101
63
84
101
46
65
59
54
24
74
39
49
27
77
33
82
97
25
55
58
63
63
72
77
75
93
75
65
76
84
73
76
56
91
86
106
45
97
76
48
20
82
24
72
106
36
96
82
18
97
69
81
33
52
32
68
40
68
54
36
49
86
91
49
17
63
76
35
55
104
95
54
48
40
39
42
53
75
60
64
34
68
65
87
44
86
15
37
35
43
66
62
57
36
31
39
27
32
28
34
45
57
32
108
107
61
48
90
73
33
53
92
87
65
46
93
62
20
105
78
47
93
70
72
86
84
58
112
38
84
27
69
68
73
89
93
76
40
34
68
63
49
60
72
54
42
64
68
24
70
107
33
51
89
33
46
43
88
51
15
57
53
33
92
47
75
50
95
32
97
52
22
90
26
31
35
61
77
79
91
68
73
52
40
40
55
56
69
86
71
28
28
18
100
85
78
75
31
20
48
57
30
100
77
35
21
63
83
64
24
24
41
72
34
31
105
70
78
76
30
46
44
29
101
66
85
40
52
55
42
59
47
57
50
97
88
96
34
101
44
59
38
55
22
27
27
39
88
96
44
31
39
45
77
31
34
49
36
62
69
51
67
63
106
70
26
72
30
62
31
81
115
93
65
27
48
67
30
30
61
66
75
55
52
20
88
54
23
68
47
84
75
75
37
37
54
40
38
73
72
31
57
82
75
69
65
45
21
59
35
33
60
63
88
21
61
57
106
60
58
21
26
30
36
36
29
31
59
46
38
61
102
24
70
62
56
57
33
29
16
44
32
57
93
49
31
59
93
32
67
85
63
26
42
91
70
72
81
75
52
23
71
94
71
77
72
76
36
36
37
35
24
42
51
87
31
60
88
44
65
69
79
29
38
49
35
48
33
78
95
43
18
83
49
24
57
30
33
53
58
44
60
45
78
74
37
28
84
29
41
65
90
47
22
67
21
68
30
28
32
82
44
23
52
40
55
92
61
21
71
46
51
86
84
57
48
32
23
56
36
57
77
85
68
66
85
57
47
50
81
46
82
42
72
20
69
75
86
89
80
34
29
17
55
59
37
81
56
48
38
65
55
87
52
74
39
41
22
53
15
14
23
17
72
93
14
71
30
77
39
81
61
76
68
36
65
36
79
34
33
55
69
37
41
71
62
30
31
33
30
55
46
90
73
63
14
101
38
74
36
77
40
69
40
21
71
61
23
60
40
23
78
53
47
76
46
70
85
76
80
84
59
32
59
53
46
82
47
50
43
37
52
43
74
57
82
65
79
35
38
75
55
53
69
26
45
62
76
15
67
52
14
18
29
77
41
50
33
72
48
52
65
41
37
54
12
25
60
63
103
34
20
55
67
34
58
49
61
77
65
54
59
73
67
83
48
58
62
39
73
79
50
85
86
66
39
53
80
72
68
73
28
34
59
29
69
31
78
57
18
42
54
56
62
38
56
44
24
88
77
50
68
39
77
43
22
53
52
94
23
70
58
50
41
21
56
52
49
73
41
72
56
46
62
41
60
43
34
39
118
40
62
103
104
98
102
44
57
19
39
78
36
67
89
62
76
43
41
96
43
31
61
54
54
31
48
49
28
36
24
70
75
37
38
21
29
93
48
49
51
66
44
24
40
27
49
59
75
42
54
53
47
60
32
35
22
73
27
47
16
72
58
63
54
65
46
70
65
68
41
26
58
52
35
42
38
75
52
58
54
77
55
76
49
18
36
40
73
48
31
33
51
30
28
65
51
47
55
66
55
46
31
87
29
33
88
31
79
27
75
76
70
30
20
87
42
30
55
74
99
71
23
33
93
60
80
62
29
60
36
72
87
46
37
72
39
28
38
97
83
42
44
51
46
44
55
24
87
38
63
73
66
66
60
33
27
36
57
19
42
66
57
29
57
38
76
70
41
33
57
42
67
71
55
29
92
26
40
37
29
39
63
62
64
84
62
39
47
50
42
33
39
61
86
53
29
55
63
23
55
42
66
50
17
43
43
57
75
28
89
55
43
36
54
32
36
39
75
49
21
35
54
24
68
67
19
28
50
85
53
100
63
23
63
84
40
46
85
93
28
35
24
15
78
39
52
46
29
44
71
58
50
50
28
61
45
56
26
38
23
41
32
37
66
47
47
69
59
59
30
32
71
52
43
35
41
41
41
72
27
49
57
86
78
67
17
13
62
97
32
24
52
92
48
43
41
64
77
84
64
42
72
34
47
35
72
91
22
42
57
64
34
46
35
35
31
53
74
47
69
45
41
44
29
44
47
35
51
20
29
45
27
31
91
19
53
72
58
33
38
57
19
29
18
57
43
68
29
31
41
53
67
57
88
65
77
52
41
36
66
57
46
79
51
45
63
56
53
54
79
60
22
20
44
81
68
14
58
27
26
54
44
59
50
44
40
85
88
58
44
54
37
51
38
45
46
19
71
48
101
30
47
40
30
15
64
38
59
58
37
29
16
41
58
56
65
23
34
44
36
55
39
65
65
33
16
72
17
76
56
32
38
89
57
46
63
37
74
87
89
65
78
22
15
70
28
43
56
82
74
51
36
80
40
45
37
59
57
37
46
59
38
92
21
42
73
36
38
32
60
17
39
42
40
44
50
37
40
39
42
47
58
37
23
69
27
44
52
68
33
35
18
15
32
45
45
78
30
41
50
67
45
45
33
64
50
18
85
15
35
30
24
59
41
70
43
59
51
33
49
82
63
40
34
35
31
46
46
43
30
39
51
29
50
37
54
25
33
55
33
27
68
67
77
61
21
13
67
66
15
12
65
58
53
77
69
41
20
72
38
20
107
46
57
86
47
30
21
47
47
53
42
11
30
60
20
28
35
31
82
21
28
40
86
33
56
68
21
23
23
30
63
39
29
27
29
61
23
45
61
32
20
30
52
24
76
28
84
74
25
22
45
17
26
20
26
62
18
34
54
51
33
41
73
57
85
58
14
34
79
32
23
53
74
79
34
50
51
12
48
30
42
26
41
25
71
44
65
46
35
72
36
52
29
66
54
42
67
26
41
47
21
58
13
61
93
19
65
46
6
24
41
37
56
62
82
33
11
49
33
69
36
34
66
29
30
47
49
36
13
43
40
37
49
44
46
23
41
11
26
33
55
22
30
14
21
63
34
56
73
14
66
19
49
34
47
54
46
54
21
42
18
45
22
34
55
41
37
60
35
75
46
41
42
36
54
58
45
32
34
22
21
61
63
22
43
53
61
35
33
25
54
34
90
49
55
37
40
44
49
41
42
57
35
72
27
72
17
78
58
16
29
94
78
37
31
47
71
58
39
27
74
85
46
11
29
65
56
66
10
56
38
45
35
69
31
25
48
60
19
67
48
40
54
74
54
42
43
54
40
28
16
22
33
63
26
37
21
33
30
24
17
61
79
27
56
31
69
34
86
64
25
17
43
52
32
29
32
17
35
88
37
42
51
69
77
74
38
28
44
24
53
94
40
66
25
47
63
35
39
61
11
42
37
43
56
57
33
39
35
29
70
50
42
55
28
39
70
65
17
72
47
35
35
35
20
33
47
51
74
43
45
61
49
52
51
52
39
14
29
55
28
57
25
22
39
37
17
64
21
38
24
33
8
33
21
33
90
29
47
84
60
77
52
43
57
19
23
51
56
25
27
46
26
33
34
32
64
47
22
56
39
18
43
53
26
39
49
44
64
79
45
52
55
14
21
35
36
25
49
31
32
22
31
21
59
21
62
63
32
47
20
27
34
31
61
57
35
54
37
42
32
29
42
64
33
20
47
74
53
10
16
48
63
38
28
45
41
26
28
47
32
75
79
52
62
35
65
22
32
45
26
43
47
70
23
59
56
53
32
55
53
19
21
24
19
23
55
51
15
24
38
55
41
77
43
31
32
82
36
25
64
8
22
36
34
53
44
31
27
38
73
23
35
18
44
41
80
20
14
45
15
57
77
22
88
82
36
31
52
45
37
56
64
11
22
59
45
12
26
46
31
47
7
13
13
65
31
45
46
42
14
19
48
36
11
14
12
65
58
39
49
36
28
40
24
15
56
35
44
27
70
69
67
29
46
74
23
51
37
70
48
7
16
70
42
39
43
44
24
24
35
15
22
24
40
15
24
98
43
25
52
66
23
38
20
28
39
46
25
17
65
28
61
87
36
53
78
44
32
61
79
78
16
34
23
48
47
50
61
40
37
55
22
62
54
46
31
42
70
31
44
46
30
25
53
33
44
13
21
47
25
37
27
41
43
22
26
62
59
66
42
45
40
42
49
28
65
35
67
33
33
56
29
23
58
64
36
25
60
67
37
22
37
39
32
50
49
40
12
14
24
57
24
77
51
53
67
34
32
19
30
82
20
12
61
43
18
74
68
53
33
49
28
16
25
36
30
17
6
28
36
57
24
20
21
27
38
15
26
15
24
40
50
77
48
43
45
32
27
56
55
65
33
17
30
30
42
27
42
33
49
44
43
37
79
27
21
38
31
55
36
14
24
30
36
47
38
18
35
17
37
38
42
24
19
27
20
60
19
60
70
71
26
11
62
17
49
47
76
23
11
37
25
40
52
62
38
52
34
60
27
61
29
34
22
28
39
31
56
50
32
23
31
61
66
32
65
27
39
43
65
25
48
33
35
25
34
33
17
26
19
96
32
20
23
33
48
28
72
25
31
30
27
52
43
26
32
42
63
26
30
79
45
70
30
23
18
58
41
36
54
39
12
63
9
35
63
55
78
22
12
18
34
19
46
20
19
34
10
35
29
34
30
30
48
39
57
56
52
22
29
31
7
54
55
20
32
39
44
64
36
52
35
19
32
38
24
53
59
47
35
24
20
46
21
29
47
21
10
38
57
69
69
17
29
31
50
65
27
15
71
37
7
23
52
55
58
23
15
45
51
36
36
29
25
21
43
42
13
11
26
13
78
41
20
40
24
51
59
18
33
51
24
28
14
21
38
47
28
29
24
27
42
13
14
38
4
19
38
23
23
20
56
31
19
26
60
29
21
36
15
45
17
19
22
74
55
41
41
33
48
67
30
33
72
56
65
25
39
18
25
29
65
38
26
24
49
24
45
45
35
44
7
19
74
48
34
25
60
15
37
13
41
61
49
21
36
26
53
56
91
48
32
44
43
63
80
86
26
72
48
54
47
51
41
18
81
35
42
28
44
23
33
58
62
41
58
49
42
49
38
17
46
26
27
31
16
7
37
52
33
28
17
47
21
29
16
23
51
20
43
51
41
47
63
60
49
13
49
44
5
25
30
21
47
28
11
44
17
29
52
36
40
15
18
59
7
14
40
28
71
75
39
52
74
59
61
50
25
30
22
54
35
27
19
16
39
33
21
52
16
20
46
16
22
18
14
18
14
23
18
52
86
16
11
36
31
12
44
21
48
40
49
28
50
46
11
37
38
23
55
38
37
26
38
41
33
17
32
50
31
31
34
27
29
15
18
12
6
9
19
25
16
4
51
31
19
64
15
11
16
37
26
50
24
9
48
45
46
37
29
7
51
63
15
20
55
35
26
11
20
62
44
41
26
15
42
20
41
40
53
41
69
65
49
19
11
53
8
12
56
45
23
22
26
60
45
50
29
35
26
26
14
63
39
41
58
32
51
54
25
24
21
47
35
42
54
60
49
43
17
19
47
47
42
61
34
39
13
52
53
60
43
65
41
70
62
38
35
12
48
12
33
74
23
26
25
32
33
20
41
59
45
50
47
21
15
31
50
53
69
7
72
16
74
41
44
35
29
33
37
31
50
11
62
11
47
36
27
53
44
29
76
59
13
27
32
52
42
54
29
19
45
45
40
45
22
33
67
37
19
36
28
23
15
24
28
12
16
40
11
17
51
13
50
22
31
63
76
21
41
28
20
46
30
59
47
71
54
53
44
26
8
24
29
20
16
9
21
53
38
35
33
55
26
60
20
25
21
33
62
25
24
18
29
25
37
21
27
57
44
32
99
23
17
50
14
39
66
38
23
40
53
40
9
9
23
29
30
33
11
22
34
48
39
28
38
58
44
21
31
44
29
36
24
38
46
17
31
29
30
17
25
74
19
13
46
30
20
55
47
54
81
43
14
43
43
30
41
45
15
76
46
42
6
81
46
58
51
18
14
22
33
9
28
21
9
75
32
48
19
8
29
26
31
36
36
63
27
33
11
23
55
13
42
19
47
46
18
30
25
8
40
48
31
27
48
23
65
31
53
41
8
12
39
49
34
38
41
32
28
52
43
23
51
18
23
47
19
36
26
81
24
40
16
38
19
36
47
47
18
16
55
22
18
23
46
19
52
17
24
37
58
69
27
28
20
68
34
8
74
26
23
24
50
17
25
76
61
32
26
35
69
10
59
28
55
18
42
25
21
29
12
23
32
44
13
48
19
32
23
13
28
16
29
38
22
22
10
54
59
33
24
50
68
29
44
42
53
44
35
24
39
22
18
39
49
35
38
25
21
46
26
47
55
50
56
19
34
41
22
20
69
46
57
24
49
33
21
46
45
56
27
54
23
15
32
20
27
33
22
28
42
32
25
27
25
42
46
22
39
14
59
49
25
54
42
47
36
62
18
16
53
45
30
47
59
31
34
46
12
28
26
19
27
15
28
10
36
24
27
23
31
41
51
4
8
23
59
31
18
26
21
19
44
58
59
90
15
45
12
34
55
49
29
19
14
14
21
32
34
49
34
11
33
13
22
39
48
44
47
28
47
39
21
19
15
17
34
44
43
13
39
40
31
28
20
11
6
35
10
25
48
31
16
51
17
11
18
13
37
62
29
49
23
34
48
32
35
14
14
18
25
36
35
23
63
26
31
45
44
31
35
20
11
8
24
16
51
40
55
38
39
25
49
16
24
18
38
5
36
25
26
52
38
54
62
16
21
45
23
12
14
49
20
10
70
28
45
67
17
24
48
20
56
34
18
36
17
13
23
48
27
14
57
26
16
10
25
27
14
42
51
25
11
8
45
47
36
18
11
30
36
30
30
21
13
34
46
29
31
15
45
36
44
15
8
25
35
29
16
46
50
13
10
19
19
15
26
66
26
20
20
45
26
26
48
33
23
32
66
41
20
44
34
11
18
49
14
32
9
10
52
14
14
61
20
33
27
40
16
27
40
46
21
39
42
10
48
36
13
52
39
49
50
12
10
52
39
18
53
49
53
31
48
45
52
54
15
52
9
23
5
17
6
21
13
22
39
27
13
13
41
18
13
30
23
33
23
1
16
21
57
58
62
20
18
42
14
21
29
16
39
48
19
37
20
28
26
31
75
34
28
17
15
17
18
45
45
20
56
10
72
29
25
36
18
21
26
12
36
27
32
25
10
29
37
6
54
15
65
32
19
44
45
30
40
43
52
10
27
24
31
22
26
30
28
36
23
16
24
48
45
35
5
9
31
20
24
17
15
42
39
46
21
36
20
22
42
18
36
36
51
25
38
15
32
28
12
35
19
32
15
8
44
47
57
19
34
29
28
32
10
68
43
14
15
40
62
41
48
52
36
10
15
15
37
42
17
16
50
51
50
34
35
28
30
70
9
22
20
12
4
44
39
11
66
30
54
62
11
24
22
30
40
19
19
55
14
11
18
57
30
33
23
43
8
28
11
23
30
41
61
8
30
14
21
31
29
11
34
21
22
41
31
51
6
48
13
28
28
41
35
33
26
40
21
8
14
37
26
69
44
9
54
24
34
66
25
13
9
13
36
20
30
63
15
54
37
8
33
9
33
40
28
46
38
41
8
26
37
9
37
28
36
38
22
12
58
24
43
23
33
13
22
20
16
27
21
17
28
52
21
26
12
13
65
14
13
24
34
26
9
45
15
27
26
18
45
12
21
24
15
29
17
26
47
17
15
22
17
23
65
14
20
7
34
14
19
10
35
7
15
50
4
28
15
43
10
42
47
17
33
20
30
51
55
32
40
25
41
25
9
31
43
30
7
56
21
54
26
43
50
31
59
9
17
15
34
7
36
35
40
11
12
40
57
61
31
58
40
46
14
22
34
16
17
31
40
30
26
10
17
25
21
18
23
19
18
27
11
36
52
22
16
14
16
49
18
37
28
15
18
34
13
33
21
25
35
24
27
16
33
17
28
28
26
12
25
12
35
31
57
33
34
34
33
29
26
11
17
36
28
18
18
36
42
21
24
25
15
19
23
17
19
47
53
39
45
21
38
33
44
38
7
48
15
17
30
3
4
24
27
27
26
17
34
43
19
42
33
16
20
25
19
21
54
37
31
37
11
6
24
31
19
63
33
35
30
11
26
20
21
12
38
5
12
19
18
42
27
32
20
37
32
24
16
21
25
41
28
28
19
46
23
41
16
29
62
32
34
36
34
30
20
28
19
17
40
39
7
27
46
54
21
24
42
16
15
9
14
20
28
71
7
14
47
28
13
10
43
23
19
34
36
28
19
64
16
32
20
10
15
39
19
49
24
19
19
25
15
59
26
9
7
44
11
3
23
34
60
22
59
8
26
11
27
11
19
23
5
48
60
25
49
16
31
23
14
42
10
15
9
16
28
20
24
32
14
49
19
28
22
32
18
63
19
24
57
45
17
30
8
44
9
19
31
25
47
32
8
15
36
50
13
40
18
40
23
37
14
30
15
40
49
10
19
52
16
28
19
29
23
26
20
48
31
33
39
29
46
33
18
13
42
17
40
44
29
39
32
32
12
32
12
6
22
27
17
21
22
61
39
44
42
10
21
35
55
60
39
58
30
41
23
45
16
31
11
48
10
9
28
17
42
45
32
42
16
19
23
14
10
26
18
19
32
20
29
32
34
10
16
58
38
24
20
9
18
14
26
18
48
30
12
32
29
23
11
20
9
13
56
22
48
66
56
27
31
7
57
50
35
8
27
28
27
25
54
14
32
21
19
43
40
63
29
46
44
33
31
45
29
38
19
66
56
19
40
13
19
17
5
41
25
10
13
30
55
51
43
26
20
22
35
6
33
27
15
18
32
26
40
49
35
9
51
9
12
3
9
42
10
26
15
25
53
27
4
20
26
12
6
16
25
25
44
74
25
22
12
14
17
16
20
38
51
18
48
30
40
12
24
22
10
47
51
33
50
20
6
30
21
12
36
15
33
19
46
31
12
5
21
36
42
44
14
12
33
53
23
29
44
11
28
12
39
5
13
33
33
30
11
28
15
25
22
18
45
12
39
23
39
51
18
27
37
9
14
35
42
24
42
11
25
12
24
43
13
15
26
13
39
14
25
12
44
17
43
25
18
30
29
26
25
58
31
26
18
51
36
17
21
29
45
33
47
23
23
43
55
13
16
40
3
17
31
17
16
10
10
20
42
21
34
21
27
15
16
11
35
10
29
17
22
30
21
18
21
20
23
24
15
17
23
18
29
27
24
7
20
16
20
18
54
31
16
55
13
11
57
10
37
29
25
13
19
26
33
5
31
15
38
33
15
55
53
33
23
23
41
11
26
16
9
10
12
51
25
35
8
11
33
11
29
11
57
29
18
14
15
10
37
52
32
47
3
11
25
20
39
37
10
16
11
57
24
44
43
12
9
23
34
27
33
14
42
20
20
34
21
8
20
12
28
32
39
37
24
39
38
37
37
18
18
21
16
26
55
16
30
15
26
30
19
40
26
47
22
25
25
18
15
22
14
47
48
29
20
11
16
22
28
26
24
25
30
50
13
49
11
26
31
23
49
52
41
28
7
47
29
12
23
13
18
20
27
26
10
18
10
26
34
22
50
25
23
43
38
9
32
22
28
33
25
20
6
17
26
20
7
24
42
12
20
25
41
21
9
35
21
6
13
40
13
15
19
13
50
15
17
21
17
8
13
32
36
50
22
28
32
44
34
39
5
3
12
19
58
20
7
6
35
36
40
22
9
39
29
14
25
39
15
36
14
13
7
26
21
24
25
41
20
33
19
35
10
9
43
43
47
8
38
25
7
25
12
21
16
37
33
24
28
9
40
12
13
43
17
18
41
26
28
7
29
11
38
59
29
18
49
18
7
21
9
2
11
4
37
38
6
19
44
31
24
14
25
42
22
34
22
9
22
11
25
14
40
38
24
19
17
7
20
17
27
27
15
7
10
29
31
17
16
36
5
16
25
57
16
26
39
35
13
24
14
10
15
27
37
10
33
18
28
9
36
24
38
29
9
18
36
17
34
20
18
32
63
29
25
13
61
20
21
23
26
28
20
24
10
7
26
12
32
30
11
16
31
18
31
27
30
9
10
30
10
40
46
8
22
11
17
41
31
8
22
42
44
27
32
11
14
33
7
23
18
17
22
24
23
46
42
43
23
31
21
16
19
20
12
13
24
8
23
18
31
51
33
36
8
6
16
18
19
34
29
59
24
43
15
38
19
1
14
21
21
41
24
15
37
35
54
9
17
18
19
34
38
44
30
52
37
32
46
46
29
35
25
17
39
42
39
34
34
41
3
19
31
16
42
43
14
9
26
23
23
17
61
35
9
4
26
25
12
8
40
32
11
25
37
13
11
34
33
55
36
22
31
41
43
20
50
21
14
30
19
30
19
18
17
18
26
11
28
22
36
28
21
30
20
13
50
18
22
30
9
33
51
33
15
28
25
15
32
27
16
17
23
36
20
19
6
48
24
26
11
20
14
12
13
37
54
10
35
41
57
30
25
3
14
19
31
5
34
17
17
20
27
13
5
10
34
29
35
17
21
42
12
5
32
35
26
22
14
12
9
29
36
6
11
49
12
31
36
27
16
25
33
7
27
45
33
28
30
28
25
16
19
15
25
23
13
24
32
39
32
40
43
14
17
19
34
38
33
18
29
34
8
27
13
24
26
46
29
15
24
13
16
21
21
5
7
20
18
8
25
28
28
16
20
19
17
3
37
45
45
18
7
18
18
28
16
7
16
34
24
19
18
25
9
35
24
60
13
18
15
14
55
9
27
27
16
7
36
35
55
20
17
33
29
38
12
20
12
38
37
7
20
14
45
20
8
23
19
20
11
9
10
29
16
12
28
12
21
20
3
27
22
37
31
25
32
36
36
18
9
60
13
26
38
35
7
3
21
21
26
39
18
16
41
9
22
32
18
8
34
32
17
6
49
14
24
11
12
24
3
21
37
54
23
9
19
24
24
20
29
12
7
18
33
42
30
44
35
50
18
33
22
28
31
44
32
39
39
9
19
16
39
17
28
32
44
23
22
7
8
11
8
20
7
8
39
15
12
11
33
35
3
45
18
4
18
27
30
26
25
34
22
11
8
13
21
29
23
19
31
30
54
20
31
9
27
23
28
24
36
45
35
13
37
24
10
18
21
38
18
27
21
40
51
18
28
24
14
31
8
35
33
17
28
28
28
27
13
18
33
42
6
20
19
23
13
20
28
28
9
18
16
20
15
45
17
10
36
17
48
31
19
20
24
20
33
19
5
8
5
39
22
38
11
46
22
16
23
26
30
37
51
14
21
19
14
32
14
14
13
15
14
41
21
21
29
6
23
30
10
24
1
16
37
3
13
26
26
39
35
15
13
30
17
23
15
15
17
29
45
23
11
26
47
18
17
24
17
13
15
19
8
22
27
20
34
16
18
45
16
21
16
21
28
38
25
14
5
39
30
34
36
34
35
25
18
31
24
23
26
22
25
4
17
42
12
8
15
33
25
12
48
32
27
9
20
38
35
19
35
22
22
43
21
14
16
13
12
11
29
5
25
5
25
15
29
12
21
37
29
8
17
2
10
8
10
15
16
18
5
11
33
45
33
24
25
14
51
17
19
48
21
14
13
22
18
27
19
42
36
46
11
13
31
51
4
14
47
15
13
37
32
24
20
25
28
15
25
13
9
8
13
3
31
58
15
32
23
7
51
7
26
46
6
11
18
16
24
20
24
13
36
26
23
9
43
6
18
31
22
6
34
38
22
7
16
23
26
22
20
23
16
36
35
49
40
37
15
8
42
15
13
11
28
35
3
31
14
14
12
8
22
38
9
15
33
25
14
14
38
4
43
18
19
45
12
29
31
22
31
23
12
23
4
20
15
28
24
27
9
17
3
71
30
37
35
30
44
21
12
10
9
13
29
23
23
4
23
12
13
27
19
4
5
23
13
6
12
23
21
13
11
15
45
22
22
27
13
17
25
22
18
16
5
20
13
21
41
26
26
25
10
22
21
6
18
12
11
19
27
33
9
17
11
24
24
32
12
20
21
18
16
12
14
21
24
22
23
18
43
37
35
50
26
11
13
25
4
18
33
34
37
30
10
39
35
16
15
13
28
16
18
24
19
11
21
20
30
27
38
28
14
23
15
15
35
5
14
12
23
3
43
14
20
12
5
15
41
8
3
17
43
31
19
43
27
8
22
12
28
54
14
12
16
25
27
14
18
16
10
10
26
19
18
15
20
24
32
36
26
10
22
49
56
11
16
32
10
21
19
14
15
21
29
27
17
30
20
14
27
26
17
30
25
53
11
17
6
8
19
27
7
14
7
8
4
23
6
12
10
26
10
39
46
16
6
16
39
23
31
51
30
14
11
12
4
24
14
17
14
9
53
25
5
16
21
10
15
39
7
3
6
39
48
17
36
2
63
10
45
14
20
28
11
29
12
23
40
11
28
27
15
40
7
13
19
9
16
28
23
7
22
19
24
13
15
25
9
7
21
6
25
28
21
37
6
23
4
40
23
19
17
11
12
22
15
12
24
18
19
54
50
23
41
29
39
21
18
14
43
5
14
5
21
16
9
14
13
36
7
26
10
20
5
31
5
16
18
26
16
25
13
25
18
40
28
26
47
3
12
44
12
4
21
16
47
23
44
11
31
22
8
13
12
26
31
17
33
8
31
36
18
32
7
36
36
15
17
9
15
9
29
19
28
4
24
6
9
28
14
3
19
8
15
46
24
25
12
31
8
36
24
17
34
46
11
8
5
25
45
30
21
31
11
15
11
15
5
11
7
36
20
32
18
17
24
24
7
8
6
19
6
18
11
18
30
18
37
44
15
31
12
4
43
30
2
10
28
23
16
16
44
15
18
42
27
32
17
15
22
26
18
19
14
25
25
18
25
24
10
27
18
20
20
26
32
16
51
43
10
13
18
11
18
18
21
36
21
13
7
36
21
10
7
10
23
48
22
27
21
46
15
47
16
44
36
35
33
5
11
6
5
3
32
32
16
29
29
7
17
5
18
46
29
8
26
5
22
8
22
14
12
12
34
9
18
3
28
10
8
20
31
33
29
30
32
18
10
27
37
23
15
8
15
23
15
16
32
22
13
10
6
6
28
25
22
9
13
17
20
29
29
35
15
5
38
6
21
29
25
35
0
25
44
1
9
3
27
25
13
3
2
2
16
12
37
42
13
13
23
5
9
6
6
39
18
15
37
10
25
2
5
16
10
7
12
40
38
19
26
3
5
8
9
18
23
26
19
29
12
14
6
32
12
9
19
39
6
21
6
19
30
4
3
30
44
26
28
11
16
5
8
25
10
3
14
46
18
10
4
35
17
5
3
34
10
9
32
28
11
32
38
24
30
35
23
17
30
22
11
14
3
16
15
50
7
20
16
13
14
23
15
8
14
10
4
8
21
3
17
29
35
11
36
35
16
32
47
35
28
10
10
6
8
11
8
28
19
15
17
19
21
17
11
60
15
10
24
14
7
16
25
6
13
25
24
3
14
29
23
12
14
35
24
3
11
18
24
17
23
2
16
8
7
10
23
21
18
18
38
22
25
12
30
45
32
16
16
26
23
8
11
9
12
31
23
10
13
2
9
16
28
35
32
14
24
10
23
4
14
11
48
7
17
11
12
40
18
7
25
9
18
33
7
5
16
17
21
23
16
17
18
18
32
9
3
29
27
5
25
13
12
34
6
8
26
27
51
5
9
21
29
25
27
15
24
11
24
31
7
21
10
4
14
21
46
12
28
10
18
21
10
51
46
57
10
34
20
46
11
13
22
17
25
13
21
33
15
10
13
5
6
15
36
14
22
25
10
11
17
10
19
6
24
33
10
11
34
10
11
6
3
14
10
9
31
3
4
38
11
9
23
26
11
26
18
19
15
20
39
12
27
29
20
13
31
31
30
20
16
30
13
17
12
9
28
30
25
3
22
42
17
21
22
11
25
22
23
10
5
17
21
25
11
22
27
14
11
22
24
20
8
27
23
16
21
23
32
31
21
29
28
9
17
22
17
13
18
35
16
6
9
17
18
15
12
14
39
31
38
8
31
19
30
22
11
31
4
22
29
6
32
34
16
20
30
9
12
16
31
20
33
33
38
15
33
21
18
23
25
15
13
15
9
18
23
17
14
15
13
24
24
10
17
9
14
19
18
5
11
17
29
28
28
21
27
34
23
15
7
12
22
16
26
14
23
16
18
18
11
18
18
22
10
16
16
10
25
19
6
8
20
22
15
9
28
8
12
16
10
19
4
13
29
20
26
24
4
14
12
30
19
21
4
7
8
17
9
35
38
13
2
20
3
35
13
11
5
13
12
7
7
46
18
8
15
26
32
17
20
8
15
42
10
3
10
25
27
19
29
4
10
22
18
5
42
6
7
20
15
34
52
28
20
30
18
24
13
29
21
32
32
9
17
24
19
23
22
30
10
18
20
7
30
4
34
5
18
18
27
19
10
5
23
36
13
5
40
20
48
17
15
8
7
7
5
38
11
37
18
18
9
24
5
12
11
8
34
23
28
3
38
23
11
23
16
13
0
41
7
23
31
23
29
13
1
12
20
8
16
8
10
15
7
17
20
1
11
25
18
10
9
35
5
19
20
18
5
17
5
9
5
35
32
36
18
10
15
42
19
25
21
27
5
46
5
26
10
10
17
19
20
22
5
15
10
9
21
16
17
7
15
5
22
18
27
32
30
2
14
20
16
22
1
30
11
1
14
8
27
23
34
11
24
37
8
18
11
39
9
20
28
26
19
36
13
23
7
3
6
9
45
13
15
14
8
15
11
10
20
22
37
24
10
9
46
18
40
4
17
27
27
15
7
38
17
25
22
48
12
48
20
18
8
3
1
6
9
10
9
24
6
10
17
30
43
6
25
17
25
3
5
13
40
30
19
3
14
14
11
27
8
31
6
41
28
10
20
39
25
29
10
2
12
14
12
15
9
2
20
8
30
9
3
13
11
3
19
29
15
14
29
12
15
15
5
24
7
33
8
20
6
17
11
37
19
13
23
11
6
15
7
9
20
16
26
11
16
17
1
2
11
41
36
35
20
5
10
5
11
20
10
16
12
27
10
27
17
24
46
9
16
18
8
2
22
12
24
14
12
20
6
21
9
15
25
14
9
25
7
6
27
7
21
25
28
25
21
7
13
8
6
2
25
36
21
33
9
40
11
23
13
5
8
13
21
9
18
19
14
19
21
11
5
9
17
16
3
8
4
4
45
13
34
9
8
9
13
30
22
32
25
8
6
14
9
4
31
7
4
4
28
46
29
23
10
15
16
22
16
9
9
4
7
12
28
37
14
12
24
17
2
6
19
1
21
5
23
19
33
33
13
22
11
17
27
12
13
8
24
17
9
11
38
10
17
8
20
25
13
4
10
37
4
8
27
7
18
19
36
23
52
27
22
27
35
18
21
10
3
24
9
25
15
8
33
29
31
37
20
43
38
21
51
10
5
22
18
7
29
14
34
8
14
28
15
12
22
6
18
3
18
22
9
10
29
26
12
22
43
28
28
22
51
62
37
29
41
23
43
23
2
26
10
8
15
39
13
5
21
9
25
11
2
12
7
12
6
13
34
26
2
6
9
24
16
18
11
2
7
14
17
28
18
18
14
31
14
29
7
2
8
5
5
5
5
15
30
4
4
20
30
14
15
10
14
22
16
18
18
15
30
33
20
19
17
18
52
23
12
12
10
34
17
14
22
5
18
21
33
26
30
45
43
41
7
22
24
20
16
35
39
17
11
16
18
5
14
15
22
25
25
24
7
5
19
11
26
17
7
12
7
26
18
11
3
17
24
14
31
10
4
16
19
32
41
30
7
6
15
23
8
12
25
11
2
15
24
10
11
29
12
7
35
25
5
29
8
22
17
2
33
11
6
11
42
7
3
10
20
21
10
8
8
5
8
32
12
18
25
19
17
11
9
15
8
35
20
39
13
12
15
16
9
23
24
35
1
22
14
13
8
8
23
24
6
33
26
6
5
27
28
22
2
27
9
29
23
19
41
8
17
21
8
31
13
10
4
2
7
17
17
27
7
0
6
14
20
42
32
5
12
19
10
44
17
23
48
44
38
48
53
17
20
7
6
11
17
13
6
18
14
37
26
11
5
7
39
10
28
15
17
17
8
18
4
21
33
6
7
15
5
8
21
8
14
25
5
4
11
20
18
24
8
15
11
21
9
10
10
6
13
22
16
4
9
39
41
5
14
5
43
14
7
22
9
15
3
20
11
18
13
29
8
50
13
18
9
12
12
6
8
2
5
7
19
14
11
8
35
14
17
15
7
5
23
5
23
16
20
22
10
18
11
21
18
3
14
22
21
15
10
2
19
9
38
40
27
11
6
21
32
4
5
11
24
16
14
21
22
12
21
11
16
19
8
9
26
11
0
19
9
8
25
11
15
15
13
24
19
25
11
26
19
5
32
27
26
6
9
17
21
6
20
6
25
18
5
13
8
32
38
44
17
15
4
7
9
32
15
25
9
16
23
12
7
11
8
16
17
15
17
19
6
18
34
22
4
14
7
15
15
10
14
24
19
34
33
37
4
5
0
20
8
5
23
19
15
32
36
9
21
18
18
7
6
7
14
24
35
22
12
13
22
7
7
15
10
10
19
15
12
22
4
13
25
23
21
15
29
10
14
24
24
3
17
29
16
22
1
6
23
28
27
28
10
3
4
8
6
16
7
5
7
25
12
8
7
8
8
26
16
29
34
12
19
20
3
16
7
0
11
19
8
6
27
34
18
10
12
45
51
24
17
11
15
8
13
13
11
4
6
39
31
15
5
25
18
26
28
23
22
36
16
30
10
9
19
22
18
2
30
16
3
6
61
5
38
10
17
43
5
5
10
15
16
42
4
9
8
18
18
8
13
20
10
2
39
35
13
11
6
12
19
29
25
16
27
24
20
17
16
15
23
20
16
20
10
12
20
6
16
13
12
31
25
32
18
15
21
32
6
5
15
28
31
31
17
23
21
1
1
8
3
18
23
18
21
7
7
16
17
15
4
2
18
38
4
30
15
20
14
13
21
8
27
8
37
11
22
14
20
17
0
13
23
1
36
4
9
7
20
28
19
23
4
8
16
8
38
16
7
20
20
1
8
16
18
9
21
23
5
12
11
25
17
15
16
7
16
36
9
22
7
0
7
15
16
22
5
5
18
7
23
32
7
9
4
36
9
29
12
39
21
5
24
7
30
1
0
12
40
38
7
15
9
12
29
11
10
11
23
40
57
7
13
8
8
6
12
11
17
9
20
14
22
3
30
19
25
10
6
11
9
18
8
14
14
3
19
10
14
15
15
18
14
8
16
16
21
14
22
11
19
24
4
4
5
11
12
22
9
14
4
12
38
25
16
27
9
5
15
5
18
20
4
0
6
20
28
38
8
8
4
33
28
6
4
18
22
40
9
11
30
7
15
28
21
13
5
20
16
11
16
4
10
15
4
9
2
22
22
10
18
21
5
5
8
9
24
15
6
11
19
22
19
22
14
11
2
17
6
11
9
21
33
15
23
13
8
4
14
9
31
32
8
11
35
7
16
8
32
3
31
27
5
31
32
13
6
8
15
9
33
22
14
5
27
13
34
8
14
39
29
7
15
5
30
20
15
8
5
3
19
7
25
6
9
20
9
9
9
20
11
4
19
9
4
16
19
20
25
3
13
14
7
19
10
25
10
9
10
8
22
19
4
18
8
23
14
11
6
11
8
25
25
8
5
3
10
18
10
32
7
11
18
27
4
23
9
14
17
3
16
18
3
29
7
11
16
12
28
17
19
26
20
11
38
14
12
40
9
27
21
7
12
22
6
13
27
1
9
6
24
6
22
2
29
6
7
12
16
23
7
22
3
23
7
11
9
14
11
16
1
3
7
23
19
6
20
6
19
9
31
26
9
30
22
6
13
6
12
5
7
4
1
15
9
42
23
10
7
4
9
9
6
29
2
7
4
7
12
4
20
13
13
34
5
26
9
31
5
22
6
5
34
2
12
7
8
3
16
9
21
1
17
8
6
23
15
2
12
16
13
16
21
24
6
23
11
6
20
26
16
20
12
27
12
1
6
8
14
1
34
37
26
24
16
22
15
20
27
6
4
12
13
9
20
14
6
12
1
21
22
27
17
13
6
21
10
32
12
13
11
32
13
13
12
17
2
20
17
17
12
4
21
12
16
1
21
16
8
26
23
11
15
4
27
8
11
29
30
28
35
17
4
10
7
11
9
13
14
7
6
6
31
18
12
5
17
30
13
6
12
24
23
24
3
31
8
37
19
7
9
12
16
6
15
13
13
28
12
16
33
8
16
27
8
24
22
17
4
15
14
11
17
37
9
2
5
6
29
23
11
11
17
11
34
12
15
11
2
3
8
10
26
18
7
4
8
27
16
14
25
12
14
4
7
27
23
4
18
9
3
15
27
5
8
26
3
2
11
3
18
10
2
5
12
5
6
4
5
12
42
15
20
5
4
22
19
12
12
20
1
13
16
14
10
9
19
39
11
19
27
11
4
20
17
41
12
3
9
8
5
8
8
5
15
16
13
17
9
20
5
3
14
16
26
2
25
21
29
22
7
30
4
15
20
7
3
5
7
7
4
2
24
10
7
3
14
25
16
12
23
23
25
19
15
36
31
31
32
24
21
26
4
19
14
10
18
12
6
11
8
9
21
14
6
9
19
17
1
4
16
9
10
37
8
21
30
2
12
7
7
7
4
9
18
2
21
12
9
27
17
18
3
7
23
14
24
17
24
31
14
15
15
20
13
25
1
13
25
33
11
2
18
4
23
12
5
15
12
14
17
19
26
20
1
15
26
10
23
7
4
2
33
42
36
18
13
9
11
20
20
15
6
11
8
22
12
13
5
19
11
21
16
9
8
22
25
2
13
3
7
8
13
5
17
31
12
16
5
20
15
25
6
7
3
16
24
28
0
3
18
13
6
4
10
25
12
15
7
19
5
2
8
10
11
7
15
3
4
3
4
16
6
36
2
7
13
36
20
7
9
16
24
8
3
17
27
12
7
15
13
17
30
2
20
20
7
7
25
33
16
18
4
23
5
1
3
8
14
34
18
8
16
23
9
19
6
4
9
10
9
7
14
3
1
20
21
3
23
17
6
8
34
36
13
14
5
6
18
5
30
7
21
18
35
26
6
28
22
14
15
11
20
9
14
31
27
11
3
10
28
8
20
28
22
13
18
1
14
18
23
22
6
6
21
2
4
2
37
10
15
25
13
6
0
1
12
9
29
20
26
25
28
7
7
5
30
12
20
2
17
15
20
2
10
26
12
28
22
26
18
20
23
9
20
27
6
8
2
19
10
4
22
4
14
6
12
8
19
14
5
11
25
2
8
12
8
13
13
7
4
1
13
8
13
22
6
10
20
2
24
33
12
9
12
11
8
4
4
4
11
24
6
5
6
13
10
3
4
10
6
29
24
29
10
17
10
8
12
3
10
13
13
25
20
28
10
36
0
15
15
7
27
27
15
6
14
9
3
9
23
13
2
12
10
25
6
11
17
25
12
8
15
15
7
4
33
14
6
6
24
6
23
16
9
14
25
12
6
17
6
22
5
21
2
9
25
2
10
5
12
10
5
10
24
6
25
8
2
9
19
33
17
5
2
10
20
10
7
10
20
7
7
17
12
21
13
8
4
3
10
9
14
4
8
8
5
9
11
26
9
18
15
2
17
24
11
10
18
28
9
17
19
11
7
26
22
4
22
26
6
19
3
1
4
18
11
9
4
16
21
18
10
32
10
12
1
8
9
14
3
11
35
2
22
6
2
2
7
20
26
11
2
2
9
4
15
18
30
25
9
4
39
10
15
18
9
6
17
14
8
5
9
8
24
24
30
19
25
12
15
15
8
13
21
15
6
3
25
20
3
7
9
19
7
3
3
26
38
16
14
15
7
14
8
7
22
20
8
26
16
30
15
31
23
25
4
12
13
13
11
4
10
0
10
12
6
12
2
12
25
2
12
9
5
8
25
8
0
12
7
24
27
13
10
11
14
13
11
29
8
10
31
7
21
17
23
5
34
8
20
21
8
15
11
2
17
18
12
13
9
10
4
5
9
6
21
3
7
28
4
18
5
16
8
10
27
10
18
23
24
18
22
7
4
15
25
13
24
26
6
11
30
34
16
2
17
7
5
11
9
27
7
7
12
29
15
29
8
20
6
4
16
16
10
27
27
18
18
26
5
8
3
15
21
4
18
8
10
2
15
8
36
30
19
14
19
5
4
10
5
1
7
4
13
10
17
14
3
6
15
11
0
4
7
21
22
22
11
9
13
9
10
29
18
25
10
14
2
7
6
7
20
17
8
30
5
11
13
9
8
9
19
15
3
13
16
6
5
22
3
1
21
3
14
10
2
3
15
16
3
7
18
5
6
11
26
16
9
2
5
11
16
17
16
5
4
16
18
6
19
18
20
11
24
9
5
18
9
9
10
11
6
5
16
19
7
15
10
21
21
11
6
15
1
6
8
11
3
3
14
9
25
18
8
7
0
5
4
11
8
4
30
16
16
9
21
9
15
18
9
4
15
10
18
20
4
2
28
30
16
16
23
11
25
2
30
25
9
21
7
11
15
8
9
3
14
24
16
14
16
10
6
9
13
25
13
11
1
12
5
33
6
6
0
5
17
11
10
4
8
6
17
14
9
7
27
17
1
12
3
2
9
16
2
9
12
14
10
8
16
17
3
3
20
10
16
27
20
13
30
22
3
24
2
9
12
12
17
8
5
9
10
5
6
13
2
15
8
13
14
5
17
15
6
14
16
12
16
28
12
4
6
9
3
10
9
33
8
17
19
16
15
12
20
16
14
18
4
11
15
16
10
4
21
15
7
10
15
11
16
12
10
12
29
9
3
22
11
6
6
13
3
37
1
12
14
13
5
24
3
10
16
37
3
4
19
23
14
5
15
12
3
23
5
35
2
13
14
6
27
18
19
20
4
16
1
21
10
21
22
34
20
6
8
13
3
10
5
3
15
5
3
15
7
7
17
8
19
12
8
8
17
17
13
17
8
20
13
12
22
3
11
26
10
13
12
23
10
5
22
13
3
35
1
7
8
32
12
11
14
10
16
3
5
8
19
13
7
1
13
17
5
6
14
9
15
4
4
14
10
16
14
18
10
20
14
16
8
2
16
10
7
19
30
7
31
2
13
16
5
7
17
4
11
15
1
10
22
33
13
1
4
7
14
19
10
17
5
14
4
4
4
11
8
5
6
8
3
25
22
2
2
2
2
11
16
9
20
4
14
8
9
16
3
12
12
12
6
30
6
7
23
10
14
30
6
22
9
1
6
18
17
24
16
22
17
14
11
12
13
25
1
15
6
3
10
14
12
10
21
10
17
1
10
0
10
14
8
9
9
2
6
3
10
36
17
17
9
12
5
5
8
12
6
12
9
15
8
5
10
14
25
18
6
0
3
10
14
7
13
15
10
8
11
18
1
16
9
30
22
8
34
1
11
7
2
18
9
17
13
16
5
30
21
32
27
10
14
12
13
12
11
11
3
1
14
3
15
3
14
11
26
8
6
6
18
8
9
17
23
20
8
12
15
10
3
15
14
17
6
17
5
11
18
11
6
14
9
22
2
2
11
23
23
3
19
8
11
16
6
6
17
3
9
18
23
9
17
22
10
12
16
15
6
12
12
8
20
11
7
19
9
1
11
17
10
21
8
4
7
3
6
3
1
2
29
7
22
11
12
21
10
13
8
20
18
34
8
19
22
8
15
11
4
17
9
17
11
19
6
11
24
8
8
15
6
13
4
19
19
17
10
14
10
15
3
17
30
9
18
32
8
14
20
19
20
2
2
12
33
26
32
24
19
24
8
23
6
21
11
11
26
20
8
23
9
2
13
17
20
3
15
16
7
20
24
9
9
5
10
15
5
1
5
28
14
12
10
1
19
14
16
28
7
13
18
11
10
12
14
5
9
21
25
14
10
9
4
4
2
16
11
17
18
19
19
19
17
9
16
10
8
4
17
10
22
5
17
19
6
12
7
10
8
5
10
18
17
29
11
14
13
7
11
11
10
20
8
16
8
5
19
25
10
8
15
9
16
5
3
9
10
14
11
5
7
7
3
24
24
25
26
7
9
18
21
9
5
13
6
4
9
10
6
16
19
6
9
11
10
26
24
27
15
25
6
17
27
5
19
27
21
2
8
16
20
12
19
14
13
3
5
13
31
2
5
6
11
7
7
8
9
2
11
9
7
6
6
4
5
9
14
30
6
13
9
26
4
2
3
3
17
24
13
17
12
13
12
5
14
5
13
17
11
17
6
7
9
11
12
2
9
6
26
16
20
2
14
4
12
11
7
12
5
15
4
16
19
11
6
5
3
11
0
21
16
30
17
12
10
6
11
9
17
25
5
7
8
4
5
3
15
12
17
5
18
16
19
3
2
3
13
8
14
5
3
8
8
6
8
17
4
7
18
20
5
16
14
2
12
4
10
7
10
6
5
15
9
7
12
16
6
20
19
16
10
24
2
22
14
23
38
10
9
4
2
6
11
9
11
2
20
7
20
15
13
7
7
3
20
16
9
7
5
14
14
12
5
9
10
10
7
7
7
6
10
8
26
6
15
14
18
15
11
2
3
27
21
2
6
5
2
13
17
18
31
10
9
27
16
11
12
9
0
9
9
14
10
10
10
9
8
15
5
18
24
10
7
17
7
9
5
16
19
7
1
7
6
11
13
26
7
7
2
6
4
2
23
9
9
10
2
13
17
11
10
8
4
1
11
4
6
9
11
15
8
7
21
12
18
11
12
8
3
10
10
2
7
20
7
5
24
13
2
10
11
3
18
15
0
8
17
29
18
2
10
11
20
6
23
4
6
2
13
4
6
13
9
8
11
11
6
5
10
14
23
24
17
22
2
6
17
29
7
13
27
10
6
4
5
6
17
8
9
10
8
8
7
4
17
3
14
5
29
10
9
15
12
4
19
12
29
15
7
9
12
13
23
13
3
6
15
9
12
6
17
6
13
9
11
11
7
8
18
10
11
9
5
15
7
6
8
9
9
9
9
2
4
12
15
15
6
8
18
20
3
4
4
5
15
4
21
8
21
12
7
7
7
4
5
2
9
13
19
6
12
6
12
10
6
20
13
15
11
1
8
6
6
5
2
0
17
22
9
1
5
17
9
10
20
10
4
14
2
9
11
23
3
5
21
11
6
2
1
11
22
20
4
10
9
1
10
6
1
1
21
10
10
10
8
10
12
6
23
7
16
16
30
9
7
14
7
18
27
5
16
9
12
18
4
19
15
1
4
15
7
6
12
5
22
14
5
12
12
12
4
21
7
26
11
5
31
4
13
12
0
16
24
10
0
6
7
0
23
7
4
17
4
17
8
10
7
2
6
28
6
11
3
18
4
12
3
2
4
1
7
7
17
16
2
1
3
6
16
15
6
8
16
3
12
3
12
17
5
6
12
5
13
11
6
8
4
17
5
6
4
14
6
3
12
16
10
1
8
3
26
16
11
3
19
11
7
6
17
5
0
12
3
19
4
1
7
19
20
29
7
11
6
2
7
7
8
4
5
19
12
10
12
14
25
13
15
5
6
14
2
13
15
15
9
10
5
15
13
15
10
28
9
3
18
11
1
4
7
25
2
4
8
1
8
17
1
7
5
10
3
4
18
4
11
18
8
18
39
11
4
3
10
2
15
4
4
0
8
6
9
9
21
14
10
16
5
5
9
3
9
17
27
14
14
11
4
3
14
12
32
22
18
10
11
7
14
17
4
10
13
15
1
3
16
30
12
18
18
14
12
20
8
10
18
7
13
4
10
20
16
6
22
9
18
2
16
12
3
7
4
3
2
7
9
1
6
3
12
4
24
6
14
9
6
2
32
1
10
7
1
21
26
10
4
2
5
2
13
5
11
8
18
3
10
13
13
33
5
17
13
21
11
9
16
3
14
4
7
3
10
13
4
7
5
9
23
7
8
11
12
1
10
3
11
8
10
7
5
8
4
6
12
11
4
6
12
16
4
9
7
4
12
18
4
2
30
6
3
9
5
11
5
12
5
2
8
12
8
11
23
11
2
28
23
24
14
3
4
23
28
5
10
12
7
10
8
13
10
8
8
7
7
3
10
6
9
8
2
15
5
13
7
6
1
0
6
8
3
12
8
17
29
9
5
7
16
20
8
9
26
12
2
10
2
21
12
26
6
6
7
12
5
3
5
7
2
5
7
1
15
24
8
6
13
22
4
2
2
3
23
4
5
16
14
18
19
9
14
9
13
2
2
12
7
4
11
7
10
23
0
12
16
4
8
12
22
9
4
7
10
18
23
4
19
4
29
8
21
16
3
14
1
8
14
2
7
15
5
34
1
9
14
20
11
5
8
10
15
19
13
6
7
8
8
2
17
5
5
25
9
15
3
11
14
14
7
24
13
10
9
19
7
11
1
15
9
4
4
2
12
3
8
3
3
7
5
13
2
7
6
5
4
7
7
3
18
18
11
1
4
15
9
4
11
1
9
12
6
21
2
6
5
8
5
3
17
8
22
10
4
3
2
6
3
17
3
6
9
4
4
6
22
9
6
9
18
21
10
3
3
7
14
23
11
1
4
10
10
3
11
28
20
9
13
8
1
7
7
5
4
2
1
2
11
10
10
22
18
31
4
13
1
5
24
6
6
2
10
7
8
8
2
8
5
26
5
31
22
11
12
5
6
10
7
13
9
7
10
18
10
12
24
31
25
9
20
2
6
4
20
17
3
10
15
3
6
2
29
19
17
12
8
10
6
9
8
6
3
13
11
1
5
19
14
10
14
16
3
4
11
9
21
9
6
6
0
5
6
11
7
2
1
11
8
14
4
8
4
2
5
3
8
6
3
17
7
2
16
7
21
4
10
6
11
11
3
19
4
3
18
5
9
10
11
8
28
15
16
19
3
7
12
4
3
5
15
7
15
8
2
7
11
3
4
5
2
21
23
11
8
0
2
6
10
14
6
1
10
19
6
24
13
7
1
20
2
8
12
12
5
3
1
5
12
8
16
3
13
14
18
4
10
19
8
16
8
5
17
20
15
3
18
1
7
13
22
12
6
28
3
16
19
8
4
6
28
2
9
16
24
5
11
9
16
3
5
5
9
5
5
13
1
7
6
17
2
2
6
14
15
14
21
7
12
2
15
8
7
25
3
22
4
9
13
15
9
8
7
12
3
5
7
25
16
10
3
8
9
4
16
17
6
5
10
13
13
17
11
12
6
1
3
16
24
17
9
1
18
7
12
2
7
2
3
3
13
5
18
7
21
19
5
4
10
21
2
1
6
11
4
12
11
18
16
21
6
13
11
0
16
16
15
9
9
10
6
8
5
9
4
3
10
4
3
4
14
6
21
4
1
18
2
3
7
12
23
4
10
4
3
2
13
2
6
8
12
7
9
11
2
4
14
6
15
3
3
2
6
9
7
1
4
6
5
7
7
18
16
4
10
9
7
8
9
6
5
18
19
6
2
9
0
4
6
15
6
5
8
4
3
9
18
4
13
17
4
13
5
17
4
3
21
7
6
2
15
7
21
10
13
20
20
9
1
11
11
4
5
3
3
11
4
6
15
27
1
10
14
12
24
3
14
6
10
6
7
1
4
20
17
10
6
8
13
14
10
14
3
8
0
13
26
21
16
2
9
6
5
9
25
10
2
2
8
8
7
8
8
7
12
9
15
17
24
2
1
7
2
8
1
4
6
26
4
4
4
3
22
32
16
10
7
2
9
1
3
14
14
19
12
12
5
3
5
14
6
12
9
7
9
17
5
7
10
9
15
28
16
12
2
4
7
16
9
8
6
24
1
4
6
4
13
18
3
12
11
12
21
3
9
7
24
10
9
1
7
11
13
8
6
2
6
15
9
8
4
2
0
1
9
14
10
13
9
4
3
7
28
0
3
7
11
3
15
9
19
17
11
11
5
16
6
11
11
6
25
4
15
13
3
13
4
30
12
4
14
3
6
21
14
10
9
5
9
4
14
3
13
6
1
6
29
8
4
14
7
9
7
3
17
11
12
17
4
14
7
7
1
3
10
14
5
4
18
10
10
20
14
8
6
3
7
4
1
10
19
1
15
20
6
4
10
5
2
18
5
6
29
2
5
11
13
4
5
20
6
6
16
9
4
17
17
20
17
15
11
9
1
18
24
23
18
3
5
4
4
13
4
7
2
7
22
9
8
4
4
13
1
15
3
11
5
8
4
8
9
10
19
9
7
9
3
4
0
22
8
8
10
17
2
30
20
5
1
5
27
5
30
0
5
1
4
31
1
11
17
17
10
10
4
17
9
19
29
10
28
26
14
21
31
7
2
5
4
23
15
14
7
2
14
4
16
5
6
23
13
21
6
3
8
15
4
19
2
16
3
17
10
14
8
7
10
3
12
14
3
0
21
9
12
6
7
9
2
3
10
15
9
8
12
18
7
2
12
2
6
11
11
8
3
8
4
6
7
6
2
9
0
9
4
4
1
17
7
7
1
6
5
0
5
8
4
2
14
5
10
14
2
6
6
15
7
10
3
8
6
4
4
7
8
12
1
2
2
2
17
10
12
21
6
7
4
4
17
4
6
13
4
3
4
5
5
3
20
3
0
11
17
9
4
3
5
5
4
7
1
6
10
16
9
11
4
41
12
18
14
2
10
18
1
10
13
17
10
15
11
5
4
2
0
17
8
0
7
6
19
6
8
11
5
10
3
3
6
11
9
12
5
7
5
15
1
2
9
11
19
4
9
13
11
8
19
5
7
5
6
8
4
17
18
1
18
20
14
0
2
4
11
15
0
7
5
11
9
4
7
15
2
8
8
7
8
3
16
2
8
1
3
2
5
4
0
5
2
5
3
7
33
2
11
9
1
3
4
8
19
1
5
4
3
9
16
10
3
4
10
1
9
11
27
13
23
17
3
6
7
10
3
26
2
13
5
8
7
7
13
4
2
27
17
9
2
5
1
5
5
2
12
4
13
3
20
8
11
3
10
1
2
11
7
5
3
2
10
16
18
17
4
15
10
8
0
5
5
4
10
24
12
8
5
2
22
25
16
5
16
6
15
3
11
5
9
8
25
1
0
8
7
5
5
9
8
1
16
9
16
7
4
6
3
2
4
11
12
17
4
6
0
10
9
13
10
10
14
9
5
7
7
7
14
2
14
6
6
16
4
8
12
2
11
13
11
7
10
7
14
10
6
6
14
8
15
0
9
13
11
17
9
11
4
2
4
4
3
5
10
1
22
21
12
11
12
9
5
14
19
4
7
17
4
3
5
10
15
24
5
9
10
17
7
9
11
3
4
6
25
7
3
9
7
17
9
2
20
7
12
5
3
13
10
10
2
15
9
7
13
4
13
9
10
16
9
12
9
16
6
12
20
11
13
11
5
16
26
6
6
14
9
5
12
3
6
2
3
18
8
9
1
16
8
3
6
4
3
18
9
6
4
10
10
5
0
15
16
0
5
3
22
17
7
3
2
5
8
3
9
7
2
2
6
7
6
3
10
1
13
16
9
10
6
8
8
14
5
13
8
13
5
3
2
23
18
26
7
0
22
13
6
7
3
14
9
0
4
11
6
14
21
4
1
6
0
9
5
6
5
5
7
21
4
3
1
10
2
12
19
16
15
14
2
9
13
2
5
5
10
7
15
7
10
13
2
13
16
5
14
14
9
6
13
0
13
17
8
3
2
2
3
4
3
5
10
22
1
2
5
10
2
2
3
12
5
19
4
6
18
8
7
6
13
22
6
8
5
0
14
15
4
17
19
18
0
9
9
8
2
4
10
21
2
2
1
2
13
6
15
9
14
12
12
5
8
8
4
12
6
4
10
4
5
14
3
8
5
4
3
11
5
2
17
6
20
20
12
21
7
1
1
17
9
6
12
5
6
14
13
20
3
4
7
8
10
5
6
11
17
1
1
12
2
4
6
2
18
4
9
8
6
2
6
4
8
15
2
2
10
9
0
3
15
9
8
2
11
7
12
8
13
22
7
3
3
10
6
9
5
5
6
3
10
8
20
8
14
4
9
3
4
6
7
1
1
9
6
4
26
1
7
3
5
10
10
7
6
8
2
6
2
0
14
8
16
17
4
5
2
5
11
5
7
12
4
2
2
3
2
5
15
8
4
9
8
5
14
26
6
19
6
14
6
2
10
13
28
10
11
11
8
5
3
6
3
19
19
10
4
1
2
12
3
5
9
10
19
10
6
5
12
14
5
20
11
23
13
20
14
21
8
12
6
1
9
15
17
6
2
17
7
17
11
9
9
2
11
9
6
18
1
19
3
9
1
1
12
1
3
7
13
21
6
0
5
0
6
9
2
3
8
1
5
4
6
8
3
2
3
15
11
4
2
7
8
4
7
8
1
9
3
2
16
3
3
4
13
6
2
8
29
2
2
4
13
17
6
3
10
24
16
8
3
8
13
3
5
5
18
14
10
5
3
6
14
12
14
19
20
7
13
8
2
4
8
1
2
4
7
11
6
6
2
2
15
12
24
1
9
9
1
1
5
1
4
28
3
7
8
18
5
12
27
17
4
26
13
6
10
7
15
7
13
8
15
2
1
7
10
15
4
14
16
0
4
13
11
21
7
11
4
14
5
0
7
10
5
3
5
7
25
3
3
26
6
3
4
7
13
4
2
5
15
2
6
12
5
12
5
1
3
5
7
10
8
0
28
14
5
9
5
8
9
0
10
1
5
9
0
2
1
15
13
1
3
5
7
5
5
11
4
13
17
8
2
6
18
4
8
0
3
7
9
1
0
22
7
4
2
11
24
15
5
15
4
1
8
5
2
9
0
14
14
11
4
19
10
2
9
2
6
3
11
5
12
8
10
3
3
7
3
8
6
8
4
8
9
11
2
14
18
12
11
15
1
5
1
11
1
10
3
9
13
0
12
9
5
13
14
1
6
14
0
1
9
8
10
9
29
4
5
7
17
0
13
6
10
17
5
5
2
10
5
8
1
4
14
6
12
10
22
2
4
12
3
9
12
8
27
24
4
4
11
2
1
0
5
3
11
15
0
34
12
13
1
5
2
16
3
4
6
9
2
13
4
1
10
6
2
9
4
10
9
17
10
12
6
9
4
8
4
7
9
11
12
30
36
11
2
3
5
9
6
7
1
3
10
21
12
6
1
4
6
9
11
8
2
1
8
8
1
2
3
6
15
4
3
3
0
6
6
8
17
6
3
4
4
9
4
6
3
20
3
3
2
27
11
14
12
4
0
12
13
0
2
7
15
6
1
12
7
7
4
1
3
3
5
4
16
15
14
7
4
6
2
12
6
16
5
5
6
6
10
4
18
4
13
12
9
8
3
11
7
4
12
4
2
4
13
15
12
2
14
9
15
15
5
1
1
15
27
7
12
4
24
4
7
2
4
21
16
4
19
3
4
10
7
1
3
12
18
19
14
6
3
19
8
13
9
5
14
5
11
5
2
5
8
19
4
5
2
6
0
5
5
3
10
5
9
9
5
5
12
5
5
5
0
6
2
7
1
3
7
15
3
0
3
7
2
7
3
5
2
6
2
6
9
6
5
2
1
2
3
4
2
25
2
13
8
7
8
4
2
10
14
14
8
6
5
1
4
10
9
5
3
7
4
6
1
0
5
6
6
9
0
10
3
20
2
5
13
2
7
11
18
4
15
20
5
7
11
8
2
11
4
6
3
2
6
13
16
11
0
1
4
17
13
7
4
2
3
6
9
4
22
3
2
9
2
12
3
12
4
6
18
12
8
7
14
7
4
8
2
6
9
2
10
6
1
14
2
8
7
6
8
7
7
5
16
6
5
7
1
14
5
2
2
9
2
0
17
11
7
19
14
24
4
33
0
8
8
28
4
2
4
14
12
7
11
7
3
5
0
5
14
4
4
2
3
4
9
1
6
11
4
8
5
9
10
10
5
7
14
4
1
15
13
6
2
10
3
2
14
3
8
2
7
8
10
1
3
14
9
15
5
6
5
14
14
8
5
13
7
4
2
15
6
19
7
10
11
5
6
4
15
7
7
1
2
7
14
9
5
13
6
0
6
9
6
6
4
2
8
1
0
9
5
2
31
10
5
4
15
1
9
2
7
6
10
6
4
8
3
1
5
22
2
7
1
15
21
3
4
3
10
3
4
7
0
11
0
6
2
5
2
4
7
19
6
4
18
8
5
8
5
12
13
5
11
1
17
8
5
4
8
11
25
10
4
11
11
13
8
8
5
6
15
13
3
1
1
11
6
9
10
1
18
6
1
1
11
4
23
16
5
3
0
4
4
10
17
13
7
9
17
2
9
22
7
1
4
9
7
19
2
6
23
11
10
3
5
22
6
5
5
3
7
24
16
6
7
8
4
7
4
3
13
6
10
8
6
3
1
2
7
18
4
0
10
6
9
3
1
8
1
22
5
3
8
4
6
26
16
14
10
15
1
4
9
5
9
7
2
7
5
5
8
7
11
6
8
6
2
12
4
8
5
10
11
5
8
3
6
1
1
7
6
12
12
3
7
14
1
8
14
7
10
2
0
6
15
8
8
5
5
16
7
5
3
10
1
3
15
6
2
2
2
7
10
5
6
9
7
2
4
7
11
11
3
20
12
5
16
9
11
7
10
3
0
1
14
2
7
4
1
1
6
5
1
5
3
18
7
15
0
11
23
10
5
2
8
5
9
11
27
3
17
5
3
0
10
9
2
6
4
9
22
6
13
7
11
1
15
0
4
4
12
6
14
4
2
1
3
7
6
5
9
4
12
6
1
8
5
14
22
3
1
0
11
13
2
14
5
9
2
13
7
6
1
9
12
7
9
13
10
1
17
1
8
0
6
5
11
5
6
17
17
0
7
24
2
2
1
7
3
5
5
3
0
7
3
2
0
2
8
14
7
7
19
0
2
12
6
9
2
1
6
8
5
18
2
20
5
8
1
0
4
1
8
1
6
21
3
1
3
16
16
1
3
7
5
3
3
17
2
6
16
2
12
7
5
2
6
7
13
16
2
12
4
5
2
5
2
14
1
8
1
13
3
11
5
5
13
5
0
6
1
4
4
2
2
3
15
10
3
1
9
2
20
29
4
20
2
7
7
7
3
8
5
4
23
13
3
9
12
7
15
8
11
21
11
0
2
5
4
17
0
13
15
14
4
6
2
11
5
9
10
5
9
11
20
4
13
16
3
9
14
4
8
22
0
4
9
21
11
5
5
8
10
25
7
18
4
16
13
6
14
8
18
7
10
0
17
1
9
1
3
5
12
3
3
6
5
2
3
10
9
7
7
10
4
15
3
9
3
14
10
7
2
7
6
20
9
1
5
6
4
1
0
2
3
12
10
1
1
4
4
2
8
7
19
12
2
2
8
8
29
6
4
5
8
0
9
1
8
6
1
4
2
7
2
14
2
12
17
4
15
8
1
1
6
4
4
3
2
3
0
3
3
1
12
11
4
2
8
12
12
2
11
3
18
8
10
24
15
2
3
6
7
6
0
1
15
16
4
3
7
9
4
2
3
3
5
9
4
12
31
0
5
5
2
5
15
6
9
3
14
3
5
3
2
0
7
23
12
5
6
8
3
21
9
8
1
8
8
4
2
21
5
6
8
6
9
1
6
2
5
2
11
1
9
15
15
11
0
0
4
1
11
9
2
0
10
23
16
4
0
4
14
2
5
4
3
1
18
10
5
13
5
0
1
2
3
6
12
8
5
8
9
8
19
15
3
0
4
3
17
1
3
7
15
5
3
22
4
3
19
1
19
4
12
0
6
4
2
7
15
9
0
5
2
1
19
20
1
9
0
3
4
7
8
14
2
4
7
8
10
3
1
23
6
4
1
9
3
3
7
11
1
18
3
7
7
10
4
9
9
1
7
9
1
5
17
5
14
11
13
20
15
5
6
1
1
4
1
16
2
6
19
15
4
2
11
5
12
9
6
9
8
7
6
5
10
5
9
2
6
7
2
1
5
11
8
16
6
6
2
12
12
1
0
5
1
15
8
20
22
3
16
3
9
9
12
7
4
4
2
3
2
4
4
2
4
6
9
10
1
1
2
8
9
9
18
7
3
9
2
4
1
6
14
0
6
9
3
5
4
12
9
6
13
6
12
8
5
4
14
5
5
10
4
3
6
7
9
14
2
2
2
4
6
12
17
14
14
9
11
1
12
1
9
3
5
2
4
5
0
5
5
3
2
7
4
9
4
17
20
3
1
5
11
7
14
1
8
5
9
2
4
6
4
20
2
2
6
5
3
3
12
0
1
4
19
2
14
2
13
4
8
12
10
5
2
11
5
6
5
4
10
11
11
7
3
2
11
5
5
4
17
7
5
7
4
2
7
7
3
0
12
2
10
7
0
8
6
18
4
10
12
11
8
17
8
4
24
3
10
5
3
10
10
4
5
4
3
2
3
5
2
10
5
6
4
13
1
5
7
2
14
18
15
7
7
19
10
4
6
3
6
1
15
5
15
13
9
6
6
3
6
6
8
6
1
12
15
8
22
26
4
12
2
7
12
8
8
6
9
2
4
4
13
6
14
10
9
6
3
7
1
5
0
2
1
2
1
11
8
2
2
6
0
3
1
6
15
11
4
4
2
6
13
4
10
1
0
0
7
10
14
15
1
11
8
3
6
12
0
9
6
9
12
7
8
3
9
3
13
24
8
3
8
3
23
0
4
6
7
13
2
1
3
6
8
11
10
12
0
9
5
11
1
3
4
5
1
4
11
13
4
2
1
3
10
17
6
5
3
7
1
4
12
18
8
6
3
2
11
10
0
10
1
14
8
7
1
15
17
5
2
1
7
5
9
2
8
6
13
5
19
21
6
4
3
12
3
4
1
12
3
2
5
15
2
9
1
1
10
6
5
13
13
5
3
5
18
15
0
2
13
16
19
10
10
16
11
1
16
0
11
4
10
13
4
2
5
1
1
18
9
10
16
0
3
3
17
1
0
1
3
13
7
19
4
15
4
4
1
6
8
3
4
3
15
6
4
10
6
12
2
0
2
9
3
21
14
8
11
1
25
6
8
9
4
12
7
10
9
10
6
13
17
3
10
3
10
2
1
1
4
0
2
2
5
10
0
4
12
5
3
2
8
3
13
11
9
22
5
6
8
6
7
3
3
8
0
2
10
3
3
5
13
4
5
1
11
2
5
2
2
19
14
1
10
10
9
4
14
5
3
4
2
7
8
4
6
2
10
7
10
14
6
8
4
3
4
11
3
5
7
1
16
5
4
1
2
6
6
4
8
7
3
9
17
4
11
15
3
28
11
1
4
15
9
2
3
0
3
8
14
3
8
10
4
5
4
9
10
16
5
9
4
2
6
7
9
2
3
1
4
4
9
0
8
18
14
9
3
11
0
7
3
9
7
27
17
12
1
5
6
10
8
9
5
10
14
11
4
3
5
5
2
7
6
3
20
16
8
1
6
6
14
9
1
12
6
10
9
0
7
1
18
5
12
1
1
3
9
4
5
5
6
8
5
7
1
1
7
1
14
2
7
3
16
10
8
16
10
4
6
2
17
12
13
3
7
3
2
3
6
2
5
2
9
9
9
8
1
13
3
3
6
3
0
1
4
3
8
0
7
2
6
5
4
16
1
7
3
9
3
13
1
14
5
7
2
14
20
5
21
4
3
6
3
5
11
10
4
3
11
5
1
5
12
10
2
8
5
16
2
0
4
3
4
2
7
15
1
0
1
6
1
1
3
2
0
5
4
6
2
1
3
6
0
5
5
2
3
5
9
6
13
1
8
8
14
9
2
8
17
0
5
10
0
6
9
7
7
12
2
2
8
7
10
12
14
10
4
3
3
7
6
4
11
3
14
14
3
3
1
6
8
5
8
2
4
17
8
3
16
1
5
1
2
5
2
9
6
6
10
13
3
9
8
4
0
2
6
10
4
15
2
23
16
10
14
2
4
9
8
1
17
1
4
6
10
5
9
1
12
0
5
1
3
14
2
6
7
8
10
7
6
14
0
2
7
1
4
5
2
5
15
6
0
2
3
6
17
10
14
6
6
3
8
3
12
7
16
0
11
6
13
5
4
15
8
4
13
1
9
6
6
2
3
8
8
3
1
3
15
2
7
0
13
2
7
10
11
12
15
2
2
3
4
2
6
4
14
3
2
8
12
3
6
8
8
8
1
1
1
0
5
4
9
17
14
14
2
17
4
10
20
13
11
4
17
2
1
6
32
5
12
8
10
2
5
12
15
6
9
4
12
3
10
5
2
1
0
16
5
7
13
6
9
15
9
2
1
0
8
16
4
21
3
2
5
23
4
2
6
14
6
3
4
2
6
11
3
4
1
8
3
11
14
13
16
0
7
1
7
2
2
7
0
3
5
11
11
3
5
7
2
2
0
2
3
11
0
1
3
1
7
2
4
2
5
7
3
7
1
1
19
3
5
1
10
0
14
15
5
2
0
3
3
4
7
0
2
21
7
8
2
2
11
6
2
22
6
2
2
2
0
0
8
4
4
0
9
7
7
2
4
5
5
2
4
4
7
16
2
4
7
4
4
3
3
4
9
11
3
5
10
5
4
1
1
2
0
2
3
3
2
15
7
2
2
4
11
20
7
13
12
5
17
16
5
3
3
10
7
4
6
7
0
10
6
4
13
4
15
9
11
8
6
17
10
8
0
3
4
1
2
5
1
3
4
13
9
1
8
5
12
9
4
13
5
2
6
2
3
10
6
7
4
7
4
12
2
16
4
1
3
9
2
6
12
14
7
10
11
5
4
7
9
1
2
6
6
15
11
6
5
10
0
1
4
9
18
15
3
2
1
4
9
10
0
3
1
7
17
3
3
1
6
8
1
13
7
6
3
8
5
3
14
2
6
5
9
3
14
0
5
2
5
1
1
13
7
17
0
1
5
10
3
6
14
0
0
4
2
24
15
9
17
3
7
13
11
7
5
4
16
1
11
15
9
1
5
9
3
0
0
7
9
4
9
4
5
4
1
22
7
13
10
5
6
12
10
9
10
8
9
6
8
7
10
10
11
0
12
4
2
12
0
5
12
9
11
8
14
1
3
1
3
4
4
7
6
3
7
2
9
6
3
13
0
4
8
11
3
6
7
17
9
0
12
6
5
8
9
1
1
3
3
23
1
4
5
12
4
11
17
6
1
1
4
1
3
1
4
4
6
9
8
17
4
8
14
4
4
1
2
7
7
8
1
2
8
4
9
2
3
6
5
4
5
1
10
10
1
5
7
9
21
1
37
7
5
7
10
2
10
4
2
8
8
1
3
5
7
21
5
4
14
3
5
2
3
21
3
9
7
8
8
7
11
9
22
18
25
0
1
1
7
2
12
1
10
3
5
17
8
14
2
1
1
3
7
4
10
3
6
5
8
8
4
5
7
0
9
2
23
13
2
1
6
8
4
1
6
2
1
14
7
2
3
4
2
4
11
11
3
2
1
1
3
2
1
7
8
14
3
11
12
4
8
4
4
9
5
0
2
9
4
0
2
4
12
4
5
19
1
0
6
6
5
3
0
11
10
5
7
4
2
9
2
3
16
11
14
1
7
5
7
9
9
4
5
6
6
7
25
9
0
7
4
1
7
12
7
8
4
3
7
0
2
10
15
2
10
1
3
4
18
6
3
2
5
9
13
15
3
8
1
7
8
9
8
4
6
3
3
1
5
3
8
1
20
1
8
4
2
0
8
19
0
10
1
12
8
3
0
5
9
12
2
2
3
1
0
8
9
16
10
8
10
2
6
3
12
7
3
1
4
0
0
0
1
15
6
5
22
3
1
12
1
14
8
8
8
0
9
5
15
13
2
3
1
0
27
11
10
8
15
0
15
7
5
4
8
4
1
13
15
11
8
12
6
4
3
1
5
9
1
5
10
13
8
7
0
6
10
13
4
17
0
9
8
2
18
8
3
3
6
4
1
6
4
7
3
12
13
3
3
10
5
8
4
2
12
2
0
5
4
1
2
8
5
0
3
12
2
18
1
5
2
6
4
8
0
3
4
3
5
12
1
1
8
5
2
11
1
11
1
3
6
4
10
0
2
12
1
12
3
7
8
6
3
5
14
5
4
6
7
18
1
18
5
1
0
5
3
7
4
6
0
0
4
12
9
8
8
6
8
7
1
3
3
1
4
2
2
0
2
4
1
8
4
0
4
7
0
1
2
2
0
13
3
9
5
7
2
3
6
2
3
6
1
0
3
2
8
5
3
7
6
0
5
4
1
2
1
6
4
2
1
4
5
0
8
0
1
3
1
7
5
0
4
7
13
3
8
7
6
15
3
2
1
14
8
12
0
9
0
4
18
6
0
1
1
10
2
14
7
7
6
5
5
2
4
8
2
1
2
13
5
1
2
4
7
4
1
7
4
1
7
1
4
6
7
1
3
3
17
6
2
16
1
6
5
4
6
6
5
1
3
5
9
1
18
6
0
5
9
3
6
3
3
6
5
1
14
2
0
9
3
7
5
1
10
4
0
3
1
0
12
4
2
4
0
6
2
7
6
9
6
20
3
1
8
3
5
1
6
3
11
5
6
2
1
0
13
12
15
1
14
2
6
3
2
1
16
8
5
0
4
3
4
1
2
0
5
8
2
14
3
9
0
8
2
10
11
1
12
4
14
2
8
8
0
5
3
1
14
8
4
0
0
1
2
7
1
7
3
0
1
1
15
2
4
3
10
17
12
7
10
18
13
2
0
2
1
2
6
2
3
0
1
4
8
0
9
1
9
3
4
14
2
13
2
8
11
3
13
12
1
7
3
8
5
2
13
0
5
3
7
3
4
1
8
3
2
12
1
9
4
0
1
4
1
2
21
1
5
6
5
6
3
1
15
0
2
3
4
1
1
8
5
11
3
6
1
20
5
13
6
7
3
9
6
12
4
7
7
14
13
7
3
1
10
1
2
2
13
2
2
1
2
8
9
7
8
10
6
5
6
5
11
7
8
2
1
7
5
1
6
13
8
10
3
1
8
9
4
1
11
4
5
2
3
1
0
11
6
11
3
3
10
1
13
8
0
8
5
2
6
0
4
4
8
2
5
4
7
0
9
6
12
6
4
14
4
1
8
7
3
11
4
1
4
1
4
2
1
0
4
6
9
2
11
2
1
5
1
1
6
2
2
3
4
2
19
6
1
0
3
8
16
4
6
8
4
3
1
0
5
2
17
2
7
11
7
1
4
8
10
5
3
12
5
5
5
3
2
3
3
1
2
7
7
3
3
10
4
6
5
4
4
1
3
2
9
4
1
0
3
6
6
2
3
1
3
5
2
8
3
7
4
2
0
4
1
1
8
9
5
14
6
7
13
3
11
9
2
8
7
0
0
2
7
6
8
3
2
2
4
20
7
11
4
5
2
5
4
7
9
6
3
4
8
1
3
11
5
6
10
3
2
6
1
3
2
12
0
5
3
1
5
1
4
1
5
8
1
2
1
11
0
19
9
6
5
1
3
4
2
14
5
17
6
5
2
8
1
4
1
4
6
4
1
4
6
11
15
14
16
7
10
9
1
3
9
5
3
6
3
2
4
9
3
1
3
2
1
1
3
1
1
8
20
0
1
3
10
8
12
10
2
2
9
2
1
1
8
3
3
19
1
1
1
7
3
1
11
2
3
16
3
2
7
11
2
9
4
8
12
6
12
7
6
7
1
4
1
3
2
12
9
2
7
11
4
15
4
0
2
3
2
2
1
2
12
3
2
7
1
0
10
1
6
4
5
2
13
12
19
1
0
0
4
1
9
12
6
11
4
10
3
2
12
14
1
4
7
3
3
6
3
13
3
1
10
9
7
12
8
15
4
6
9
11
13
4
2
3
7
4
4
2
2
1
6
3
0
4
13
5
0
14
0
8
3
2
1
2
5
5
12
8
0
1
0
2
5
12
5
3
10
5
3
2
0
4
6
3
11
2
5
7
1
1
3
11
6
8
15
9
0
7
16
12
9
0
6
2
1
6
10
6
2
10
4
5
3
3
2
1
14
2
0
0
4
6
7
8
2
6
12
4
10
6
4
3
2
2
4
4
6
1
5
7
3
11
5
6
2
3
8
9
13
7
9
5
6
0
0
1
12
3
5
4
3
4
1
5
1
3
3
5
3
0
3
1
2
3
2
8
3
5
3
8
0
7
5
2
7
3
3
14
3
0
8
6
7
3
2
3
4
4
1
4
2
0
11
4
1
12
1
10
9
14
6
0
4
4
1
2
2
1
3
3
5
10
1
3
6
3
6
0
1
4
4
3
0
0
4
4
7
1
2
16
4
0
12
0
2
3
12
2
2
0
0
0
6
2
1
2
3
2
12
7
5
10
5
0
1
7
9
3
11
4
15
17
7
16
4
3
1
4
5
9
4
0
8
2
10
2
10
6
7
2
1
2
6
4
0
4
2
1
2
2
3
0
6
5
1
9
6
0
2
2
1
1
0
9
3
4
2
13
12
0
7
4
6
2
4
10
14
2
9
1
0
9
7
13
4
0
5
6
5
4
5
1
2
2
7
13
0
2
0
10
6
5
1
12
15
11
1
5
3
1
4
10
6
5
6
2
7
2
11
7
3
2
2
1
3
1
1
2
1
4
11
4
1
2
2
10
3
11
2
10
4
5
1
9
10
0
2
0
2
3
2
7
6
12
9
1
0
7
7
14
14
4
2
3
6
8
2
2
7
6
0
4
6
0
5
3
2
4
0
2
3
7
0
6
13
13
4
1
4
5
0
2
9
7
1
4
4
8
15
4
2
7
3
4
1
3
16
1
2
2
1
2
2
3
7
5
6
1
17
10
3
10
4
3
7
16
0
1
4
3
8
5
10
12
8
10
16
0
3
13
4
15
6
10
5
5
13
11
6
7
1
2
1
2
12
8
1
14
3
5
5
2
5
3
1
3
2
1
6
7
2
10
0
4
8
4
12
5
7
7
2
1
4
1
1
4
1
2
5
2
1
1
1
3
3
5
19
2
5
3
6
0
8
0
2
3
4
3
0
1
7
4
15
2
0
9
1
2
2
2
4
3
6
2
2
0
2
5
6
1
3
2
4
1
1
1
5
0
3
3
5
4
10
10
3
3
1
5
4
5
15
13
5
0
5
3
12
11
6
10
4
0
2
12
2
5
4
5
5
10
1
1
1
5
20
9
0
7
5
2
3
7
11
6
6
6
8
11
3
16
0
3
3
0
1
2
1
1
3
0
12
2
4
6
0
4
5
0
0
12
4
9
8
4
4
3
0
4
3
4
1
7
8
0
6
6
3
10
1
6
5
0
13
16
10
2
3
10
2
6
14
0
5
5
3
9
6
2
7
5
16
8
4
2
3
5
2
0
12
5
1
1
12
9
7
0
5
3
2
7
1
0
4
10
15
10
3
3
2
0
1
2
2
2
6
1
5
5
8
0
1
0
5
14
10
3
10
6
4
1
8
1
3
0
13
7
2
7
0
1
2
1
2
1
0
2
12
4
11
6
12
4
6
4
13
6
0
5
6
9
8
1
2
2
1
0
0
1
3
0
5
5
1
3
1
3
1
0
2
3
0
2
0
10
3
10
1
1
5
12
2
1
3
2
7
4
3
5
12
2
14
1
5
3
2
1
4
4
5
1
7
7
1
3
4
4
2
4
9
3
2
0
4
4
1
14
9
9
10
6
5
2
4
1
6
0
8
3
3
0
4
2
2
3
0
13
23
18
6
3
0
5
0
2
1
6
0
3
8
11
13
15
6
2
5
12
2
2
8
2
14
19
2
0
15
4
12
13
11
2
6
0
1
5
4
3
7
0
2
4
7
3
8
3
19
5
2
1
7
3
2
3
6
1
3
1
9
4
4
7
8
0
14
3
3
10
6
6
11
18
1
1
8
7
2
7
3
0
0
1
1
2
2
9
2
6
4
2
1
0
10
5
1
1
15
11
4
16
2
10
6
1
6
2
7
4
0
5
0
0
3
7
14
7
1
1
2
3
2
1
6
12
5
2
6
11
4
8
7
5
3
0
2
5
0
1
9
5
4
8
4
4
2
6
2
6
3
0
1
8
10
5
5
4
8
7
1
3
2
2
0
0
11
12
9
5
3
7
5
2
2
7
0
0
5
5
7
4
6
4
4
2
0
7
4
4
4
2
1
2
4
2
12
3
6
1
8
2
4
1
10
13
0
9
0
1
2
5
10
1
10
0
2
5
10
10
6
8
11
11
5
1
13
1
3
2
0
2
3
9
8
5
2
2
7
6
4
2
2
9
1
7
1
1
3
9
6
0
4
3
10
7
0
8
9
3
5
2
13
10
9
7
9
3
2
5
1
11
3
5
3
1
2
1
1
3
7
12
4
1
6
7
4
10
8
4
13
4
12
9
12
3
5
0
5
12
0
18
4
3
1
4
5
5
3
10
3
2
13
10
13
4
7
5
8
11
11
13
0
0
9
2
4
0
8
13
8
18
1
1
2
2
3
3
16
7
5
4
1
1
1
5
10
3
21
7
8
6
3
4
8
10
4
5
8
13
4
0
4
2
5
4
3
6
5
8
1
0
10
3
3
9
6
0
0
8
0
1
4
3
4
1
5
12
0
1
1
3
9
7
5
6
12
13
4
3
3
5
10
1
9
4
7
10
1
0
0
5
0
13
0
2
1
0
9
1
4
8
10
6
12
0
1
12
0
12
2
2
3
1
1
7
4
8
7
4
10
6
3
3
0
2
3
7
2
3
4
3
4
14
0
5
3
4
1
3
11
3
2
4
14
4
3
2
7
5
1
0
1
3
6
1
2
4
4
8
2
3
5
0
3
3
9
6
4
1
1
1
8
2
1
7
2
4
8
17
9
3
5
6
3
4
17
5
0
1
3
0
7
6
5
4
4
3
8
7
1
5
9
6
2
1
3
2
0
9
3
2
6
6
3
8
2
3
0
3
2
8
7
4
1
10
3
6
7
4
6
7
8
2
1
11
16
9
8
2
0
1
3
2
9
6
2
2
0
7
4
1
1
3
0
0
0
5
1
10
4
1
4
7
2
2
6
10
4
7
2
3
3
5
1
7
3
1
1
8
2
8
3
2
2
0
0
7
1
2
9
1
9
8
11
5
4
3
7
5
11
1
3
4
8
1
6
0
1
1
3
7
3
2
7
3
2
5
3
17
14
1
7
1
3
4
6
4
2
10
17
0
5
2
12
7
1
0
4
8
5
0
2
3
1
3
0
3
6
3
4
3
2
0
1
9
1
0
9
15
0
2
3
1
2
2
1
2
1
3
1
5
18
1
0
2
2
8
5
1
4
2
0
9
0
8
5
1
1
1
1
5
4
1
0
5
17
8
14
3
3
6
2
1
5
2
6
2
3
11
4
10
7
9
1
2
1
0
0
7
1
2
4
1
3
6
1
14
13
4
11
2
3
2
0
0
0
1
4
2
8
9
3
15
8
1
1
10
1
1
0
4
9
8
8
4
2
13
7
3
17
4
6
10
11
7
9
11
12
14
10
10
7
6
3
1
0
4
7
3
4
15
16
9
5
1
4
2
1
5
3
1
13
4
12
0
12
20
2
1
10
8
0
9
4
3
3
0
1
2
2
4
10
5
9
5
3
2
8
18
1
8
5
5
5
2
10
1
0
1
1
5
1
3
1
3
3
3
0
1
6
2
3
0
2
4
0
1
4
5
4
4
10
9
2
2
0
8
1
10
13
2
14
1
3
1
2
0
1
1
0
9
4
0
0
10
0
5
0
3
1
5
3
4
10
8
6
3
2
2
6
4
8
2
1
3
1
14
10
0
4
4
9
0
8
12
15
2
8
0
3
9
5
4
3
4
9
1
1
11
2
9
3
1
3
2
3
3
1
2
5
10
0
10
5
2
14
3
0
1
4
2
2
1
1
8
0
2
6
1
4
8
9
0
7
7
1
6
1
4
2
4
1
7
1
3
9
1
8
2
13
1
4
8
2
3
3
4
7
2
7
5
0
2
1
9
0
13
12
7
14
4
6
2
4
5
15
2
5
1
1
10
6
7
13
2
3
1
0
3
1
0
4
7
3
0
0
4
3
2
4
7
5
1
3
3
4
1
1
14
11
1
2
3
0
1
0
3
5
10
1
9
1
2
1
3
4
9
2
11
5
1
4
2
3
5
5
1
4
7
6
1
3
2
5
1
5
2
4
1
8
7
1
4
5
1
2
1
0
0
8
2
3
0
8
0
1
8
0
9
0
20
3
8
6
4
3
0
4
3
4
1
1
5
3
1
3
3
2
4
3
2
0
0
1
1
2
1
2
8
3
0
3
6
0
8
7
0
12
1
6
5
2
2
1
2
2
1
12
0
1
5
8
3
1
4
5
6
3
5
7
1
6
0
0
1
0
7
5
1
4
10
1
4
0
2
6
1
4
1
10
4
0
5
5
14
8
11
4
7
2
0
14
4
0
1
3
1
0
8
5
11
5
1
1
2
3
15
11
0
5
1
2
0
1
7
16
8
13
7
0
9
3
10
0
2
3
0
2
7
2
1
12
3
3
16
5
7
1
7
2
2
5
3
1
7
1
1
4
3
0
1
1
0
9
1
9
2
0
10
2
5
3
0
10
1
9
2
1
4
0
0
0
3
5
2
5
2
13
8
1
1
6
2
0
3
5
12
5
4
2
6
7
7
4
0
5
22
20
14
16
10
0
9
10
4
1
3
5
6
2
2
7
4
0
1
2
6
9
13
0
4
5
6
1
3
1
5
0
0
3
7
3
4
4
0
1
3
11
4
1
4
1
0
5
2
3
7
2
3
0
9
4
5
0
2
0
2
2
6
6
7
2
2
1
5
4
13
1
2
6
2
3
4
1
2
1
4
1
4
5
3
2
6
1
1
10
6
1
5
6
4
3
7
2
5
15
0
2
2
0
2
8
0
2
3
1
0
2
0
1
0
11
2
16
4
6
0
6
0
1
0
0
0
6
4
4
0
5
2
2
0
7
1
5
3
4
14
9
4
8
1
9
2
3
16
4
6
3
12
14
3
2
4
0
4
13
5
2
11
2
0
0
1
7
3
13
4
2
0
8
1
1
3
0
5
10
0
3
12
1
3
0
3
11
0
3
1
8
3
18
0
13
2
5
3
0
4
6
6
5
8
5
2
1
0
8
9
3
0
0
1
1
1
1
3
3
2
3
10
0
1
4
3
7
1
1
2
0
4
9
0
9
8
7
3
0
2
11
3
3
8
8
4
7
4
5
4
8
0
1
1
11
3
1
6
6
7
13
1
0
3
5
3
7
0
2
9
4
2
0
5
13
2
3
0
10
5
11
19
3
2
3
3
0
1
0
0
5
4
6
9
3
3
0
2
1
4
10
5
1
2
5
5
0
7
2
1
5
17
6
1
4
1
5
6
17
3
4
7
15
3
8
7
7
6
3
6
15
9
2
3
0
2
15
1
0
0
3
0
6
5
0
2
5
6
7
6
5
1
5
3
2
14
7
10
3
5
4
10
19
0
2
14
7
1
7
1
6
7
3
0
2
13
1
0
2
7
8
8
9
3
2
11
3
3
0
2
1
3
14
5
0
1
2
4
4
3
9
9
15
3
0
1
0
2
1
2
0
2
7
7
4
4
2
5
1
1
2
4
2
6
7
3
9
7
0
8
3
4
15
2
5
4
4
3
17
3
3
0
14
12
1
0
1
3
8
2
1
14
1
3
2
4
1
4
2
6
3
8
9
13
9
1
11
3
3
1
0
3
3
2
3
5
1
1
8
6
10
2
6
9
7
0
12
3
4
1
0
3
0
1
1
5
2
0
2
9
7
5
9
0
2
0
0
1
5
4
7
7
6
1
1
2
16
3
1
9
4
2
7
0
5
4
0
6
16
5
5
5
1
17
13
0
7
7
6
2
1
2
5
6
2
1
6
0
0
7
1
4
2
5
2
7
0
1
0
12
4
12
3
4
6
3
3
1
3
3
7
2
2
2
4
1
3
1
0
2
8
7
6
16
1
1
3
6
8
0
3
6
5
4
7
3
0
2
8
2
2
4
1
8
10
8
6
2
0
10
1
12
14
2
3
5
0
4
7
0
2
2
6
1
1
1
2
6
2
2
4
4
2
6
9
1
3
3
5
4
0
7
2
14
2
0
2
6
8
2
6
3
0
6
5
7
2
14
0
4
2
1
2
4
0
2
7
3
6
3
1
7
1
0
6
0
1
0
5
5
9
4
0
0
1
3
5
0
2
0
11
9
5
1
9
4
10
3
4
6
4
0
3
6
2
5
9
5
4
2
9
5
2
0
10
0
11
1
2
0
4
3
3
2
8
1
4
5
4
2
0
7
5
8
8
2
3
9
2
8
3
2
5
0
13
2
1
1
5
4
2
3
4
2
1
4
5
1
1
0
13
1
4
1
3
4
1
3
4
1
2
0
11
12
0
1
4
2
2
10
0
2
2
0
1
0
0
2
0
0
5
6
1
1
12
7
3
1
4
2
1
0
1
8
0
9
8
1
1
6
4
1
14
7
1
10
5
2
0
4
0
1
3
12
0
4
8
3
0
5
6
4
0
4
6
4
2
7
5
4
4
2
4
8
1
2
2
0
3
19
5
0
3
7
0
6
3
1
2
2
2
1
3
8
1
5
9
2
9
0
1
1
1
1
4
0
1
1
1
5
6
1
0
13
2
1
4
4
11
1
0
4
0
0
2
1
0
7
6
8
7
1
1
4
7
0
3
3
6
2
2
3
0
4
7
1
7
0
1
1
11
15
17
2
2
2
4
0
7
6
0
2
7
13
10
8
3
5
3
3
5
2
1
7
2
12
1
2
9
1
13
8
7
12
5
9
1
1
0
0
2
9
3
12
2
2
1
0
12
3
10
0
3
1
5
7
3
1
1
8
4
8
1
2
7
1
1
13
0
2
3
5
2
1
5
2
8
4
0
4
2
1
0
1
1
4
0
6
10
0
1
5
4
4
2
3
3
7
2
5
10
6
3
3
2
2
7
5
7
3
2
3
1
12
1
0
0
8
2
3
5
2
1
0
0
1
1
0
1
5
7
0
6
8
2
1
5
2
2
1
0
6
4
4
3
2
6
7
4
1
1
9
1
1
3
9
2
8
2
2
4
2
4
8
4
2
4
0
6
12
6
4
4
1
11
0
0
2
4
8
0
5
4
2
1
3
3
4
1
2
3
4
2
6
2
2
1
4
6
1
0
3
6
4
1
0
1
0
1
2
14
1
5
1
0
4
13
0
5
1
3
4
2
1
3
0
0
6
4
3
4
2
8
1
2
9
2
5
1
0
3
7
6
1
1
1
5
4
4
11
0
1
2
3
5
14
4
4
3
8
5
2
1
11
4
1
2
4
5
1
0
4
3
9
3
2
11
2
6
0
0
2
10
2
0
0
2
0
1
14
10
5
0
1
2
7
4
2
3
0
0
1
3
3
7
3
2
1
3
5
0
12
4
1
2
1
2
4
6
4
12
1
0
2
4
2
1
8
14
4
2
1
4
4
5
4
0
3
6
4
11
3
2
3
2
2
11
2
1
0
6
0
0
8
1
2
1
2
6
2
7
1
2
1
6
6
4
7
4
3
2
5
3
2
11
3
2
3
4
5
3
4
4
0
13
4
8
0
2
0
1
5
3
3
0
5
2
3
2
3
8
0
2
7
0
3
3
0
0
3
0
13
3
3
13
2
0
1
7
1
4
4
11
4
3
0
1
1
2
2
3
9
7
6
4
3
4
3
2
8
1
3
2
4
4
3
2
3
5
5
1
8
4
4
5
8
11
5
2
1
0
12
13
0
7
1
4
0
0
0
8
12
5
10
8
13
3
1
6
3
1
1
2
3
0
1
0
14
5
2
4
12
8
3
1
0
4
5
7
6
0
5
4
0
0
1
1
4
15
1
4
4
6
10
7
0
11
14
1
0
5
1
2
5
5
0
0
0
7
0
1
1
6
3
0
8
9
0
3
6
7
11
5
1
1
5
2
5
1
7
5
0
0
3
5
1
0
1
2
8
2
3
6
7
0
1
10
1
6
0
6
4
5
14
1
1
18
14
14
0
5
0
4
1
1
2
1
7
5
4
2
2
1
3
0
1
2
13
3
5
0
2
2
3
1
6
3
5
2
2
3
0
6
6
12
2
4
2
3
3
0
4
0
0
1
6
4
0
2
1
1
0
4
2
0
1
14
2
1
3
4
2
0
6
5
4
6
1
3
11
4
6
3
6
0
2
2
3
2
0
2
2
1
3
0
1
1
1
2
0
3
1
4
7
0
0
0
2
3
7
7
4
10
4
3
1
2
5
3
1
2
2
12
1
1
2
10
2
11
5
0
2
5
7
0
6
4
4
1
0
5
5
4
5
5
3
3
3
10
2
2
3
3
1
2
2
4
1
0
5
6
2
3
0
2
6
1
2
1
5
0
7
9
4
3
13
2
1
11
1
1
9
11
6
1
3
5
2
4
1
1
1
5
0
1
1
2
8
7
5
0
0
19
10
3
0
3
2
3
4
4
1
0
12
1
2
4
9
1
3
1
2
2
8
2
4
8
10
7
0
6
0
0
11
1
0
1
1
6
3
2
0
4
5
6
2
7
5
5
0
10
0
1
5
5
1
2
8
8
3
1
2
3
3
0
0
7
2
7
1
7
5
0
2
12
13
4
6
5
6
1
2
1
2
3
1
13
2
2
3
1
2
13
0
1
2
7
0
4
5
2
1
5
0
5
4
5
2
0
2
2
3
5
4
7
15
0
5
1
0
7
0
2
1
7
0
4
0
3
1
6
2
3
13
2
2
4
0
0
1
8
5
3
2
1
6
9
8
5
9
6
8
0
3
1
1
1
1
12
3
5
5
3
0
0
11
0
4
1
2
3
2
1
3
7
4
6
0
4
0
8
6
3
1
1
11
2
4
1
2
2
2
2
2
1
2
6
2
8
3
1
0
5
4
2
0
1
9
1
7
5
14
0
3
2
10
3
4
2
2
0
2
7
2
4
3
5
1
1
0
8
1
9
5
3
1
1
9
0
6
5
3
2
3
2
12
5
4
6
2
1
1
2
3
1
4
4
4
4
8
0
2
1
5
0
5
3
8
1
6
2
2
4
7
2
3
5
3
2
1
3
4
4
4
2
10
6
8
0
7
13
0
3
3
1
3
10
8
4
0
3
8
2
6
11
8
1
10
0
3
1
4
0
3
6
1
3
0
0
1
2
2
2
2
4
1
5
3
4
1
0
5
6
5
7
11
1
1
3
7
4
1
1
6
5
7
7
3
3
2
6
0
2
1
3
1
2
2
5
5
5
1
4
1
3
11
1
3
1
11
0
2
3
2
2
6
3
10
6
1
4
1
7
3
3
7
4
9
1
1
2
1
5
3
2
0
6
5
1
8
0
12
0
11
1
0
5
11
6
1
0
7
10
0
0
1
1
0
3
1
8
0
0
4
2
9
0
4
11
1
0
3
0
1
2
6
2
6
12
2
3
1
10
5
10
4
5
1
5
6
1
1
0
1
0
0
2
3
5
12
2
9
3
0
0
7
6
8
2
3
1
3
3
3
1
1
0
0
0
0
0
1
3
3
3
2
4
2
0
1
1
1
6
15
3
0
1
0
3
6
13
0
3
0
0
3
7
0
6
0
4
0
9
0
4
0
9
0
1
1
1
1
2
0
0
0
1
2
3
7
3
4
4
7
2
1
0
2
0
10
11
3
3
1
0
3
3
18
9
1
1
4
10
1
3
2
7
8
0
1
5
3
3
2
1
10
5
0
7
10
1
8
3
9
9
7
4
6
0
1
16
9
3
8
7
4
5
1
0
4
2
6
2
1
4
0
0
2
0
5
1
1
2
10
5
2
2
6
11
2
2
7
2
11
2
5
2
1
3
1
2
1
4
12
4
1
5
3
7
10
0
4
3
0
9
1
2
5
3
2
4
3
2
0
2
5
10
4
7
6
1
4
8
2
1
0
2
4
5
6
1
0
2
4
3
1
1
6
4
3
7
0
2
4
5
1
4
5
2
1
2
3
6
0
2
2
4
1
1
1
1
2
8
5
0
1
7
0
2
1
3
2
0
11
5
8
2
4
20
14
10
11
15
1
2
0
9
5
11
0
0
8
9
6
0
2
9
0
4
6
7
6
6
3
1
1
3
1
7
4
3
3
4
2
2
3
0
1
2
2
0
1
11
2
4
1
5
2
4
0
0
5
3
4
7
0
0
0
2
0
4
1
1
1
4
1
0
2
10
11
5
4
2
0
5
2
6
6
3
10
1
6
8
8
16
6
7
2
4
2
4
6
0
0
1
0
1
10
5
9
2
2
4
1
7
2
0
6
1
1
12
3
4
3
2
6
2
0
1
0
1
4
6
1
4
0
2
1
1
0
3
0
4
1
7
3
9
3
6
0
0
1
4
9
0
19
0
7
2
0
4
2
4
1
0
4
4
6
0
1
0
2
9
3
1
2
5
17
8
1
0
3
1
4
3
1
1
1
8
1
3
8
6
8
1
2
4
0
3
7
3
3
5
0
1
1
4
1
2
2
5
10
6
3
4
0
4
2
0
9
1
1
4
6
0
3
3
0
0
12
0
0
5
3
1
3
2
2
1
4
2
5
4
0
5
5
2
1
0
0
3
4
6
8
3
9
8
4
3
1
0
4
0
7
2
1
4
4
4
6
4
5
2
3
4
8
0
5
7
1
2
0
1
8
4
3
2
2
7
5
0
10
5
6
2
7
1
0
10
11
4
0
0
1
4
3
0
1
4
0
6
0
1
5
2
1
0
6
5
12
2
1
6
1
11
2
0
1
3
2
6
1
1
0
4
1
7
8
6
1
0
0
2
4
4
1
3
7
1
0
2
3
6
1
4
0
0
1
0
2
1
3
5
5
6
3
3
11
0
4
3
4
3
1
2
1
0
2
6
10
0
6
1
0
1
1
3
9
2
6
0
0
0
9
3
2
0
6
6
1
0
0
2
12
4
1
5
3
6
2
3
4
3
5
2
2
1
6
3
6
3
1
1
3
1
1
9
2
6
4
2
2
0
2
0
2
0
2
1
2
0
3
2
6
4
1
5
7
2
0
1
8
2
4
1
2
0
3
6
3
4
4
0
9
6
3
2
1
5
0
1
6
0
2
1
0
1
3
7
0
10
1
0
1
0
0
0
1
0
5
4
2
2
9
0
0
0
1
1
7
6
2
6
3
2
0
0
2
1
4
0
6
0
0
0
5
2
2
4
0
1
5
5
5
0
0
2
5
3
2
0
3
2
2
0
15
7
1
2
1
6
2
3
4
4
8
8
5
0
8
1
10
2
6
4
2
1
1
3
0
0
2
0
4
0
1
1
0
4
12
5
6
0
1
16
1
0
3
3
5
2
0
6
0
3
5
1
1
4
1
2
1
2
0
7
1
2
4
6
5
2
1
0
3
4
8
6
1
4
6
3
6
3
4
1
2
9
1
4
4
0
4
4
2
2
2
10
4
4
11
0
7
7
1
2
3
2
3
7
7
4
0
6
12
6
2
0
0
1
1
6
4
2
3
10
0
3
7
0
0
8
3
6
1
8
1
0
0
2
0
1
1
4
8
1
0
18
1
2
1
0
0
1
0
1
0
1
0
7
1
2
3
3
2
0
2
10
3
8
1
1
1
3
0
6
7
1
1
5
2
0
4
10
0
1
0
0
1
2
0
3
0
5
2
3
7
2
1
2
3
0
1
3
3
3
2
5
14
3
1
4
0
0
1
10
6
7
2
5
0
6
8
0
1
1
6
2
2
1
3
6
4
16
4
3
2
2
2
11
4
4
2
2
0
1
4
1
2
4
3
5
4
12
0
2
1
5
0
4
5
1
3
11
1
5
7
4
2
1
1
1
4
1
4
2
0
7
1
2
7
6
9
5
2
1
6
5
15
2
0
0
5
2
0
2
1
2
0
1
10
17
2
2
1
0
4
6
2
3
0
3
5
1
8
5
3
4
0
10
0
2
1
8
0
0
0
2
4
1
2
0
0
6
5
2
2
8
2
2
2
5
3
3
0
0
1
0
1
5
0
2
6
0
1
0
2
1
2
9
3
1
5
1
2
0
0
2
3
1
3
2
3
1
6
11
14
1
0
3
1
3
0
3
1
1
0
4
0
4
1
7
4
1
1
1
1
1
5
5
5
1
8
0
8
4
2
3
0
11
2
0
3
3
4
7
1
1
6
4
2
1
4
5
2
3
3
0
3
0
0
0
9
0
2
7
5
4
3
16
8
4
2
1
1
2
0
2
9
5
5
3
0
3
9
3
4
5
3
10
12
2
0
7
2
4
3
0
0
3
5
7
1
7
1
1
2
0
0
4
4
9
5
9
1
1
4
3
2
6
9
5
0
7
4
1
2
3
1
1
1
0
4
0
0
0
3
5
1
0
1
6
4
2
9
0
3
0
8
0
0
5
3
3
5
0
9
0
0
1
4
3
4
1
2
0
5
10
2
0
3
0
1
0
5
4
5
0
2
6
3
3
1
0
4
12
0
0
0
3
0
1
1
8
9
4
8
6
0
5
0
5
2
0
5
3
3
2
3
7
0
0
0
4
3
1
5
0
1
1
1
4
3
0
2
5
3
1
6
5
5
6
2
6
0
0
2
2
1
1
6
5
1
2
13
1
3
2
3
2
0
6
0
1
7
1
0
5
2
3
5
6
0
6
0
0
3
2
6
3
2
5
5
0
6
1
1
6
2
0
1
0
1
2
2
1
2
0
0
2
5
5
2
2
4
6
5
0
3
5
0
1
3
3
4
2
5
1
5
2
3
3
1
6
2
1
1
2
3
5
0
4
0
4
2
2
1
7
2
3
8
2
4
4
6
0
1
5
2
2
4
9
1
0
3
4
6
3
8
7
0
5
7
1
0
0
0
2
6
3
4
2
4
5
0
1
11
4
1
3
5
0
2
4
1
3
1
3
3
3
1
3
5
0
3
2
0
10
7
0
0
1
1
2
2
0
7
6
1
3
2
5
3
0
8
5
0
0
0
5
0
4
3
3
0
1
7
3
1
5
8
3
1
9
5
0
3
0
2
3
2
0
0
4
10
1
11
10
4
5
7
1
5
0
0
4
0
3
6
0
1
5
0
2
10
4
4
10
0
1
3
1
2
4
0
2
2
4
5
0
0
5
0
5
3
0
0
4
6
2
0
1
6
3
6
0
1
0
4
1
3
4
2
0
1
1
4
1
0
0
2
5
5
5
3
2
0
7
0
3
0
0
2
0
10
1
4
2
0
1
2
0
2
7
6
3
3
7
3
11
3
1
0
1
2
2
5
0
5
3
1
4
1
0
0
2
8
0
1
4
3
7
5
4
3
1
6
0
2
4
4
0
5
1
5
0
11
8
0
0
1
2
0
12
0
1
1
0
1
0
0
2
3
0
0
6
7
0
5
1
1
0
6
0
3
1
0
3
0
0
3
1
13
6
0
4
2
9
1
3
0
2
5
0
7
1
2
0
0
1
1
0
0
2
3
1
4
6
0
10
3
2
1
4
2
8
5
4
2
0
0
1
0
3
7
1
14
0
7
3
3
3
2
0
3
1
1
5
1
2
2
3
5
3
8
0
4
10
0
1
0
0
3
2
1
5
9
3
2
7
5
5
1
6
3
4
8
8
0
1
5
3
2
2
5
3
0
6
0
2
1
3
2
2
1
0
5
7
12
5
0
0
2
9
4
6
7
3
4
1
3
1
2
2
6
0
0
1
3
10
4
3
0
2
14
6
3
0
1
2
2
3
1
0
0
2
2
3
0
4
4
4
2
2
2
1
1
16
1
0
0
3
0
1
1
0
3
4
1
0
2
1
3
3
6
4
11
5
4
10
3
3
3
2
0
1
1
0
0
1
4
1
2
0
2
1
1
1
0
0
4
3
1
1
3
5
0
10
8
1
3
4
3
1
11
4
21
14
13
4
9
4
13
3
6
5
3
13
0
3
4
1
2
7
6
11
2
3
0
4
2
1
1
0
2
6
4
3
14
0
0
0
1
1
0
3
6
4
3
8
2
1
4
3
1
5
0
2
3
2
4
5
4
2
1
3
1
0
1
2
4
0
0
1
2
1
1
6
3
3
0
0
0
2
3
3
0
4
0
9
1
1
3
5
1
2
7
9
7
8
6
8
3
8
13
7
3
4
1
0
4
3
1
0
3
1
6
1
14
2
0
4
3
3
2
3
0
0
0
4
4
3
1
4
1
1
3
1
6
0
7
2
0
3
9
0
8
0
1
0
3
2
2
12
5
2
5
2
2
2
0
3
5
9
3
7
0
5
8
3
0
0
0
0
3
7
6
2
4
2
2
8
4
7
5
0
4
0
2
1
0
5
2
2
1
7
6
1
0
3
2
0
1
5
2
9
2
5
2
3
4
0
2
2
2
5
2
5
0
0
3
4
4
13
10
0
1
0
2
4
1
14
1
1
0
0
4
2
0
3
5
3
4
4
0
0
2
4
4
0
0
4
3
4
1
8
5
6
2
1
3
8
6
5
4
0
8
0
5
1
0
0
0
1
5
0
10
0
4
4
5
2
8
1
4
6
1
2
3
1
0
16
2
1
3
2
1
7
0
7
1
2
1
7
4
0
6
6
1
0
3
8
0
0
4
5
3
9
6
3
3
3
3
2
2
4
4
1
1
0
2
3
0
7
6
0
0
3
2
0
0
6
5
0
2
4
2
1
3
2
0
5
5
11
0
4
6
3
3
0
0
2
2
0
0
0
2
4
5
1
0
10
1
4
3
2
0
3
1
3
0
5
8
0
1
2
1
3
6
5
2
5
1
4
3
1
3
0
1
0
1
0
1
0
1
3
3
7
8
2
2
7
14
6
5
6
6
3
4
6
3
3
1
3
0
0
1
3
0
3
1
0
2
1
0
3
1
0
0
6
0
6
1
1
2
5
0
9
0
4
4
0
5
3
0
1
1
3
9
3
5
3
3
5
1
1
1
2
1
0
4
8
3
3
1
10
0
4
2
0
1
6
3
0
2
1
11
0
3
1
1
3
2
3
0
3
4
5
0
4
0
2
1
2
2
9
0
5
2
2
2
2
1
7
4
3
2
0
2
1
0
2
7
1
1
7
0
2
1
2
1
0
8
0
0
1
1
2
4
5
3
8
0
1
7
1
2
1
2
1
7
1
0
8
3
0
3
2
1
4
0
4
2
1
3
0
1
7
1
3
0
8
3
0
2
3
1
3
2
10
1
5
3
2
1
13
1
3
1
1
0
1
0
0
2
0
4
7
0
0
1
0
3
2
0
2
3
3
6
1
0
1
1
1
0
1
1
0
2
1
0
4
14
10
1
0
5
2
0
0
5
0
1
6
4
4
1
4
0
10
0
2
4
1
3
0
5
0
2
1
2
2
5
10
4
1
1
6
5
6
0
2
3
9
0
2
1
0
1
10
1
3
4
3
0
0
1
1
3
10
7
7
8
2
1
0
0
1
9
7
5
3
0
5
7
0
1
4
6
0
6
4
2
1
7
0
2
0
1
1
3
3
3
4
2
1
1
0
3
7
4
2
1
0
6
2
4
10
8
2
3
3
8
4
0
0
3
8
2
1
0
1
3
1
1
1
5
3
2
1
3
0
5
3
0
0
3
0
3
1
11
4
0
2
9
1
2
7
0
2
6
1
7
1
7
4
0
1
0
0
10
5
6
8
11
2
5
1
0
3
0
1
0
10
6
1
7
4
1
0
4
1
0
3
1
3
2
1
0
3
5
5
0
6
2
2
2
4
9
0
2
1
0
0
1
2
10
0
2
1
6
0
2
3
9
0
3
2
0
2
4
4
1
1
5
1
10
0
3
1
1
3
9
4
0
4
1
0
1
1
3
4
2
6
7
1
1
0
2
2
0
0
0
2
7
5
2
1
2
2
2
1
5
0
1
3
7
2
1
10
1
2
4
2
3
2
3
9
6
6
0
1
0
2
0
1
2
0
1
1
4
1
0
0
2
0
5
2
1
0
1
1
1
7
0
1
0
1
3
0
0
1
2
0
3
1
6
3
2
1
0
2
5
12
0
0
1
1
4
7
2
7
3
2
2
0
0
3
6
1
7
2
6
1
5
6
0
2
1
9
4
2
3
1
6
4
12
2
4
5
2
5
1
0
0
0
2
2
4
0
2
2
1
1
1
2
0
1
3
2
1
0
0
3
1
1
1
3
1
7
1
3
0
2
11
2
0
7
1
2
4
0
8
2
3
1
0
0
1
0
2
3
3
0
3
5
5
1
0
0
2
3
5
10
0
0
0
3
0
3
2
4
0
3
3
0
3
1
0
2
4
7
2
3
3
0
5
2
0
1
8
6
2
2
1
0
7
2
4
3
1
12
11
6
0
6
3
3
1
2
0
8
3
2
5
1
2
7
4
1
3
4
2
1
1
1
4
1
3
4
0
1
1
1
1
0
0
1
2
4
2
3
0
5
4
1
1
6
2
0
0
3
2
1
4
3
4
1
2
0
1
2
2
4
1
4
2
1
0
5
1
0
4
1
7
0
1
2
7
0
0
4
7
0
0
11
6
10
6
6
5
2
2
4
1
4
2
3
4
0
3
2
1
9
2
0
0
0
1
0
2
1
0
0
3
2
2
1
0
1
0
1
3
0
3
2
2
7
6
1
4
3
0
4
4
3
1
8
0
4
2
3
2
7
5
0
4
3
2
3
7
3
0
1
2
0
0
6
5
4
0
0
5
0
1
5
0
2
3
5
0
0
4
0
0
0
0
3
2
4
10
0
1
0
5
4
2
1
2
0
1
1
9
0
0
4
1
0
0
2
4
0
3
1
3
3
3
1
10
1
1
4
2
0
2
1
0
7
1
2
5
3
4
0
1
0
1
4
1
1
0
1
4
3
0
1
0
1
1
0
6
1
3
0
0
1
6
5
1
2
6
3
1
0
0
3
8
3
1
0
5
4
3
0
9
0
2
3
4
1
1
4
4
3
0
6
1
0
1
1
1
1
3
3
1
2
2
0
2
3
0
3
3
1
3
1
0
0
2
2
2
0
2
4
3
0
5
0
2
4
1
2
1
7
3
1
0
5
7
0
2
4
1
4
1
5
0
1
1
0
2
3
0
4
1
0
2
0
3
0
1
0
4
4
0
7
2
1
2
0
0
4
0
3
5
0
1
3
0
0
0
3
0
1
0
5
2
0
2
0
8
0
1
0
3
4
5
1
0
2
3
2
0
4
2
13
1
1
5
0
1
1
1
2
2
1
1
2
2
2
0
4
3
6
9
1
1
0
0
4
1
1
3
2
1
0
0
8
9
6
7
1
0
0
2
2
9
3
1
0
2
4
0
2
7
2
4
1
2
3
0
6
1
0
2
3
4
1
4
7
1
2
1
0
3
9
2
0
1
2
4
1
0
1
0
9
8
3
0
1
2
7
0
3
1
0
0
0
13
1
8
1
2
0
0
4
3
3
4
3
1
3
6
2
5
3
5
1
1
1
2
6
1
9
0
3
3
2
1
3
3
4
2
3
1
2
0
1
1
0
7
4
3
1
2
1
4
4
7
0
0
1
0
4
11
1
2
0
5
1
0
1
2
2
2
4
2
0
2
1
5
0
6
3
6
0
1
1
1
4
0
0
2
0
2
1
0
0
3
1
1
5
6
6
0
2
0
0
3
1
0
0
0
1
2
0
9
0
4
0
4
2
0
3
6
1
10
1
0
2
0
0
2
12
6
0
1
0
3
1
4
0
0
3
2
0
3
4
3
3
0
3
4
0
3
0
1
4
7
0
0
2
0
0
0
9
1
15
0
4
2
1
1
2
0
0
1
1
0
0
3
4
2
1
5
2
4
3
0
0
2
1
1
3
0
1
4
1
2
3
0
4
2
0
1
4
2
2
0
0
2
1
1
2
2
8
6
7
0
0
2
0
0
0
0
2
1
8
2
6
1
2
1
0
0
1
0
4
3
3
3
5
1
0
0
2
5
0
3
0
7
2
5
4
1
0
6
4
0
4
1
0
3
1
5
2
1
4
2
1
3
1
2
0
0
0
1
6
6
2
5
0
3
1
0
4
1
1
2
3
3
0
7
0
6
0
9
3
2
5
0
0
2
1
2
1
11
5
1
6
0
1
2
4
5
2
2
3
6
3
0
4
1
7
2
1
4
0
6
1
1
7
3
2
13
10
1
2
1
1
1
3
2
10
1
0
8
0
0
2
0
3
1
1
0
2
2
2
3
6
5
2
2
2
0
0
2
5
0
9
2
0
1
0
0
1
0
6
4
0
0
1
6
2
0
2
1
1
0
0
0
1
0
2
7
0
8
0
2
3
5
1
7
1
2
1
2
1
1
0
8
0
2
7
7
7
6
6
0
4
0
2
4
3
4
5
0
0
3
4
4
0
2
4
4
5
2
1
5
3
2
3
0
1
8
5
8
2
0
0
0
1
5
3
3
1
5
0
3
8
1
0
3
6
1
3
0
3
8
2
1
0
0
5
0
9
1
2
5
6
4
6
1
8
7
3
0
1
4
3
0
1
0
0
1
0
2
1
8
0
1
1
5
1
3
3
2
3
0
3
3
3
0
1
1
1
4
7
2
3
0
4
4
2
1
4
2
6
1
0
3
2
4
8
6
2
2
0
1
0
2
2
1
0
3
2
0
0
1
6
2
2
1
0
1
0
1
3
0
1
3
1
3
0
0
1
0
1
4
2
0
2
0
2
1
6
1
2
0
4
0
12
1
1
0
0
2
11
0
2
1
1
3
0
1
5
3
2
1
2
3
0
0
0
1
1
1
2
2
1
0
2
1
0
0
1
2
0
0
4
0
2
1
1
4
4
1
1
0
1
4
2
4
5
5
5
5
7
3
1
0
1
1
1
5
1
1
6
0
0
5
3
2
0
1
0
0
0
1
0
0
1
0
1
2
0
0
6
1
0
0
0
1
3
1
2
2
1
1
0
2
0
2
9
12
1
1
4
1
1
0
1
2
5
1
7
10
2
3
4
0
4
0
1
2
3
2
1
3
3
0
0
1
1
2
4
0
0
4
4
2
5
0
3
1
3
1
1
0
1
0
1
0
2
0
9
2
7
10
0
6
6
3
0
0
2
3
1
0
1
0
9
0
1
4
0
3
4
0
0
0
1
5
0
1
1
6
0
3
2
5
1
6
6
2
3
0
0
3
0
3
5
6
1
5
0
6
1
2
0
1
0
0
0
2
0
1
0
4
3
3
6
0
4
5
4
5
6
2
1
3
1
0
7
7
3
3
2
2
5
2
0
0
1
0
0
6
1
5
5
2
12
2
0
0
1
5
4
1
4
1
0
2
5
4
1
3
1
4
1
7
7
1
2
0
3
0
1
0
0
1
5
1
0
0
1
0
3
6
3
2
3
3
0
0
10
0
2
1
0
3
2
1
2
2
2
1
3
2
2
2
0
2
1
6
1
0
9
1
0
3
5
0
1
8
1
0
0
0
1
0
1
0
1
3
1
1
12
3
0
1
3
1
0
2
0
1
6
0
1
0
6
1
1
0
5
0
0
7
1
8
5
2
2
1
1
3
4
1
3
3
8
0
4
4
3
0
1
1
2
1
5
0
0
0
2
1
1
5
5
0
1
3
2
8
0
2
1
2
9
1
0
5
3
0
1
0
2
7
5
3
1
0
0
1
1
7
1
3
3
2
9
2
1
0
2
3
3
5
3
1
0
0
1
0
4
1
2
0
1
0
4
2
1
1
6
2
0
1
5
0
0
0
0
0
6
1
3
3
2
1
3
4
2
0
1
1
9
4
5
0
1
13
3
7
0
3
2
6
7
0
2
1
1
0
0
5
1
0
2
2
1
1
0
6
2
4
8
2
8
5
2
1
1
1
0
0
4
3
2
5
2
2
1
3
0
0
1
0
1
0
0
2
3
4
1
3
2
6
5
9
3
1
2
2
3
0
2
0
0
0
3
3
0
4
5
1
3
5
0
1
9
2
2
5
2
1
4
0
0
2
1
2
0
0
4
0
1
3
5
1
3
7
3
1
2
1
2
1
1
0
1
2
5
1
0
0
2
1
1
0
7
3
4
0
1
0
3
5
2
2
5
8
5
7
3
1
4
0
6
2
3
3
2
0
2
2
1
1
1
0
0
3
8
1
0
0
0
1
12
0
5
0
0
1
5
1
1
0
6
7
3
0
1
0
4
9
5
1
5
2
0
0
0
0
1
1
6
1
2
8
1
2
1
5
2
3
2
1
0
2
7
2
4
0
0
2
4
0
0
2
1
1
4
2
0
3
1
2
0
0
7
6
4
0
1
2
2
1
0
7
6
1
4
2
5
1
2
0
3
1
9
4
2
0
2
1
5
0
0
0
1
9
8
4
2
3
2
4
0
0
2
2
1
0
0
0
3
3
1
0
1
6
0
1
2
1
1
3
2
1
0
0
2
3
0
3
1
9
4
1
3
1
4
5
9
6
6
1
0
6
0
1
1
0
1
1
2
2
1
3
0
1
6
1
4
0
4
0
5
1
1
2
6
3
3
6
4
2
1
1
2
0
5
8
2
5
6
2
0
1
1
1
3
0
3
1
0
0
2
4
1
2
5
5
1
1
1
0
2
4
0
4
0
2
2
1
0
2
5
0
3
1
6
1
1
0
3
3
0
8
2
1
0
2
1
1
1
0
2
7
9
2
0
2
3
3
0
3
5
4
5
3
5
1
0
0
4
0
3
1
1
2
1
9
0
1
2
3
0
1
2
1
0
0
7
4
1
5
1
1
3
1
1
2
1
0
4
6
0
1
0
7
1
0
1
2
3
1
1
2
0
3
2
5
2
0
0
1
0
0
4
1
4
5
2
1
2
0
0
10
1
1
1
4
0
5
5
2
4
1
0
2
2
1
2
5
1
1
4
6
1
1
5
5
1
0
1
0
0
0
0
1
0
0
0
2
2
2
1
1
0
0
0
2
5
1
1
2
1
1
0
6
5
3
2
0
3
1
5
2
0
2
4
4
4
0
0
0
3
0
0
0
2
3
4
2
2
1
2
1
2
0
2
2
2
2
5
9
6
6
2
0
4
1
8
1
0
2
2
5
5
1
1
0
0
1
1
2
2
1
0
2
2
0
0
1
1
0
1
2
1
0
5
2
1
0
2
1
1
2
0
7
2
3
4
1
4
0
1
1
0
9
1
1
3
2
4
0
0
3
0
0
3
2
0
2
2
3
1
4
4
4
0
5
7
2
0
3
5
0
0
0
0
3
0
1
0
0
6
6
6
0
1
2
0
0
0
2
4
10
1
0
2
5
2
0
0
0
4
0
4
1
0
0
5
0
0
0
0
5
3
2
5
4
2
1
2
4
0
3
2
0
2
2
1
6
0
4
3
0
1
0
1
2
5
1
1
1
1
7
4
1
1
1
2
2
3
4
2
5
2
1
1
1
0
2
0
2
0
0
2
0
3
4
4
2
1
5
9
5
0
0
6
5
3
9
0
3
3
3
0
0
4
1
0
0
3
0
2
1
0
0
0
2
1
7
2
6
2
0
0
1
0
0
0
2
0
3
4
6
3
1
2
3
4
3
0
0
1
0
0
1
2
4
2
0
1
0
1
2
6
4
6
1
1
1
0
0
4
4
3
2
0
0
2
3
0
0
1
4
3
0
0
1
0
4
9
0
1
1
0
1
1
1
0
1
6
5
2
0
1
2
2
1
8
7
0
0
3
3
1
0
1
4
8
1
4
0
0
3
6
4
2
2
1
2
0
8
0
2
2
1
0
3
1
0
0
3
0
3
0
0
3
1
3
1
0
8
3
0
0
4
1
5
2
2
0
0
0
0
3
0
10
7
1
0
1
0
1
2
1
0
3
5
3
6
0
1
0
3
1
1
2
11
8
1
2
3
3
0
0
5
7
0
2
2
1
2
0
3
2
0
3
6
4
0
5
4
0
5
2
2
3
0
2
0
0
0
1
0
1
2
4
2
2
7
3
5
1
0
2
2
5
2
1
1
3
2
6
4
3
0
2
5
6
11
0
1
5
6
4
0
0
3
1
2
3
2
0
0
1
2
6
0
2
7
1
2
0
0
0
2
3
1
3
5
2
0
0
1
3
1
1
1
3
3
0
3
1
1
1
1
0
2
0
2
1
2
0
0
0
0
0
0
2
1
0
1
1
1
0
2
2
0
1
2
0
0
0
1
6
0
2
0
2
4
2
2
1
6
5
1
1
3
0
1
2
0
6
1
2
3
1
3
1
1
1
2
0
5
2
0
3
9
4
0
5
2
2
10
1
0
0
1
0
1
1
0
2
0
1
1
1
1
2
0
1
4
0
0
2
0
1
2
3
1
0
5
0
2
0
2
3
0
2
0
1
0
9
0
1
0
8
1
3
1
1
2
0
0
2
0
0
2
1
1
1
0
4
1
0
0
4
0
1
1
1
5
2
2
0
0
1
1
3
0
0
8
4
3
1
1
2
0
0
3
1
0
8
1
0
0
1
4
3
8
1
9
9
4
1
2
2
2
4
0
2
1
3
0
0
1
2
3
3
0
5
0
1
2
1
2
9
0
9
5
4
1
4
5
0
8
1
1
4
1
1
1
3
0
5
6
0
4
1
0
0
3
0
1
5
4
2
1
0
3
0
3
1
1
7
1
0
0
0
0
2
0
0
0
0
2
1
0
1
2
0
1
2
3
4
1
0
2
1
4
1
0
5
1
4
3
2
3
1
0
3
0
7
3
5
2
1
3
1
1
5
5
1
4
5
7
0
0
2
1
0
2
4
7
3
5
0
0
4
3
2
0
2
0
0
5
0
1
1
0
0
1
1
0
3
4
0
8
5
0
3
0
0
0
5
4
0
1
1
2
3
1
0
6
2
3
0
2
7
5
1
0
1
7
1
7
1
0
4
1
0
1
2
0
2
5
1
0
5
1
2
0
2
3
5
3
2
6
1
0
2
0
1
1
1
3
2
8
2
2
7
0
1
0
2
3
1
0
4
1
0
8
2
0
0
1
0
6
0
12
1
7
4
7
10
7
4
0
1
2
2
1
1
7
0
0
4
1
1
1
1
3
2
8
3
8
7
1
1
2
6
2
3
2
0
0
0
0
4
2
1
5
1
0
0
0
1
1
0
2
1
2
0
0
2
1
0
8
1
2
1
3
7
4
0
1
0
1
1
0
1
1
2
0
5
0
2
7
6
1
1
1
2
0
0
1
2
1
1
1
0
2
1
1
5
6
2
0
0
3
5
1
5
3
7
0
0
3
0
1
0
2
2
3
0
1
0
0
5
2
7
0
0
3
1
2
0
5
4
0
4
1
1
0
1
5
1
1
1
0
2
0
1
8
5
0
2
1
0
3
1
0
5
2
12
2
3
2
0
0
0
0
0
0
0
1
1
0
0
0
1
1
3
3
1
0
1
0
3
4
1
4
7
0
0
1
1
0
5
6
8
5
1
5
3
4
6
4
1
0
1
1
2
1
4
2
0
0
3
6
1
1
0
0
0
1
5
6
0
0
0
0
0
1
1
10
0
6
2
0
1
0
2
3
0
1
4
0
1
1
1
0
0
0
3
5
4
1
0
1
0
1
3
7
0
1
1
1
5
0
2
1
1
0
3
0
0
5
5
0
2
2
0
2
4
2
0
1
5
3
1
10
5
1
2
2
7
1
0
5
4
3
0
4
7
2
4
5
0
1
2
1
3
4
0
0
0
5
0
3
0
0
0
0
2
1
1
1
3
2
4
4
2
0
1
0
0
0
1
0
3
1
1
2
0
5
1
1
1
0
5
0
3
2
3
3
2
1
0
1
3
0
0
5
0
3
1
9
5
9
0
3
1
1
1
4
1
1
7
0
0
1
0
1
1
1
1
2
0
1
3
0
2
8
2
3
3
0
2
1
1
1
1
2
0
1
4
3
1
8
11
2
2
0
2
0
4
2
1
1
0
1
3
1
3
0
3
0
1
5
1
1
0
4
3
1
0
4
1
2
0
2
1
0
0
1
0
6
6
1
0
0
2
1
0
0
3
1
1
2
1
2
1
0
1
2
2
0
1
0
5
0
0
0
0
0
0
0
1
0
0
1
0
0
3
3
0
0
6
0
0
0
0
0
7
2
0
6
5
2
1
7
0
0
2
0
4
1
0
0
0
0
1
0
2
0
0
1
4
1
3
0
0
1
0
0
4
5
1
0
0
1
1
0
1
1
2
2
4
13
3
0
0
1
1
1
3
0
5
3
5
0
0
1
2
2
3
1
2
1
5
0
1
0
1
3
1
0
1
1
2
3
1
2
5
1
5
0
0
0
0
0
5
1
2
1
1
0
2
3
1
1
1
0
0
1
1
0
3
0
0
1
3
3
1
1
1
1
1
1
2
1
1
2
1
3
5
5
6
1
1
3
2
1
0
4
5
3
2
2
2
0
2
1
3
0
5
12
1
0
0
0
0
3
3
0
1
0
0
6
2
1
1
3
0
1
4
1
1
0
2
0
4
2
1
0
0
0
1
3
0
0
2
0
2
0
0
2
1
9
1
0
5
7
7
4
3
6
0
0
1
4
1
4
1
0
0
0
0
2
2
0
4
0
1
1
1
0
5
0
1
0
4
5
1
0
1
11
3
1
1
0
2
4
0
2
0
4
2
1
0
3
0
1
0
1
1
0
4
1
3
3
0
5
4
1
0
5
0
2
10
0
0
0
0
5
2
2
5
1
0
2
3
0
2
1
3
1
0
4
1
3
2
0
4
7
1
1
2
5
10
0
4
2
5
2
2
3
1
2
2
2
1
0
0
6
0
2
0
0
2
2
0
1
0
1
1
2
0
1
4
4
0
2
3
1
6
0
5
5
0
2
3
0
1
0
3
0
2
1
0
1
0
2
0
0
6
0
5
3
0
6
0
3
1
0
3
2
0
2
6
0
1
0
1
4
0
4
0
0
4
0
4
4
0
1
0
1
0
1
0
1
1
3
0
3
1
1
1
4
0
0
0
0
0
6
2
8
1
4
1
2
2
0
2
0
6
1
2
3
0
2
1
0
3
2
5
1
0
0
8
4
1
1
0
0
0
1
1
1
1
1
3
0
4
0
1
14
6
1
2
5
0
1
3
3
4
0
0
3
6
3
1
1
0
3
0
0
1
2
3
4
2
0
1
9
4
3
5
1
1
3
0
5
0
1
4
1
5
2
1
3
1
0
0
1
1
0
2
7
6
1
1
1
4
2
5
0
1
7
1
1
2
1
2
3
5
0
0
0
0
0
1
3
0
0
1
5
2
2
5
7
2
6
3
5
7
0
3
2
2
0
0
0
0
1
0
2
0
0
2
6
0
2
1
0
2
0
0
1
1
4
3
0
0
1
4
0
0
6
1
5
2
1
6
1
3
5
6
6
0
0
0
7
5
0
7
4
0
0
2
5
2
3
2
0
5
6
0
0
1
2
0
1
5
0
0
3
3
1
0
0
1
2
0
2
1
0
0
0
2
10
1
0
0
0
4
8
3
3
5
4
8
2
4
4
0
7
0
10
3
0
3
1
1
1
1
5
1
3
1
1
6
3
1
2
1
0
1
2
3
0
1
0
4
0
0
2
2
1
3
2
4
2
0
0
0
2
2
2
0
0
0
1
1
1
0
0
1
0
2
1
2
2
0
1
0
0
3
0
0
3
2
2
4
6
0
0
2
0
0
4
0
0
1
7
3
1
2
0
0
2
0
0
4
4
5
1
0
4
5
3
4
1
1
0
2
12
2
3
1
2
0
1
2
2
0
1
1
0
5
2
3
0
0
4
1
3
0
0
1
0
9
2
1
1
3
3
0
2
3
0
0
1
1
2
4
1
7
4
1
1
8
1
1
0
1
4
1
0
1
0
1
2
1
0
0
1
0
1
0
5
3
4
5
4
1
2
2
2
7
2
1
4
2
0
6
1
0
6
3
0
0
6
3
4
2
4
4
0
6
1
1
1
2
2
1
2
0
0
9
5
2
11
4
1
5
2
4
1
4
0
0
1
2
5
0
1
1
3
1
3
1
1
0
0
2
1
3
2
1
1
0
1
0
1
2
1
0
3
2
0
0
2
0
1
0
4
0
0
2
4
1
0
0
3
3
6
1
2
5
3
4
1
4
2
8
1
3
0
1
2
0
0
0
1
4
0
1
1
0
0
0
0
1
1
1
0
0
2
2
3
5
1
0
1
0
2
0
1
0
0
0
7
3
0
2
0
0
2
0
2
0
0
3
5
1
2
2
1
5
1
4
4
3
4
2
0
1
3
1
4
0
0
4
0
0
1
0
1
5
0
1
0
2
6
0
0
0
4
0
1
3
2
3
1
0
0
0
0
0
1
5
1
0
0
0
6
4
5
3
3
1
9
3
5
0
0
0
0
0
2
7
0
2
2
2
2
1
2
0
1
1
0
2
8
1
0
0
2
1
2
9
1
5
4
1
2
0
6
0
2
0
5
1
4
7
1
0
1
5
7
5
1
0
0
0
0
0
0
2
0
0
2
0
0
0
3
3
0
1
4
6
2
5
2
0
3
1
1
0
0
0
7
1
1
0
3
3
2
3
0
3
2
1
1
0
2
1
1
1
1
0
3
3
2
1
6
0
0
0
1
0
0
2
1
2
5
0
0
2
1
0
0
2
2
2
0
0
1
3
0
0
0
2
0
0
0
0
0
10
1
1
1
2
2
1
5
3
6
1
1
0
0
10
1
7
1
4
6
1
2
2
5
0
0
2
4
1
1
0
1
0
1
1
1
1
1
0
2
1
3
3
0
3
0
0
1
0
1
1
0
0
1
0
5
1
1
1
3
4
3
10
0
1
0
0
0
1
0
1
0
1
0
2
1
2
6
3
4
1
0
0
1
3
7
3
9
0
1
1
0
1
5
2
3
0
2
1
1
5
4
0
3
3
2
1
1
2
0
0
2
0
2
0
0
0
1
0
1
3
1
1
0
0
3
0
3
1
1
0
3
1
5
1
0
1
1
2
0
2
2
0
1
1
0
3
1
1
4
5
3
1
5
0
4
1
2
0
2
3
0
0
0
3
1
2
0
2
1
0
0
1
3
1
1
0
4
0
0
0
1
0
5
0
2
1
1
0
0
6
4
1
1
1
1
1
1
2
0
1
2
0
1
1
0
7
3
0
3
2
2
0
1
1
0
2
2
8
2
3
0
2
1
0
0
7
0
6
0
3
0
0
7
2
3
0
0
1
0
4
1
6
4
9
0
5
2
1
3
0
1
6
1
1
0
0
0
3
4
2
1
1
0
1
1
3
5
2
5
0
0
0
4
6
3
1
0
3
0
3
1
1
0
0
0
1
2
1
2
2
2
2
1
3
4
2
1
2
2
1
1
2
3
7
1
0
0
1
0
3
1
0
0
0
1
2
1
0
6
0
2
2
1
0
1
0
0
0
0
3
0
1
0
0
1
2
1
3
2
1
2
3
0
5
1
0
1
0
1
8
2
0
2
0
2
7
1
0
0
0
0
0
0
2
0
5
0
10
4
4
4
2
0
1
1
0
0
0
1
7
1
3
0
2
1
4
2
2
2
0
4
1
2
0
8
0
5
2
1
0
4
1
1
1
1
0
1
0
0
0
1
7
2
0
0
0
0
0
2
6
1
6
6
0
1
2
1
4
5
1
1
1
0
0
1
6
0
2
0
2
0
5
1
3
2
2
0
2
4
1
0
0
3
1
1
3
0
0
0
1
0
0
4
0
1
1
1
3
0
0
11
0
2
3
0
0
0
0
0
1
0
0
0
0
1
0
0
5
1
2
1
2
0
0
0
0
0
5
1
3
2
0
2
3
1
0
1
1
0
2
0
0
6
2
0
1
0
4
0
7
4
1
4
0
2
0
4
0
0
0
1
4
3
0
3
2
0
3
1
0
0
1
0
0
5
1
5
1
1
0
2
6
1
0
1
2
1
0
0
0
0
1
2
0
4
0
0
1
4
2
0
1
1
2
0
3
2
1
0
2
2
1
4
0
5
1
1
5
0
1
0
1
0
5
4
1
1
3
4
3
1
3
0
0
0
0
1
1
1
0
11
1
3
0
0
1
0
0
2
0
1
0
3
1
1
4
3
1
5
0
2
1
2
2
1
7
0
0
5
4
3
3
0
2
1
0
0
2
2
2
0
2
3
0
1
1
2
0
3
0
0
6
1
5
4
3
1
0
0
0
0
0
2
0
1
0
0
0
2
1
1
3
1
0
0
1
2
0
7
0
0
4
4
1
0
0
0
1
0
1
0
3
1
1
1
0
0
4
0
0
1
2
0
0
3
1
1
3
1
1
1
2
4
0
1
1
0
0
0
0
0
2
5
0
0
1
2
9
2
0
0
0
0
1
1
0
1
0
0
0
0
1
0
2
0
2
0
0
0
2
0
1
1
6
1
0
4
1
0
0
0
1
2
5
13
3
1
4
2
1
7
1
0
3
2
2
2
1
3
0
2
5
0
2
2
4
3
2
1
2
1
0
0
3
0
0
2
1
10
3
7
0
0
1
2
6
0
1
3
6
6
3
3
0
2
5
1
0
3
0
0
3
2
1
3
0
0
2
6
6
1
0
0
2
1
0
0
2
1
0
1
2
0
2
0
0
5
0
0
1
0
0
0
1
1
0
6
3
0
4
0
1
0
3
3
0
1
2
2
2
11
1
3
0
5
4
0
0
0
0
1
3
2
1
5
0
1
2
3
1
1
8
0
0
4
2
0
0
0
4
0
6
0
2
1
2
2
2
0
0
1
4
4
0
3
5
0
0
1
5
2
1
1
0
0
0
0
1
2
0
4
1
0
1
0
1
0
0
5
0
2
0
0
1
1
8
1
7
0
0
0
5
3
1
0
0
1
0
1
0
0
1
0
2
2
1
5
0
6
1
1
2
0
1
1
4
4
0
5
3
1
2
2
0
2
5
1
2
2
0
2
1
0
5
6
0
6
7
1
0
0
0
3
0
0
4
1
1
2
0
0
0
1
1
8
0
1
0
0
1
2
1
0
0
2
0
0
5
0
0
1
1
2
0
0
0
2
2
0
1
7
2
0
1
2
1
3
1
0
0
1
2
6
1
0
8
3
0
1
2
0
2
8
4
2
3
5
0
4
4
0
1
3
9
1
0
2
1
1
1
3
1
6
0
4
1
2
1
1
1
3
3
1
2
0
0
1
2
0
2
2
4
0
2
1
1
0
2
1
0
1
2
0
0
0
1
3
0
1
4
0
0
0
0
0
4
0
0
3
0
2
0
1
6
1
0
1
0
2
0
1
0
0
1
2
0
1
0
0
0
0
2
0
1
3
2
1
0
3
0
0
2
2
0
0
0
0
1
1
5
0
0
0
0
1
0
4
6
2
0
2
0
1
1
1
5
0
0
2
3
1
1
0
0
2
0
2
0
2
4
5
0
2
2
0
0
7
6
0
2
1
2
0
1
1
5
2
1
0
0
2
1
4
1
2
0
0
0
1
6
3
0
2
1
2
6
4
0
4
1
3
1
0
2
0
2
2
1
1
1
6
3
0
0
0
0
0
2
2
1
1
3
2
0
0
0
7
1
1
0
0
0
0
3
0
5
6
0
1
1
3
2
4
4
0
0
0
3
0
5
0
2
6
1
2
3
4
1
3
2
0
0
1
1
5
1
0
3
0
0
0
1
3
0
4
8
3
0
0
7
6
1
0
1
1
1
0
0
2
0
0
0
0
0
2
1
5
0
1
7
4
4
0
1
0
0
2
2
0
2
6
0
2
0
0
4
5
0
1
1
0
1
2
3
0
1
1
1
0
1
2
0
3
1
0
3
3
4
2
5
3
1
0
3
0
2
1
2
1
0
2
0
3
0
0
1
6
0
3
0
0
0
0
0
4
0
1
1
6
1
0
3
0
1
9
3
4
2
0
0
4
2
1
0
0
0
1
1
7
1
0
0
0
1
2
0
3
0
0
2
0
2
1
2
3
1
6
0
3
1
2
0
0
1
0
2
0
0
0
0
2
1
0
2
0
2
0
0
1
4
0
4
4
1
1
1
1
4
0
1
4
2
3
0
1
0
0
3
3
2
0
0
4
6
1
0
4
0
2
2
1
0
3
0
0
0
1
2
1
0
6
1
12
2
0
3
3
3
8
0
5
2
5
0
3
2
2
0
3
0
3
0
0
0
0
2
1
2
3
1
0
4
0
3
0
3
1
1
3
3
0
0
0
1
0
0
0
1
0
4
1
0
0
4
0
1
2
9
0
1
0
2
1
4
0
2
3
0
0
0
3
0
0
1
1
0
4
1
1
1
1
0
1
0
0
0
4
3
1
0
1
0
0
1
2
1
6
1
0
3
1
0
1
2
2
0
0
2
2
2
1
0
11
1
4
1
3
1
0
0
0
1
2
4
1
0
0
0
0
5
5
4
4
3
1
0
1
3
4
2
2
0
1
3
0
2
1
0
0
0
3
0
1
1
3
0
6
4
1
0
1
0
1
6
5
3
0
1
2
3
2
2
0
0
1
4
4
0
0
2
0
0
2
4
1
1
2
1
2
2
0
1
0
3
3
3
0
0
3
1
0
3
0
0
5
0
3
0
0
3
5
3
4
0
0
0
1
1
6
0
1
0
1
0
3
2
0
1
2
0
0
0
2
2
0
3
0
0
2
0
0
1
0
0
1
0
1
3
1
0
0
2
4
1
0
2
0
0
0
0
1
0
0
2
0
1
3
0
1
0
0
2
1
1
0
1
2
1
1
0
0
0
0
2
1
7
3
1
1
0
3
1
0
1
0
3
3
3
0
0
1
1
0
1
1
2
2
4
0
5
1
3
1
0
1
0
0
0
4
1
0
0
2
4
2
2
3
0
0
0
6
1
1
2
2
0
0
1
3
1
3
2
3
3
0
0
0
0
3
0
0
0
1
0
0
3
0
2
0
1
3
1
5
1
1
1
3
0
0
0
0
0
2
0
7
0
0
0
0
6
0
4
3
1
2
1
1
0
5
2
0
0
1
1
6
0
0
2
1
0
0
8
1
1
1
1
0
4
5
0
0
0
1
3
2
1
2
0
1
0
0
1
1
1
1
0
4
0
1
2
2
0
1
3
0
0
0
0
1
1
0
1
0
0
0
3
0
3
0
1
1
1
3
0
1
1
0
0
0
5
0
0
2
1
4
1
2
0
1
2
2
0
2
2
5
1
1
0
1
2
2
4
1
1
2
1
2
1
2
5
4
2
0
3
1
0
1
0
2
0
0
0
1
1
1
0
1
2
0
2
4
1
1
0
1
3
1
4
2
0
7
0
2
0
1
0
2
1
3
5
0
1
0
2
1
0
2
5
2
0
6
0
0
0
2
4
4
1
4
1
1
1
1
2
2
2
1
1
3
0
1
0
2
1
2
0
2
2
2
3
1
3
1
1
0
2
1
0
0
1
5
0
5
0
0
3
2
7
1
1
3
2
6
0
4
8
1
1
0
0
1
0
0
1
0
1
0
1
3
1
2
1
2
1
1
1
1
1
0
1
3
1
2
3
2
0
4
0
5
1
0
0
1
1
4
5
0
0
2
0
0
0
2
0
0
1
0
1
0
0
4
0
1
0
0
0
0
0
0
1
1
5
0
4
0
1
3
3
2
0
0
0
1
0
1
3
1
1
1
1
0
1
0
6
3
3
0
1
0
2
0
0
1
0
2
0
0
2
3
1
0
1
1
2
1
0
0
0
1
3
0
0
0
0
0
0
0
0
6
3
3
0
2
0
1
4
0
0
2
1
1
0
1
2
3
0
0
1
2
4
0
0
1
1
1
0
0
1
3
5
1
8
0
1
0
2
2
12
1
0
1
6
2
0
0
1
0
4
5
1
4
2
1
4
1
0
0
0
2
2
0
2
0
4
0
0
1
0
1
0
4
1
1
0
3
0
4
2
2
4
3
2
2
2
0
2
3
2
1
1
1
2
2
0
1
0
3
1
1
1
7
0
1
3
0
3
0
1
1
1
2
1
4
1
0
1
1
1
2
3
4
1
0
4
3
0
3
2
1
2
5
1
0
2
1
0
0
1
0
2
1
0
4
2
0
0
0
0
0
0
3
3
3
0
0
0
0
4
1
1
0
1
1
1
2
1
6
0
0
0
0
6
0
3
3
1
0
3
0
3
4
1
0
0
0
1
0
5
0
1
5
0
1
2
4
2
2
0
9
3
2
1
2
0
0
0
0
3
0
0
0
0
0
0
4
0
5
2
1
1
0
3
0
0
6
2
0
6
4
1
0
1
0
0
4
1
0
1
1
3
1
0
2
2
3
0
1
2
2
1
0
0
1
4
1
0
0
2
0
4
0
0
2
1
0
6
1
1
0
4
1
0
0
1
1
1
0
0
0
6
2
1
4
2
2
2
0
3
8
1
3
9
3
2
4
3
0
3
6
1
1
1
4
2
0
1
1
0
0
2
1
0
0
1
2
3
0
0
2
0
1
1
2
1
0
0
0
4
1
1
1
1
0
1
1
0
2
1
1
0
3
0
1
1
2
0
0
0
0
0
1
5
1
0
3
1
1
2
0
0
0
1
0
1
0
0
3
1
1
0
0
4
5
2
3
0
4
1
0
1
0
0
7
1
0
1
0
1
2
1
2
2
3
2
1
2
0
0
0
1
2
0
1
0
0
0
4
1
1
2
0
3
0
6
0
2
3
0
0
0
0
1
2
0
1
6
4
0
2
6
1
3
5
1
0
0
0
0
3
1
0
0
0
1
0
1
1
1
0
0
1
0
0
4
0
0
6
1
0
0
2
1
0
0
0
2
1
1
1
1
0
4
1
2
1
4
1
3
2
0
5
0
3
0
2
1
0
1
3
4
5
4
3
0
0
3
3
0
2
1
1
2
0
1
8
0
0
2
0
2
4
0
0
4
2
0
0
0
1
2
1
0
1
0
0
0
4
0
0
1
0
0
0
1
0
0
3
3
2
2
3
0
2
0
0
2
3
1
5
2
0
1
1
2
0
1
0
0
0
1
2
2
1
1
0
1
0
3
1
3
2
0
0
0
1
1
2
1
0
0
1
5
0
0
1
6
1
6
0
1
4
0
0
1
2
0
2
2
0
1
0
2
2
6
3
4
0
3
1
0
1
2
0
3
0
1
0
0
0
1
0
2
2
2
0
1
0
1
1
0
7
0
1
0
0
7
1
4
3
5
1
0
2
0
0
1
4
4
0
2
0
1
0
0
0
0
1
0
0
1
4
2
3
0
0
1
2
0
1
7
1
0
6
0
2
1
0
2
1
0
4
2
0
0
0
0
1
3
0
0
0
0
5
3
1
2
0
0
4
3
0
0
0
4
0
2
4
0
1
2
0
0
5
2
3
0
4
0
3
3
1
2
0
2
0
1
0
0
0
1
0
0
0
0
4
1
4
2
1
0
3
4
1
1
2
0
0
4
0
5
0
1
0
2
1
1
1
0
0
0
0
5
0
1
0
0
0
0
1
0
2
0
4
0
2
0
0
3
4
1
5
0
0
0
2
0
1
1
0
0
1
0
0
3
2
1
1
2
2
0
2
0
5
1
2
2
0
0
4
1
0
3
1
0
2
0
0
4
0
0
4
0
3
0
1
1
0
1
0
0
0
2
0
1
0
1
0
5
1
1
2
0
0
0
4
2
0
7
0
0
3
0
2
0
1
2
1
1
0
1
4
1
3
2
2
2
0
3
0
2
1
1
0
0
2
1
0
0
1
0
0
0
2
3
4
1
2
0
1
1
4
0
5
0
0
3
0
1
9
1
0
0
0
2
1
0
0
0
2
3
1
0
3
2
2
0
0
1
0
1
3
1
1
2
1
2
5
3
0
1
3
7
1
0
0
1
1
0
0
1
0
0
0
0
0
0
0
1
1
1
3
0
1
3
4
0
0
1
0
1
0
0
0
1
0
1
1
3
4
1
3
0
0
1
1
0
3
0
2
8
0
0
0
0
0
0
3
0
0
3
0
8
0
2
4
2
2
1
4
7
0
0
0
0
0
0
1
1
1
0
2
0
0
9
5
1
2
0
0
3
1
0
0
0
1
0
0
0
1
2
1
2
4
0
0
2
1
1
0
0
0
0
0
1
0
1
4
0
2
0
1
0
0
1
0
1
2
0
2
0
0
1
2
2
1
1
3
1
2
0
1
3
2
0
0
1
5
0
0
2
1
0
1
0
0
3
0
1
1
2
2
2
3
0
0
4
2
0
2
0
0
1
0
0
2
0
1
0
3
2
0
0
0
0
1
4
5
1
0
0
0
0
1
0
0
2
0
0
0
3
0
0
0
1
0
1
1
3
1
0
1
0
0
1
0
0
0
2
0
1
0
0
2
2
0
0
0
0
3
0
0
1
1
2
1
3
1
0
1
3
0
0
0
0
2
4
1
1
4
0
0
0
1
0
1
0
0
5
0
0
0
5
1
2
4
1
1
0
5
7
0
0
0
1
1
2
3
1
1
0
0
0
0
0
2
0
1
1
4
2
2
1
2
1
3
1
4
3
0
0
1
0
1
0
0
0
3
0
1
0
0
1
1
1
1
1
0
0
0
2
2
0
0
0
0
7
0
1
1
0
3
0
6
1
1
0
0
1
0
0
2
0
3
3
4
6
0
0
2
2
4
1
5
3
1
0
2
0
0
3
1
5
0
0
0
1
0
1
1
5
0
4
2
1
1
5
0
0
0
1
0
1
1
4
3
1
0
3
4
2
3
2
1
2
1
0
0
1
1
0
1
0
0
1
0
0
0
0
1
1
0
0
2
0
1
0
4
0
1
0
1
0
0
1
3
0
0
1
1
1
0
0
3
1
3
4
0
4
0
1
2
1
1
0
2
0
2
0
2
0
1
6
4
1
0
2
3
0
1
2
4
0
2
0
0
1
0
1
0
0
3
1
2
2
0
0
0
0
0
0
0
1
0
1
0
2
1
1
0
1
2
1
2
0
2
5
0
2
0
3
1
3
2
1
0
0
0
0
0
3
1
0
6
1
1
4
0
3
1
1
2
4
0
0
0
0
0
1
0
1
1
1
1
0
3
3
0
1
0
0
1
0
3
2
0
0
0
2
0
0
1
2
0
2
0
2
1
3
0
1
0
6
0
2
0
1
4
0
2
0
0
0
0
0
1
2
4
1
0
2
0
0
0
0
0
2
0
0
1
0
0
1
2
0
0
0
1
2
1
2
3
0
0
1
1
4
1
3
7
5
1
3
1
1
0
3
0
0
2
0
1
3
4
0
2
1
2
0
0
0
2
0
2
0
1
0
3
0
0
0
0
0
0
0
2
5
0
6
0
1
0
0
0
0
1
0
1
0
1
1
0
0
1
1
3
0
1
1
0
2
1
0
0
5
2
2
1
2
1
0
0
1
1
2
0
2
0
1
1
0
0
1
2
1
0
2
0
0
0
0
0
2
0
0
1
0
1
0
1
0
0
0
1
4
2
3
1
2
9
2
0
1
3
2
1
0
4
0
1
2
1
1
2
4
4
1
1
0
1
0
4
2
2
4
2
3
0
0
1
0
2
3
0
2
1
0
0
0
0
1
2
0
0
3
0
0
2
1
2
2
0
1
1
0
0
0
2
1
2
3
0
0
1
3
0
2
1
0
0
0
1
2
0
1
0
0
0
4
5
0
0
0
4
3
3
1
3
0
3
4
1
9
0
0
1
2
0
0
0
1
0
0
1
0
0
0
1
1
0
0
1
0
0
0
0
0
1
2
0
1
6
1
1
0
5
0
0
2
0
2
5
0
2
4
1
0
0
1
0
4
0
1
0
0
0
1
1
0
0
9
0
1
6
0
4
2
3
1
1
0
1
2
0
0
0
2
3
6
0
1
0
0
0
0
0
0
1
0
2
1
0
2
1
0
2
0
0
0
4
0
0
1
0
2
1
1
3
2
0
1
3
4
1
0
0
3
0
0
6
1
0
0
2
1
3
3
3
1
0
3
5
0
5
2
0
1
1
1
0
0
0
4
0
1
2
0
1
1
1
2
1
0
3
0
1
2
1
0
1
0
1
4
1
1
1
5
1
2
3
2
2
1
0
1
1
0
3
2
1
0
5
1
7
2
0
1
0
1
0
6
4
1
0
1
0
0
2
0
1
1
1
1
0
0
3
1
3
5
2
0
0
2
0
8
0
1
3
0
4
0
3
2
1
1
1
1
0
1
5
3
0
1
4
0
3
2
0
2
1
2
0
2
0
0
0
0
0
1
0
1
0
0
3
0
3
4
7
0
0
2
0
0
0
0
5
2
1
0
0
1
0
0
0
1
2
1
1
0
1
0
1
0
2
0
1
0
0
0
2
0
0
0
1
0
1
0
0
1
1
0
3
1
0
0
0
1
0
1
8
0
0
1
0
0
5
2
1
0
0
0
1
0
0
3
1
0
1
2
3
0
1
1
5
0
0
0
2
2
2
1
0
0
1
0
2
0
0
0
0
7
0
1
1
7
0
1
0
0
0
0
2
0
1
1
0
5
0
0
5
3
0
1
1
3
4
5
0
3
0
0
0
0
0
3
3
1
5
1
1
1
0
0
2
0
4
0
1
0
0
0
1
0
1
2
0
4
2
0
2
2
1
0
1
1
3
0
1
7
0
0
1
3
1
0
0
0
0
1
0
0
0
0
0
0
0
1
5
0
0
0
0
2
0
0
0
0
0
2
3
1
1
1
2
0
1
0
1
0
2
4
0
1
1
0
2
0
2
2
0
0
0
3
5
4
0
0
0
8
2
5
6
2
1
0
2
3
0
3
3
4
3
2
1
3
6
0
1
0
0
0
1
1
0
0
0
0
1
4
0
1
0
3
0
5
1
0
0
1
0
0
1
2
3
4
0
0
0
0
2
2
0
5
0
2
1
0
0
3
0
4
0
0
0
0
1
2
2
1
0
1
0
0
5
0
0
5
0
0
2
0
6
0
1
0
3
3
1
2
2
1
2
0
1
0
2
1
1
1
4
2
0
1
2
0
0
0
1
1
2
1
0
3
4
0
0
0
2
0
3
0
0
1
0
1
0
1
0
3
0
6
1
1
0
0
0
0
0
1
1
1
1
0
2
0
2
0
2
0
2
0
0
0
1
0
2
1
0
1
1
0
0
1
1
3
3
0
0
0
2
1
2
0
0
0
5
1
5
1
0
3
1
1
0
1
1
3
1
0
0
1
3
2
1
1
0
0
0
2
5
0
0
0
3
0
2
1
0
0
0
2
0
0
0
3
2
1
0
3
1
0
1
0
0
2
0
0
0
0
0
1
0
1
0
0
0
0
0
2
0
0
0
6
4
5
0
3
0
1
0
0
1
0
0
0
3
1
1
0
5
3
0
0
1
6
1
1
8
4
1
3
2
2
1
2
0
5
1
7
5
0
0
0
0
4
2
0
1
0
0
0
0
1
4
0
1
2
0
5
0
2
0
0
0
0
0
0
0
0
1
0
1
1
0
2
2
1
0
0
4
5
1
0
3
3
1
0
5
0
0
0
4
1
10
3
0
0
4
1
0
3
0
3
0
6
0
0
0
2
4
0
1
0
0
0
2
0
0
0
0
0
0
3
0
4
2
2
2
4
1
0
2
0
1
1
1
1
5
1
2
0
0
1
2
0
0
0
0
2
6
3
1
3
1
0
0
1
0
0
1
3
3
1
0
0
2
0
0
7
1
1
0
0
0
5
1
0
0
0
1
2
0
4
1
0
1
0
2
0
6
5
1
0
0
0
3
0
0
1
0
0
1
2
4
2
0
2
1
3
4
4
0
1
4
0
0
2
3
1
1
1
2
1
0
0
0
0
2
0
1
0
1
0
0
1
1
1
2
1
