1195
1039
1045
950
906
970
791
831
786
850
828
850
832
737
781
750
744
688
752
695
701
813
706
733
700
658
678
673
651
695
687
711
677
614
667
608
620
657
549
608
650
606
611
621
584
660
582
584
580
603
648
578
594
506
593
576
595
561
601
593
542
585
577
565
591
562
527
554
500
531
498
543
513
539
512
546
505
509
533
553
497
579
475
588
536
456
536
493
522
544
548
503
594
518
516
523
516
529
568
486
509
501
523
445
539
501
441
501
495
538
549
476
460
440
454
493
488
481
527
451
451
528
524
408
502
478
447
407
491
473
497
442
478
453
446
546
469
457
410
474
447
493
409
478
343
457
419
371
437
476
488
466
480
406
488
404
512
466
454
382
465
465
478
448
376
486
402
383
463
388
489
434
404
462
420
453
440
399
506
438
405
448
457
453
434
362
392
419
326
333
432
430
438
460
475
393
381
487
411
345
474
341
388
433
413
411
432
395
461
414
451
363
393
433
422
470
442
460
422
467
430
430
346
360
324
400
381
406
413
417
384
420
374
380
445
443
357
371
431
389
352
366
385
414
367
410
360
371
377
413
417
399
388
381
365
357
357
404
360
360
403
347
371
373
390
408
365
411
386
313
395
420
399
364
306
388
365
351
414
307
369
393
347
400
387
364
393
355
362
340
386
362
393
338
406
380
345
352
353
408
429
375
374
441
407
346
431
363
328
327
340
411
372
378
416
410
285
403
457
344
373
311
428
406
318
423
369
414
377
316
286
330
368
290
278
317
394
387
369
355
271
314
348
348
259
321
318
260
342
387
311
337
363
333
319
235
397
318
368
404
388
293
350
240
384
243
320
286
327
395
310
401
349
376
308
312
243
311
312
362
344
345
319
358
325
325
362
326
330
330
339
299
344
283
329
271
341
280
325
309
356
344
384
277
267
349
319
327
330
305
337
266
328
298
320
295
303
348
270
286
308
263
281
311
228
291
341
303
319
289
293
287
275
341
194
290
300
288
383
305
288
353
309
238
229
280
226
338
312
333
319
281
238
326
319
342
226
266
235
268
358
208
272
281
250
308
325
329
340
306
293
235
282
250
352
275
285
280
278
206
346
307
274
312
213
362
336
314
239
225
272
238
325
264
295
254
292
327
311
228
285
238
304
308
234
371
329
282
319
232
316
236
322
274
322
284
346
316
347
297
299
292
172
252
286
221
312
283
266
312
274
236
237
259
255
296
286
313
298
350
256
291
266
179
191
166
335
289
235
333
286
178
276
263
307
194
221
216
239
333
310
252
254
282
296
280
271
277
292
286
274
227
203
206
279
173
242
283
293
318
276
241
186
265
234
335
264
309
299
263
288
265
281
231
186
315
289
234
201
276
256
242
209
256
307
223
338
244
221
274
273
230
205
182
240
238
281
201
178
313
247
254
326
336
257
257
318
219
280
274
287
222
276
279
253
284
197
259
176
228
230
209
264
203
256
282
272
160
199
274
228
276
234
231
246
272
332
344
237
224
265
257
170
289
274
219
307
273
282
255
307
197
318
236
283
213
287
258
276
238
237
290
284
218
284
284
282
282
209
235
185
202
265
244
189
241
256
206
265
174
184
250
294
276
303
188
320
307
231
277
193
212
304
305
251
259
203
181
210
167
266
313
229
314
285
133
261
216
226
282
216
212
272
236
254
140
269
261
256
197
296
263
218
185
231
230
199
290
259
202
262
244
205
217
201
186
274
231
226
235
188
198
165
252
221
252
218
156
189
234
222
187
196
165
262
264
289
208
216
138
196
259
248
245
219
179
259
166
300
220
187
243
220
278
170
163
110
284
223
227
215
185
235
206
281
202
172
245
181
209
228
313
213
264
270
162
246
287
252
241
261
271
180
239
183
287
134
166
228
299
216
266
252
260
217
217
215
214
139
178
181
165
132
165
226
213
245
201
213
169
206
213
108
125
282
163
221
182
173
169
133
237
155
257
226
262
231
180
243
256
148
277
203
220
251
191
265
171
212
220
236
216
105
274
289
226
163
243
172
205
147
254
181
136
212
207
104
255
258
236
253
227
215
206
150
222
255
223
189
217
237
224
219
219
208
212
196
242
195
174
193
136
184
194
105
206
207
209
169
199
272
220
204
269
185
194
192
164
177
199
226
199
237
185
199
208
268
262
211
180
224
175
210
229
204
228
199
210
243
169
245
156
146
106
243
180
161
190
258
228
134
209
215
234
145
202
143
194
154
223
189
214
204
211
197
198
200
195
192
214
209
146
145
223
157
193
254
105
204
243
196
217
206
162
232
253
225
205
154
150
246
213
153
247
244
189
212
172
210
222
235
188
133
167
207
174
213
169
164
160
210
299
233
193
211
183
161
185
210
163
209
181
175
216
202
194
211
158
227
214
165
206
240
258
204
173
167
201
162
204
167
232
221
192
209
221
207
187
158
178
220
245
170
259
174
163
182
130
180
214
189
215
199
136
144
143
198
273
138
146
172
166
79
242
243
201
182
63
178
143
116
154
119
153
120
190
196
172
155
165
166
220
130
173
204
209
171
117
151
116
151
169
165
143
158
197
170
185
242
143
133
168
201
162
197
263
161
221
203
182
246
128
245
109
195
134
187
139
184
245
133
191
195
225
191
199
198
64
146
173
161
180
176
201
157
220
149
161
192
141
163
186
138
234
183
135
148
93
161
167
193
175
185
167
200
209
190
171
204
205
237
197
183
194
156
115
143
211
213
206
212
163
152
155
234
127
234
200
159
240
100
147
181
216
179
154
164
166
198
183
152
141
131
165
207
207
217
84
203
209
116
208
171
179
197
201
169
119
196
182
131
154
161
162
182
156
144
175
183
191
214
201
188
168
120
171
147
169
207
139
96
165
141
135
214
208
201
171
150
188
157
135
82
171
227
221
205
133
142
127
107
175
234
251
153
155
147
120
195
192
166
190
143
112
157
179
170
125
109
140
121
139
194
192
135
145
131
116
129
159
183
230
230
76
201
167
138
152
184
170
105
134
174
190
165
178
147
68
124
191
185
147
172
171
214
166
211
168
166
181
196
240
141
188
199
187
136
185
163
121
80
85
218
108
89
204
74
87
81
155
164
219
150
178
181
63
241
117
149
194
156
139
157
152
88
177
148
148
113
99
66
211
170
130
172
214
118
192
93
135
142
164
192
147
105
116
172
144
108
165
184
90
68
144
143
68
152
165
206
85
67
76
161
172
126
117
216
153
122
177
168
144
137
195
162
84
169
189
177
203
131
196
114
125
164
217
127
140
197
172
198
165
175
160
134
82
208
145
100
214
150
116
161
187
110
56
137
116
135
135
154
140
202
116
190
177
155
170
142
151
171
114
124
190
149
154
144
188
163
148
69
129
132
157
177
113
178
145
158
163
197
179
194
135
77
89
152
177
188
136
105
155
179
156
142
180
129
174
157
182
183
112
106
204
194
157
151
162
176
158
123
136
162
179
162
181
196
108
144
162
122
102
121
165
154
84
181
209
116
120
179
157
141
136
69
103
91
164
179
91
123
76
114
151
118
133
198
132
113
210
171
121
134
102
108
88
183
116
122
159
145
112
153
92
141
166
161
190
148
96
123
139
132
80
145
115
94
185
194
100
113
176
128
183
177
185
94
124
138
63
52
173
166
91
130
157
161
91
163
120
99
129
173
122
154
92
121
118
167
92
178
156
141
145
116
199
111
122
110
178
172
159
164
129
150
94
123
171
135
170
161
166
147
129
142
89
177
116
90
113
171
141
164
156
118
164
133
147
91
179
207
107
132
119
131
161
124
173
85
77
173
122
125
176
180
105
163
85
114
179
102
109
152
83
166
141
83
111
153
207
55
123
156
119
146
177
158
119
148
145
117
177
121
47
90
182
112
96
119
121
127
187
121
176
135
141
100
100
124
104
144
128
86
218
122
179
200
136
112
161
178
167
142
104
189
82
108
189
48
132
53
114
105
147
102
149
99
159
119
164
141
135
167
127
106
163
153
159
96
126
158
159
126
151
150
144
186
108
99
182
108
173
99
168
118
134
157
169
95
182
134
106
82
94
116
169
125
100
119
53
141
150
117
125
97
111
184
114
117
81
196
109
64
104
90
68
154
59
137
127
107
73
145
124
201
179
140
176
126
166
182
120
72
105
99
76
118
132
185
117
128
155
141
110
156
133
89
110
81
159
108
152
153
99
59
79
111
134
139
135
120
129
99
110
197
189
156
190
95
72
177
97
161
143
201
178
139
107
118
95
168
151
194
88
92
140
95
115
107
116
190
125
122
79
160
174
159
106
82
112
210
149
160
158
75
140
146
142
170
76
72
163
60
126
113
160
97
129
63
78
125
137
131
154
149
83
73
103
81
76
144
107
109
174
43
56
68
113
96
81
129
135
120
103
76
63
53
128
154
93
63
169
110
164
97
149
93
117
172
164
115
101
97
88
148
51
80
161
43
90
135
81
96
104
125
162
72
111
177
137
89
114
145
163
135
32
104
193
103
73
122
128
124
92
156
74
193
187
78
157
123
145
154
183
178
96
152
133
70
132
172
106
90
98
120
112
101
40
130
189
146
99
82
94
94
77
164
147
161
155
96
164
112
106
75
169
148
138
148
180
106
119
87
75
180
137
93
108
102
161
103
94
110
161
84
95
164
85
138
90
69
126
48
132
163
128
132
99
165
143
58
139
123
104
121
127
143
57
30
71
92
58
67
98
100
46
92
78
148
142
85
140
85
68
174
65
87
143
129
138
82
94
109
85
111
138
104
154
69
89
132
81
101
86
44
132
106
138
93
141
154
155
165
64
71
93
103
146
107
139
135
96
134
134
142
87
106
47
181
49
91
131
114
75
120
133
96
111
66
119
91
109
93
106
159
101
118
69
107
89
87
99
114
121
84
131
84
109
154
158
140
43
95
179
97
133
93
154
112
103
49
165
121
124
87
54
107
115
106
101
145
91
140
176
139
106
109
81
101
64
183
96
96
130
124
155
74
62
117
162
35
135
117
61
96
111
76
70
157
68
64
155
109
154
99
120
110
173
54
104
60
106
120
51
131
115
91
107
109
89
87
136
72
115
87
102
92
113
79
39
102
96
147
161
63
130
54
76
90
110
121
125
71
106
89
73
75
90
137
92
65
115
131
120
118
71
63
82
124
29
133
152
94
172
58
134
81
153
62
55
102
127
136
50
113
78
154
112
136
146
107
128
85
118
83
71
115
114
86
107
97
98
81
44
76
155
149
101
158
134
96
129
72
75
131
106
121
86
102
51
61
125
68
88
82
122
50
116
95
129
134
127
125
118
57
115
35
118
122
127
106
90
81
95
140
137
188
76
132
98
119
81
134
108
93
96
76
148
86
135
69
122
119
69
149
128
103
104
116
117
87
103
159
88
80
93
109
94
64
82
163
123
86
91
80
125
62
92
84
59
136
97
123
99
77
161
100
110
130
40
136
120
109
74
95
69
48
102
139
160
90
131
117
100
54
89
77
76
109
38
89
68
76
143
116
61
26
106
39
64
79
118
115
86
42
117
67
112
77
81
76
106
114
81
60
119
137
61
111
77
106
68
164
165
76
42
58
73
103
28
76
147
91
64
47
80
104
87
75
91
94
102
64
55
64
90
152
66
100
87
129
94
102
36
117
134
52
170
103
34
63
67
92
109
134
108
80
111
83
119
118
58
97
72
125
127
100
100
79
55
73
72
28
74
50
141
94
128
66
137
99
87
113
47
97
121
122
170
125
124
46
99
104
141
106
86
105
56
121
68
121
82
142
96
122
93
86
48
103
85
56
97
146
134
99
74
79
113
94
116
142
120
110
119
132
51
64
79
108
144
52
116
63
66
139
97
130
72
55
66
54
117
22
52
84
118
48
158
94
99
73
107
96
129
104
76
83
60
98
129
36
37
123
129
93
112
122
114
44
63
86
34
72
103
134
60
104
47
83
95
129
65
107
113
77
77
125
132
141
55
59
81
104
50
96
96
90
129
122
51
50
58
81
68
90
43
75
47
127
100
94
82
21
90
81
89
76
107
113
85
37
104
70
118
124
60
94
100
154
150
52
64
118
117
106
66
142
70
123
137
156
103
135
76
166
42
97
122
83
83
88
72
102
140
47
67
52
87
61
124
72
123
126
119
89
70
116
122
76
95
115
93
96
91
81
105
29
73
117
74
46
49
53
129
94
111
87
79
51
124
127
49
99
50
93
68
68
64
51
138
86
93
41
136
131
136
76
119
107
104
70
50
104
136
49
71
100
99
63
65
143
74
95
68
51
92
136
103
78
72
101
56
91
124
124
55
140
51
95
142
126
100
131
38
131
75
27
91
89
94
62
103
136
69
97
115
42
130
54
68
100
62
94
54
41
68
72
73
100
70
101
104
101
88
139
131
116
83
142
52
73
87
111
76
55
89
122
102
81
99
67
76
77
98
58
88
78
121
132
55
45
72
111
112
48
90
92
38
94
122
137
79
122
68
84
69
71
54
20
131
91
89
32
32
43
35
125
130
31
73
97
56
94
125
68
90
88
108
68
97
89
102
89
56
77
85
72
69
48
136
77
96
102
90
104
104
114
32
82
81
89
45
73
120
60
78
42
56
53
41
46
46
86
80
46
108
55
103
86
126
91
93
39
91
124
84
79
94
68
116
69
38
112
129
70
47
114
63
139
141
55
112
75
96
89
73
111
57
107
147
111
57
74
114
93
68
58
96
46
100
64
72
46
69
88
74
70
49
129
111
114
62
46
92
110
109
104
51
60
73
92
115
39
108
146
115
62
65
42
102
112
83
94
58
49
64
73
131
87
49
56
107
78
121
88
83
78
65
49
161
71
98
113
74
101
59
102
66
116
64
88
108
116
70
87
93
56
72
51
55
53
120
80
47
108
122
80
54
54
130
106
103
82
95
70
50
67
85
79
74
52
87
109
86
48
105
100
55
47
67
28
50
59
86
53
114
138
71
140
86
111
111
109
70
86
36
156
60
117
109
76
82
136
103
58
110
101
109
66
96
163
41
72
66
34
100
64
79
87
43
80
70
76
95
78
68
107
20
85
64
68
116
40
108
95
66
78
79
87
110
86
134
68
114
139
61
16
46
67
16
101
33
74
84
93
76
66
96
108
86
69
55
80
105
44
115
68
19
50
34
61
85
62
127
76
122
106
47
64
122
72
50
74
117
124
35
104
123
121
107
126
82
29
88
84
66
47
74
108
72
66
63
83
82
115
111
49
87
39
56
47
44
103
91
96
44
81
105
54
134
114
28
63
79
77
66
79
122
71
110
123
94
48
30
87
93
38
67
44
28
51
67
92
67
124
129
73
93
61
49
70
57
54
56
59
74
73
52
90
104
74
116
89
132
100
111
71
134
122
30
39
97
107
51
50
89
104
91
26
31
109
65
46
52
96
106
35
87
63
74
89
23
120
110
21
95
80
90
27
108
47
32
49
69
90
74
109
104
98
119
128
104
59
54
93
85
109
99
113
67
35
70
59
57
109
28
32
73
50
69
126
128
115
114
53
51
108
48
114
106
71
47
27
82
72
29
100
87
86
72
79
46
89
131
25
89
35
99
69
118
83
110
59
40
113
58
65
120
51
57
27
47
84
98
79
65
86
77
67
40
102
72
90
85
73
60
30
86
26
43
79
29
55
108
61
83
51
80
100
45
79
44
43
15
108
83
40
62
93
76
77
53
70
53
76
69
80
58
91
104
68
82
34
95
63
115
92
68
70
36
92
56
63
108
69
35
69
68
35
53
42
111
52
53
113
71
72
61
76
98
54
76
43
102
47
73
99
59
41
102
43
129
81
37
125
88
87
40
85
66
57
125
116
116
93
82
48
106
68
71
83
53
37
73
31
79
36
57
55
59
68
50
30
90
18
25
23
82
86
64
104
105
46
72
53
44
93
94
71
93
91
64
81
20
35
92
59
92
62
36
70
52
107
53
38
82
49
64
102
87
100
49
92
66
90
52
111
63
68
52
79
68
116
63
90
103
43
77
52
41
108
75
69
82
68
81
78
55
86
83
68
74
136
83
79
89
91
119
83
98
82
46
65
58
62
60
41
105
114
67
38
110
116
93
67
47
62
33
63
70
76
85
57
37
55
48
56
38
112
118
57
37
53
49
106
45
45
50
56
85
53
101
68
54
68
51
57
48
53
38
100
105
114
22
73
97
98
59
51
43
60
68
62
93
74
113
23
74
31
72
59
59
81
76
83
94
24
57
26
103
43
57
93
83
41
62
28
37
118
64
47
53
86
78
72
62
73
22
106
50
57
37
66
42
60
79
46
88
105
88
43
40
65
88
92
41
45
70
50
69
96
80
63
114
105
61
116
69
88
70
81
53
89
44
78
41
45
44
49
89
22
47
42
86
78
30
94
32
56
101
44
101
61
58
109
50
35
80
81
53
101
63
50
67
28
26
96
82
46
74
49
84
21
81
80
58
53
91
49
61
64
56
69
84
110
40
83
91
55
58
29
24
77
102
89
85
80
63
46
50
92
34
47
62
77
26
43
103
66
64
28
87
63
106
57
57
53
26
76
61
65
31
106
70
104
36
27
123
93
54
57
28
41
67
84
60
31
18
59
60
33
76
59
77
67
47
52
122
74
70
39
101
26
35
76
44
92
16
53
70
97
70
49
73
25
94
47
82
49
66
115
53
70
63
139
81
97
21
25
103
72
66
117
116
110
85
70
50
92
93
51
19
107
27
28
28
23
103
64
54
52
120
80
28
76
49
40
36
41
41
41
65
44
28
33
53
46
43
85
49
54
62
81
83
83
54
53
40
85
80
74
69
136
57
74
44
62
74
25
52
9
94
67
32
49
68
120
33
32
70
77
92
59
63
102
74
30
96
78
37
110
23
74
71
59
44
41
62
93
16
24
65
52
38
93
25
93
71
36
39
35
55
69
48
96
86
69
42
48
51
89
79
41
42
60
108
29
49
37
69
57
57
104
81
102
84
43
76
59
64
83
42
96
59
57
27
79
53
84
50
64
58
52
87
34
99
66
119
121
27
66
18
56
91
85
90
114
21
80
57
42
33
57
46
66
25
55
69
54
49
51
67
73
72
60
74
74
32
64
87
72
26
72
23
120
68
60
77
63
84
78
76
50
41
22
55
60
92
72
101
47
58
45
45
71
39
106
45
86
17
79
75
88
49
102
44
54
66
26
104
43
37
35
17
73
59
77
117
44
105
52
53
47
62
68
98
62
85
80
65
47
75
66
63
42
79
70
53
48
23
35
45
11
59
66
68
57
126
40
73
69
68
36
36
65
65
36
34
53
83
61
56
41
68
47
65
63
39
52
61
74
53
65
98
92
49
47
97
64
92
85
54
103
58
95
78
93
87
30
47
56
43
76
97
79
55
18
35
51
45
49
50
29
57
50
99
88
52
102
87
58
63
64
47
39
28
61
96
47
36
39
84
70
55
86
48
69
85
103
29
44
54
36
42
82
44
61
96
40
9
48
22
58
83
15
83
57
23
58
54
93
76
29
30
54
59
72
101
68
90
73
85
91
53
36
60
36
42
53
62
35
65
54
74
51
54
86
65
77
70
10
37
64
52
52
58
58
61
64
49
42
17
17
55
91
70
97
45
71
57
64
77
42
66
70
84
50
116
77
81
47
26
37
83
49
38
24
18
52
84
47
58
38
71
81
44
92
25
80
22
44
35
32
33
61
64
86
80
81
28
46
70
18
47
38
40
78
55
63
48
85
27
33
77
36
41
66
61
20
12
58
76
55
65
83
38
45
25
105
32
84
47
107
35
62
88
9
110
48
28
51
52
88
66
71
37
38
98
59
50
53
71
37
56
62
60
97
30
24
60
74
45
40
36
61
27
90
57
48
51
45
58
64
31
91
44
53
13
65
47
70
77
17
96
90
18
43
49
74
94
89
77
60
80
59
75
46
49
41
42
23
28
49
98
80
67
61
82
55
61
78
43
54
49
44
48
60
67
86
60
39
31
35
20
24
29
49
48
14
54
38
64
31
60
49
68
41
53
51
15
11
76
85
39
63
72
41
50
53
67
62
61
37
83
39
12
106
62
76
66
96
85
119
106
90
60
53
63
53
44
33
24
45
43
68
32
78
28
41
49
68
59
16
76
44
70
67
18
82
91
27
37
87
67
26
51
45
18
50
91
31
42
45
47
44
26
47
73
19
108
30
40
65
45
55
54
43
28
50
21
67
78
31
46
62
45
57
29
48
92
41
14
75
78
17
49
54
65
83
62
40
91
29
64
47
72
11
86
52
62
46
51
81
35
49
68
15
75
43
61
71
53
60
48
30
66
61
26
46
80
38
24
34
95
99
37
59
92
39
70
17
14
37
74
60
37
66
57
45
53
30
60
45
86
20
90
102
50
70
47
38
29
51
63
60
93
63
26
36
55
68
40
47
34
30
51
76
18
45
48
40
70
83
15
41
23
82
58
85
78
66
53
50
110
42
13
68
45
40
34
48
70
10
34
70
41
82
34
55
21
38
65
37
71
37
72
23
42
27
28
86
60
58
70
62
53
61
43
64
43
56
61
36
22
51
68
76
48
22
84
49
89
18
25
75
74
34
76
35
45
36
61
44
50
29
18
26
36
43
24
31
37
63
32
38
41
85
12
102
49
66
42
61
101
48
12
74
60
36
31
74
60
32
91
42
70
7
53
29
51
83
73
53
43
47
55
39
90
46
29
83
26
28
25
25
52
27
57
39
32
26
22
58
66
47
42
58
36
73
13
39
32
83
33
74
70
69
75
64
44
36
40
83
26
40
77
78
96
51
50
80
78
48
73
85
103
27
25
65
58
52
40
49
90
33
72
64
29
56
44
46
35
39
52
51
32
68
36
49
51
25
87
65
51
58
58
41
36
35
81
79
14
56
33
20
37
85
45
29
31
26
36
44
53
51
62
38
97
72
44
32
58
57
54
77
75
35
64
60
52
46
43
77
71
45
80
55
37
46
42
64
39
15
18
54
64
54
51
42
20
93
33
48
55
11
35
69
45
41
58
22
29
70
62
31
21
25
46
85
55
45
44
20
54
83
28
56
48
15
59
106
84
52
57
66
18
15
54
23
23
73
46
14
90
47
64
52
32
41
20
51
48
88
60
40
62
42
53
49
58
10
49
33
13
52
93
50
36
38
41
53
20
36
45
33
48
73
70
70
72
56
22
64
72
25
32
70
39
76
13
66
47
26
60
26
94
69
62
39
41
61
51
95
27
53
41
67
82
51
44
40
14
24
58
63
60
18
95
30
52
48
9
26
52
28
39
56
55
32
41
62
38
51
81
66
28
35
33
20
25
38
38
34
64
27
22
43
40
52
33
49
50
23
32
52
30
16
32
74
30
28
57
25
42
35
24
45
37
17
18
43
54
38
69
46
30
45
56
45
28
28
58
20
9
42
85
61
42
57
73
83
56
39
31
32
38
22
20
57
13
38
33
57
39
56
69
67
89
36
54
18
11
87
53
57
92
63
23
33
15
68
12
22
42
49
43
42
52
55
32
38
85
79
75
41
16
47
41
53
74
72
49
65
66
39
47
50
60
21
56
76
76
54
36
32
40
10
31
36
8
86
60
34
76
102
66
47
26
65
52
39
38
16
54
44
37
75
43
66
17
23
43
18
41
10
44
45
41
56
30
39
76
35
39
61
55
59
51
56
53
25
51
39
43
44
30
30
38
33
40
17
11
37
64
10
57
59
17
30
42
62
24
49
44
17
42
71
95
41
52
45
74
59
44
38
35
33
85
64
6
45
24
55
41
104
37
47
27
30
52
36
73
36
62
17
25
75
34
80
24
19
43
32
60
24
43
56
29
61
54
40
74
65
69
56
32
35
82
45
26
32
53
81
81
75
31
30
21
40
37
9
53
35
18
28
24
41
60
38
35
53
102
79
38
63
75
71
78
58
24
65
44
64
47
18
79
48
43
72
48
38
34
46
86
23
16
33
23
37
62
82
47
64
13
33
77
16
30
35
38
43
24
32
36
89
33
81
65
84
60
14
76
44
77
62
35
18
61
43
41
32
49
41
30
57
78
58
44
15
58
11
28
26
32
33
27
29
31
51
19
40
19
64
82
88
32
55
25
27
21
58
46
36
53
32
53
21
28
31
46
35
63
57
36
20
76
47
59
73
49
52
56
71
43
47
75
80
21
58
42
50
35
74
61
45
36
19
43
14
61
45
43
62
64
63
18
48
39
26
50
41
33
43
21
87
21
17
68
52
50
9
68
46
25
60
71
64
42
18
59
18
66
11
44
19
29
87
58
35
62
51
48
44
50
47
54
35
46
39
49
40
43
52
48
33
46
70
24
46
34
71
72
43
61
90
45
29
12
38
5
53
48
41
54
50
48
86
31
24
55
22
23
25
20
40
25
37
26
15
11
86
83
49
60
68
67
9
70
8
23
36
60
49
39
14
49
24
23
41
33
19
76
23
62
71
29
33
28
58
62
46
55
24
31
59
41
41
54
43
48
51
20
31
37
42
14
20
23
53
27
50
41
33
32
21
74
57
77
51
32
68
20
62
65
65
10
32
5
10
10
21
62
34
41
28
20
7
45
59
45
29
77
34
23
33
87
80
15
35
24
93
49
64
32
27
8
6
23
70
22
44
36
69
63
59
28
42
28
29
62
46
56
89
18
52
76
55
36
30
29
39
28
32
56
63
62
66
74
23
43
44
52
28
29
35
76
48
55
31
58
48
30
22
56
22
23
50
38
17
57
15
17
16
68
7
33
72
20
77
40
33
21
20
87
43
45
52
59
67
75
69
45
49
79
82
48
32
42
41
32
56
62
22
8
17
36
33
38
27
64
21
27
42
41
67
42
37
21
40
49
20
18
38
44
47
26
87
39
21
38
25
48
12
32
46
43
29
17
23
28
37
40
61
44
22
31
19
57
26
46
45
56
86
83
72
12
59
56
10
20
39
33
74
46
66
51
20
68
45
65
79
52
61
33
54
38
25
37
43
31
78
48
51
21
33
43
27
33
55
44
13
29
18
26
40
29
26
15
27
58
16
16
18
29
70
43
21
68
11
49
30
45
56
20
61
62
31
25
80
34
52
55
19
23
39
39
83
38
55
60
61
59
13
17
27
53
32
48
20
39
29
62
42
26
55
16
4
36
25
45
22
14
52
48
16
79
30
36
52
35
40
52
79
44
58
41
47
67
33
34
26
39
63
29
39
35
32
38
48
18
30
26
31
26
56
61
5
22
42
51
30
27
51
46
29
24
74
48
41
44
30
22
47
16
62
71
81
79
109
45
67
77
60
37
11
52
46
63
30
27
32
57
52
54
49
78
45
9
58
20
59
7
12
22
23
33
15
12
25
49
41
18
17
63
38
29
24
28
20
50
43
50
26
29
47
51
34
85
19
82
47
2
34
22
20
48
73
31
76
11
44
29
34
27
27
26
5
39
19
62
57
29
38
45
34
12
24
20
37
17
39
45
35
56
47
65
21
31
62
30
79
34
26
41
9
58
71
18
66
29
46
24
38
38
30
46
14
18
28
36
15
10
24
29
41
11
34
34
39
17
58
29
65
44
54
21
42
37
24
12
89
20
28
50
27
39
51
54
37
21
43
17
77
51
36
65
30
34
34
75
32
29
30
15
24
55
26
29
53
24
65
23
68
45
72
17
20
62
7
50
32
32
51
49
49
27
52
26
43
48
14
23
31
44
42
25
11
20
71
32
31
39
53
46
28
5
18
38
57
64
54
22
64
37
39
36
71
43
50
33
29
58
45
8
56
43
25
53
25
21
40
30
66
23
44
18
63
18
39
43
34
40
62
10
41
56
11
49
33
43
58
64
50
57
41
13
16
49
43
45
17
37
23
36
27
30
9
62
56
64
69
33
46
10
25
47
33
49
9
53
12
60
28
35
19
35
56
40
27
29
23
18
50
19
33
36
57
35
26
18
63
28
36
18
65
61
27
38
57
14
38
70
30
37
45
59
22
24
45
36
55
15
5
6
47
20
26
37
15
17
16
26
10
17
23
11
9
25
61
26
28
18
43
34
50
48
26
14
36
33
15
72
22
13
36
47
27
19
37
28
39
20
38
28
61
36
19
24
26
22
50
41
44
43
16
30
15
25
9
7
66
25
53
57
16
6
16
11
26
44
25
48
42
41
28
72
67
24
16
30
7
33
11
50
22
29
20
25
29
16
47
26
7
44
42
77
24
22
25
31
30
7
21
47
41
30
50
35
28
35
49
43
23
32
36
38
60
20
30
59
43
8
44
57
6
24
64
18
11
36
22
36
45
36
54
6
11
52
35
36
53
52
62
31
12
59
34
12
56
35
37
77
29
17
44
16
51
16
45
22
43
40
67
16
6
31
21
28
28
53
27
48
25
9
36
68
59
14
69
24
33
24
42
39
22
34
69
33
24
42
45
76
47
22
20
50
41
64
23
14
30
63
33
34
25
47
21
43
58
30
30
62
24
43
46
38
7
7
15
37
52
6
12
44
23
17
25
64
57
33
35
48
36
10
38
43
49
65
36
69
8
60
46
58
62
15
52
50
42
32
33
15
13
42
58
57
56
53
62
8
32
35
5
18
34
27
55
13
22
42
29
48
23
39
37
38
34
41
35
40
21
30
25
29
34
26
34
4
27
4
50
46
38
27
12
37
27
20
21
23
24
61
13
32
42
9
44
36
28
10
29
55
34
43
75
30
24
11
37
11
39
52
36
27
29
38
63
26
5
51
35
36
30
17
45
20
69
35
29
44
56
30
17
13
28
28
43
41
10
25
32
4
41
41
42
34
36
53
45
48
26
64
20
43
51
36
25
59
24
21
27
16
38
24
43
23
29
40
25
39
23
31
21
36
22
13
58
8
31
45
15
23
6
38
3
26
30
62
38
28
45
16
41
52
19
60
57
22
64
52
37
16
27
26
77
34
27
25
41
23
35
19
37
57
30
26
22
50
56
45
8
29
23
41
25
30
12
27
39
29
56
50
44
42
27
23
33
24
34
11
26
36
37
26
33
79
44
20
23
12
18
54
59
19
27
60
49
45
46
11
15
43
14
28
20
15
8
46
27
47
20
22
7
33
39
43
39
35
28
31
27
39
27
19
46
11
29
22
57
6
15
38
33
19
37
59
35
44
33
23
3
55
64
23
22
22
32
29
34
15
18
26
51
38
37
28
28
38
16
17
14
52
20
19
27
48
37
33
21
38
22
15
13
18
11
17
11
20
8
26
21
30
20
25
37
33
28
43
57
30
50
24
37
21
29
25
38
50
20
19
39
47
22
28
31
31
43
25
25
18
34
23
59
27
21
53
42
51
39
28
46
20
10
49
21
36
20
39
36
42
27
38
28
52
31
65
59
39
17
34
45
24
35
30
28
16
39
38
31
18
27
35
52
27
23
28
29
16
30
20
20
30
52
31
24
24
58
50
26
66
38
39
11
4
39
16
36
42
11
25
15
27
30
31
9
39
46
19
17
11
24
28
33
18
59
58
7
40
34
20
36
29
26
37
17
52
22
31
25
39
48
10
58
35
29
70
69
13
38
10
42
12
28
3
29
11
20
46
54
84
46
72
28
58
52
37
15
47
17
54
21
48
32
25
21
14
16
19
53
18
35
21
40
33
21
14
19
8
18
35
13
17
15
9
31
30
32
20
54
48
35
27
42
33
21
32
12
42
23
34
13
17
7
9
29
30
5
34
23
32
40
14
65
18
13
18
38
41
36
39
21
31
24
28
16
53
34
33
22
17
48
32
24
40
39
40
27
20
36
7
50
17
38
24
20
14
24
30
25
41
29
23
20
10
36
24
23
12
41
55
31
10
56
38
50
6
9
32
53
21
31
45
29
31
43
30
50
50
31
8
28
67
12
10
23
28
20
17
8
19
25
29
13
5
13
10
49
26
17
13
70
7
33
41
26
25
61
40
38
10
43
48
14
18
57
29
43
23
12
10
11
30
64
11
44
23
18
17
78
24
34
11
44
41
49
9
36
53
23
50
52
55
25
17
33
38
27
31
37
35
15
53
37
28
58
51
28
24
25
23
56
72
52
17
26
52
23
38
43
60
31
26
16
65
41
46
23
44
9
31
22
16
17
29
11
10
28
49
34
43
63
72
13
39
51
33
38
18
43
13
32
30
27
17
43
55
26
15
41
34
40
21
19
37
25
18
15
12
17
23
15
72
64
12
46
28
44
56
34
47
15
20
34
28
31
44
26
41
54
18
28
34
31
26
23
43
55
47
25
31
51
19
9
41
61
47
48
31
13
45
57
21
30
18
13
11
37
30
29
49
23
34
21
11
15
22
33
38
28
33
3
19
33
28
43
10
26
9
29
10
32
14
22
31
6
19
51
3
31
57
51
62
64
17
49
36
16
28
39
44
33
23
23
10
53
14
16
58
32
6
36
39
40
39
14
41
38
51
42
27
46
51
39
43
28
34
28
31
16
19
26
28
24
22
6
34
36
62
30
29
13
68
10
2
32
18
30
36
22
51
46
22
26
56
10
20
5
34
30
40
17
18
17
32
17
22
50
47
2
47
51
12
22
14
47
17
24
17
23
37
32
11
21
13
21
63
8
3
19
29
13
50
34
4
17
66
39
48
43
25
40
19
26
17
22
36
16
21
29
51
10
37
58
39
23
16
9
19
35
17
31
17
39
17
10
26
38
45
21
36
9
16
52
32
18
42
53
45
45
19
38
12
26
15
8
31
13
13
30
7
34
23
19
13
19
55
61
47
12
18
48
9
20
39
34
31
70
14
20
66
42
34
44
27
47
42
47
39
5
34
28
20
23
15
23
15
38
64
15
34
35
14
18
17
47
18
12
57
10
55
34
42
44
21
34
28
39
34
36
43
21
15
43
59
36
30
22
50
10
20
17
16
33
25
26
19
43
38
12
7
66
17
5
24
18
73
30
20
33
16
8
33
43
15
26
37
12
25
17
17
37
27
43
18
8
22
66
31
29
6
49
54
42
27
29
26
35
16
35
27
57
15
11
13
31
20
26
16
62
56
28
52
12
41
10
44
12
13
3
19
26
15
30
29
26
13
41
25
10
38
25
38
24
55
44
3
22
25
33
31
67
37
22
29
9
33
8
66
67
35
46
34
67
32
32
24
19
30
32
14
20
5
49
23
32
14
11
30
43
27
58
19
40
29
27
17
15
22
50
28
25
31
16
38
64
26
35
31
13
37
37
24
5
12
27
67
37
32
58
29
4
16
24
24
17
52
33
25
33
32
42
23
28
7
47
21
43
22
25
36
47
16
47
53
23
35
20
26
39
5
31
40
22
22
21
38
18
20
30
47
16
23
22
42
60
37
11
24
25
13
33
39
43
45
28
19
11
6
17
27
14
32
30
22
16
1
13
28
11
11
65
24
36
11
25
19
54
21
2
23
37
20
30
44
33
18
21
24
17
10
10
11
0
16
14
28
56
18
58
20
8
14
30
69
4
23
58
54
30
7
38
33
8
10
5
43
3
36
16
20
25
23
19
28
23
12
29
26
17
2
40
25
20
26
35
7
4
23
30
20
33
42
35
27
48
35
61
37
19
16
9
22
27
25
19
19
3
22
30
23
25
32
47
20
22
36
50
39
61
27
26
16
32
55
34
15
18
32
24
32
52
51
38
36
37
31
7
10
34
1
12
32
37
30
41
28
29
52
60
12
7
2
58
19
11
32
21
12
14
26
8
29
22
42
19
32
36
27
9
65
12
19
25
14
42
26
13
26
40
56
15
11
37
32
40
18
26
4
19
49
5
55
41
5
43
8
17
24
16
25
20
30
4
16
12
34
33
17
22
18
17
7
39
68
4
14
15
37
10
50
51
4
17
19
10
42
32
19
22
11
42
26
14
6
14
23
14
17
19
50
16
43
20
8
11
26
19
15
19
35
26
16
19
44
52
21
19
13
46
17
7
20
26
22
62
21
35
27
32
34
40
32
14
15
39
17
9
36
21
13
24
18
6
14
27
11
30
41
25
22
24
11
57
20
5
8
25
30
29
33
27
6
38
18
18
13
10
21
4
7
2
35
46
11
23
18
59
36
8
13
36
25
50
9
16
28
34
13
20
19
18
11
22
17
16
10
26
8
20
41
11
22
18
49
12
26
40
51
12
21
8
4
46
15
30
10
7
17
2
61
49
24
32
29
21
10
24
31
20
35
32
13
24
38
37
14
11
32
23
18
26
31
23
30
36
27
21
10
20
42
7
14
21
32
17
4
17
18
38
36
47
11
36
17
36
6
22
21
22
21
7
14
17
8
33
20
24
25
14
34
33
14
26
25
9
38
39
33
15
35
23
20
18
20
32
12
42
38
47
15
40
20
55
14
5
44
23
17
15
38
18
47
59
21
30
15
23
7
21
23
26
34
28
37
29
15
30
27
6
63
34
50
8
18
15
24
17
22
10
12
28
32
44
19
13
32
32
38
28
49
28
7
7
23
34
21
40
16
22
10
15
7
35
25
6
13
32
23
19
52
30
18
29
14
28
14
31
41
24
5
22
47
41
61
6
29
19
16
37
51
42
26
10
59
20
22
16
27
32
7
32
50
6
14
15
14
20
58
16
10
4
8
28
21
29
46
9
25
17
11
42
2
31
25
12
33
50
22
48
13
6
47
52
56
36
24
49
50
19
18
35
11
22
51
16
16
19
26
22
20
7
21
16
30
30
23
15
28
31
10
41
20
34
10
11
35
21
25
18
39
56
22
4
58
14
18
32
21
13
5
26
30
18
12
41
9
44
36
17
11
27
36
35
31
33
33
18
16
19
22
50
15
40
20
35
19
17
38
37
18
30
23
19
27
31
53
16
34
20
32
20
38
19
40
42
2
25
10
35
29
18
25
16
28
33
24
43
24
30
22
58
21
7
60
18
28
30
19
37
36
21
14
35
39
27
8
17
8
28
45
40
24
26
42
30
3
9
57
30
31
20
26
23
18
18
3
4
18
6
9
5
35
47
35
31
17
2
46
18
5
10
22
24
21
26
15
29
13
6
16
28
20
22
17
7
11
6
21
2
6
39
30
22
38
17
37
29
20
7
7
31
11
42
38
27
14
30
6
21
20
34
44
20
7
48
18
11
27
25
27
14
22
24
18
34
23
44
14
22
12
6
38
21
15
10
17
19
47
41
17
15
40
48
21
37
7
23
19
6
20
21
3
6
11
32
47
36
33
9
33
29
52
19
31
27
11
14
57
9
20
35
7
28
23
30
15
38
44
28
31
25
37
38
9
12
28
10
8
15
31
23
5
0
27
26
37
22
33
19
51
23
7
14
14
25
47
33
24
54
26
39
39
23
6
13
33
21
30
18
23
12
41
21
31
15
15
10
17
23
26
38
16
34
36
31
6
14
41
17
5
11
13
28
43
45
44
27
20
21
24
53
30
22
32
57
19
21
5
14
19
27
31
27
34
6
23
22
15
33
51
10
13
34
9
1
28
11
28
36
25
39
26
15
39
15
38
12
28
45
28
13
41
39
14
17
11
6
33
8
15
9
24
19
24
32
24
10
26
43
17
31
21
19
21
40
33
7
16
30
19
22
25
21
19
15
41
23
15
14
17
17
50
16
27
4
15
22
60
34
15
16
26
28
47
7
11
21
13
21
6
19
1
23
35
47
34
39
26
22
34
35
19
11
9
46
18
25
20
38
4
15
28
39
3
27
25
14
10
42
13
11
16
18
28
15
16
37
32
21
13
7
20
7
36
39
50
20
10
23
13
42
28
37
43
51
58
26
22
57
52
40
7
20
14
13
15
21
32
6
13
16
6
15
30
22
19
9
6
12
17
30
32
10
11
40
21
17
16
31
18
21
28
9
26
41
29
21
41
46
24
21
13
19
17
25
58
20
17
44
62
28
22
32
28
33
28
5
5
34
34
18
15
24
17
10
7
28
6
18
44
44
26
24
24
13
10
23
12
23
16
24
12
29
51
23
16
13
17
44
2
24
32
7
53
23
23
26
22
5
34
40
19
19
58
4
16
13
27
7
19
10
17
31
29
8
28
6
26
14
20
4
14
24
13
7
5
13
15
6
21
20
14
0
22
36
7
22
16
38
9
7
3
22
34
16
11
37
43
13
4
13
37
29
46
21
8
24
35
42
33
5
10
4
33
18
7
15
15
9
18
37
31
13
33
10
23
35
14
35
1
20
17
17
34
18
41
5
12
36
26
46
6
33
39
20
3
2
29
41
50
36
19
39
24
14
16
14
17
32
24
26
50
18
13
38
13
22
28
4
3
23
16
27
28
14
11
14
18
30
21
19
25
26
9
14
20
42
15
9
10
25
22
8
9
13
31
28
15
19
12
40
37
28
43
19
10
23
24
29
42
5
21
35
26
30
12
20
21
10
17
29
28
18
23
43
39
23
32
18
13
23
38
2
7
7
15
33
15
36
21
37
26
12
12
19
44
9
34
19
14
30
7
20
22
10
6
14
7
13
30
30
18
31
27
48
33
38
34
25
32
34
45
28
24
11
17
5
11
37
7
35
13
11
6
35
14
18
23
7
39
13
6
29
13
15
31
40
27
27
14
28
21
9
4
16
14
31
7
15
4
10
12
26
6
5
9
14
17
23
26
14
29
42
9
13
13
17
8
26
13
29
30
20
12
19
8
25
25
15
51
63
40
30
17
3
21
28
14
43
34
8
14
30
19
23
8
32
12
15
22
31
6
11
5
33
16
16
26
16
12
49
24
23
17
36
22
11
10
13
1
6
35
9
7
33
19
36
43
15
22
32
31
14
10
19
25
32
57
12
15
22
33
22
36
19
31
26
14
41
14
21
20
7
17
17
24
23
3
35
19
36
28
9
22
27
21
12
13
6
14
36
11
4
8
14
8
11
22
7
8
27
13
46
20
30
7
38
13
24
10
39
6
16
12
7
15
39
27
10
22
27
17
46
34
26
31
13
37
23
6
13
16
25
45
23
3
20
41
30
16
48
26
13
21
18
21
5
5
14
19
12
14
4
14
28
21
40
27
26
40
36
15
19
20
53
14
34
13
28
11
21
2
12
1
25
9
20
16
11
18
13
5
13
28
28
24
41
17
24
14
43
36
8
14
4
20
23
3
43
18
19
47
8
37
10
13
9
4
14
28
25
30
9
10
30
29
22
22
12
2
22
26
11
8
21
40
18
21
66
15
12
20
16
36
11
7
10
29
9
23
10
15
17
16
24
13
9
15
19
26
29
10
18
9
43
29
17
6
23
18
20
17
24
15
28
2
22
15
8
52
8
32
27
27
20
30
22
17
4
13
59
8
19
34
16
27
18
19
27
37
21
41
38
28
12
3
13
46
23
20
15
23
24
10
8
19
3
28
30
27
21
45
19
27
41
26
12
6
19
14
16
47
34
14
9
19
13
31
17
9
6
31
20
50
21
23
21
20
17
42
13
15
12
22
21
20
14
40
9
33
11
22
16
43
27
17
49
38
15
11
8
29
5
46
16
24
13
21
19
7
7
17
16
12
2
22
21
9
19
22
19
7
10
8
11
43
27
27
25
44
9
37
31
17
11
25
4
12
10
27
38
26
32
49
51
21
16
57
6
43
32
15
22
38
8
13
27
30
30
24
13
21
20
20
7
16
28
37
28
8
16
30
20
15
13
8
27
40
12
12
52
22
19
29
31
20
11
22
7
40
19
47
27
8
7
23
13
23
23
11
21
43
16
26
19
17
22
4
10
7
8
22
10
24
32
45
14
15
22
4
11
34
22
24
6
19
9
14
7
5
4
14
54
5
15
34
30
15
15
26
14
6
26
23
7
44
44
14
22
12
18
16
35
1
11
40
15
10
8
32
24
15
11
6
7
17
19
18
20
3
30
38
37
29
10
15
3
6
43
13
7
27
34
20
38
9
33
38
23
26
5
34
19
22
15
13
26
10
3
21
13
23
8
2
0
8
16
7
12
10
5
29
29
10
20
22
13
17
15
8
7
31
8
25
21
18
3
16
6
6
13
15
13
27
5
29
12
8
19
22
21
31
28
21
4
28
6
7
15
10
10
26
24
38
5
23
13
19
30
17
14
19
15
14
18
5
4
48
13
27
0
7
20
21
14
30
44
10
7
17
15
11
5
16
23
17
14
18
38
13
23
20
16
3
7
19
6
26
5
14
18
8
17
29
9
2
21
9
16
8
38
11
39
27
2
20
8
17
13
26
11
22
16
17
32
1
11
14
14
33
23
39
52
44
5
11
11
11
20
18
23
6
33
5
27
10
22
5
1
17
27
3
8
5
16
36
10
3
27
26
15
14
13
13
4
19
13
17
6
8
12
20
23
29
11
22
5
19
27
6
24
14
21
9
10
13
23
15
16
8
29
7
12
30
20
5
11
6
9
18
6
15
31
15
16
9
5
10
15
52
22
13
32
7
45
5
16
11
25
6
14
32
12
8
14
10
16
13
4
18
6
13
23
34
28
10
24
28
4
10
4
18
13
17
4
24
13
14
21
4
24
6
18
7
5
31
5
11
14
3
10
15
23
9
22
9
15
11
20
12
30
8
18
4
7
14
34
13
12
38
17
16
23
29
13
26
12
9
8
22
12
5
10
39
18
3
18
5
14
35
48
25
11
4
23
21
4
5
20
8
25
11
21
27
42
13
14
15
3
20
1
32
20
3
30
15
9
22
0
9
16
9
9
10
53
10
48
13
14
18
11
9
7
19
20
47
41
11
17
17
32
23
16
16
7
15
24
24
29
4
16
19
16
33
12
24
16
35
7
23
12
17
28
19
43
29
8
25
29
19
19
28
15
14
10
5
20
10
21
32
6
17
16
37
22
26
13
26
20
5
34
11
6
9
36
26
16
0
24
28
12
8
22
27
21
32
23
29
4
9
4
24
32
3
9
10
21
7
20
4
33
28
8
10
19
18
16
16
13
27
11
21
24
10
15
11
38
44
43
21
33
28
39
16
29
6
5
17
27
28
5
16
22
7
29
16
22
36
6
2
14
9
15
20
4
18
19
11
7
6
3
31
1
23
19
6
18
36
6
14
6
10
36
12
36
15
11
18
17
19
12
20
19
19
21
9
21
16
5
17
5
28
6
22
19
15
21
0
12
10
24
17
28
7
3
21
17
15
2
4
7
8
15
34
18
18
6
14
17
17
50
17
40
17
15
9
5
22
26
6
27
28
23
8
9
2
8
8
11
5
8
13
31
23
18
28
15
15
39
31
9
15
15
14
10
8
29
10
9
24
7
21
17
6
6
15
11
9
13
31
13
7
17
13
27
32
27
27
20
19
24
32
25
7
25
32
11
18
16
22
12
37
20
26
29
31
19
4
15
26
10
5
21
6
27
15
25
13
9
28
37
10
10
22
31
7
16
24
4
37
10
7
14
20
11
3
29
18
10
4
8
15
9
24
8
17
7
19
26
12
22
5
28
17
31
25
10
14
13
20
6
11
24
6
21
37
12
29
24
12
9
19
14
15
33
6
10
19
9
1
26
3
6
21
16
17
19
16
42
33
36
17
30
2
4
32
25
10
6
14
8
35
25
26
2
7
19
12
35
21
13
3
6
17
20
6
10
27
12
19
4
9
6
12
29
28
7
23
17
8
20
4
36
16
9
23
20
5
17
10
5
20
25
32
31
24
22
33
12
19
11
21
22
17
18
33
31
19
3
19
17
4
10
13
34
33
5
27
21
17
27
21
13
14
13
8
24
19
6
45
22
10
16
9
18
13
6
8
14
17
17
4
9
13
10
10
32
18
21
6
21
7
16
19
7
11
17
7
4
9
13
17
13
21
46
15
19
37
24
21
11
31
11
37
20
42
9
5
19
24
29
27
12
14
10
8
2
8
32
9
12
27
38
13
1
40
23
11
7
22
23
18
19
12
20
29
18
24
22
11
5
15
22
3
7
14
34
26
19
5
16
9
13
9
12
30
13
21
18
22
8
22
16
7
3
2
16
21
13
22
35
15
18
40
9
5
15
26
24
14
12
18
9
16
8
13
14
11
28
11
18
18
15
43
6
8
11
16
2
16
23
6
13
8
23
8
28
6
14
14
25
30
18
25
5
5
9
35
4
32
1
14
24
14
20
11
27
19
28
23
6
7
4
2
12
6
3
8
2
26
5
41
19
20
27
17
11
15
4
7
23
10
20
20
15
31
33
31
7
3
4
46
3
7
19
7
7
25
26
3
7
8
7
10
39
2
8
30
0
21
23
6
9
22
25
15
41
40
30
33
28
24
14
27
32
24
5
13
20
7
29
12
7
22
14
2
2
38
21
6
44
9
22
25
18
32
19
6
33
27
6
10
12
9
39
15
26
9
8
37
30
12
47
30
7
12
33
11
22
33
4
15
31
13
41
13
33
18
12
41
38
16
26
11
13
2
36
17
14
41
7
8
16
7
14
4
6
2
22
21
8
11
39
10
26
34
44
4
16
7
7
24
43
8
16
21
4
10
10
2
5
4
14
14
7
3
5
16
10
15
7
24
9
7
6
2
6
19
8
25
50
53
11
13
19
17
28
39
9
30
11
11
25
32
22
4
12
7
13
9
19
36
17
7
2
5
12
13
12
25
10
17
10
29
15
8
25
6
6
21
10
25
31
35
22
15
3
32
13
26
21
15
16
28
14
10
17
6
10
16
13
12
14
18
29
7
10
15
14
16
3
14
34
21
9
8
5
11
4
8
10
8
4
2
13
8
6
29
29
18
19
23
16
8
16
11
19
25
28
25
17
23
24
8
39
3
45
10
12
18
6
31
5
10
11
17
15
6
10
6
10
11
7
3
11
11
7
8
12
11
13
9
12
6
2
7
39
4
16
1
6
14
11
4
15
29
0
10
6
14
2
14
11
21
42
11
21
25
19
14
23
13
22
6
7
11
9
7
26
24
26
18
35
7
23
5
6
4
13
19
13
7
18
16
8
13
7
11
36
18
20
16
9
36
19
7
26
2
19
25
2
18
27
4
6
14
17
20
10
6
8
8
26
9
7
21
7
10
24
10
16
2
20
21
30
21
8
6
5
10
17
14
9
31
23
39
7
5
4
16
16
19
10
14
26
7
21
14
2
9
5
8
12
20
16
21
12
27
23
11
11
9
9
2
21
5
0
18
4
21
3
11
19
10
16
4
10
30
25
48
7
23
2
14
10
21
32
5
5
46
42
12
20
17
16
9
11
30
32
13
8
8
5
21
9
16
26
15
15
2
27
17
25
14
11
7
17
17
24
21
14
12
21
7
16
32
17
16
23
24
10
13
14
15
16
9
14
16
3
22
32
17
27
21
14
9
53
27
29
28
1
23
19
25
14
22
23
0
3
6
21
12
6
2
6
2
11
7
0
8
5
7
33
29
21
19
15
9
26
34
8
25
15
12
8
12
13
30
12
4
7
32
14
9
18
25
19
9
8
10
15
4
14
16
6
29
48
21
25
0
10
8
4
3
1
22
21
14
3
11
13
4
24
10
15
21
6
2
26
18
8
32
21
16
3
13
47
4
8
12
32
11
26
13
13
22
19
9
11
4
3
22
8
20
22
13
13
10
26
13
12
18
1
24
17
10
15
4
16
6
25
17
11
13
15
8
17
5
10
20
12
25
7
12
54
11
38
26
16
20
1
24
18
4
35
2
17
24
34
37
22
22
26
6
42
12
2
21
28
20
3
31
31
1
41
9
21
29
17
39
1
11
4
1
9
16
21
10
14
26
27
14
32
12
10
25
16
51
11
15
33
9
9
6
19
9
23
25
63
49
32
16
4
14
13
4
14
18
11
16
12
5
7
21
15
24
30
23
40
35
13
10
38
18
26
20
25
6
9
15
12
20
22
40
28
4
21
7
11
15
1
31
13
0
14
17
28
35
9
2
2
18
5
7
15
14
11
20
3
16
4
3
24
10
18
18
3
7
2
2
18
37
18
12
6
14
10
14
0
7
7
22
9
12
1
8
7
10
17
8
13
7
23
6
26
3
16
16
27
10
21
20
28
22
30
8
9
14
3
0
24
31
43
37
15
16
25
23
19
16
20
11
26
10
5
13
13
9
9
10
20
31
4
16
17
17
16
15
23
11
8
18
18
15
0
9
14
29
7
5
9
20
3
26
32
17
10
27
6
27
12
4
16
39
11
8
2
27
27
8
26
29
15
10
2
3
28
17
6
9
5
12
50
6
3
32
11
7
8
5
10
12
22
5
25
20
4
10
55
3
37
12
21
5
5
4
23
2
16
19
13
10
19
15
3
9
31
7
15
13
34
31
9
3
8
31
2
3
19
10
8
11
38
35
14
17
8
1
19
13
5
32
5
22
20
28
4
5
7
6
15
9
8
8
10
12
15
8
19
6
9
7
24
29
3
8
14
6
28
12
10
9
27
18
7
23
7
15
10
21
17
21
3
2
9
29
40
29
5
3
4
24
9
27
14
5
8
7
17
26
3
3
26
47
14
15
7
12
4
34
3
10
18
6
33
20
30
15
8
4
8
14
14
13
13
8
6
5
13
4
7
12
7
15
12
10
17
13
4
3
6
11
15
13
16
8
7
14
14
8
19
6
12
32
14
17
31
12
20
6
28
14
24
33
20
13
11
31
26
18
23
19
17
16
8
22
16
31
2
15
15
22
29
11
0
10
18
11
5
1
1
29
16
9
11
6
2
12
4
6
48
2
12
4
4
16
14
7
24
14
13
11
38
21
16
14
10
46
16
18
9
9
9
9
5
5
18
14
11
3
9
2
38
7
22
3
33
5
6
12
1
19
23
2
12
5
2
11
29
22
26
16
6
9
7
24
9
16
23
18
20
14
3
10
30
7
14
6
24
12
11
11
12
16
19
29
16
30
16
19
0
9
17
18
17
13
15
10
27
20
17
22
15
40
9
11
9
9
12
11
5
37
6
5
12
8
8
18
16
20
5
7
2
10
5
9
11
11
21
5
35
15
23
6
7
0
10
20
13
23
16
3
5
5
20
4
8
12
19
28
21
10
30
12
8
8
4
18
16
26
19
2
6
0
8
2
4
29
31
21
18
39
18
31
12
3
20
19
24
15
6
17
42
16
3
15
13
20
28
14
25
10
15
11
11
12
20
11
22
25
4
15
9
26
10
35
8
12
12
29
21
10
2
12
12
7
5
8
17
6
12
15
34
11
22
25
10
12
23
6
5
23
20
15
3
19
11
3
9
13
1
15
3
20
18
19
11
29
16
4
3
9
9
10
15
24
3
7
21
8
12
25
12
15
6
26
8
10
12
17
13
13
10
23
15
11
30
31
5
6
21
12
18
20
16
28
5
28
2
7
15
17
13
2
13
28
11
12
19
15
1
11
20
9
15
13
16
6
24
2
2
22
7
13
10
13
16
7
11
20
8
8
15
37
2
12
18
15
17
9
19
13
0
7
21
37
14
14
23
33
8
14
6
11
35
1
6
30
18
16
19
0
24
9
31
26
23
22
10
3
17
17
1
3
3
0
24
6
19
18
4
18
6
27
37
38
44
27
8
14
9
16
21
9
10
18
11
4
6
10
4
19
19
9
34
28
15
24
25
11
12
7
3
20
16
26
29
14
12
15
3
17
32
10
8
18
11
9
24
8
15
11
3
3
13
2
13
15
6
40
14
31
34
26
6
7
4
29
27
19
18
29
39
12
10
24
12
9
8
6
24
2
15
5
11
10
21
10
5
26
4
5
16
27
23
31
14
6
18
3
28
22
14
1
7
12
19
8
11
11
10
21
3
11
29
7
15
11
11
12
9
8
9
9
5
1
20
26
8
17
14
18
24
16
8
7
23
23
10
11
23
9
5
3
9
23
1
14
18
12
11
8
15
35
27
5
2
22
8
11
6
3
8
23
5
6
6
17
24
13
9
3
5
9
5
12
9
6
9
23
4
4
18
8
18
12
9
16
8
11
5
3
14
19
1
33
2
10
6
16
4
5
11
11
29
12
3
13
2
7
3
4
3
7
13
16
15
3
19
6
19
32
19
15
7
19
7
14
27
13
17
9
26
25
18
21
13
11
25
11
5
7
5
3
22
30
5
12
34
0
27
6
16
8
10
13
19
27
3
7
0
4
12
4
19
1
1
9
24
30
2
9
5
5
6
20
27
4
5
2
0
13
4
15
6
23
11
28
12
17
17
4
21
10
7
14
0
25
23
19
5
10
8
21
6
11
9
4
17
9
3
5
19
5
9
3
15
8
14
11
3
5
21
31
9
9
9
10
10
17
11
6
3
2
11
23
28
16
4
5
16
20
24
18
15
4
8
4
11
10
14
24
1
1
13
9
16
15
24
8
9
22
18
15
4
33
15
35
2
16
3
4
15
14
2
26
27
24
19
4
14
15
19
8
12
20
21
22
23
28
13
33
17
2
14
36
5
36
4
1
8
32
2
9
18
33
9
31
2
2
6
10
13
4
12
6
4
13
6
10
5
2
2
5
9
12
3
6
15
8
10
17
30
4
8
37
5
7
7
13
13
22
12
31
18
16
4
37
5
6
9
15
13
7
32
6
11
13
27
15
16
10
13
21
14
1
10
6
17
4
17
14
22
16
15
14
15
10
5
15
15
23
28
33
18
15
2
31
35
19
7
10
23
7
16
4
11
16
7
9
27
5
16
3
4
12
15
22
9
7
7
3
8
9
14
4
7
4
3
8
14
16
5
3
16
11
6
8
13
11
13
10
0
3
38
23
15
4
11
21
3
9
20
1
30
6
12
24
1
16
13
7
14
14
5
8
15
18
11
28
12
18
11
12
5
19
13
9
7
10
10
23
2
24
22
14
20
24
3
11
1
18
11
16
9
4
10
10
2
5
10
5
22
13
10
35
4
7
14
40
21
41
38
6
7
9
8
4
10
14
11
24
14
14
16
28
3
24
16
8
17
11
5
6
5
22
16
15
20
13
18
7
13
8
3
1
12
21
12
13
3
26
10
12
1
12
14
9
12
20
11
3
5
2
17
18
7
8
40
31
20
14
15
3
9
25
16
6
4
4
0
14
2
14
13
8
18
2
19
12
3
14
1
26
6
19
3
11
17
14
8
17
17
9
25
15
39
5
28
20
14
4
14
6
24
5
8
12
11
32
16
15
14
4
20
3
10
5
11
12
24
3
10
3
11
10
10
2
23
26
30
11
0
11
14
11
0
8
4
6
17
21
10
13
10
19
22
5
17
4
10
0
2
17
24
27
19
20
9
6
1
2
6
5
3
14
23
14
14
7
3
3
8
5
25
5
12
28
33
14
28
18
6
1
2
4
6
1
6
22
9
18
9
8
13
2
3
17
18
44
8
19
21
7
19
8
8
9
7
11
19
5
6
18
14
5
17
36
16
10
14
10
5
9
12
4
31
2
21
14
30
19
22
21
17
20
13
14
16
30
9
8
14
15
10
2
22
14
1
21
21
12
13
18
15
20
27
11
9
2
3
20
2
3
8
7
3
5
7
19
15
9
19
15
8
9
12
1
26
20
27
19
18
2
5
6
9
13
14
23
9
7
36
2
28
24
24
22
4
6
17
1
5
3
10
25
8
7
16
15
29
12
20
1
8
18
7
27
12
24
12
3
13
11
10
15
19
3
6
17
0
1
12
14
8
10
18
16
31
14
4
23
1
16
10
27
9
7
19
25
14
0
13
19
14
6
11
6
3
14
20
3
6
12
13
8
21
7
7
18
9
25
13
10
15
26
17
8
0
13
12
15
14
10
22
0
11
34
11
5
28
11
1
18
22
25
21
19
11
19
9
18
3
3
5
4
11
15
5
6
21
15
6
29
10
3
4
14
16
2
5
8
22
31
20
23
8
12
7
9
20
27
6
10
29
14
13
5
24
5
10
4
4
8
16
19
8
21
19
5
18
6
9
10
21
6
10
17
15
1
10
17
10
0
26
18
16
15
20
4
5
1
3
3
3
5
10
22
21
6
31
3
24
5
9
12
15
3
13
21
27
7
27
19
6
29
15
28
7
1
5
6
20
11
35
10
3
11
2
14
33
12
16
8
10
6
4
6
3
21
3
41
3
4
9
9
2
2
15
8
11
17
9
2
11
15
26
5
4
12
5
24
16
5
8
5
6
5
30
21
13
6
5
6
13
1
8
9
7
14
4
11
6
5
4
6
2
19
11
1
5
1
1
11
11
23
5
23
1
1
7
5
1
3
4
2
5
28
22
13
5
21
6
6
8
18
15
9
35
9
19
7
8
0
8
16
8
17
14
20
3
10
3
26
11
1
28
7
19
15
21
1
9
11
3
14
9
1
8
21
3
13
6
6
11
6
6
6
13
13
8
4
19
16
13
7
17
24
5
9
11
8
13
10
18
18
11
15
19
12
16
9
24
5
11
17
16
1
18
23
6
13
10
14
11
4
17
15
1
18
4
20
17
20
3
10
16
5
7
25
15
6
14
29
11
9
14
7
27
10
6
5
22
9
4
3
9
15
4
10
10
12
4
8
19
13
22
19
17
6
16
20
0
10
3
25
18
2
7
4
14
18
17
8
10
9
15
16
13
12
8
16
8
8
6
15
4
4
3
13
9
5
1
21
14
17
4
1
32
6
19
3
6
13
4
17
5
18
23
23
6
5
7
12
11
22
15
2
2
4
17
9
19
10
16
17
17
32
8
12
14
1
9
9
9
9
16
18
8
3
4
4
14
13
1
4
16
0
4
18
3
12
36
0
26
5
7
10
6
4
3
3
9
12
20
19
28
1
3
5
2
20
1
19
2
8
12
1
11
12
3
30
20
3
7
6
15
8
8
14
20
9
7
5
18
9
9
16
18
2
5
23
6
9
10
9
20
2
15
0
8
11
11
2
13
11
13
10
12
2
4
13
4
9
18
5
19
32
17
12
15
6
6
10
21
21
6
4
5
16
19
4
18
14
6
23
1
15
4
16
14
15
18
10
0
6
4
16
12
19
18
23
13
14
16
6
6
8
12
15
13
3
13
4
3
6
6
23
2
9
10
12
5
7
11
7
2
12
11
4
9
16
12
11
25
14
21
13
2
15
15
15
8
16
4
17
8
16
6
4
13
3
2
7
17
8
13
15
9
3
2
3
7
11
5
8
1
8
12
4
24
33
20
5
18
16
9
9
4
6
8
13
7
32
6
3
18
4
10
6
30
25
13
6
20
5
4
9
6
1
32
6
7
26
10
4
8
2
5
7
5
7
6
20
6
25
5
18
6
10
14
16
6
3
33
5
6
9
17
19
11
22
1
18
12
21
3
11
7
4
2
21
19
16
18
16
35
16
2
3
25
2
6
17
14
20
2
17
7
12
22
4
19
4
7
3
20
7
11
5
11
9
21
14
6
11
2
15
12
18
23
4
8
10
17
18
30
21
3
0
1
23
3
10
7
4
7
8
20
1
10
10
19
2
12
11
9
7
18
13
20
3
6
5
6
3
4
10
4
1
16
18
6
10
12
10
24
18
7
6
9
9
13
22
14
14
2
9
14
7
12
1
4
3
4
14
21
17
3
22
14
14
6
10
1
3
4
30
7
5
4
8
9
5
3
20
10
3
8
8
5
12
16
8
9
24
6
8
16
4
10
12
7
8
1
21
12
27
6
16
18
8
11
8
3
3
19
12
8
0
3
6
15
7
13
5
5
8
2
19
21
15
8
3
9
2
3
19
3
7
2
15
5
24
23
22
8
11
15
13
5
13
14
13
17
15
4
15
14
4
5
6
18
11
10
1
0
4
2
2
5
6
6
24
11
13
17
13
7
3
2
9
22
2
7
2
18
11
6
17
8
2
3
7
3
4
27
16
7
6
14
10
23
4
3
4
4
25
7
5
21
0
16
13
13
9
15
14
20
7
0
24
10
3
6
13
18
13
12
7
24
24
10
9
8
2
13
6
12
7
15
14
10
20
3
6
15
8
6
19
10
8
3
2
8
7
10
4
10
9
18
2
5
18
9
12
8
6
16
2
6
10
17
15
12
17
13
22
13
11
13
0
13
10
18
11
4
1
8
29
11
8
20
4
8
6
1
9
14
8
4
1
10
10
10
0
1
7
5
22
2
15
6
10
2
10
12
12
7
6
8
6
20
8
11
2
9
4
16
9
6
1
17
9
1
18
11
3
2
5
12
6
10
3
5
4
1
10
11
6
7
2
25
13
17
11
18
13
23
4
12
22
4
8
6
2
7
3
15
1
1
15
4
19
22
13
14
5
7
11
8
21
5
16
5
13
22
2
2
7
4
8
15
1
9
4
0
5
2
20
16
23
1
6
26
3
15
3
19
4
8
13
0
6
5
4
17
18
2
5
10
9
13
3
14
2
11
6
29
29
2
17
8
19
16
18
3
2
9
3
20
7
23
16
4
12
12
20
12
21
21
16
4
7
16
18
18
19
4
8
12
2
9
8
22
3
7
4
4
3
17
8
20
8
13
12
10
15
27
17
18
22
14
3
8
12
6
10
8
6
7
5
7
3
2
12
15
3
15
17
23
2
1
0
10
6
10
19
8
13
21
6
7
12
10
9
7
8
6
7
8
6
7
3
15
4
7
9
10
30
3
6
3
5
12
2
19
7
11
2
13
3
11
6
11
16
17
13
18
7
7
3
17
11
18
8
7
18
8
19
17
11
12
15
7
16
19
6
8
17
20
9
6
9
14
17
17
9
21
6
14
4
23
3
11
11
2
12
3
21
12
2
8
19
15
6
3
5
11
9
9
19
8
13
19
4
10
6
5
4
18
20
11
8
4
11
7
2
18
3
4
21
4
25
7
12
9
23
20
11
13
6
21
13
15
1
2
8
8
17
9
11
23
7
10
7
2
4
6
2
2
5
6
15
5
1
8
11
12
10
2
14
11
0
26
7
20
2
1
19
2
15
9
12
31
11
12
3
3
14
20
21
12
2
17
8
0
5
11
26
21
18
10
14
3
2
9
8
9
13
7
17
4
9
2
15
13
19
15
0
0
8
0
23
1
17
2
9
6
23
7
8
18
10
10
4
11
2
0
6
14
9
12
24
9
8
14
4
3
4
14
26
7
5
15
13
3
4
29
14
8
3
8
2
0
11
8
6
10
3
23
11
1
0
1
6
15
11
15
19
12
13
4
27
11
34
28
10
12
10
10
21
5
4
12
3
2
3
5
15
18
10
3
1
15
9
1
11
3
3
4
3
8
3
13
16
2
10
2
16
12
4
11
6
13
6
7
12
15
3
11
11
11
9
13
6
18
13
6
24
4
22
4
15
9
12
2
6
30
3
21
9
4
17
11
10
6
4
2
6
24
9
19
13
2
17
14
18
3
2
7
7
8
12
22
7
5
16
4
9
2
16
19
3
8
4
7
3
7
14
5
22
15
19
33
1
8
6
11
4
5
3
4
5
6
5
3
7
10
7
9
4
14
17
20
18
7
6
12
9
8
4
1
6
10
31
10
1
16
3
13
13
2
2
17
5
19
8
6
10
3
2
3
3
12
10
16
6
7
7
6
8
17
11
12
24
3
0
7
9
25
11
2
1
7
10
7
0
3
3
9
0
15
15
2
13
17
6
18
6
0
17
19
19
19
2
14
31
26
10
10
10
1
18
15
2
1
11
7
5
15
19
21
7
14
0
0
9
8
7
8
13
23
12
9
11
7
2
14
20
4
13
17
8
6
14
3
3
3
9
3
2
16
2
1
5
12
26
3
8
9
2
3
5
3
1
14
12
19
31
6
5
4
2
11
23
6
8
6
17
1
4
11
8
1
17
7
14
6
10
0
4
18
11
8
5
11
9
16
14
14
3
7
22
7
29
8
4
5
5
2
16
10
18
9
3
7
10
27
13
4
10
9
5
5
18
2
9
4
2
2
19
16
0
13
2
9
8
4
11
11
24
9
9
7
2
16
1
11
8
30
6
17
8
6
13
17
0
13
26
3
3
9
7
9
1
7
3
9
20
14
4
6
5
21
13
5
5
2
3
3
14
11
7
7
21
10
3
6
11
17
5
7
6
18
2
6
29
25
11
12
28
9
13
15
22
8
9
10
1
6
4
12
11
8
12
12
6
0
2
14
6
19
6
21
12
11
3
11
2
8
8
6
8
13
9
22
16
14
10
8
5
6
3
7
3
7
7
6
20
4
12
6
3
7
16
0
3
2
6
27
16
5
19
27
5
18
16
7
18
7
0
2
5
3
16
0
4
6
20
4
18
3
5
10
6
8
4
10
1
6
9
5
2
11
14
11
4
0
10
7
10
3
6
13
9
17
10
8
5
1
10
6
18
3
21
20
8
14
12
6
7
2
21
8
6
6
17
10
4
2
18
7
18
30
27
2
14
20
28
3
1
13
13
2
6
8
9
18
20
12
6
7
7
4
9
9
8
4
10
3
5
3
10
11
3
7
14
3
15
8
13
3
23
8
2
8
1
19
19
16
8
30
10
9
9
5
14
11
3
0
6
9
33
1
12
14
20
1
6
3
11
13
8
17
3
0
9
5
14
15
26
11
8
18
3
13
7
6
15
11
13
12
12
27
14
9
8
0
13
7
14
4
5
5
6
14
3
1
6
13
29
25
13
27
10
3
4
4
6
14
10
7
4
16
13
19
3
2
12
9
10
13
11
13
9
6
15
6
20
4
14
12
11
4
7
6
8
7
4
7
1
5
2
10
9
10
2
21
11
7
6
23
7
7
17
4
8
16
9
10
16
21
4
14
3
10
1
3
20
10
3
13
10
1
11
7
22
17
19
20
9
10
8
7
14
11
0
8
5
8
5
2
14
17
9
18
26
20
20
11
5
8
13
2
8
5
15
16
1
6
17
5
8
1
16
5
15
19
12
15
6
1
31
7
2
1
15
7
9
4
2
3
5
9
12
7
5
11
6
18
8
8
17
7
7
5
38
9
7
16
8
2
1
1
3
10
8
4
6
9
12
8
11
18
4
9
5
3
26
5
14
17
2
7
15
13
10
11
15
5
5
4
5
3
7
5
7
14
3
4
8
7
15
13
12
2
13
1
8
16
6
7
6
17
21
5
15
8
2
6
1
9
17
2
2
12
25
8
1
14
6
2
18
1
6
9
1
10
18
16
5
0
6
17
3
4
20
18
16
17
2
10
30
2
27
16
21
9
20
2
5
13
15
8
20
11
14
22
8
4
15
19
7
20
6
13
7
2
2
10
4
2
2
3
26
2
6
2
14
3
0
23
2
8
2
2
1
12
8
2
0
12
7
4
3
5
7
8
18
11
7
8
9
9
4
5
6
6
4
7
3
2
0
7
3
7
4
19
9
7
2
11
9
22
4
11
3
11
12
6
5
4
10
21
12
24
11
7
20
23
2
27
22
0
3
3
11
3
9
9
10
3
13
2
4
31
18
10
9
14
0
2
19
4
8
5
2
3
12
6
20
13
10
4
3
5
1
1
14
0
2
4
2
1
2
8
5
6
7
11
5
7
8
4
13
4
1
33
10
4
2
10
13
8
12
20
22
6
8
13
7
19
1
4
5
12
7
6
2
4
27
1
4
4
8
15
4
3
7
10
4
1
2
14
11
14
16
5
8
21
14
15
4
9
10
5
15
9
6
8
3
0
6
20
13
13
13
5
0
0
4
9
5
5
19
15
9
8
4
17
1
2
9
18
9
2
8
3
4
10
2
4
6
0
6
7
10
7
3
2
6
4
8
5
8
1
6
7
1
17
13
10
7
7
1
3
4
5
10
9
2
5
11
0
8
11
15
9
20
26
9
12
9
9
11
8
14
8
1
6
12
7
5
17
21
9
23
17
13
1
0
9
5
8
13
5
4
8
3
14
2
14
11
10
7
10
16
2
9
10
7
10
19
12
2
4
16
26
4
15
12
5
13
5
3
6
3
8
6
0
19
10
3
8
3
14
23
5
3
3
8
3
10
8
6
3
1
3
2
2
16
11
5
8
16
14
2
12
7
1
0
13
9
9
1
8
2
20
14
8
2
14
21
23
12
0
4
7
8
14
16
7
4
10
29
9
5
1
6
6
2
6
7
3
10
3
4
14
6
1
4
3
3
2
11
4
6
3
13
14
2
5
7
15
8
6
7
7
2
19
4
11
7
3
5
14
24
3
2
13
3
14
10
22
23
6
10
11
4
13
11
8
12
2
12
10
10
8
5
12
6
3
5
10
7
12
5
5
12
4
18
5
4
10
7
11
31
17
1
3
1
12
5
2
15
24
5
4
7
3
11
1
0
6
9
2
11
5
15
11
12
26
15
0
21
13
15
3
18
12
2
5
13
1
1
11
4
10
17
13
1
0
12
6
4
4
3
9
5
19
12
2
6
13
12
5
0
20
0
8
8
4
7
14
14
11
3
7
9
14
2
12
9
9
6
5
5
3
8
15
3
7
2
12
2
10
5
18
8
2
13
9
6
4
8
5
9
15
23
3
16
4
10
0
15
8
2
4
0
19
5
8
17
2
7
0
8
6
6
3
4
1
3
14
3
6
8
10
1
7
12
16
7
3
2
7
7
9
8
5
21
6
6
8
3
11
6
8
0
7
1
4
8
4
4
6
4
20
5
7
13
9
3
1
10
6
16
19
13
12
23
9
7
10
20
6
1
5
13
5
6
16
18
5
16
15
8
9
6
6
5
14
1
15
22
6
9
6
1
15
15
5
7
7
11
12
1
14
15
4
16
5
7
22
5
10
6
14
0
6
19
14
14
19
6
10
14
13
13
3
1
5
4
1
12
6
13
16
4
19
1
9
17
10
0
15
7
5
11
4
15
15
13
4
10
5
10
1
8
10
2
6
18
19
11
9
9
1
6
0
9
6
13
12
23
13
27
16
13
2
12
1
8
5
1
7
6
4
18
1
7
6
6
5
2
4
2
12
17
2
16
6
4
2
8
8
0
8
2
9
10
16
3
7
17
6
12
19
2
10
18
4
11
0
4
7
9
10
9
23
6
12
4
7
9
9
9
6
4
3
9
2
24
3
1
17
8
6
11
4
21
11
9
2
3
4
2
26
4
4
19
5
11
8
12
24
2
5
5
10
6
3
8
13
6
16
23
3
1
6
9
21
7
5
4
10
9
15
7
5
3
13
4
14
3
12
3
2
5
6
10
2
9
9
3
13
10
9
20
8
13
8
8
15
9
4
5
0
5
6
13
14
6
1
5
13
6
15
3
5
11
1
8
3
5
12
22
15
7
5
5
3
4
2
24
8
4
2
10
5
10
14
17
17
6
6
3
16
0
1
7
0
8
3
1
9
11
3
1
11
9
21
14
3
23
6
9
5
0
11
6
11
13
12
5
25
11
15
15
16
1
8
4
21
4
5
17
0
4
10
9
23
21
9
12
15
1
8
2
2
10
0
6
0
1
7
13
3
20
5
0
1
20
7
2
7
15
11
0
2
12
6
0
10
17
5
6
5
7
16
7
6
3
14
13
1
12
9
7
12
6
8
5
4
0
16
4
8
8
8
3
9
5
20
12
24
2
5
4
12
2
8
10
14
2
15
5
1
1
3
1
11
10
12
5
1
2
8
2
1
4
14
5
7
4
5
4
11
26
10
2
4
13
7
3
4
8
3
3
6
18
3
12
14
5
1
6
6
7
4
2
15
5
2
1
2
6
16
7
18
7
10
2
5
10
7
11
14
16
0
3
5
9
2
6
5
15
6
11
10
5
12
11
3
3
10
8
8
9
17
2
3
10
3
12
10
3
4
25
4
10
15
7
9
5
10
7
20
12
12
0
4
8
6
8
5
1
28
23
6
10
12
8
7
8
9
5
15
9
5
12
15
15
11
1
3
7
3
2
11
2
2
4
11
9
10
13
8
8
6
3
3
20
1
3
4
14
5
7
6
17
6
2
0
1
10
1
13
2
3
8
6
3
1
4
8
1
19
11
4
18
2
5
16
11
6
2
18
3
8
6
1
16
3
13
2
7
4
4
2
3
10
4
3
1
2
2
3
13
4
9
4
5
7
1
11
28
9
14
9
10
7
4
5
4
3
15
2
3
1
0
4
7
8
5
22
2
14
4
5
23
5
9
6
4
8
4
11
14
5
8
11
20
6
12
3
2
16
6
9
13
7
7
13
15
10
10
12
6
5
3
4
7
17
4
0
18
7
7
17
1
4
14
0
13
17
4
15
4
5
24
11
0
0
15
6
2
7
11
22
5
5
3
14
1
3
4
3
12
7
0
7
7
1
8
1
12
14
0
12
5
10
16
6
12
4
1
9
13
15
0
1
1
10
3
0
3
10
4
2
23
2
17
1
16
2
5
6
11
19
6
3
8
14
6
12
11
1
1
17
8
6
14
1
2
4
1
3
11
18
6
4
3
14
10
4
2
12
12
6
14
10
17
10
0
7
22
4
3
5
6
8
13
9
8
11
7
1
1
5
4
12
9
4
11
11
9
8
17
17
16
1
5
13
3
12
3
6
1
7
6
3
7
10
3
5
29
15
3
8
10
7
9
12
5
3
6
9
9
11
6
3
4
4
2
1
4
4
3
11
5
2
4
6
14
12
11
4
3
4
6
7
2
4
1
4
0
16
9
6
14
6
17
16
4
1
0
3
5
7
5
3
16
1
10
5
7
2
6
1
3
4
2
25
21
1
5
1
4
11
12
4
23
6
9
8
5
2
19
8
17
7
5
7
1
7
12
4
4
1
1
2
12
11
4
10
11
8
11
3
6
18
18
17
5
3
3
9
6
2
14
7
0
2
0
3
2
6
12
5
12
5
1
17
9
6
15
5
4
10
4
4
8
4
5
3
6
1
2
8
15
5
3
0
4
1
7
5
16
20
5
7
9
5
2
4
12
7
1
7
2
7
16
3
7
2
4
2
18
1
3
3
7
5
5
13
17
16
0
11
6
17
9
6
3
12
4
0
0
5
3
18
5
2
3
2
3
1
1
5
0
1
16
4
12
9
17
4
2
7
16
9
22
9
14
8
7
10
18
3
14
1
1
5
5
15
5
3
2
15
0
11
5
5
16
14
6
11
4
3
6
2
11
8
0
13
6
12
4
1
3
6
3
2
2
9
17
2
5
4
7
22
14
2
27
17
10
9
6
4
6
17
9
9
11
2
13
1
10
8
4
10
7
1
8
8
9
1
8
7
9
4
0
2
5
5
6
9
3
15
4
1
9
16
7
3
7
10
10
2
2
3
8
1
3
13
9
5
12
4
7
7
4
4
3
6
9
5
3
2
5
8
9
1
0
22
6
4
5
2
16
6
12
11
6
8
9
18
6
16
7
4
4
8
18
1
5
16
3
3
10
17
11
4
2
2
2
2
9
5
6
19
1
2
5
5
13
11
3
3
9
18
9
17
6
11
6
15
6
20
14
11
9
9
2
2
11
9
2
17
9
6
5
3
0
9
1
7
0
5
14
9
15
13
6
2
15
17
14
2
7
2
3
5
1
9
10
11
26
1
6
15
2
2
4
4
5
8
2
11
9
4
10
7
13
11
4
16
2
1
16
5
4
4
2
3
4
7
3
8
10
12
6
6
4
1
13
4
0
9
4
1
9
0
18
1
1
0
4
10
4
8
4
5
3
3
18
11
0
5
11
1
2
8
14
6
15
18
10
5
3
18
14
6
6
9
6
3
19
4
12
1
12
3
8
2
9
0
2
2
1
10
5
7
3
2
4
2
3
3
4
12
5
6
5
17
3
2
19
2
0
8
5
8
7
3
4
5
1
6
2
5
4
1
21
2
11
21
16
5
6
2
11
2
5
7
4
10
1
3
4
24
15
3
5
2
14
8
2
17
2
1
6
9
4
16
0
13
15
20
19
8
7
13
2
3
12
11
2
11
16
13
8
12
3
5
21
3
4
7
6
4
11
6
15
13
12
7
2
5
10
10
10
7
8
4
1
6
0
5
6
8
8
4
4
1
7
3
20
7
15
3
22
2
15
10
2
8
9
7
16
8
7
5
0
2
1
13
5
18
4
13
2
0
4
2
8
12
2
5
3
1
2
6
0
10
2
11
12
8
0
11
16
10
7
8
9
0
9
3
5
11
2
6
8
10
4
18
3
10
8
5
9
9
1
8
14
5
5
5
6
10
5
2
6
4
4
11
10
2
5
10
6
4
2
7
8
16
5
18
13
3
8
3
2
4
4
3
4
5
8
7
4
10
10
9
10
1
4
14
1
5
4
10
8
1
6
2
2
11
0
2
6
9
1
12
7
1
2
8
13
2
29
24
5
13
4
4
12
0
9
5
13
4
18
13
4
9
5
8
3
9
8
3
3
5
11
8
3
3
7
10
3
1
3
18
3
0
14
1
0
11
3
10
0
19
5
4
2
3
2
6
18
8
6
12
4
8
8
15
10
13
6
10
7
15
7
0
2
8
2
19
3
3
5
1
3
16
5
18
3
13
6
10
5
4
15
7
3
2
5
3
10
7
2
2
5
9
5
0
8
7
14
18
5
1
1
12
13
3
11
16
8
3
4
2
8
13
5
4
5
8
9
6
7
8
6
4
3
3
17
5
6
6
5
8
3
4
7
7
6
11
3
0
10
5
5
5
17
3
7
4
7
3
6
7
9
13
2
16
2
2
7
11
1
11
10
1
4
13
4
7
5
2
8
12
7
17
7
15
21
5
11
0
7
4
5
3
11
4
3
2
7
5
12
0
18
0
0
13
2
1
22
23
7
8
4
5
8
9
20
6
14
8
8
12
7
1
7
0
12
5
3
9
2
3
12
1
2
1
7
16
3
2
13
3
15
2
12
7
7
11
3
5
4
3
12
9
5
8
5
0
5
7
5
3
2
5
26
2
9
9
3
20
4
3
4
4
4
9
20
14
4
17
11
5
6
17
1
12
13
1
8
1
2
10
1
3
17
0
10
0
9
0
0
6
0
3
24
8
4
13
6
16
6
5
8
10
3
15
4
12
8
7
15
7
1
6
2
17
5
3
10
3
3
16
4
3
2
3
2
5
10
11
5
2
9
8
5
1
3
3
9
5
3
5
1
4
5
5
8
7
13
0
10
3
3
9
13
8
3
2
4
5
7
1
11
3
1
9
9
6
4
14
9
1
9
0
6
3
1
10
7
11
11
0
4
7
2
6
7
12
10
4
6
14
11
12
13
6
21
2
7
8
4
2
9
2
2
6
5
5
2
6
4
6
2
7
0
6
0
3
5
2
17
0
6
1
4
3
12
7
3
9
10
5
7
7
15
4
5
0
19
1
6
4
6
1
9
1
3
3
6
13
9
10
12
33
2
3
9
4
2
0
4
5
12
14
4
7
10
8
18
2
3
3
16
10
4
2
11
7
9
4
7
2
8
2
4
0
2
8
2
11
5
16
7
17
4
0
5
8
12
17
9
7
4
11
11
3
1
4
1
11
4
5
4
6
11
0
1
1
10
7
6
28
5
9
8
2
3
11
19
25
7
16
8
5
12
9
4
9
8
5
3
6
0
4
5
14
8
11
1
4
0
3
1
6
0
13
2
9
5
0
6
8
6
0
6
11
1
2
19
17
3
6
7
2
9
4
11
6
0
12
2
3
11
10
5
14
2
13
10
0
4
7
10
16
0
2
3
0
3
14
2
0
3
14
3
6
11
11
2
1
3
10
9
3
1
17
5
2
5
9
8
2
15
3
2
5
2
7
1
1
8
0
2
0
0
0
3
19
4
1
8
4
5
2
1
8
7
5
2
6
4
4
7
7
3
7
21
0
1
8
9
18
7
18
6
13
3
3
3
7
3
4
0
5
3
8
3
1
8
0
4
2
1
7
0
7
14
10
9
2
7
10
13
4
1
8
2
7
1
2
3
18
4
11
17
5
5
9
0
6
3
7
8
9
7
5
7
3
3
4
18
8
1
5
1
7
4
0
14
1
4
20
1
3
11
2
7
7
0
2
4
5
6
6
5
7
5
5
9
11
0
1
4
5
5
7
11
1
4
9
0
15
1
5
20
7
14
5
5
8
3
7
0
2
6
4
9
5
13
9
6
3
4
1
11
13
17
10
9
3
14
3
3
7
1
15
1
4
10
2
10
8
6
5
5
6
10
1
7
5
6
0
10
10
1
5
3
12
6
5
8
0
5
0
2
8
11
14
14
2
6
3
16
2
3
1
1
4
8
4
4
9
9
7
3
7
12
1
4
2
1
10
6
3
6
1
1
11
6
5
5
16
6
5
2
5
1
3
10
6
2
3
2
1
6
7
12
1
6
3
1
1
0
11
5
8
0
16
7
1
5
8
6
1
0
2
23
1
1
6
5
5
4
5
1
0
7
4
1
2
3
7
2
3
8
8
1
3
1
4
3
17
11
16
1
3
4
3
12
4
1
8
0
12
10
9
9
9
17
3
8
13
6
0
2
5
3
10
12
3
12
1
16
8
10
9
10
4
4
2
16
7
7
3
2
7
1
5
9
8
1
7
7
3
8
4
8
0
4
1
9
10
5
2
4
13
2
9
5
12
2
1
4
7
1
6
16
5
5
6
2
5
12
2
7
5
3
5
9
13
17
5
10
6
2
2
9
2
10
11
1
4
3
6
0
11
2
13
4
18
1
1
6
1
2
8
7
16
10
0
7
8
4
2
1
2
10
3
5
7
1
10
5
6
1
0
3
0
6
4
12
14
12
6
0
1
6
13
3
6
2
8
8
4
14
5
3
4
17
3
0
1
3
5
2
6
5
7
12
2
5
13
12
4
7
4
2
6
9
3
10
17
12
10
5
1
1
1
1
3
2
5
5
19
4
1
5
5
2
6
3
5
10
3
1
3
2
10
21
8
6
13
5
7
4
13
11
8
6
12
8
3
8
7
5
10
2
1
1
4
8
1
10
1
1
1
1
4
6
4
1
7
7
0
1
2
0
1
1
0
1
4
8
5
4
9
3
3
1
7
6
0
1
4
6
6
1
0
4
9
6
7
11
22
5
4
18
14
2
17
4
8
2
7
2
7
7
15
3
4
4
2
2
6
4
3
8
8
6
12
5
6
5
1
4
4
4
5
3
3
0
3
6
2
13
6
11
7
7
5
18
1
9
3
4
1
4
13
5
5
13
1
3
5
3
18
3
3
3
11
12
8
3
3
3
0
4
4
2
2
4
13
20
26
3
1
1
5
1
3
12
3
3
2
3
11
2
5
0
5
11
3
5
10
14
18
11
7
13
14
10
13
11
11
2
7
0
2
2
5
0
8
2
7
8
4
9
0
0
9
11
0
1
5
3
9
6
8
9
8
0
3
1
4
14
4
2
6
5
0
4
9
5
5
0
15
10
17
5
3
4
9
5
22
10
4
0
5
10
3
0
4
1
2
5
5
2
8
2
14
6
8
9
8
6
3
7
3
0
5
1
7
5
11
2
2
7
2
6
9
8
3
1
3
2
11
6
2
7
15
3
10
8
3
1
4
13
16
16
2
1
1
4
8
3
3
4
3
1
8
3
9
1
2
15
4
8
3
2
22
6
13
1
4
3
4
1
9
5
9
0
3
1
7
0
6
12
12
8
0
14
5
1
4
5
8
8
16
0
5
1
2
1
8
7
8
4
2
8
14
9
0
1
5
1
3
5
15
0
5
0
3
3
4
9
8
11
4
2
1
0
0
3
8
10
3
10
6
14
10
7
2
2
2
0
1
4
19
4
0
17
3
3
3
8
4
14
3
7
2
9
7
3
0
5
3
0
6
8
1
4
11
0
3
6
1
2
4
3
4
10
3
19
2
1
5
3
3
4
4
6
7
2
3
1
1
14
3
1
5
9
6
3
3
9
4
4
0
0
16
3
3
2
3
1
10
5
6
1
5
15
7
4
7
18
4
2
1
5
3
4
2
2
0
2
2
10
9
15
13
6
10
2
1
5
3
20
3
1
4
1
3
4
6
4
0
3
1
12
4
12
21
5
2
0
1
9
16
3
3
7
14
1
2
3
5
4
5
0
6
3
9
1
10
3
6
5
1
3
7
2
2
6
8
6
5
4
6
5
5
12
6
7
0
5
8
21
13
7
4
2
7
8
11
1
7
0
1
2
4
1
6
4
0
7
10
4
6
0
0
5
2
8
2
5
9
2
3
5
3
6
1
1
3
4
7
14
15
3
1
4
3
1
5
5
18
10
5
6
6
4
3
2
12
5
2
11
11
3
9
2
1
7
0
6
2
3
1
9
16
4
2
5
4
10
21
0
11
1
7
9
7
3
0
3
2
9
1
21
4
3
3
1
6
5
5
1
4
15
0
0
1
3
8
9
5
5
3
8
2
2
7
3
5
17
1
1
14
8
5
4
0
21
5
9
2
16
11
0
3
15
7
8
3
10
4
13
2
4
1
0
6
0
8
2
15
4
3
10
3
4
0
21
8
10
14
1
2
0
4
2
0
4
4
6
9
8
8
1
3
1
11
8
4
1
3
4
2
2
0
6
2
10
9
1
4
6
8
21
6
3
2
5
0
1
0
2
3
0
9
8
0
0
3
3
3
1
12
8
2
3
0
2
1
5
2
15
1
20
6
4
3
0
1
10
3
3
1
4
5
3
14
2
5
11
5
9
8
7
3
2
1
11
14
4
6
4
3
0
11
9
4
3
3
5
6
4
1
4
11
3
20
6
0
3
1
4
10
11
0
0
1
9
9
6
0
2
7
13
4
7
12
0
9
3
1
6
18
1
0
14
11
1
1
5
8
9
8
0
8
4
1
5
4
2
2
5
1
4
0
1
5
7
2
14
4
5
7
3
6
7
8
5
7
9
15
4
5
5
2
3
4
1
2
1
2
7
1
10
8
14
0
2
8
4
4
1
4
1
5
8
5
2
1
14
8
3
0
2
7
9
7
18
2
8
5
13
4
0
17
4
2
4
6
11
4
10
5
5
8
6
4
7
4
11
11
3
7
1
11
0
6
0
2
3
0
3
8
1
3
3
9
8
4
5
2
11
7
11
5
6
6
5
1
12
2
6
4
3
0
4
1
5
7
2
4
2
2
10
4
7
10
10
9
1
10
4
3
7
2
1
4
3
1
1
2
9
6
0
3
8
1
9
3
0
0
1
15
1
13
6
2
5
13
1
3
5
2
4
1
0
9
13
7
2
14
4
12
14
0
2
5
4
6
0
12
8
9
9
8
14
9
12
7
10
5
13
1
0
3
5
7
6
5
0
4
0
9
1
1
1
12
10
0
7
0
3
2
2
10
3
6
3
10
11
16
14
15
3
2
2
2
7
3
1
3
10
10
1
4
6
1
1
1
2
15
9
0
2
1
1
3
14
5
5
3
3
2
4
6
3
1
11
10
5
1
1
3
6
1
0
10
6
1
10
10
2
3
6
1
1
1
10
4
0
2
7
6
1
6
6
1
5
10
18
4
3
10
2
12
5
12
2
1
2
4
10
12
0
0
6
3
18
6
7
7
9
0
7
13
4
14
1
2
3
2
1
4
3
0
3
3
2
13
5
6
0
0
3
10
11
1
11
1
0
0
0
2
0
0
5
1
2
0
4
5
4
10
2
6
3
5
7
8
0
2
0
2
6
6
5
4
8
8
10
6
5
5
6
2
4
10
2
7
1
13
17
9
3
13
10
5
0
3
8
0
4
5
9
3
6
2
5
2
1
3
8
1
10
3
12
0
2
1
2
1
2
4
5
4
8
2
1
0
2
11
9
18
14
4
9
3
9
4
0
3
5
3
1
5
11
7
2
6
8
6
5
4
6
1
7
13
7
6
7
5
7
8
6
4
10
4
1
9
5
1
1
2
1
8
4
10
3
9
4
4
1
0
6
11
3
0
2
10
1
4
2
4
7
13
11
9
4
0
0
1
2
1
3
3
14
6
1
2
9
2
11
3
13
8
6
6
2
2
3
2
5
8
12
2
4
4
4
5
4
5
8
6
6
4
1
10
13
10
9
9
11
3
4
11
1
0
3
0
0
6
7
6
3
0
6
0
0
6
5
1
0
8
20
20
19
11
7
2
3
6
3
6
3
9
19
0
1
9
2
4
4
7
14
11
13
2
1
3
6
15
12
4
1
4
4
0
2
4
18
4
11
0
6
7
3
5
7
3
13
6
8
2
8
14
6
11
2
1
5
8
0
6
15
4
4
9
5
3
6
2
4
11
4
12
7
11
13
3
0
2
1
2
10
7
6
8
1
2
8
16
10
5
13
6
5
6
5
6
3
7
3
3
2
1
4
12
4
5
1
1
9
3
6
5
10
4
2
3
5
6
1
1
1
13
4
7
7
4
11
2
8
2
4
1
0
4
1
10
4
7
2
3
13
3
7
1
13
2
2
5
0
7
8
1
7
0
12
6
7
1
7
10
8
5
14
1
3
6
10
9
0
5
5
7
5
0
0
11
0
1
7
6
8
5
4
0
0
1
2
4
7
1
8
2
2
6
14
13
11
3
0
2
2
2
2
4
10
4
2
7
4
3
8
0
0
4
4
10
4
9
1
7
4
4
4
20
22
10
7
1
3
3
3
0
1
4
2
2
5
1
8
3
1
10
11
10
6
2
1
3
3
3
5
0
1
3
0
2
7
10
5
10
2
6
10
8
15
2
12
8
5
3
1
10
1
2
3
12
1
1
2
10
5
1
2
11
4
0
8
4
5
10
12
18
2
16
4
13
2
5
2
5
5
1
9
2
2
1
2
0
3
15
1
8
6
4
6
1
4
6
2
1
6
13
0
4
10
11
2
8
13
5
8
5
7
1
6
1
2
1
2
14
3
1
8
2
3
9
12
9
7
4
11
1
0
3
1
1
2
0
7
2
11
3
19
5
3
2
2
2
3
7
11
6
6
6
2
12
1
5
14
9
1
3
4
2
5
0
1
1
7
6
5
11
15
5
13
16
9
1
7
1
5
3
9
17
13
2
7
6
3
10
2
9
0
0
3
2
0
17
6
3
1
0
4
8
10
6
3
12
10
0
4
9
7
1
4
11
1
1
1
2
2
4
10
7
6
1
7
1
0
0
0
2
5
12
3
4
4
2
7
5
12
8
9
4
8
12
3
0
1
7
1
12
0
2
3
15
10
11
0
5
1
9
5
3
3
0
9
3
5
1
1
5
0
3
2
15
7
7
5
5
2
5
4
2
6
5
5
18
2
7
1
4
3
3
5
0
1
5
1
2
20
5
11
0
2
5
10
2
2
0
0
5
2
0
2
4
1
1
3
2
3
2
2
13
8
0
2
2
1
7
0
8
5
2
0
4
6
6
2
8
4
1
0
3
0
12
14
1
5
4
2
4
5
7
3
17
12
2
3
1
2
1
9
2
1
8
12
9
7
3
3
5
6
8
0
8
9
6
3
2
4
0
4
8
8
2
1
6
4
1
0
4
1
2
10
5
11
9
4
7
6
4
4
4
15
6
3
1
9
6
2
6
3
10
7
2
4
1
1
0
0
3
6
3
1
7
0
1
4
2
0
10
5
2
9
3
2
13
4
0
5
2
12
6
1
3
2
9
14
5
5
4
4
9
0
0
10
3
3
2
5
1
2
9
2
9
0
7
1
7
2
2
7
10
2
5
3
0
4
1
2
1
1
0
0
11
3
3
7
5
11
0
4
0
0
1
14
0
7
7
6
2
0
1
3
0
9
2
4
3
5
2
2
2
6
12
12
5
6
2
3
2
7
13
9
1
1
6
4
4
11
7
4
2
1
4
3
7
1
3
3
3
8
11
10
0
2
0
9
0
0
11
0
4
1
6
6
3
6
4
2
3
6
6
0
2
17
14
5
0
3
17
12
1
4
0
13
16
4
1
8
4
2
0
3
5
8
2
9
4
0
11
1
5
10
2
3
3
9
2
4
13
4
6
3
1
4
9
2
3
2
5
14
19
1
2
4
3
6
5
2
5
1
3
2
11
2
3
2
3
3
10
1
19
12
6
2
2
2
6
8
3
7
7
4
6
2
0
2
3
1
0
5
5
2
3
2
1
0
4
3
1
4
5
3
8
3
0
1
12
0
7
3
4
2
5
12
1
1
6
1
3
11
14
7
8
1
11
5
4
5
3
2
5
5
5
8
4
0
0
10
8
6
8
13
2
14
5
7
3
8
1
0
1
1
2
7
9
1
0
15
0
4
2
1
4
4
10
5
0
6
6
1
6
5
4
3
1
7
0
2
2
1
11
0
1
0
5
2
0
10
3
10
1
6
5
2
1
7
11
3
8
0
5
5
8
3
5
0
1
5
6
2
3
1
5
8
9
11
1
9
2
5
3
2
8
4
1
8
3
3
5
6
1
5
0
5
7
6
6
5
4
1
1
2
2
2
2
9
1
15
5
1
1
2
1
6
9
3
5
11
5
0
6
5
3
0
0
4
5
1
1
2
3
3
4
0
2
0
4
1
9
6
3
6
8
7
1
5
5
6
12
0
4
4
2
4
4
9
4
3
8
4
4
12
10
2
3
6
7
6
1
2
3
3
2
6
3
0
1
4
1
4
1
8
6
7
5
9
9
3
5
4
6
5
4
2
9
2
2
2
2
2
4
3
8
0
6
0
0
5
1
5
1
8
0
5
6
1
8
5
1
7
7
2
3
4
6
5
4
5
2
1
2
5
9
7
0
2
1
3
4
0
1
3
1
2
13
3
3
8
10
7
6
5
5
3
1
1
9
14
1
2
12
6
3
4
4
10
3
0
4
2
5
0
1
1
7
2
5
1
7
11
8
3
10
11
0
8
3
2
8
2
5
10
6
9
6
6
5
13
2
2
4
4
2
15
2
1
7
3
12
11
2
1
0
4
2
0
11
0
13
4
0
5
0
6
7
3
7
0
0
6
1
7
4
12
6
9
2
9
3
11
2
11
3
1
0
1
3
0
1
3
2
2
2
14
3
6
7
3
9
13
6
3
1
2
3
8
4
1
3
4
5
7
1
2
12
8
4
1
11
2
0
0
6
1
3
1
12
4
0
1
8
2
0
0
1
2
5
5
3
0
4
8
0
9
6
1
3
7
3
2
1
3
1
10
1
10
3
1
1
1
0
2
1
15
1
2
1
0
1
4
8
2
7
8
10
5
3
2
2
0
3
9
0
0
0
4
0
5
5
2
1
3
3
6
2
1
3
3
1
2
0
7
4
2
4
3
9
7
0
0
5
4
5
3
2
1
6
1
6
2
4
4
0
2
5
6
5
9
0
8
3
3
6
3
4
7
5
3
6
3
3
2
1
1
4
0
0
2
1
4
4
3
4
3
4
3
2
7
1
14
1
4
4
0
8
10
13
2
6
0
5
1
1
1
1
9
7
3
3
0
12
1
5
7
4
2
3
4
7
5
5
5
5
4
5
6
7
4
5
8
2
4
3
3
8
3
0
5
8
13
1
4
0
6
8
2
2
4
4
2
0
5
3
9
11
22
7
1
1
10
6
5
0
3
2
2
4
5
8
19
1
10
5
2
10
2
2
1
5
1
2
0
3
4
0
6
7
4
0
1
6
7
8
7
0
1
8
6
2
3
8
0
0
0
6
3
13
0
0
5
6
0
5
3
2
1
0
8
4
15
1
6
1
0
1
10
0
0
5
5
10
6
9
1
10
1
5
7
19
11
1
8
0
1
0
9
2
4
1
0
5
3
2
5
4
2
3
6
1
5
9
3
5
9
5
3
13
0
1
1
6
4
1
3
6
7
3
3
12
6
0
6
2
1
6
8
2
6
12
1
5
4
2
0
2
2
3
4
2
9
0
7
3
0
4
5
3
4
1
4
5
4
6
8
5
4
6
2
0
4
1
1
1
0
5
9
5
10
0
11
10
2
0
4
9
6
1
2
3
2
8
0
6
3
2
4
2
6
5
2
8
6
7
5
2
5
2
1
3
9
9
3
4
3
5
1
2
7
5
9
1
7
1
11
2
4
7
6
10
0
2
6
3
1
0
3
6
0
3
3
10
7
3
12
7
4
11
7
15
4
5
14
2
5
0
2
6
4
2
7
6
9
10
9
3
3
0
3
2
7
3
6
5
2
5
3
1
3
3
1
2
7
2
3
9
11
12
4
6
5
2
4
6
0
4
0
2
7
5
1
5
12
13
12
1
1
6
4
1
2
4
3
7
0
5
0
0
2
12
4
4
4
0
4
3
6
1
2
0
16
2
16
11
1
4
6
7
0
1
1
4
9
1
5
3
1
2
0
0
2
2
1
0
0
0
3
3
2
0
5
3
0
2
2
3
13
1
8
9
2
5
6
1
2
4
3
4
2
7
3
3
2
3
3
5
0
6
9
11
2
2
11
6
2
1
5
2
11
2
0
2
1
5
2
14
0
6
11
2
0
1
2
2
8
3
0
6
2
0
0
3
5
5
5
10
1
1
8
0
5
4
0
0
2
9
1
6
0
9
1
7
4
6
13
1
0
1
0
1
1
2
9
4
5
8
3
4
4
5
0
2
0
0
4
5
4
7
0
4
15
5
2
4
10
3
2
2
4
10
7
1
6
0
2
2
5
6
2
1
3
4
3
6
2
5
7
5
4
13
4
1
2
5
1
10
8
5
0
0
1
1
3
6
0
0
8
3
8
2
0
5
0
1
8
0
14
5
3
3
2
0
6
2
6
8
8
0
9
4
2
1
6
3
3
6
4
7
3
1
2
7
5
5
0
2
11
2
5
6
6
7
1
1
5
0
2
1
12
8
16
4
3
5
0
2
0
4
11
0
1
0
0
4
0
3
9
10
7
4
13
1
3
0
5
8
7
4
2
6
1
6
6
0
8
1
12
5
11
8
0
2
7
5
2
2
3
3
4
1
7
2
1
6
1
7
0
3
7
4
0
6
7
8
4
1
4
1
1
2
1
1
1
3
1
4
1
2
2
2
7
6
5
5
0
0
6
2
2
1
1
3
0
5
5
5
0
1
6
2
5
6
3
5
0
9
1
3
1
2
1
6
2
11
5
3
8
4
13
3
9
10
6
5
4
5
4
2
1
13
4
2
6
0
0
1
1
2
4
2
5
2
3
2
3
4
0
12
0
2
7
9
2
6
2
2
1
2
3
6
4
2
6
9
1
3
8
9
0
1
2
3
4
2
1
4
0
12
7
0
5
3
10
0
2
1
0
0
2
6
0
3
10
8
1
6
9
7
3
2
8
5
1
3
1
1
3
12
4
1
2
4
0
0
1
3
3
0
0
0
17
5
3
1
1
0
10
3
2
9
4
0
1
2
2
12
2
1
3
6
3
6
7
2
5
1
5
2
3
5
9
4
0
1
6
5
5
5
5
3
1
7
0
8
2
2
1
4
1
0
10
4
0
1
4
2
3
3
0
1
2
1
3
1
9
2
1
0
8
3
3
5
6
6
10
12
0
1
2
1
6
5
4
0
2
0
5
1
4
6
0
4
4
0
3
0
10
9
6
4
4
1
1
0
4
2
1
9
2
2
6
0
2
2
6
4
15
0
1
2
5
5
1
0
5
11
7
2
3
2
2
4
1
3
5
5
6
8
13
1
1
8
0
1
2
19
10
4
7
3
9
1
2
6
3
4
4
3
4
2
6
3
4
1
13
4
4
2
11
0
1
0
0
11
7
13
9
9
5
1
2
8
7
9
3
6
0
4
9
3
4
8
0
1
5
1
4
0
0
7
2
4
10
0
7
6
9
7
11
0
4
5
3
3
7
1
3
2
4
10
7
4
1
19
1
0
1
8
9
12
4
5
2
9
5
6
1
11
6
3
4
1
5
0
7
0
7
1
1
2
0
3
8
10
5
9
0
3
6
5
1
7
3
7
3
1
9
3
4
5
0
8
5
0
7
12
7
1
3
8
3
0
1
4
9
2
4
10
4
1
3
2
4
3
8
0
17
4
6
3
3
3
1
7
2
10
13
0
4
8
4
2
5
1
4
5
0
3
6
2
3
0
1
2
1
10
6
11
4
1
1
1
17
3
0
1
3
10
1
5
3
2
6
6
2
5
8
0
6
8
8
3
1
0
2
8
16
0
7
1
2
0
8
2
4
0
1
5
8
2
0
4
5
2
0
8
4
3
9
6
9
9
5
2
2
3
0
2
12
9
1
0
1
5
0
2
4
10
4
5
7
1
3
1
5
2
5
3
3
2
5
2
7
2
0
12
14
3
1
0
0
8
7
1
1
1
1
0
5
1
8
3
1
1
6
1
10
0
2
6
3
4
0
0
7
11
1
3
2
4
10
7
7
2
1
1
2
0
6
9
3
10
4
1
4
4
5
1
3
1
2
4
1
2
0
4
4
5
2
2
8
3
9
1
6
13
1
5
1
8
3
3
9
10
0
3
2
1
1
5
0
1
25
0
2
0
4
7
11
1
0
9
5
0
2
5
3
6
1
0
1
0
2
7
0
2
1
2
0
8
0
8
2
3
1
2
12
8
5
8
0
0
4
4
0
4
20
3
2
0
0
5
1
0
6
5
5
5
1
4
1
3
5
6
0
3
9
4
2
0
5
1
3
5
11
9
0
9
2
1
3
1
1
1
0
1
8
2
7
1
5
2
5
5
0
1
4
1
5
6
7
4
4
7
7
19
4
8
12
0
6
2
12
4
3
8
5
17
1
6
1
2
10
6
2
7
3
3
2
0
1
1
1
5
0
0
0
3
0
6
3
4
1
1
0
2
5
7
1
0
3
0
2
2
2
0
0
5
5
3
0
0
0
0
6
6
5
4
7
0
0
5
1
2
6
0
8
1
7
4
4
10
1
11
5
1
4
3
3
2
4
2
4
1
7
4
3
13
6
3
2
11
2
5
0
0
12
11
1
1
0
1
4
9
15
2
0
4
3
3
5
4
1
5
9
0
5
1
7
2
5
2
4
1
0
2
0
9
0
1
2
11
4
0
8
4
0
2
3
2
5
3
6
2
9
9
0
3
3
3
3
0
1
6
3
2
1
2
1
0
0
6
1
2
6
3
4
3
13
1
2
5
3
0
2
2
1
5
3
7
1
7
1
4
2
1
3
2
1
5
9
1
1
3
14
0
13
3
2
7
3
0
5
7
6
10
5
2
3
4
9
5
5
6
5
5
5
1
0
5
0
2
2
0
2
6
8
3
2
1
1
1
2
6
1
1
5
0
0
2
0
2
2
5
0
3
0
1
5
7
2
7
2
4
6
5
0
0
7
0
3
2
1
5
4
14
3
7
1
8
9
4
2
4
0
4
2
3
0
5
3
7
1
4
2
2
10
12
5
1
2
1
0
3
18
1
8
7
7
7
8
6
1
5
1
1
5
1
0
3
11
5
4
0
0
2
5
3
3
1
2
1
6
3
2
4
0
4
2
7
2
0
5
0
3
3
6
1
9
3
3
2
4
4
2
6
7
3
5
5
1
9
7
15
5
3
12
9
15
16
2
1
3
2
9
3
4
0
0
0
7
5
6
5
4
3
5
0
0
3
8
2
3
2
3
1
11
2
0
5
7
1
9
4
0
1
2
1
1
8
5
2
2
4
4
1
6
3
3
3
4
0
5
1
9
3
0
4
11
1
5
4
2
4
8
1
4
5
1
3
6
5
6
1
3
0
11
0
11
4
2
1
5
2
2
1
1
1
0
8
8
6
1
3
0
4
4
7
6
5
2
14
4
6
1
3
1
22
3
1
1
0
2
6
13
4
5
0
2
4
4
2
2
3
0
5
3
3
2
1
2
0
6
3
4
4
5
6
1
4
5
2
2
1
6
1
1
1
2
14
7
3
1
5
4
4
9
1
3
2
2
5
2
3
6
1
1
2
5
5
5
0
9
2
8
0
0
10
2
15
10
0
4
1
3
4
2
3
2
1
0
1
14
6
5
4
0
4
9
1
8
5
1
3
5
8
2
0
3
0
9
6
4
2
3
4
0
2
6
3
3
1
1
5
4
3
2
0
2
2
4
5
6
0
0
3
1
1
4
6
6
9
3
2
12
0
1
5
11
11
1
0
1
2
0
4
1
4
3
2
0
2
1
4
3
0
1
0
8
2
4
5
15
0
0
1
9
0
1
8
2
3
9
2
1
0
4
2
0
4
9
2
0
2
1
0
1
3
4
1
5
8
1
1
1
4
11
3
1
3
3
5
1
7
2
1
5
7
13
5
5
6
7
1
2
2
3
5
2
1
3
5
6
3
13
6
5
6
5
0
0
2
2
1
1
2
6
0
1
4
1
1
3
3
0
3
1
1
1
10
5
1
7
5
3
6
1
1
1
3
5
4
0
7
9
3
3
1
4
0
4
2
0
11
0
4
3
1
7
3
5
3
5
4
4
3
1
4
12
7
0
4
4
10
0
0
3
2
0
2
2
5
7
13
1
5
4
1
3
1
0
4
1
7
0
1
1
5
6
2
3
3
5
10
0
1
22
1
3
4
4
1
2
5
4
4
5
5
4
2
3
8
3
2
10
6
3
19
3
9
15
8
11
2
2
2
8
0
0
2
10
3
1
0
0
2
8
2
4
8
4
2
2
5
1
7
1
4
3
1
1
1
1
7
2
0
2
2
3
10
0
7
7
4
1
2
2
4
7
2
4
5
0
1
2
3
2
1
6
3
0
5
4
4
4
2
2
0
2
0
8
5
4
3
2
9
6
11
7
5
12
8
0
7
1
6
1
1
0
0
0
3
6
2
3
6
3
1
4
1
2
8
0
2
8
4
0
3
0
4
1
4
5
2
0
3
0
4
2
6
0
8
3
0
2
0
1
1
2
4
1
8
9
8
0
5
5
0
3
2
0
8
3
13
1
5
3
7
3
3
4
2
3
9
5
9
2
7
0
2
3
4
0
3
7
5
2
0
1
0
4
0
0
0
0
2
6
5
2
7
3
1
1
1
0
0
2
1
6
1
7
2
2
1
1
6
1
1
3
3
3
2
3
2
1
3
1
0
1
1
2
5
4
3
7
4
7
6
2
4
2
3
0
5
1
1
2
2
7
2
1
9
6
0
0
1
7
0
4
4
2
3
1
3
0
2
4
4
1
10
9
4
5
3
8
6
2
0
1
3
7
3
2
4
1
1
4
6
0
0
4
2
2
3
2
3
3
7
1
5
0
1
7
1
4
1
5
2
5
4
3
5
12
10
1
4
3
1
10
1
5
5
1
11
1
3
4
1
6
1
5
6
6
8
3
2
1
2
5
9
3
8
6
2
9
3
1
0
0
1
3
7
1
3
0
3
2
7
8
4
0
3
7
7
1
1
0
1
0
2
0
14
5
2
8
10
2
0
5
5
4
1
6
4
2
5
2
5
0
0
4
4
4
3
5
10
1
11
0
0
7
3
0
6
6
12
0
1
0
0
0
2
4
7
4
0
0
4
5
5
1
1
1
11
2
10
1
6
1
13
5
5
4
1
3
4
4
11
7
2
1
5
0
6
6
7
3
1
1
5
8
3
1
8
7
2
0
2
0
4
1
2
11
0
1
4
7
6
6
0
2
0
5
3
13
12
5
0
6
5
2
0
3
0
8
6
13
4
2
0
3
1
1
3
6
5
2
6
7
6
7
5
4
1
1
6
5
2
2
6
12
12
8
3
11
1
0
4
1
6
1
7
1
2
4
0
0
3
4
1
2
4
12
5
7
3
1
1
0
2
1
7
0
4
4
0
5
1
11
4
4
4
0
1
0
4
3
4
4
1
0
1
3
4
4
1
0
4
5
0
2
4
2
4
0
2
3
1
2
2
2
1
3
4
4
3
4
3
2
7
5
5
3
0
14
3
2
0
5
7
4
4
4
0
2
4
4
7
6
0
1
0
5
3
2
1
1
0
0
0
1
6
0
0
1
6
5
2
2
2
8
4
3
3
4
5
7
12
0
3
0
5
4
4
7
3
1
1
5
0
1
1
3
5
5
0
1
1
1
4
4
5
6
2
1
3
0
7
6
4
0
9
1
4
0
0
4
2
2
5
2
0
0
3
9
7
0
6
1
6
3
1
5
4
3
1
3
3
10
1
1
4
5
2
4
0
0
6
2
5
0
4
3
5
2
4
1
0
1
3
6
6
3
1
2
5
6
0
1
9
3
1
3
2
6
7
6
4
3
5
6
0
1
1
3
5
0
7
1
9
3
5
3
3
1
8
0
1
4
3
2
9
5
1
12
0
3
2
2
0
4
4
2
1
4
5
1
2
7
7
0
1
0
2
4
0
2
3
3
2
6
1
7
1
10
3
8
2
3
2
1
1
0
1
0
1
4
2
7
0
4
1
3
1
1
1
6
6
4
0
1
1
4
2
1
5
0
1
5
1
2
2
3
5
2
0
7
1
7
5
4
3
0
4
1
10
1
2
5
1
1
2
1
3
2
0
10
3
8
1
4
5
9
1
4
2
0
6
6
2
1
3
2
5
4
5
0
0
2
2
0
4
0
1
1
4
2
1
1
0
5
5
3
2
0
1
3
3
0
2
0
6
0
7
3
0
1
2
7
11
1
3
4
2
5
2
4
7
1
4
3
3
1
2
1
1
1
0
5
11
3
4
3
0
8
6
1
0
0
0
0
12
1
1
5
8
1
1
0
0
3
4
4
0
6
5
5
4
5
6
5
0
3
5
4
6
4
7
8
3
2
1
0
3
3
2
1
3
5
1
1
3
4
6
2
2
6
2
0
4
1
4
4
3
3
4
4
10
1
2
3
2
3
10
0
6
4
12
6
4
1
0
2
1
7
1
6
4
0
0
1
2
1
1
6
17
1
2
0
0
5
5
6
0
2
10
11
2
3
1
6
2
4
2
5
4
0
3
4
5
12
3
2
2
2
1
2
2
5
5
3
0
5
4
2
3
3
4
2
2
2
2
5
2
1
6
1
3
4
0
4
4
6
4
0
6
2
1
3
0
10
9
3
3
4
4
2
2
2
5
4
2
4
1
1
2
1
4
2
1
0
5
1
0
5
1
16
2
4
1
4
5
0
8
3
2
0
1
1
0
1
0
3
4
1
2
1
8
1
4
0
4
2
2
4
1
2
3
5
2
10
3
3
11
4
3
0
3
0
1
2
8
5
2
1
1
2
4
7
3
0
9
7
5
5
2
2
1
1
8
1
7
4
0
4
4
0
1
0
7
4
4
5
0
3
7
5
0
0
10
6
5
5
10
5
3
0
2
1
11
2
8
2
1
2
6
0
0
10
2
13
4
4
3
1
13
0
1
4
1
8
0
0
4
2
6
8
2
2
1
4
4
1
2
9
2
1
6
2
9
8
0
13
5
1
3
1
0
0
5
8
3
9
2
1
2
4
1
6
3
0
3
0
7
10
5
2
3
7
3
3
1
0
2
1
1
0
1
1
3
4
1
3
3
3
6
0
0
1
2
6
2
2
5
0
2
5
1
2
6
2
4
3
15
2
1
4
0
6
6
0
9
9
9
4
9
8
6
5
3
7
1
5
3
3
0
6
0
4
7
0
1
2
1
0
4
0
12
2
6
3
0
9
5
2
7
0
2
0
1
1
7
0
4
2
1
1
8
1
0
3
5
9
5
12
1
6
2
0
4
3
3
2
2
6
6
3
6
4
2
3
2
7
1
2
5
0
3
8
1
1
8
2
0
8
4
5
5
2
0
0
1
2
0
5
7
7
2
1
2
0
0
2
7
5
3
6
1
5
3
6
6
3
3
4
2
17
0
4
0
0
1
1
1
4
4
2
0
2
0
1
2
1
3
6
4
5
2
6
1
3
1
1
0
5
0
0
2
3
1
1
1
1
2
3
1
0
10
0
4
6
3
0
8
1
6
3
1
3
6
1
2
1
4
2
8
2
6
3
1
1
4
6
6
2
4
2
1
2
4
3
1
2
5
2
1
7
1
6
4
5
12
0
4
2
1
0
1
2
3
0
2
6
1
3
4
1
0
3
4
2
0
4
10
2
2
5
0
3
2
2
5
2
2
4
7
3
1
2
8
2
8
0
5
2
5
0
0
4
3
0
0
1
3
3
2
2
0
2
6
2
3
0
2
3
10
3
0
4
8
7
4
7
5
5
5
1
5
0
2
2
0
1
0
0
6
2
0
3
4
2
3
1
2
0
0
1
5
3
11
0
0
2
1
3
1
1
5
0
2
4
5
7
4
5
2
0
3
0
3
1
2
2
3
6
4
1
4
5
2
9
1
5
4
0
2
0
1
4
1
1
1
0
1
2
3
5
0
2
5
1
5
5
0
2
1
3
6
2
1
4
3
0
3
1
6
7
4
0
12
8
11
6
1
3
2
3
4
4
6
15
3
5
4
9
2
12
1
3
1
5
2
0
0
7
1
1
0
13
1
2
1
6
0
6
2
9
2
1
1
0
9
0
1
6
2
1
1
1
5
1
1
2
5
1
2
0
1
0
0
4
3
10
13
2
4
1
4
3
9
5
2
5
1
1
4
3
4
6
7
0
5
5
10
0
4
5
8
5
2
8
5
7
9
2
2
4
1
2
2
2
1
6
0
6
4
0
1
5
1
6
0
8
0
2
1
1
6
0
5
5
0
4
2
8
0
2
0
3
2
3
4
0
2
3
0
2
2
2
1
6
4
6
7
6
0
1
1
2
4
0
1
0
8
2
2
1
9
0
3
5
0
4
0
9
10
2
3
1
3
0
0
1
3
1
1
2
1
4
0
2
2
5
3
0
1
1
3
2
3
3
4
5
3
3
0
3
10
0
4
3
2
0
5
0
1
3
5
0
1
2
2
0
1
0
0
1
3
1
2
0
3
6
3
6
0
2
10
2
1
9
4
4
6
4
11
6
12
1
0
7
4
3
2
2
2
2
8
7
5
1
4
1
0
4
2
2
3
0
9
9
0
0
4
0
9
1
1
3
1
1
9
0
0
1
6
4
2
0
1
8
2
7
2
2
7
9
1
0
8
1
3
2
3
5
5
1
3
3
0
4
4
2
0
3
1
0
5
1
3
8
7
11
11
4
4
5
1
4
0
3
7
0
2
2
0
7
8
4
0
4
9
1
0
3
2
1
0
1
1
0
2
2
7
1
0
1
0
5
2
0
3
5
1
5
6
3
2
0
1
8
0
4
12
0
5
5
3
0
2
1
3
2
1
0
2
5
2
2
1
5
4
0
5
0
3
3
0
1
1
0
0
2
4
2
0
0
2
1
0
3
1
3
0
1
7
3
1
4
12
6
2
0
2
5
3
3
3
3
7
0
3
6
0
5
6
4
0
0
0
0
1
0
4
8
0
2
1
2
1
4
2
2
2
4
0
6
0
0
3
1
0
0
1
1
0
4
1
3
0
0
2
1
2
9
0
0
3
0
0
3
1
2
5
7
5
9
1
0
1
7
2
0
0
0
1
1
2
3
1
8
1
2
0
0
1
1
0
1
5
0
3
1
4
4
6
2
3
0
0
0
2
0
3
1
2
1
2
5
1
0
0
1
1
3
0
4
1
2
8
4
1
1
8
2
4
4
2
2
1
0
5
3
8
5
3
3
4
1
5
1
8
1
1
4
5
0
6
1
0
0
3
0
0
1
4
9
4
9
7
8
6
4
0
2
1
0
2
2
1
3
0
4
5
0
1
1
2
2
3
10
1
4
5
3
6
0
0
1
3
2
1
5
3
5
13
4
2
7
1
2
1
6
0
3
1
6
0
0
5
0
5
2
6
4
3
3
5
1
2
1
4
2
0
0
3
1
10
5
2
3
2
0
2
1
1
1
0
5
0
4
2
5
3
1
0
1
1
4
0
0
0
0
0
0
3
3
3
1
7
0
2
10
3
5
5
3
9
1
7
4
1
2
10
1
2
0
2
2
5
4
2
3
4
2
11
5
1
0
6
3
2
1
0
0
7
1
4
3
5
1
1
9
3
0
1
3
2
9
4
0
2
3
1
2
1
1
2
10
3
7
6
1
0
1
2
1
4
0
1
1
4
4
0
1
2
1
0
0
0
0
0
0
4
2
2
3
0
1
2
1
1
1
0
1
2
6
3
3
6
0
2
3
2
4
7
3
3
2
8
0
2
3
11
0
0
10
1
1
6
6
5
0
0
0
0
4
5
2
0
2
0
0
1
1
4
3
2
3
1
0
3
3
4
0
0
1
6
5
1
6
4
2
0
6
5
3
5
0
8
2
3
8
0
7
6
10
12
4
8
1
0
0
3
0
5
2
0
0
3
1
1
2
0
1
1
3
5
0
3
1
5
3
2
0
0
2
0
0
2
3
5
5
2
2
2
6
0
0
4
4
5
4
0
1
3
8
3
3
1
1
4
2
1
0
0
2
0
17
3
5
1
0
0
0
5
3
0
1
2
4
8
3
3
0
3
1
5
1
1
1
2
0
3
4
1
10
0
0
3
1
7
3
5
1
3
2
2
2
0
1
0
0
6
8
5
6
0
11
0
3
1
9
0
2
3
1
3
0
6
1
3
0
0
0
4
3
1
2
3
4
4
3
2
2
5
2
0
1
2
5
5
8
13
6
7
9
1
6
2
2
1
2
3
0
5
2
0
0
1
1
8
2
3
2
0
6
4
2
2
1
2
2
0
2
1
3
1
0
0
0
0
5
0
1
0
4
5
1
4
2
4
0
2
6
5
2
1
3
4
0
1
1
2
2
0
1
2
1
1
4
1
2
2
0
5
1
6
8
1
11
5
1
2
7
10
2
4
3
3
0
1
0
6
0
1
1
4
8
6
0
2
9
3
1
1
2
4
0
0
3
2
1
0
1
2
1
0
3
7
2
6
5
10
1
1
5
5
2
1
1
6
0
0
0
2
2
0
1
0
3
1
1
3
7
2
5
0
5
4
2
0
1
2
1
6
0
0
0
5
6
6
5
0
4
2
1
3
2
0
1
2
0
1
5
2
0
1
6
0
2
0
4
2
1
4
2
3
1
1
1
0
7
1
1
8
3
0
0
6
0
0
9
1
4
0
2
6
2
0
2
3
0
1
0
0
0
6
2
3
0
1
0
4
3
0
2
1
1
1
2
2
1
2
2
2
0
5
4
0
1
6
4
2
4
1
5
0
1
0
1
1
0
1
0
0
5
7
2
3
0
4
2
1
4
3
3
0
3
2
3
4
1
0
9
3
4
1
3
5
5
10
0
6
3
1
1
2
1
1
1
2
11
2
4
0
5
0
0
1
1
0
5
1
6
0
3
1
2
6
1
0
1
1
13
0
8
3
1
1
0
1
5
1
3
1
0
0
3
0
2
0
2
2
1
0
0
1
7
4
8
1
4
4
0
0
0
1
5
1
2
1
7
2
0
3
1
1
0
3
4
2
7
0
1
1
0
3
10
3
4
8
1
0
0
7
0
0
5
1
3
1
2
0
12
0
5
4
1
0
1
7
3
11
4
5
0
0
2
2
3
2
0
2
7
1
5
1
0
3
4
7
1
3
2
5
0
3
0
1
2
4
4
2
7
7
0
6
1
3
2
0
1
4
1
0
2
1
0
5
0
7
1
1
4
6
8
7
3
3
0
0
1
0
0
0
0
2
0
0
3
2
7
6
0
4
4
0
1
3
2
1
2
1
0
0
2
2
3
7
8
8
6
2
0
1
0
2
0
0
1
1
4
0
6
3
1
2
1
1
2
6
2
4
3
0
12
2
0
0
9
3
18
4
3
1
4
4
7
15
4
4
4
1
0
1
10
6
1
4
1
2
2
3
2
5
0
2
0
0
1
5
0
1
5
0
7
0
0
2
4
1
3
3
1
6
6
3
0
3
6
1
0
1
0
4
3
4
6
8
1
2
6
1
1
0
4
0
6
4
1
2
1
1
0
0
2
1
1
0
4
2
2
2
0
5
1
4
0
0
0
0
4
1
0
1
3
8
0
3
0
1
0
4
1
0
4
3
0
9
2
1
1
5
3
0
0
4
1
7
0
10
4
1
1
0
1
3
0
6
0
1
2
3
10
1
1
0
3
3
0
2
4
1
8
6
8
1
4
0
3
1
1
0
2
1
2
1
1
1
9
5
8
11
0
0
0
4
2
0
2
4
3
3
0
5
3
2
2
5
3
9
7
2
0
2
2
3
0
3
9
1
1
2
3
7
1
0
7
2
8
3
0
7
12
2
7
0
1
5
0
4
5
2
5
1
0
1
3
4
2
3
1
4
5
2
2
2
1
0
0
3
1
7
0
3
0
0
1
2
2
0
1
3
11
1
9
1
2
1
2
12
15
9
4
7
1
1
1
4
4
4
2
14
2
2
0
3
0
1
7
0
4
2
1
0
2
0
1
6
3
4
4
6
0
2
5
0
3
0
5
4
1
0
1
1
6
2
5
1
0
2
0
0
0
8
0
1
1
0
0
2
1
0
0
2
0
0
1
2
1
1
0
1
0
5
0
6
1
2
5
0
0
0
0
1
2
1
2
0
2
2
3
6
1
0
0
3
2
2
0
0
1
3
2
2
0
4
2
0
4
3
0
1
1
0
8
0
1
3
0
2
3
5
2
2
3
1
2
10
1
0
0
3
6
5
2
3
3
0
15
1
0
0
0
1
5
3
3
6
4
6
3
0
1
6
4
4
0
0
0
0
2
1
2
4
1
4
2
1
4
2
4
4
0
2
2
7
0
3
1
4
5
0
0
3
4
5
0
3
1
2
6
1
7
5
3
3
0
2
3
3
2
3
2
3
9
0
2
1
2
0
2
1
2
10
1
0
2
4
3
5
7
9
6
0
6
3
1
0
1
2
2
4
0
3
1
2
9
0
9
6
6
4
0
2
0
1
2
1
0
2
5
4
2
1
1
3
0
6
4
8
1
10
2
3
0
6
0
3
3
4
1
0
3
1
2
2
0
5
0
5
4
0
6
3
4
3
3
0
1
4
1
1
3
2
0
2
0
3
1
4
2
1
0
0
2
1
3
5
1
4
0
2
0
1
2
4
2
0
2
1
1
0
0
1
2
4
2
2
5
8
3
0
2
1
0
1
1
2
3
2
6
5
1
6
1
0
7
6
4
3
6
1
4
1
1
2
1
1
0
10
0
1
1
2
1
0
0
9
2
1
1
11
5
1
1
1
3
4
2
0
1
2
1
6
6
1
3
1
1
7
1
1
0
1
2
2
6
1
0
1
4
0
7
4
1
7
2
1
0
1
2
1
4
0
1
0
2
3
4
3
0
2
2
3
1
2
1
1
1
2
1
3
7
0
2
0
0
0
0
0
0
1
0
1
0
0
2
2
2
2
0
3
2
2
1
5
0
5
9
0
1
0
1
5
0
4
5
2
3
3
0
5
1
1
6
2
0
1
3
1
2
1
3
1
1
1
0
0
6
0
0
2
0
0
3
0
2
1
1
1
0
1
0
2
1
2
0
0
2
2
0
8
0
3
1
0
0
3
3
1
4
5
5
0
0
0
2
0
2
0
0
0
1
0
2
7
3
2
5
1
1
4
0
2
2
0
1
3
6
1
7
4
0
0
2
0
4
0
4
5
2
1
2
2
5
3
3
2
7
5
1
3
7
5
3
0
6
6
0
7
0
7
3
3
2
7
6
5
1
0
4
1
4
0
3
0
1
5
0
5
6
7
5
0
4
1
1
1
3
2
5
0
0
0
6
8
0
1
1
3
2
4
1
0
2
2
4
1
3
3
1
1
3
1
1
6
3
8
5
3
1
9
0
4
4
0
1
6
2
4
0
2
8
1
3
4
2
4
1
0
0
1
4
9
2
1
5
0
0
4
2
1
3
8
4
0
3
1
3
1
5
0
1
1
5
0
2
0
7
1
0
0
1
2
0
2
5
3
0
7
5
9
0
0
1
0
1
1
0
1
1
0
0
0
1
1
0
3
5
1
3
2
11
2
5
0
3
0
5
2
2
3
2
1
4
0
0
2
0
6
5
0
0
0
1
0
3
2
4
3
0
0
3
0
3
9
2
0
0
1
0
4
6
0
5
5
0
6
0
4
0
5
5
0
1
0
0
7
2
2
3
0
1
1
2
4
1
0
1
0
2
5
3
1
1
1
2
0
1
10
0
1
0
2
2
5
2
2
0
1
4
1
0
0
2
1
0
1
1
0
3
3
0
1
7
0
0
0
4
4
2
2
5
3
1
4
1
0
10
6
4
2
0
4
1
4
3
0
1
9
3
5
8
7
1
3
3
0
1
6
2
0
1
2
0
0
1
2
0
1
3
4
2
1
2
1
6
1
0
1
3
0
1
0
7
3
0
2
0
0
2
2
0
0
1
1
2
7
2
5
2
6
8
5
0
3
5
2
1
1
4
1
1
6
4
1
2
2
1
3
0
2
0
1
2
0
1
3
0
8
5
4
2
1
6
11
4
3
2
4
0
0
3
2
6
3
3
1
5
0
0
2
3
1
1
2
5
0
0
6
3
5
0
0
0
2
2
2
0
6
4
3
1
3
2
0
1
2
3
3
2
0
5
1
0
5
1
0
1
0
2
3
0
0
1
2
0
4
1
2
0
2
0
0
3
0
2
2
2
1
0
0
6
1
4
2
0
4
2
2
1
1
1
1
2
2
3
1
1
2
1
13
1
3
0
6
6
0
0
2
0
0
0
1
4
0
4
5
0
4
0
0
1
2
1
10
1
0
0
1
3
1
12
0
1
0
5
5
1
6
2
2
0
1
1
0
1
2
0
0
0
5
1
0
0
0
0
0
0
1
6
8
8
1
0
1
4
7
0
4
0
0
4
4
0
2
2
0
7
8
2
5
0
0
3
0
0
0
0
2
1
5
1
2
0
2
0
9
9
2
3
2
3
5
1
1
0
3
1
4
6
2
4
3
3
1
0
0
0
1
5
3
0
5
4
6
7
1
0
0
1
3
5
0
1
1
0
1
4
6
5
0
1
4
3
1
2
0
4
0
0
2
1
0
2
9
1
3
2
0
5
4
3
8
0
0
0
0
3
1
2
3
2
1
2
1
0
3
6
6
3
7
3
7
2
5
3
0
1
4
5
0
0
3
0
6
0
1
1
4
1
0
7
3
1
3
1
2
1
0
1
0
1
0
3
0
4
0
3
1
0
0
1
5
3
1
3
1
0
3
2
3
0
0
12
7
0
0
4
4
3
3
5
8
1
2
3
1
0
2
1
0
0
0
3
1
0
1
1
5
0
0
1
0
1
3
0
3
5
0
2
0
3
1
5
3
2
2
0
0
4
0
2
2
0
2
3
1
2
1
6
0
0
0
2
0
1
1
1
1
2
0
0
0
3
3
1
1
0
0
0
5
3
2
4
1
0
0
6
8
0
1
3
1
6
4
3
5
7
3
1
0
0
2
0
1
1
0
0
4
2
0
1
0
0
0
1
3
0
7
1
4
2
1
0
0
0
4
1
8
0
0
0
2
0
0
0
0
1
0
0
9
0
0
10
2
2
4
0
1
8
0
1
1
11
7
3
2
3
8
1
6
4
1
4
0
0
1
1
1
1
0
3
5
0
1
1
1
2
1
0
2
5
0
3
1
0
6
8
3
2
5
3
3
0
4
1
1
2
1
5
3
1
5
1
8
5
10
6
0
4
6
1
2
1
4
2
1
0
0
1
0
1
0
6
2
4
2
10
2
0
1
0
0
3
1
0
2
1
1
1
2
2
2
1
4
1
3
1
1
0
3
5
0
2
6
2
4
1
1
0
5
0
2
1
2
2
1
1
1
2
2
0
2
0
3
1
0
8
2
2
1
0
2
4
5
1
2
2
0
0
1
1
1
0
3
1
4
6
1
2
2
5
2
0
7
3
4
2
5
1
0
0
2
0
4
2
3
2
0
0
1
2
5
4
0
0
0
6
2
3
2
3
2
0
6
5
0
1
1
2
0
2
1
4
5
5
1
2
1
1
1
1
0
1
0
0
0
1
10
4
2
4
3
1
2
1
7
2
8
3
0
1
1
2
4
1
0
4
4
1
3
2
4
2
4
3
4
0
1
2
5
0
2
2
3
1
1
8
1
1
1
1
2
3
6
0
2
3
1
0
4
1
1
1
3
0
1
4
0
0
0
0
2
0
0
2
5
1
0
3
7
0
1
4
1
0
0
1
0
0
2
1
1
0
2
6
0
1
1
2
3
6
1
0
5
1
0
4
0
1
0
4
0
9
0
2
3
2
0
0
0
1
4
16
3
0
4
1
4
0
2
10
1
5
5
4
1
2
0
1
2
2
1
2
0
3
0
4
5
3
0
1
0
3
0
0
3
5
0
1
1
3
2
2
5
0
1
5
4
2
1
7
1
0
0
0
0
0
2
1
3
3
2
2
1
0
0
2
4
0
6
4
6
5
5
1
0
1
2
0
5
0
3
0
0
1
0
0
4
1
0
6
4
3
1
2
1
3
4
4
2
8
8
0
9
3
3
6
3
3
2
1
3
0
4
0
11
0
2
0
0
6
4
0
1
4
4
3
1
10
2
1
2
5
2
3
1
1
10
3
1
5
0
1
6
2
2
3
0
1
1
5
2
0
2
2
1
1
2
4
3
5
3
2
3
1
1
1
5
4
2
1
1
2
1
2
4
4
5
3
0
3
1
1
2
0
1
3
8
0
3
2
2
1
0
1
3
2
2
4
0
0
3
3
1
2
3
8
3
2
1
1
1
0
2
2
0
1
3
0
0
4
3
3
1
0
2
4
0
4
2
1
4
2
2
2
0
7
1
4
3
0
1
0
11
1
2
1
1
0
3
1
0
3
2
2
0
1
3
4
1
1
5
1
3
4
2
1
0
1
0
2
7
0
4
0
5
3
4
2
0
4
4
1
4
1
3
0
0
0
1
4
1
0
1
1
5
1
3
7
7
5
3
0
0
0
2
3
2
4
0
1
0
1
0
0
1
4
1
1
0
2
1
1
0
0
0
1
1
2
2
2
1
2
4
0
1
4
0
0
4
2
0
4
0
2
1
2
0
0
1
1
1
2
0
0
7
3
2
2
0
1
1
5
0
7
2
1
2
3
2
0
6
4
1
4
0
3
0
1
0
0
0
1
4
1
5
0
0
5
4
2
2
2
3
1
6
0
0
3
2
3
9
1
2
4
1
1
0
1
0
0
2
2
1
0
1
6
0
1
0
6
0
1
1
0
0
0
1
0
0
4
4
1
0
2
0
2
1
1
2
2
2
0
1
1
2
1
1
1
1
4
3
0
0
1
0
3
0
2
7
3
0
1
7
5
3
1
0
2
0
3
4
0
3
1
2
2
6
2
3
1
9
4
1
0
4
1
2
6
3
1
1
1
0
0
0
0
4
1
3
2
6
0
3
3
0
0
1
1
1
4
7
1
0
0
0
1
2
3
3
0
0
1
1
1
1
0
6
3
2
4
0
2
2
0
1
0
1
6
1
10
11
0
7
6
1
3
2
3
5
1
0
0
2
0
0
1
2
9
0
0
0
6
1
6
1
7
1
2
2
3
3
3
0
0
0
0
0
3
0
0
0
2
2
0
0
0
0
6
3
3
1
6
1
1
7
2
8
4
2
2
1
4
0
1
8
2
4
1
1
3
3
5
7
0
2
2
2
2
3
0
0
1
0
0
2
1
0
2
3
0
3
3
1
0
0
0
3
0
1
7
1
3
0
0
4
3
0
0
4
2
5
2
2
1
1
2
0
1
0
6
1
6
1
0
3
7
3
7
1
0
1
4
3
0
5
3
5
2
0
3
2
1
0
0
1
2
1
0
0
2
5
4
0
0
3
0
2
1
3
1
0
0
2
2
0
0
1
0
0
1
0
4
0
0
4
6
2
1
4
2
0
2
1
3
3
0
3
2
0
0
0
0
0
3
3
1
1
3
2
0
0
0
0
0
1
0
0
2
1
6
2
3
0
6
1
1
4
0
3
1
1
1
5
0
5
2
3
3
0
1
5
4
5
1
1
1
0
1
1
2
0
1
0
1
2
0
1
4
0
4
7
4
1
1
0
2
0
4
1
0
4
2
0
1
0
1
0
3
2
1
4
0
2
1
3
4
1
4
0
1
2
0
2
0
3
5
1
3
2
1
0
1
3
3
1
1
10
9
3
1
4
0
0
6
1
3
1
1
3
1
3
2
0
3
3
4
0
2
0
3
2
4
1
1
1
0
0
2
5
4
1
0
4
6
1
3
1
1
0
0
5
3
0
0
0
1
2
0
2
1
1
1
6
0
1
2
0
7
0
3
1
1
3
0
0
3
3
7
1
8
1
3
4
2
1
2
2
4
3
1
0
3
0
1
0
1
0
0
0
2
3
1
3
1
7
0
2
3
0
1
2
4
2
4
1
1
4
1
7
2
0
2
0
1
1
0
4
0
1
0
3
7
2
6
1
0
7
0
0
6
1
1
1
1
4
0
1
1
1
0
2
1
1
0
6
4
0
4
2
1
1
4
0
3
0
3
8
2
0
0
0
1
4
6
5
3
4
2
0
2
0
2
0
1
1
0
0
3
3
0
1
0
0
6
4
1
0
4
3
7
4
2
0
2
5
0
2
1
1
4
1
3
1
3
0
1
1
2
3
1
2
1
3
1
0
2
4
2
4
2
3
5
0
2
5
3
3
0
2
3
1
0
0
2
0
2
1
0
3
3
1
6
11
8
6
2
1
3
2
4
3
0
1
2
3
2
3
7
1
4
2
4
1
1
1
1
0
3
3
4
0
4
0
0
2
2
2
0
0
4
1
2
2
3
0
1
2
5
1
4
2
1
4
1
1
1
0
2
2
2
2
1
0
2
0
0
0
3
0
4
0
1
0
5
1
0
1
0
0
2
0
1
1
2
0
0
0
0
2
1
0
2
1
1
2
0
1
1
1
0
3
1
1
2
3
1
0
2
0
0
3
0
2
2
0
0
2
3
1
2
4
1
3
3
2
1
3
10
1
3
0
1
0
2
1
0
0
2
2
1
2
2
2
3
0
3
1
3
0
4
1
3
1
2
0
0
0
0
5
3
0
0
0
0
0
9
1
3
2
0
2
1
0
3
0
3
1
3
4
6
4
4
6
2
4
0
0
7
3
1
0
4
0
0
8
0
5
0
0
1
2
2
6
4
1
2
0
1
0
0
1
4
7
6
3
7
0
1
0
1
0
0
1
6
0
2
2
1
5
2
0
0
2
0
1
1
0
2
2
2
2
0
4
1
2
1
0
2
2
0
4
0
2
3
1
1
2
1
0
2
0
4
3
3
0
1
2
3
2
3
0
2
0
2
0
0
0
0
0
0
3
6
1
2
0
0
0
5
1
4
6
0
0
0
1
0
0
3
1
3
1
0
3
0
4
1
0
0
0
5
2
1
0
0
0
0
0
0
0
3
0
2
0
1
2
4
4
0
4
3
2
1
0
5
1
0
1
0
5
1
2
1
1
1
2
3
1
1
0
3
0
0
0
0
0
2
0
4
2
0
0
3
0
8
1
0
2
1
1
0
0
1
1
0
3
2
0
1
1
1
2
9
4
3
3
8
3
3
5
0
2
2
1
0
0
1
1
2
2
3
8
1
1
1
0
2
0
1
0
4
3
1
0
2
2
4
2
2
3
1
0
2
2
1
1
0
2
3
6
4
0
7
0
5
5
2
5
9
6
0
2
5
1
1
0
2
0
1
0
9
0
1
2
0
1
2
0
0
0
0
0
0
1
4
0
1
1
0
0
2
0
0
0
0
3
1
0
3
0
3
1
0
2
0
0
3
7
1
1
3
0
0
1
2
7
4
4
4
1
1
1
6
0
1
1
2
4
1
0
0
1
1
0
0
2
4
4
3
2
3
5
3
1
1
5
1
0
0
0
0
1
0
2
3
0
2
5
5
2
0
0
0
4
1
1
3
0
1
3
0
0
0
0
2
2
0
5
0
0
0
1
2
2
4
0
1
0
0
1
1
1
2
1
3
1
3
3
0
0
1
3
1
4
1
3
2
0
2
0
4
2
2
0
1
2
2
1
1
0
5
5
0
1
3
0
0
1
2
2
1
1
2
3
0
3
0
0
0
2
0
2
0
1
0
1
1
0
1
3
4
1
2
0
3
3
3
2
2
1
0
6
12
0
6
0
0
0
6
1
1
1
2
0
1
11
0
1
0
3
0
2
0
2
0
1
3
1
1
1
0
0
4
0
0
3
2
4
0
1
0
3
0
2
0
0
4
4
4
0
4
2
1
1
0
3
4
0
4
2
7
0
0
1
0
0
1
4
8
1
7
3
0
0
1
2
0
0
2
0
0
0
0
2
0
6
0
0
3
0
5
2
3
2
0
1
3
4
5
0
3
2
2
5
3
2
0
1
0
0
1
0
2
0
0
0
2
7
6
1
3
1
4
2
3
0
2
1
2
1
2
5
0
3
2
1
3
2
2
0
3
2
2
2
1
1
3
1
1
1
0
0
2
0
1
1
1
4
2
8
2
0
0
1
0
0
0
4
1
5
2
0
0
1
2
4
0
0
2
0
0
0
0
0
1
3
1
1
2
5
5
4
3
0
1
6
3
0
2
1
2
4
0
4
2
2
1
0
2
2
6
2
1
2
1
1
2
7
0
1
0
1
0
1
2
0
2
1
3
0
0
1
1
0
1
0
3
0
1
2
0
0
3
1
0
3
0
4
0
1
1
0
1
1
2
1
1
0
5
0
2
1
1
0
3
3
0
0
5
0
1
3
2
0
0
0
2
0
1
1
1
1
1
2
3
0
2
2
1
0
2
2
2
0
0
1
0
1
1
1
2
0
1
3
1
2
1
5
4
3
1
2
12
3
1
0
0
1
4
5
4
2
1
1
1
6
7
1
1
1
2
1
0
7
1
4
1
0
1
4
2
5
1
2
0
1
1
1
3
2
1
0
0
1
0
5
3
0
0
1
2
6
1
0
1
2
1
4
3
2
0
0
3
5
0
3
2
0
1
1
3
1
1
1
0
4
0
1
1
2
0
3
0
0
0
1
1
1
1
1
2
0
0
0
0
2
2
2
0
1
0
2
0
5
3
0
2
1
6
1
2
6
0
0
0
2
2
5
1
2
0
7
2
0
5
2
3
8
0
0
1
1
0
1
0
3
3
0
0
3
1
0
4
0
2
2
0
0
3
0
0
0
1
3
1
0
4
1
1
2
1
0
2
2
1
0
0
0
1
0
0
0
1
0
0
1
0
5
5
1
2
0
3
1
0
1
2
11
3
1
1
0
0
1
0
0
0
1
1
0
0
0
1
1
5
2
3
3
0
2
6
0
1
1
2
0
9
8
8
6
1
1
11
0
2
0
3
0
1
2
0
1
4
0
0
0
1
0
1
1
0
1
0
0
4
5
6
0
0
0
2
1
0
0
1
3
4
1
3
0
4
1
0
11
0
6
0
0
3
0
0
4
1
1
6
1
5
9
1
3
0
0
0
2
3
1
0
1
5
1
1
1
1
0
4
8
2
2
2
1
2
5
5
3
3
0
1
1
2
0
1
1
0
0
0
1
0
1
2
1
0
1
2
0
4
2
7
4
5
3
1
0
7
0
0
4
3
2
5
1
1
2
1
0
0
1
0
3
0
2
0
4
0
0
1
0
0
1
1
4
3
3
1
5
7
0
1
0
3
2
1
2
3
0
1
0
0
0
3
1
3
0
2
0
0
2
1
0
2
3
2
0
2
5
2
1
0
1
4
0
0
2
0
0
1
0
0
1
1
2
8
1
1
0
0
8
5
3
3
1
1
0
4
8
3
1
1
0
2
0
0
4
4
0
0
8
3
1
0
5
2
1
0
2
1
2
3
0
1
0
2
0
1
2
0
5
0
1
1
2
1
1
2
0
1
0
0
1
1
0
0
1
3
5
5
1
0
4
1
1
1
5
0
2
2
1
3
4
3
2
0
0
2
4
3
5
3
1
1
2
0
0
2
2
2
2
1
1
0
3
3
0
1
1
4
0
4
3
0
1
1
1
0
1
1
0
0
1
1
1
0
1
2
1
5
0
2
0
4
0
1
1
3
3
0
1
1
2
0
0
0
5
2
2
0
1
1
2
1
2
2
2
1
0
0
4
1
3
1
1
2
0
0
1
1
2
4
0
2
0
2
0
0
1
3
0
1
0
1
0
4
2
1
1
0
0
3
0
2
1
1
1
0
2
5
1
0
0
1
0
4
0
2
6
2
1
0
2
3
1
2
2
2
5
0
4
3
3
1
0
1
1
1
0
3
0
0
2
1
4
1
2
2
3
1
1
2
3
3
4
0
1
0
0
6
3
0
2
6
0
3
3
6
2
0
0
2
0
2
2
0
5
0
0
0
1
1
5
0
0
3
0
0
0
0
2
1
0
0
1
0
9
1
0
5
0
0
3
0
0
5
2
1
2
1
1
2
0
6
2
1
2
0
1
1
3
0
3
1
0
1
8
0
0
5
3
0
2
2
2
1
6
2
4
8
1
5
2
4
4
2
1
2
3
0
1
4
1
1
3
0
0
1
1
2
0
2
1
5
1
0
4
1
0
4
2
0
0
0
2
1
0
1
4
0
3
0
0
2
1
0
0
4
6
0
0
1
0
1
1
0
0
0
0
1
1
1
0
11
3
1
4
4
0
3
1
2
3
5
2
1
0
0
4
0
0
1
0
0
0
0
1
2
3
5
1
0
2
0
4
1
3
3
0
4
1
0
0
3
3
1
0
6
0
1
0
0
7
5
1
0
2
1
7
5
0
4
0
0
0
0
2
1
0
1
0
0
3
1
0
1
4
1
0
2
3
1
4
0
2
0
1
1
0
0
2
0
7
2
2
0
2
5
2
3
0
6
3
1
0
0
2
4
0
0
0
1
0
2
2
1
2
3
6
2
3
3
1
0
4
0
5
0
0
1
0
1
1
0
1
2
0
4
0
1
1
3
1
0
0
2
5
5
0
7
1
1
3
1
0
1
1
1
4
1
4
2
2
1
2
1
8
0
0
7
3
0
1
3
3
0
2
1
3
1
0
0
2
2
3
9
0
1
1
1
0
1
7
3
4
2
4
1
0
0
0
0
0
2
1
4
1
0
2
2
3
1
0
1
2
0
0
0
1
0
3
1
3
0
5
1
0
3
2
4
1
2
1
0
2
2
0
3
1
1
1
1
0
5
0
0
0
4
3
6
0
0
1
0
3
0
4
0
2
0
1
3
1
1
0
6
6
1
0
0
1
5
0
2
0
1
7
0
0
1
0
2
7
2
2
1
2
9
0
2
3
1
1
0
0
2
1
1
1
4
2
2
3
6
1
6
1
1
6
2
0
0
3
3
1
0
1
2
2
1
2
0
3
0
1
0
0
3
1
0
1
0
2
9
1
0
2
0
5
4
0
0
1
0
2
0
0
3
0
2
2
1
0
1
3
2
1
3
2
3
1
0
0
2
1
1
4
1
2
0
0
0
1
0
2
0
1
3
1
4
4
1
0
1
1
0
3
1
6
3
0
1
6
4
0
5
2
1
0
0
1
0
2
0
2
0
1
3
2
0
1
0
1
3
0
1
2
4
0
0
0
3
2
2
1
1
1
0
0
7
0
1
0
0
0
1
1
6
2
1
0
2
1
1
1
0
2
3
1
1
1
2
6
2
0
3
0
1
0
0
0
2
1
1
4
1
0
0
1
0
2
1
0
0
4
0
1
3
0
2
3
4
0
8
1
3
0
1
0
0
5
3
3
2
0
3
0
0
1
0
3
4
7
0
1
1
0
0
0
0
0
0
1
0
0
0
1
4
5
2
3
7
0
0
0
1
0
2
1
2
3
1
3
6
5
0
0
3
0
4
0
1
1
2
1
2
0
8
1
0
3
1
0
0
0
2
3
0
3
1
5
1
2
1
1
0
0
2
2
0
1
2
3
2
2
0
0
6
1
2
2
4
0
2
0
0
0
0
0
0
1
0
0
2
6
1
3
7
4
0
0
1
3
0
2
5
1
2
1
2
0
3
1
0
3
0
0
1
1
1
0
0
0
0
4
0
2
1
5
1
3
4
2
1
2
1
2
1
1
1
3
3
5
2
4
2
3
1
1
3
1
2
1
1
1
0
0
1
1
0
0
0
1
1
1
1
0
0
0
2
1
1
1
4
1
0
3
2
1
0
4
1
0
3
2
1
1
2
0
0
0
2
0
4
1
0
1
0
0
2
1
2
0
1
1
6
6
4
1
3
1
2
1
2
1
0
0
0
0
2
2
0
0
4
3
0
5
2
1
0
4
0
0
2
0
0
5
4
1
1
0
0
0
1
0
2
1
0
0
1
2
1
3
0
5
3
2
5
1
0
1
0
0
0
3
0
0
3
1
0
0
0
4
5
0
2
2
0
0
7
0
0
0
0
3
0
0
0
0
1
0
0
1
0
7
2
3
0
0
1
0
5
2
2
0
0
1
1
0
1
2
3
4
0
1
0
0
1
0
0
0
1
3
1
0
0
1
0
1
3
7
2
5
0
0
0
1
0
1
0
0
4
0
3
0
2
0
2
0
0
0
0
0
1
4
0
0
0
1
1
3
0
0
1
3
2
3
0
2
0
5
0
0
2
5
2
0
2
5
0
0
0
1
3
3
4
0
0
5
2
0
1
0
0
1
3
2
0
0
1
1
7
1
1
0
2
3
1
5
0
3
1
0
1
0
1
0
0
0
1
1
1
0
4
1
1
1
1
2
1
0
2
5
2
2
0
0
1
3
2
13
1
0
2
3
6
1
2
0
1
0
0
0
0
2
5
2
3
1
0
0
2
0
1
0
2
5
2
0
3
5
0
0
0
3
3
0
2
1
0
1
1
0
6
4
0
1
2
4
0
5
0
2
1
0
1
1
0
1
1
0
0
0
1
1
2
0
3
0
1
0
0
0
2
0
1
1
6
1
2
4
0
3
0
0
2
0
3
7
0
0
3
6
4
1
1
0
2
0
3
0
0
5
0
2
0
1
1
0
0
5
7
2
1
0
1
7
1
2
5
5
1
1
2
1
1
0
4
0
2
1
2
1
0
0
1
0
1
2
0
2
0
1
1
1
2
0
0
0
5
0
0
0
1
1
4
2
0
3
1
2
0
1
5
4
2
0
1
1
0
2
0
2
1
0
1
2
0
0
3
1
0
3
7
0
1
3
2
0
1
0
0
0
5
0
1
2
1
0
0
4
1
5
0
5
1
3
0
2
0
1
0
4
1
4
0
2
1
3
4
2
0
1
0
0
0
3
0
3
3
4
1
3
0
0
1
0
0
3
4
1
0
3
1
3
2
2
1
4
5
0
0
2
4
1
2
1
2
0
2
0
5
5
3
0
3
2
0
0
6
4
0
1
1
0
1
3
2
1
0
0
0
1
1
0
0
3
0
3
0
0
0
1
2
1
0
3
0
0
5
0
0
0
1
5
5
0
1
1
0
0
2
2
4
0
2
2
1
3
7
0
5
0
2
0
3
3
4
2
0
3
4
2
1
1
0
0
1
0
2
2
0
0
0
0
0
1
1
1
0
3
1
1
0
0
0
1
2
3
0
1
1
3
0
0
1
0
2
11
0
1
0
5
2
0
3
2
2
3
0
0
1
4
2
2
1
0
0
0
0
0
1
0
2
0
2
1
1
2
0
2
0
0
1
3
0
2
3
3
2
0
2
0
0
1
1
0
2
0
2
2
0
2
0
2
0
1
1
0
2
1
2
1
1
0
0
0
0
0
0
1
2
1
0
1
2
1
1
1
0
0
0
0
4
2
1
5
3
5
2
3
0
0
0
0
2
1
1
1
0
1
1
0
0
0
1
2
0
4
3
0
1
1
3
1
0
1
5
2
2
0
1
3
2
1
0
1
4
4
0
0
2
0
2
0
0
0
2
0
0
0
5
1
3
1
2
1
1
0
2
1
0
3
0
1
1
2
0
0
0
4
1
2
0
0
3
1
1
1
1
2
1
2
0
0
2
6
0
0
0
2
0
4
1
2
1
0
4
7
0
0
1
0
4
2
0
1
3
0
0
1
3
1
0
0
2
1
1
0
0
3
1
1
1
0
0
0
3
1
2
1
0
0
1
3
2
0
1
0
3
1
1
2
1
1
1
1
0
0
0
1
0
2
3
2
5
2
2
1
4
0
0
2
0
2
2
0
1
0
2
4
0
3
1
2
1
4
1
1
1
1
2
1
1
0
1
1
6
0
2
0
0
4
5
2
0
0
1
2
2
1
5
3
2
2
2
1
2
0
1
1
2
1
5
0
0
0
0
8
3
1
0
1
0
1
1
1
1
0
3
5
1
0
0
1
2
0
1
0
1
3
0
0
3
1
0
1
0
0
1
0
0
2
4
1
5
2
3
1
2
5
0
1
2
0
0
0
4
2
0
1
1
1
2
1
0
0
0
1
2
0
1
1
0
5
2
1
0
6
3
2
1
4
2
0
3
0
3
2
1
1
3
2
7
1
2
0
2
1
1
1
0
1
0
0
1
0
0
2
0
2
0
3
0
2
5
1
0
1
2
0
1
1
3
0
0
0
1
0
2
3
1
0
0
0
1
4
5
3
1
3
2
3
0
4
1
3
1
2
1
6
5
3
0
4
0
1
6
3
2
0
0
1
1
0
0
0
1
5
3
1
1
4
1
0
0
1
0
1
0
3
1
3
0
0
5
2
0
0
0
3
1
1
0
0
1
0
0
0
1
3
1
1
0
1
1
0
0
3
0
2
1
4
1
3
5
4
1
2
4
1
0
0
0
2
1
0
0
1
0
2
4
3
0
0
2
0
0
2
0
2
0
2
0
0
3
1
5
0
3
0
1
4
0
0
1
1
1
1
0
0
1
0
1
0
6
0
2
0
0
0
0
1
0
0
1
0
0
0
0
5
1
0
0
3
1
1
0
2
6
0
0
2
0
2
0
0
1
3
1
4
1
3
0
1
2
0
0
2
3
2
2
1
2
0
0
3
3
1
2
4
2
6
2
4
0
2
2
0
0
1
1
0
0
1
1
0
0
0
0
0
0
1
1
0
4
2
0
0
3
0
3
0
2
1
1
0
0
1
0
3
4
0
0
1
2
4
0
6
5
0
1
0
3
1
1
1
3
0
1
8
0
6
0
3
2
0
0
3
1
0
0
1
3
3
1
0
1
0
0
1
0
0
1
1
0
2
0
1
7
1
1
4
7
5
3
0
0
2
2
1
1
1
1
0
5
2
1
0
0
1
0
1
1
2
3
3
1
1
4
7
1
0
0
1
1
0
0
1
3
1
0
1
0
1
0
0
3
4
4
2
1
0
2
0
0
2
1
2
6
0
0
0
2
0
0
0
0
0
0
1
0
1
2
3
2
3
0
2
1
1
4
0
3
0
0
0
6
0
2
0
1
0
0
0
1
0
2
2
0
9
1
0
0
0
3
0
0
0
0
0
0
1
4
3
1
2
5
1
0
2
0
1
0
2
1
4
1
2
2
1
0
6
1
0
0
0
2
3
3
1
0
0
0
0
2
2
2
7
0
0
0
1
0
2
2
0
0
0
1
4
1
0
3
0
0
0
1
1
3
1
0
0
0
0
3
3
4
1
2
1
1
4
1
1
0
0
3
2
0
3
0
1
2
0
0
0
2
0
0
8
2
5
0
0
0
0
1
0
1
0
2
0
0
0
0
3
0
0
3
2
2
0
3
1
2
0
0
6
2
4
3
7
1
0
1
1
2
0
1
1
1
0
6
4
3
0
0
1
0
0
0
1
1
1
1
2
1
2
2
2
1
0
0
2
3
0
1
1
2
1
0
3
1
0
0
2
0
1
0
2
0
2
1
1
0
4
0
0
0
2
0
0
0
1
4
2
7
2
2
0
2
0
0
1
0
2
2
7
3
2
1
2
1
0
2
0
6
2
1
0
2
0
0
6
0
0
1
0
1
0
3
1
0
0
3
1
1
2
1
0
3
0
2
1
1
4
1
0
1
2
4
6
1
0
1
5
0
0
0
0
2
2
0
0
0
1
1
4
1
1
1
0
0
0
1
1
4
0
0
0
0
4
2
2
0
1
1
0
1
0
0
0
3
5
0
2
0
2
2
4
0
2
1
0
1
0
0
1
0
1
3
0
0
0
3
0
2
0
2
0
2
3
9
0
4
4
1
0
0
1
4
2
3
0
0
0
1
0
3
2
1
1
0
0
0
2
1
0
2
1
0
0
1
3
1
1
3
1
3
2
1
0
0
0
0
0
0
1
1
0
1
0
8
0
1
1
1
2
0
2
2
3
0
3
2
3
0
4
0
0
1
2
0
0
1
1
2
2
1
2
1
1
2
1
1
0
1
3
0
0
2
1
0
1
5
3
0
0
0
1
1
1
1
0
2
3
3
2
0
4
2
0
0
0
0
0
0
2
1
0
1
0
1
1
0
2
4
4
1
0
2
0
0
1
1
1
1
0
6
3
0
2
0
0
0
3
0
0
1
3
2
0
0
0
0
1
0
2
5
4
1
0
0
0
0
1
1
1
2
1
1
1
0
0
2
0
0
1
0
0
2
2
0
2
2
0
1
0
1
0
0
2
3
3
3
2
1
1
1
1
7
0
4
0
4
3
0
0
1
0
0
0
2
1
1
1
0
0
3
1
5
0
0
0
0
0
0
1
0
0
2
0
6
4
0
1
0
0
4
1
2
0
1
0
0
0
2
0
0
0
2
0
0
0
0
4
3
1
1
0
1
1
0
0
0
1
1
1
3
0
2
2
0
0
2
2
1
5
0
2
0
0
1
2
2
2
4
1
0
1
4
0
1
0
1
0
5
1
9
4
2
1
2
5
1
1
7
2
1
3
2
2
5
2
1
1
0
0
1
1
0
4
0
1
0
0
1
2
0
1
0
0
0
0
1
1
0
0
0
0
2
1
1
0
0
2
0
5
0
0
1
1
1
1
1
2
3
0
0
0
0
1
2
0
1
0
0
0
2
1
3
0
1
0
2
0
1
0
3
5
1
0
1
0
1
1
0
4
0
0
0
0
1
0
3
2
0
2
1
0
0
0
0
0
3
0
2
0
2
2
0
0
1
0
0
3
3
1
1
1
0
3
0
4
1
1
2
3
1
3
2
3
2
3
1
1
0
0
2
5
4
2
0
0
3
0
1
6
2
2
1
0
3
1
3
0
0
0
2
0
0
2
0
1
1
0
0
2
3
0
2
2
0
2
0
0
0
0
0
3
2
1
5
0
0
1
0
0
0
0
0
1
1
0
0
0
2
0
2
3
1
6
3
1
1
0
0
0
1
7
0
2
3
0
1
0
0
0
4
1
0
3
1
2
2
1
0
3
2
0
1
1
1
3
1
0
2
3
0
0
2
2
0
1
4
0
2
2
2
0
1
1
0
1
7
0
5
7
0
0
0
1
1
0
0
0
2
1
0
7
0
2
1
1
1
0
0
1
2
0
1
4
4
0
0
0
0
1
8
6
2
1
0
6
5
0
0
0
0
0
1
1
1
1
0
1
0
1
0
1
2
3
0
0
0
1
1
0
0
0
2
0
0
3
1
4
0
2
0
2
2
0
4
1
6
3
2
1
0
0
0
5
1
3
0
2
1
2
1
2
0
1
7
0
1
1
2
2
0
2
1
1
0
1
2
1
2
2
3
0
1
3
0
7
1
1
0
0
2
0
2
0
0
0
1
1
0
3
0
0
0
1
0
1
3
3
1
0
5
2
0
0
5
2
1
0
0
0
0
0
2
0
1
2
0
3
1
1
4
0
1
0
1
0
0
0
0
2
3
2
0
0
2
0
0
1
0
0
0
0
1
0
0
2
0
0
1
1
2
0
1
0
0
0
1
2
0
2
0
3
0
2
0
0
2
0
1
0
3
1
0
0
0
0
0
2
1
0
0
0
7
2
1
0
1
1
2
1
3
0
0
1
1
1
0
3
5
0
0
2
2
0
3
0
3
0
0
1
0
2
2
0
0
1
3
0
1
0
0
0
0
4
0
1
1
3
0
2
1
0
1
0
0
0
0
0
2
1
4
0
2
2
0
0
0
1
0
1
0
1
1
1
0
0
1
1
1
0
4
2
0
5
0
0
0
0
3
