1215
971
937
955
925
920
855
858
868
817
762
740
690
652
710
701
664
655
641
714
669
679
632
628
626
653
639
672
616
604
564
575
634
550
555
590
470
601
520
604
632
616
561
478
532
545
591
553
528
516
575
530
585
524
524
506
574
555
512
524
503
531
420
542
492
511
558
510
428
506
514
463
576
512
459
521
531
498
494
491
473
464
454
373
421
523
499
481
501
474
482
442
457
494
471
469
491
453
500
486
462
441
508
430
467
466
440
439
449
483
467
492
456
337
431
440
429
372
396
441
397
487
449
455
475
444
376
474
362
456
424
437
403
437
409
343
360
432
412
455
419
412
354
455
400
399
483
368
401
395
358
410
448
444
428
323
395
441
374
390
409
370
449
438
444
407
412
356
361
434
369
387
432
370
448
439
412
417
457
361
457
360
326
428
338
362
435
286
425
375
354
317
441
350
428
305
369
383
427
420
397
388
389
288
328
404
422
371
421
455
369
309
355
433
418
369
378
368
399
353
382
334
389
339
360
361
383
277
401
375
323
366
297
398
418
331
320
320
367
339
419
360
346
286
403
324
392
374
255
347
405
382
364
355
380
400
371
346
381
358
402
306
321
321
368
303
328
328
358
379
386
366
330
427
354
330
433
390
386
411
355
399
274
307
334
311
312
341
386
330
296
325
283
264
333
377
368
374
318
362
312
397
365
265
210
336
328
242
335
357
361
347
343
258
390
260
360
314
358
380
260
351
374
388
312
391
340
302
344
269
365
364
279
267
269
342
339
281
358
225
343
260
259
306
324
314
304
273
258
334
284
246
331
352
311
330
317
317
254
274
286
289
291
346
302
256
326
299
322
237
304
311
361
286
276
323
283
292
307
348
324
343
328
331
329
342
342
318
233
330
312
263
318
305
318
343
301
271
249
286
296
302
282
357
304
290
265
291
307
356
311
313
320
329
347
255
304
231
310
262
275
315
275
248
278
260
308
290
331
298
367
265
267
312
258
308
312
256
339
284
283
286
289
317
277
295
312
318
321
359
202
278
273
247
309
226
334
317
314
260
310
327
339
260
338
256
315
265
288
302
298
286
253
297
338
285
226
277
297
326
305
289
294
277
193
317
229
220
305
213
271
314
305
278
342
348
242
240
265
237
266
339
239
314
320
318
313
315
297
251
293
274
311
244
282
299
267
358
270
186
278
308
312
332
304
245
214
236
295
305
325
208
265
290
294
260
217
245
232
295
246
287
256
206
284
236
175
256
285
277
288
279
253
203
262
254
202
201
219
317
320
249
281
302
304
298
250
204
286
286
230
268
268
260
293
287
226
255
284
257
289
233
274
260
279
251
270
286
242
192
225
238
293
303
263
268
251
224
283
198
156
286
261
248
251
157
238
237
276
215
159
186
254
149
183
278
204
313
210
186
191
255
305
209
260
286
291
251
258
268
276
293
236
217
141
280
265
255
216
236
317
282
260
192
189
243
256
285
211
234
221
161
275
269
272
285
199
227
228
202
211
237
239
286
186
168
154
135
240
239
221
281
199
274
256
225
234
208
277
252
247
280
247
139
209
226
188
229
215
259
218
254
124
191
256
144
243
228
201
270
182
194
228
231
264
254
244
273
152
166
259
279
281
273
215
264
231
186
243
194
246
260
248
260
259
214
211
191
281
253
236
246
231
255
240
243
188
247
223
254
159
242
151
214
225
215
269
172
259
252
255
233
191
206
284
236
216
264
275
240
244
200
276
199
238
276
195
244
248
265
235
254
210
252
268
188
202
224
178
248
205
186
266
219
218
207
193
235
222
215
211
294
242
199
216
247
255
194
229
159
213
247
260
179
166
247
149
240
230
281
253
286
180
190
186
222
235
226
209
208
224
226
132
196
245
172
234
240
268
172
236
224
241
267
208
142
248
98
224
218
199
182
167
202
180
223
171
158
193
207
196
240
113
221
238
196
223
203
235
211
235
198
260
200
231
133
145
167
198
245
264
237
255
158
207
229
159
109
202
114
251
153
244
199
165
229
208
227
219
221
141
127
185
179
218
145
210
151
232
224
211
157
176
186
165
240
204
201
179
131
233
235
205
174
232
134
115
228
201
127
223
167
217
199
235
105
139
99
181
159
190
173
209
206
205
229
136
132
215
109
200
202
219
219
240
206
139
189
204
172
205
195
228
207
135
241
152
207
244
205
209
190
205
245
220
201
179
185
170
217
103
223
183
242
149
202
211
156
207
101
198
182
220
198
141
208
168
184
241
239
236
174
205
153
238
197
242
158
173
167
217
236
146
226
153
208
191
198
125
209
193
187
206
180
208
165
195
159
206
218
178
188
179
194
182
150
191
95
175
102
242
193
211
131
240
182
141
202
173
193
139
99
191
156
168
193
170
183
150
200
185
194
171
165
132
160
115
186
143
193
159
202
195
210
243
182
186
236
198
194
203
232
158
104
171
179
135
151
173
102
209
251
148
160
219
193
161
144
227
257
211
151
113
226
199
200
151
132
123
198
192
185
194
205
156
195
191
174
190
110
215
217
141
197
156
119
119
94
123
134
209
228
220
220
193
211
184
199
206
256
122
207
188
96
185
213
165
192
177
167
110
161
226
160
123
201
196
143
186
136
151
176
138
221
205
91
154
213
204
125
199
179
209
168
180
221
166
120
230
209
183
177
200
169
183
190
137
217
184
220
229
158
142
195
213
99
209
180
200
140
145
223
153
114
107
176
173
198
152
193
98
204
141
196
200
150
171
147
206
108
147
181
74
182
116
128
173
194
211
210
107
208
98
223
230
152
200
215
137
136
209
174
201
157
139
138
203
172
170
181
224
223
99
161
187
173
149
216
143
208
193
173
203
171
162
178
190
211
229
181
177
214
210
188
149
202
99
144
214
146
188
193
213
198
221
121
209
177
142
146
157
218
178
161
142
157
145
197
149
187
243
137
137
150
210
174
134
166
180
167
107
190
155
208
170
120
148
142
98
158
201
100
117
155
154
105
136
195
203
161
190
107
159
100
185
150
201
174
180
160
136
210
65
190
168
139
169
205
160
192
214
166
66
161
149
140
137
112
196
190
160
132
186
193
172
91
209
150
204
164
180
161
88
147
201
148
104
157
172
108
84
96
80
158
159
128
179
131
163
169
181
123
123
136
133
142
188
146
139
148
144
139
188
207
170
155
146
194
186
176
159
179
189
89
145
165
123
93
111
176
131
151
165
173
162
127
102
139
145
115
157
184
124
137
200
110
143
190
122
132
169
151
145
159
112
107
131
166
148
151
120
197
142
139
143
181
116
148
68
171
134
128
98
122
197
145
176
153
124
152
141
205
141
167
195
82
142
175
157
173
199
200
198
110
68
191
171
195
114
173
117
118
140
167
92
143
152
171
165
132
222
192
167
173
172
133
113
128
135
172
151
114
154
137
163
164
129
178
114
106
144
138
94
77
157
182
119
79
146
138
132
118
138
103
140
179
132
77
171
176
142
179
196
160
150
154
107
118
163
100
97
147
151
65
166
154
173
136
158
165
159
153
166
88
125
137
80
163
183
125
151
118
115
119
171
177
77
87
76
138
91
87
74
120
118
97
172
125
131
99
101
125
124
108
103
78
176
150
150
104
101
121
141
145
199
74
158
148
159
173
156
144
169
156
70
140
92
150
184
165
82
129
110
115
171
145
159
84
172
183
97
149
162
163
117
138
149
179
124
187
142
158
125
183
165
149
121
128
124
146
174
177
99
166
76
78
152
135
138
121
86
156
99
132
122
178
169
56
167
154
95
81
123
168
149
162
166
158
137
206
112
136
150
162
151
169
148
110
105
154
139
48
143
107
112
85
123
92
147
147
92
152
158
97
116
95
142
55
75
164
181
160
189
166
134
148
142
70
88
154
139
94
119
140
182
164
113
94
181
164
153
126
88
137
93
147
149
150
155
132
110
110
109
165
122
161
144
175
117
157
158
134
110
131
104
98
136
164
112
107
91
161
73
109
177
190
109
118
143
141
113
90
143
135
98
180
137
153
175
151
132
145
152
121
156
106
120
141
105
133
157
126
65
95
92
164
116
154
125
51
164
142
176
116
145
174
98
170
82
138
138
143
174
106
174
136
133
128
166
91
131
131
159
158
133
150
76
111
115
109
118
157
163
160
123
128
134
160
143
143
112
89
97
95
134
112
152
51
127
102
61
85
102
89
84
146
144
108
144
101
86
104
83
149
100
133
89
146
114
105
105
121
140
107
71
81
123
129
111
84
106
128
130
111
148
135
160
188
48
60
33
167
90
108
144
155
73
145
108
104
113
166
102
88
160
114
105
125
118
66
148
155
140
135
151
137
70
125
94
160
159
161
160
96
142
106
57
140
87
122
82
162
131
75
65
176
126
135
115
68
92
140
138
184
124
81
151
120
123
147
156
69
124
69
68
120
81
83
86
164
92
83
89
135
71
136
145
144
129
85
104
185
90
97
124
104
94
83
136
80
137
131
144
91
112
82
167
122
118
125
150
140
167
94
77
111
123
90
121
119
125
137
88
79
157
98
168
160
131
98
105
97
133
138
120
92
154
102
114
144
120
118
145
104
88
85
168
62
155
153
136
99
116
147
96
124
105
97
105
79
113
133
92
62
134
74
62
112
139
67
146
167
72
115
120
141
163
114
97
166
144
136
102
174
99
84
153
82
97
80
134
139
133
137
148
85
90
96
91
89
93
126
53
142
118
118
74
73
133
57
61
105
119
80
152
91
114
47
150
83
138
146
107
92
143
91
140
65
24
149
108
116
176
121
152
138
155
134
113
127
83
182
167
103
148
165
111
168
112
102
108
90
138
131
103
138
114
98
80
104
78
87
129
151
169
139
114
104
67
138
82
115
118
180
146
141
123
102
95
56
159
105
125
124
86
56
84
139
97
94
114
151
65
141
51
67
110
103
46
103
100
68
72
77
117
64
85
86
117
134
135
158
78
92
129
61
117
101
105
66
99
119
138
60
102
153
111
146
123
126
68
117
141
96
153
82
119
117
97
100
166
73
111
121
108
128
100
149
110
140
113
84
65
61
119
106
103
118
75
75
135
42
118
70
75
114
95
153
150
89
153
119
117
62
107
55
75
72
51
135
72
100
113
72
127
141
120
43
71
72
71
82
120
97
123
140
83
87
137
112
142
103
124
76
73
110
76
76
164
82
66
97
133
127
42
100
125
83
111
84
111
107
86
123
93
104
91
132
131
106
58
103
89
119
148
120
122
88
135
146
75
115
67
100
80
48
91
154
125
122
125
80
90
95
87
120
93
101
133
74
132
134
98
75
128
112
158
113
133
120
110
61
75
114
63
108
113
76
86
57
55
116
108
148
67
100
77
133
108
75
126
134
129
117
105
102
50
127
82
93
112
67
111
122
46
121
91
145
97
87
66
93
112
86
132
115
82
89
142
73
136
136
146
99
89
62
114
98
68
152
123
139
138
49
121
81
143
84
53
56
89
124
120
78
140
125
88
125
138
124
119
97
91
112
137
64
55
50
71
66
131
104
148
99
118
140
67
88
100
120
130
79
109
91
115
115
86
153
64
43
62
125
152
99
87
91
94
113
55
108
83
103
101
77
68
65
54
78
89
75
144
58
60
79
41
96
52
109
102
95
67
145
131
127
113
72
122
80
53
152
153
106
84
72
90
78
84
112
141
100
77
150
52
83
74
80
114
83
72
73
57
120
113
116
71
104
123
77
110
109
132
50
132
67
74
74
76
71
45
51
103
69
62
93
107
76
119
68
92
139
76
112
116
64
101
97
74
59
90
54
136
133
70
83
73
93
132
48
113
80
85
113
132
95
121
105
76
86
88
90
91
66
98
119
106
56
71
79
137
85
73
45
128
93
126
106
62
120
69
122
145
154
82
120
72
69
65
80
113
134
93
120
102
87
91
65
93
86
70
77
78
111
109
108
103
78
102
102
76
80
102
103
103
74
73
31
57
103
90
67
48
94
130
64
49
105
93
106
141
102
87
73
74
62
90
104
95
105
92
92
57
83
75
123
108
132
58
119
101
83
124
137
122
77
86
114
94
98
90
61
141
105
85
43
134
97
69
133
63
99
103
105
153
98
104
62
81
94
61
53
97
78
111
120
141
85
88
134
98
94
64
98
144
100
68
105
127
92
103
124
61
52
90
71
68
93
117
97
86
92
85
120
107
32
111
98
86
53
115
92
86
129
117
113
84
72
119
69
116
83
96
65
143
109
75
138
110
110
101
116
31
113
126
49
116
98
79
116
116
148
112
103
75
122
57
70
111
70
67
76
67
103
98
86
97
101
79
47
99
98
73
82
96
76
128
110
78
131
139
46
40
122
101
73
92
95
82
111
77
59
112
67
77
76
115
114
59
115
109
71
75
70
56
69
72
120
75
78
84
117
96
87
88
87
109
114
79
47
94
51
94
111
74
59
71
121
130
103
77
71
48
122
91
96
71
25
66
91
99
79
136
37
82
130
95
89
44
48
98
87
120
144
128
118
124
96
121
74
58
79
62
66
98
80
55
102
107
64
125
26
86
53
65
68
53
79
73
95
31
126
78
144
129
116
45
57
135
107
70
94
57
69
133
45
109
99
43
60
107
91
72
51
65
109
53
52
118
110
112
42
59
60
63
102
66
127
128
117
73
33
45
51
97
71
121
101
55
94
48
98
67
94
90
138
70
115
40
109
53
94
73
118
139
70
41
40
39
94
20
46
91
73
137
61
125
124
67
82
122
42
88
111
92
95
110
136
74
87
63
46
124
85
108
81
25
72
97
59
42
43
62
82
74
125
101
65
100
89
121
112
98
81
103
85
83
82
111
73
53
90
57
88
95
77
102
56
65
108
106
81
54
43
84
37
96
74
57
112
96
106
43
83
106
91
72
56
53
44
52
56
114
59
40
57
73
38
103
74
73
90
26
51
73
76
104
140
123
69
38
64
105
107
58
28
62
95
98
116
62
57
107
100
93
110
68
60
129
68
90
78
83
46
82
89
67
55
71
102
44
49
66
99
37
94
65
76
64
111
96
33
93
81
78
81
114
104
102
33
65
98
82
82
83
62
59
79
44
56
105
94
81
105
69
33
56
89
89
107
85
50
59
90
96
104
122
116
97
69
72
73
57
91
113
104
72
101
97
65
92
60
53
49
76
43
40
57
119
67
48
83
87
76
83
130
106
139
92
104
65
119
89
35
73
49
75
89
107
86
117
73
134
78
119
57
74
46
87
81
92
99
111
76
72
39
100
66
43
40
103
42
66
63
117
67
58
91
67
66
66
33
92
69
55
121
52
58
65
92
120
87
95
72
90
98
76
54
26
45
61
74
69
98
91
49
79
110
92
89
91
26
38
69
76
33
71
62
75
103
110
114
69
103
114
112
65
109
92
95
93
66
88
74
51
89
101
68
73
88
82
101
70
84
101
66
66
42
108
85
78
52
83
68
58
75
59
34
38
49
87
56
54
25
86
86
84
56
67
114
66
81
69
99
95
55
86
48
56
31
75
99
111
61
43
100
86
77
40
62
115
89
68
62
103
72
100
43
90
61
69
30
59
74
108
66
102
70
70
76
42
38
86
89
91
103
107
126
56
110
62
76
121
93
57
82
34
53
92
107
116
43
42
109
105
60
104
79
62
61
104
95
101
85
62
71
64
105
111
40
90
96
57
73
66
79
92
98
90
44
48
57
26
90
100
40
53
25
82
70
56
63
80
100
79
50
112
65
58
53
80
60
38
38
86
88
97
95
33
47
87
100
84
66
100
82
87
98
113
92
83
54
61
61
71
65
79
56
78
65
60
40
40
46
36
122
86
50
100
116
101
110
113
49
71
83
82
95
70
81
92
50
74
120
49
116
62
83
71
46
112
65
42
90
62
51
106
88
69
71
86
56
49
92
88
97
83
57
114
27
81
61
32
48
58
53
55
61
58
56
50
97
33
75
65
36
37
90
98
66
50
71
31
95
40
52
44
38
108
88
70
91
59
35
85
72
79
28
70
101
55
45
47
23
59
72
25
51
50
43
48
93
76
83
88
65
46
62
47
94
86
103
99
65
93
34
53
66
91
79
28
44
58
34
41
41
20
99
69
43
57
75
60
87
82
51
59
93
53
54
61
52
62
55
92
109
94
69
80
25
83
74
77
25
84
74
52
101
69
53
59
46
54
107
67
100
95
75
93
105
109
74
35
49
51
39
50
81
34
82
42
22
50
47
105
64
66
52
44
52
51
35
99
66
111
78
72
68
94
75
101
79
64
77
84
55
90
76
74
90
44
72
45
69
60
80
77
70
49
86
96
90
92
97
82
93
26
74
100
48
96
76
59
48
69
72
91
58
66
30
82
50
49
67
60
73
74
17
107
77
84
84
36
51
34
80
67
47
60
37
69
56
88
88
103
40
35
68
88
96
39
24
41
85
64
64
36
79
61
66
47
53
104
72
37
45
55
53
68
63
81
68
47
73
42
91
89
89
90
68
96
98
71
68
75
44
58
83
46
77
40
37
59
61
94
33
89
29
41
54
54
80
50
56
61
59
45
91
90
31
100
74
25
43
69
49
32
79
78
103
51
54
44
72
71
77
95
41
61
75
97
84
81
72
95
35
51
68
101
21
24
45
36
91
87
31
79
78
45
47
66
41
74
74
55
64
29
57
87
117
36
113
54
24
38
95
71
69
30
69
53
47
21
32
42
35
61
57
50
69
74
76
74
117
118
97
77
87
48
99
40
74
52
82
59
64
30
89
57
86
52
66
20
17
33
53
27
42
59
69
34
51
48
91
47
93
47
84
52
30
54
47
74
58
55
50
111
52
38
77
33
53
54
37
55
95
87
55
72
53
26
34
40
66
77
78
43
110
44
60
70
53
84
51
45
58
30
42
32
30
87
58
34
48
42
59
25
60
41
80
64
99
60
101
30
82
33
76
92
64
45
54
121
92
64
41
41
35
93
37
102
95
73
84
47
60
92
71
59
56
94
42
56
54
87
104
78
67
37
55
49
74
79
82
74
59
68
84
95
100
67
50
60
50
43
59
43
55
81
72
54
56
74
44
69
85
60
69
93
85
100
55
42
83
97
62
50
36
47
39
43
41
63
38
74
56
32
41
56
46
58
56
51
78
72
58
45
83
24
93
24
82
66
43
75
72
47
86
52
47
67
35
96
40
70
49
68
57
87
66
59
46
51
80
68
33
74
73
42
45
48
56
73
72
117
97
51
74
49
41
38
58
26
49
71
50
97
74
46
68
21
31
91
50
48
49
47
78
110
85
71
56
34
73
43
41
28
57
73
69
76
33
83
42
33
44
82
47
72
57
56
47
42
47
51
74
80
79
26
16
39
78
103
73
102
70
20
41
40
71
71
61
74
69
67
93
56
18
34
38
59
32
36
37
63
69
73
35
87
33
39
87
68
49
49
79
36
60
55
87
64
59
47
79
25
42
46
23
65
64
43
52
71
95
73
47
75
102
47
65
29
72
79
56
28
72
114
71
70
70
62
59
63
54
99
78
55
65
65
56
101
29
47
50
56
22
47
34
52
51
52
60
80
93
59
81
42
55
66
88
37
96
50
91
82
74
83
38
44
88
51
21
34
57
49
88
80
68
52
61
39
46
23
94
59
29
64
106
80
32
44
59
81
91
93
69
49
87
50
17
53
35
72
112
56
46
64
37
70
49
78
74
88
58
39
42
103
62
69
39
47
32
66
46
55
43
68
80
71
45
62
49
69
23
75
70
43
37
16
22
18
45
52
73
93
27
41
77
46
60
83
33
84
60
64
17
61
51
65
41
51
55
38
89
48
65
54
79
51
63
86
60
65
21
39
41
57
34
86
17
27
95
44
52
57
80
74
41
63
37
65
42
63
65
55
54
34
44
40
100
69
54
82
97
21
28
60
31
18
41
33
24
24
43
34
58
52
50
94
32
112
61
90
100
60
59
33
65
53
68
32
26
74
93
41
87
35
56
66
60
37
68
71
63
52
17
65
38
36
64
42
88
80
30
51
68
76
50
66
81
64
42
32
34
68
80
97
91
50
66
61
40
45
32
81
31
47
35
30
45
80
62
88
56
57
16
65
39
40
60
68
28
46
80
39
88
54
92
49
64
57
44
59
28
30
67
34
87
66
54
32
48
79
43
37
52
70
67
47
39
47
64
45
65
54
75
67
48
83
29
68
24
41
49
31
42
33
21
92
60
76
55
77
56
69
77
71
57
26
32
24
69
42
39
63
37
47
48
57
79
85
40
63
57
70
36
35
64
17
53
74
63
75
26
75
76
43
29
66
81
93
46
30
56
62
80
27
56
84
42
44
53
68
83
25
60
68
63
24
55
74
72
42
92
70
38
63
29
54
46
31
55
61
52
83
75
53
53
38
63
41
52
69
53
66
46
50
73
75
58
45
54
38
34
35
37
88
78
41
23
73
75
30
59
68
58
66
52
33
55
51
38
23
65
74
34
56
75
46
60
19
56
54
54
77
37
75
28
44
55
54
70
32
26
41
78
67
46
45
48
78
81
66
42
57
70
22
69
61
72
57
89
57
75
81
34
31
52
67
56
76
50
69
54
57
73
28
77
52
47
66
42
48
31
46
62
88
74
37
72
39
69
55
61
74
51
35
29
78
53
45
69
44
84
67
47
48
50
60
80
36
37
43
80
23
44
39
25
38
66
95
63
25
87
78
53
53
35
40
33
99
49
60
54
50
47
62
31
29
57
56
51
30
76
39
37
50
71
76
56
33
83
74
95
46
71
53
76
32
70
80
86
58
85
39
54
46
55
47
59
39
75
75
42
71
44
37
53
59
38
32
21
38
39
68
44
37
47
39
49
53
69
16
20
50
62
94
45
32
57
42
80
26
59
70
55
61
67
13
61
61
52
55
34
46
53
29
69
47
71
80
66
95
40
67
51
53
37
57
28
85
16
54
59
49
39
88
26
25
49
42
71
34
27
52
32
60
50
38
41
59
42
27
63
81
36
24
83
17
61
57
73
33
74
43
33
47
70
53
56
31
38
27
32
70
34
25
82
44
56
45
44
39
33
43
41
13
42
67
35
16
52
49
38
37
92
38
35
38
37
26
47
34
77
76
63
43
66
61
53
37
60
58
42
32
42
44
81
79
64
58
42
55
51
36
35
35
20
90
42
24
75
28
48
61
78
50
60
45
47
82
61
80
81
49
62
93
86
35
19
29
25
22
41
77
59
21
68
64
44
24
39
43
85
55
78
34
51
54
17
67
87
72
60
34
50
92
49
91
56
42
36
22
21
34
60
76
96
32
71
71
24
28
32
42
41
35
58
43
77
38
50
50
36
49
33
36
33
78
88
22
47
58
59
25
36
54
65
48
32
61
74
74
75
67
37
23
68
15
64
20
25
13
47
30
78
25
66
58
46
23
36
40
67
28
56
72
73
38
33
53
77
18
49
53
20
58
64
78
52
25
73
19
38
54
74
53
59
36
65
70
32
49
50
27
42
24
24
24
41
77
88
51
28
49
49
51
67
38
23
31
83
59
73
37
15
27
71
35
53
75
64
49
31
26
52
61
40
65
61
44
52
33
28
57
49
96
49
27
9
67
32
53
33
44
57
92
75
22
20
69
26
19
42
46
43
58
56
31
40
74
29
55
34
82
88
75
82
55
46
73
68
53
61
63
77
69
74
46
46
92
47
66
29
44
43
39
34
103
52
90
20
51
65
24
33
30
38
55
28
50
28
44
26
44
73
35
55
63
57
38
27
50
59
35
36
80
46
37
75
45
56
73
33
65
54
68
23
39
60
54
30
57
47
52
40
35
69
54
13
35
41
57
104
84
61
38
43
32
35
39
51
40
28
19
47
51
47
59
49
31
28
58
52
54
14
81
54
37
79
22
57
48
56
49
72
15
17
72
55
19
31
68
56
32
43
21
13
66
36
74
31
26
20
63
75
39
66
45
39
42
79
67
69
47
47
65
68
43
45
40
88
54
56
73
47
83
55
46
53
39
47
56
42
49
48
72
24
57
25
75
45
11
55
54
48
38
50
29
38
41
32
51
26
50
57
23
58
61
49
70
59
50
38
53
45
51
48
31
57
43
15
51
26
78
62
49
39
64
63
69
70
78
19
29
9
63
33
71
51
61
49
60
58
23
49
58
22
17
76
44
13
41
63
36
68
61
44
46
23
18
48
26
53
48
57
56
34
69
63
26
19
62
56
75
59
70
24
23
72
73
67
67
66
46
57
31
42
30
40
24
36
60
18
44
27
60
44
45
40
38
26
30
51
13
34
70
30
47
55
58
32
37
58
35
55
38
12
43
33
40
38
21
68
33
51
56
58
49
53
52
54
51
60
42
60
58
33
19
28
34
39
28
37
19
66
30
61
79
28
23
56
40
70
21
26
64
60
46
51
38
46
63
19
14
23
23
32
39
89
30
20
29
30
37
61
41
44
44
26
24
36
46
48
44
45
30
9
61
18
30
65
26
70
46
43
75
21
52
67
47
59
34
44
68
33
44
31
100
56
19
39
28
59
66
17
50
60
61
54
49
49
34
63
45
54
27
38
22
36
70
29
80
51
56
22
60
51
49
55
61
39
67
49
24
46
21
30
36
62
46
44
32
28
37
31
17
61
50
30
39
61
26
31
33
41
66
22
37
53
51
19
22
72
53
41
43
22
25
29
52
42
84
50
47
55
42
49
53
20
23
56
53
41
55
43
61
20
71
74
52
57
21
33
47
23
26
30
60
31
12
50
67
62
50
27
24
44
14
70
29
19
27
32
42
24
49
24
66
33
41
44
26
41
44
51
40
35
75
37
50
32
65
83
34
40
28
30
29
22
27
40
20
82
39
55
55
36
34
20
72
31
35
31
24
55
45
24
28
19
49
49
55
56
35
70
31
69
37
41
98
32
63
45
27
67
25
26
53
48
33
36
45
23
44
48
52
26
19
44
63
36
20
19
50
63
18
36
15
27
26
19
45
43
49
83
31
36
56
32
61
40
31
44
17
36
47
38
57
83
50
42
20
17
33
54
48
41
23
37
38
41
32
39
29
42
57
20
22
45
35
40
39
55
43
41
45
44
53
64
44
55
78
31
58
52
52
52
58
47
30
32
33
26
38
20
31
26
20
40
30
30
39
54
24
64
21
67
56
47
50
40
7
46
42
62
10
49
41
38
46
51
70
60
37
46
53
42
30
29
13
24
36
46
37
58
22
54
51
51
66
18
43
37
65
45
55
26
46
40
38
13
22
59
59
34
23
69
46
34
64
15
40
53
50
46
31
32
58
10
51
38
42
77
38
41
65
41
48
30
32
21
15
31
38
24
72
52
54
14
31
31
19
42
38
32
28
35
40
14
24
59
28
48
43
23
48
60
21
44
48
55
33
29
90
21
33
51
26
19
38
30
24
17
38
52
26
23
18
31
25
67
44
10
34
31
58
42
34
31
41
42
28
39
48
30
41
38
22
37
30
52
44
40
30
11
29
35
15
23
26
35
27
23
26
31
32
22
41
60
38
24
12
28
27
23
64
28
43
44
51
30
44
46
59
50
35
39
32
45
32
30
36
27
29
20
50
46
29
41
45
21
19
69
36
37
41
52
23
22
23
33
38
28
32
20
71
70
64
37
34
42
50
49
49
46
44
32
16
17
48
54
44
68
26
59
34
41
21
32
24
37
59
38
59
45
25
38
45
27
24
35
71
29
37
34
24
34
25
58
25
48
33
53
17
25
48
19
22
16
22
52
42
63
27
33
58
25
25
23
37
21
31
63
37
58
66
65
17
48
22
71
21
22
26
38
57
42
35
33
38
19
17
36
22
22
27
44
19
48
52
43
41
60
49
52
19
55
51
32
20
60
32
28
47
45
42
30
25
31
55
14
54
28
30
19
33
60
63
57
63
58
47
32
45
54
56
50
54
47
34
42
47
27
14
70
11
40
56
33
20
24
23
24
29
36
42
32
47
53
23
28
37
33
46
36
23
21
27
28
22
41
54
10
30
34
36
43
55
61
34
37
37
49
23
44
57
52
39
31
28
16
61
25
47
40
17
35
35
66
46
47
67
36
26
52
51
6
55
27
23
35
50
26
35
44
27
28
28
40
19
45
76
43
46
18
14
39
61
24
15
33
47
17
46
40
48
42
30
33
43
43
40
56
45
36
27
36
18
16
25
26
36
35
13
33
69
63
39
33
44
32
9
45
35
32
21
50
11
29
16
42
51
30
28
61
37
58
19
12
26
13
39
61
7
36
50
36
23
25
52
43
36
26
61
45
9
36
36
58
37
27
41
76
67
19
44
23
53
35
56
23
34
25
19
20
21
19
30
22
32
13
22
24
22
33
17
18
37
28
37
53
44
22
69
8
25
62
30
15
39
48
16
18
21
41
27
32
10
67
37
41
42
40
67
31
34
31
65
13
18
32
16
29
24
9
49
54
29
33
44
21
21
24
34
26
56
29
29
34
39
23
37
16
20
44
54
34
55
29
23
45
21
58
7
75
20
16
40
31
37
61
21
32
42
11
30
25
26
68
45
41
28
41
23
27
29
25
25
24
22
31
7
42
52
31
29
33
29
56
46
44
15
5
22
30
29
32
39
54
44
28
18
58
78
14
43
56
31
38
35
27
54
29
54
24
21
47
14
40
43
36
39
28
20
32
24
20
31
31
31
22
51
43
17
45
13
47
37
10
37
40
60
17
41
63
28
30
69
59
40
28
53
47
20
24
34
25
22
17
16
67
55
30
11
48
66
29
63
27
29
33
60
26
32
31
48
42
48
27
44
19
35
23
9
42
27
36
22
64
44
34
70
24
50
33
50
18
56
33
15
33
20
27
38
65
38
36
57
39
32
25
44
26
33
40
30
20
30
21
44
32
27
51
30
20
61
16
22
21
31
34
20
21
27
26
37
16
12
23
47
41
15
46
22
25
38
46
64
42
38
49
44
26
38
31
17
40
27
31
9
50
7
43
30
57
43
36
30
31
14
27
18
23
10
56
43
30
15
8
54
36
45
59
21
74
34
13
27
24
25
21
22
53
24
26
25
17
12
16
23
43
57
43
25
38
36
29
26
20
17
29
32
56
64
18
14
62
46
34
69
73
64
17
61
24
23
50
29
31
29
33
60
13
12
29
21
45
46
31
36
47
31
16
23
32
50
42
37
11
36
36
27
45
6
23
15
35
31
23
34
55
48
60
77
64
41
41
26
27
30
44
51
17
43
35
62
36
56
33
22
44
41
46
36
32
35
32
29
33
34
40
28
49
32
41
39
45
25
51
74
22
42
35
12
28
55
39
28
22
52
15
28
29
24
10
21
27
25
26
33
66
17
55
16
65
28
37
26
17
58
37
20
38
30
31
39
20
19
30
30
42
8
42
17
18
47
27
58
7
19
40
50
39
64
66
28
22
48
29
49
39
39
20
21
35
25
20
37
45
16
28
13
24
21
38
25
55
22
22
27
37
21
43
28
64
48
55
22
20
11
27
47
31
44
29
22
18
24
63
36
28
35
43
68
36
34
40
33
26
19
52
13
52
13
9
22
28
18
21
46
30
39
38
38
54
17
53
32
43
48
57
30
49
42
60
42
54
37
51
54
30
36
34
32
26
23
24
53
16
58
31
50
20
10
65
28
12
38
29
38
23
43
25
38
55
66
35
19
18
16
55
13
36
32
11
26
54
33
25
24
33
32
15
45
20
34
26
25
36
29
25
23
28
10
10
11
18
32
42
30
16
28
36
40
33
82
37
3
11
47
29
13
29
38
62
25
31
37
14
18
38
24
20
24
28
17
24
35
19
29
51
44
13
42
37
41
40
46
54
28
31
51
49
60
28
51
26
27
18
36
35
41
67
48
24
26
42
32
38
56
60
30
31
51
31
17
52
43
26
20
28
22
63
43
42
26
10
33
21
35
43
44
18
16
54
40
36
24
18
25
24
25
28
17
42
13
66
50
18
11
25
26
32
66
49
34
29
26
31
17
58
23
54
32
69
55
43
9
8
25
16
52
33
19
38
18
44
36
26
46
19
58
41
21
50
46
57
51
53
47
30
19
16
21
45
20
32
36
31
33
33
68
39
30
40
43
20
30
29
21
1
25
39
10
12
45
32
36
18
14
31
44
14
38
28
22
32
36
30
16
21
35
19
31
38
12
19
27
24
23
52
24
25
18
44
35
26
28
36
18
44
21
49
11
8
40
40
15
38
35
20
25
58
37
19
32
21
38
47
43
36
45
18
26
26
32
7
22
55
16
47
26
29
13
43
33
25
18
16
37
15
13
26
25
38
15
18
37
43
42
18
25
22
18
19
8
34
15
25
39
16
17
47
20
43
14
22
30
48
15
55
42
34
40
43
16
10
18
14
53
65
27
20
37
46
39
21
34
28
46
19
36
54
43
30
43
16
44
48
33
17
28
19
37
34
28
24
53
54
18
46
40
34
22
36
16
3
23
29
49
42
35
37
21
36
28
16
18
12
14
39
59
24
53
35
32
34
22
56
20
47
32
34
31
37
17
19
30
6
25
37
11
48
26
40
68
44
44
41
29
15
14
15
35
22
7
37
33
19
48
36
40
27
42
31
37
45
23
21
28
24
10
34
7
55
28
17
16
16
19
43
18
23
8
12
19
22
32
26
34
28
27
19
16
77
7
51
14
10
18
12
14
20
17
11
14
19
47
45
39
38
40
39
20
28
9
7
20
39
47
40
28
33
29
15
36
29
18
14
48
22
69
61
39
38
9
31
47
32
38
27
37
36
12
35
26
18
26
13
24
12
29
18
35
31
20
65
16
36
16
20
23
8
19
41
22
39
17
17
17
20
17
11
44
24
36
29
13
10
7
27
35
21
25
24
23
27
58
50
23
31
13
37
27
37
31
42
39
43
20
28
43
22
29
39
30
23
42
34
11
44
32
22
34
33
32
43
25
50
48
43
24
43
55
56
26
30
48
46
38
13
40
24
9
57
74
14
17
40
25
34
23
24
24
9
26
24
10
24
44
19
38
17
45
12
11
31
20
21
14
29
38
30
28
31
36
22
41
35
21
31
22
47
39
29
28
13
32
39
25
11
27
37
12
26
28
15
34
17
15
40
14
12
41
21
20
14
36
37
23
20
27
31
14
33
31
23
28
22
13
33
54
42
18
33
23
54
12
8
20
29
13
23
25
42
27
36
32
32
39
49
25
30
29
43
25
31
20
24
51
12
25
54
26
26
28
41
36
17
8
13
35
33
48
31
38
18
5
12
28
19
30
55
15
46
37
40
20
21
29
22
38
37
22
13
11
27
18
16
26
32
37
18
37
17
24
26
43
35
20
20
32
30
41
28
27
21
29
53
13
25
19
65
44
28
20
22
21
37
23
16
24
14
51
56
20
31
32
29
57
29
15
20
49
29
9
16
10
20
49
13
27
27
14
56
41
10
9
25
23
37
16
62
25
4
51
18
35
22
16
20
19
63
33
11
14
13
14
12
38
54
14
19
60
27
9
66
12
47
18
40
33
34
35
44
43
14
22
32
24
17
18
23
20
21
26
22
29
25
25
32
9
27
25
34
39
35
29
25
13
28
77
55
41
45
33
19
22
9
12
45
17
17
33
31
33
22
9
11
12
23
23
27
37
34
41
37
18
23
20
41
24
18
31
21
23
41
36
23
7
21
60
21
38
33
39
37
18
42
10
53
16
45
27
30
33
21
13
11
18
18
22
34
50
29
15
18
23
10
50
18
34
28
8
14
22
29
4
29
18
28
11
22
19
9
36
5
33
34
28
17
17
26
21
27
34
53
32
23
26
11
11
49
47
49
45
18
9
32
15
40
8
16
27
41
42
21
20
33
15
53
12
11
48
43
39
8
24
28
32
15
46
31
8
26
35
34
21
15
18
17
53
59
16
41
18
16
12
15
39
22
36
21
18
15
39
39
40
29
12
11
48
40
20
27
39
29
45
30
22
30
30
10
25
29
28
51
7
71
22
29
43
47
28
24
36
15
14
14
28
9
40
20
20
43
36
21
24
30
27
29
13
14
30
15
14
37
30
24
10
29
20
8
39
19
27
32
15
26
26
34
31
19
57
18
42
34
34
25
26
31
22
18
46
7
37
40
20
21
8
24
15
30
25
7
33
22
36
32
38
48
23
15
16
9
56
9
26
27
33
24
9
11
12
24
46
27
20
18
54
57
50
45
28
19
17
18
36
22
36
14
29
17
31
30
24
8
13
29
25
30
36
34
37
53
19
13
37
36
32
17
26
39
36
58
20
39
21
48
15
25
38
16
31
23
29
36
43
27
37
23
35
19
37
13
21
12
16
31
16
28
21
39
40
50
21
9
12
27
29
32
32
4
11
11
37
9
15
16
29
43
32
19
29
17
37
30
25
37
43
15
21
10
27
26
28
26
33
35
23
46
11
14
9
31
27
24
48
26
35
22
24
19
47
24
19
10
27
11
45
29
16
62
28
24
27
4
9
37
19
37
29
20
42
31
20
24
29
5
27
13
23
28
13
60
23
16
9
12
32
42
40
17
32
20
12
24
16
28
34
25
37
28
25
39
30
23
6
31
11
25
39
43
48
2
33
60
29
45
24
22
40
16
13
36
6
36
28
8
11
64
57
51
4
26
18
33
27
14
17
31
4
34
45
44
16
35
16
38
20
8
12
18
17
23
36
24
9
3
41
50
46
35
28
47
24
24
22
45
34
21
27
31
21
39
30
25
2
14
50
40
25
46
25
24
9
9
22
42
6
42
41
27
19
7
17
32
34
18
15
8
10
29
36
17
20
10
35
25
15
34
20
15
15
41
38
12
27
31
34
13
43
21
28
11
14
39
12
14
32
18
10
43
41
9
28
25
12
8
31
31
20
35
16
17
22
30
12
6
32
8
19
49
38
17
19
15
18
19
20
19
34
14
14
10
20
13
19
19
27
5
40
29
8
46
16
24
37
35
29
18
23
9
30
28
5
2
17
22
41
26
43
21
11
42
40
11
19
24
24
31
36
16
39
19
49
23
12
13
37
30
22
27
17
46
6
42
20
35
20
29
18
27
23
23
6
29
38
7
19
19
54
14
23
21
20
16
29
20
58
16
10
29
54
40
47
5
8
40
6
41
25
7
30
12
46
17
10
25
46
47
13
23
22
28
26
27
33
29
36
35
39
13
39
24
21
15
22
48
33
27
37
30
14
34
21
29
8
11
6
7
2
3
16
22
20
16
16
63
12
10
29
17
6
53
20
24
18
20
7
16
19
28
12
16
9
33
56
10
31
9
26
22
18
7
58
6
37
57
13
20
35
13
28
27
29
25
10
28
40
37
11
19
41
1
6
21
33
27
45
20
17
18
17
12
24
28
34
10
31
18
23
16
26
46
48
24
62
44
41
21
33
46
8
18
17
26
35
14
20
28
5
39
12
9
19
18
23
39
39
27
11
8
9
13
15
6
51
19
43
27
18
11
47
43
58
27
64
47
55
13
21
51
42
16
19
37
17
47
43
21
34
33
38
17
22
26
10
37
4
9
5
36
11
22
3
7
36
23
9
40
26
27
24
27
28
46
18
9
19
19
18
20
33
20
14
53
20
41
43
20
13
41
25
34
30
25
20
3
10
31
22
67
51
35
31
21
56
14
32
22
29
11
36
16
35
39
25
29
19
32
36
44
8
22
15
16
6
9
9
51
30
14
18
10
28
22
6
5
28
18
10
43
23
8
29
20
31
7
25
23
6
9
10
39
19
27
6
14
60
24
15
29
6
25
36
33
28
37
39
50
6
34
30
12
24
21
27
34
18
15
44
16
26
30
19
16
22
36
29
36
51
25
30
16
28
30
26
12
38
33
24
52
11
15
28
25
22
30
21
30
29
8
36
14
22
41
45
34
52
30
36
12
15
25
22
19
22
4
17
47
14
15
21
14
18
9
41
14
13
9
25
17
35
21
23
45
10
23
42
21
17
24
26
28
23
35
20
24
3
29
12
35
57
9
19
20
14
17
20
18
16
23
12
15
13
28
14
26
24
18
20
17
31
19
33
31
38
39
14
27
25
25
6
16
5
24
11
12
23
26
34
7
28
23
27
31
14
24
20
19
25
9
27
28
31
39
60
29
31
9
30
5
12
20
60
3
50
13
7
30
4
21
48
29
6
37
14
13
20
12
10
46
31
11
8
11
48
24
50
16
25
25
23
35
20
12
21
33
15
19
5
31
18
13
4
9
50
47
18
22
16
26
9
12
3
31
14
22
44
28
9
11
8
23
31
7
14
36
22
39
19
9
39
5
21
13
17
15
36
11
34
23
44
14
34
45
9
24
32
21
10
16
20
10
4
53
14
21
9
37
0
25
26
16
18
21
18
22
20
9
32
15
35
34
7
21
8
55
10
11
30
32
13
23
14
16
29
15
35
23
19
32
6
34
34
43
25
9
36
8
26
44
17
20
10
43
14
2
30
51
22
38
33
20
17
8
26
5
22
6
13
9
27
13
20
29
12
30
25
8
19
40
54
15
20
13
13
18
2
18
27
39
8
23
11
8
22
70
17
14
14
8
57
16
6
18
15
8
30
21
31
61
12
10
27
57
32
12
10
24
53
29
36
25
20
15
9
37
8
25
30
54
17
15
31
11
38
28
16
26
18
8
19
29
28
34
27
22
44
35
14
34
17
42
27
48
21
32
37
20
19
18
33
34
16
20
32
64
24
30
32
12
8
11
17
21
10
25
43
20
18
8
18
22
30
15
27
10
26
26
11
15
20
35
4
11
27
21
7
21
14
19
35
40
22
4
10
12
19
7
21
21
39
13
17
10
4
9
16
30
13
29
24
26
16
16
21
12
11
40
18
21
26
23
14
23
16
28
26
72
10
15
23
22
27
35
36
30
14
18
16
13
7
26
27
32
35
13
19
20
5
26
11
19
40
13
3
34
13
39
14
14
50
28
21
19
34
39
19
28
24
37
38
28
6
10
38
15
29
10
17
32
47
6
27
44
22
27
27
11
13
19
9
37
13
27
16
34
20
32
9
24
9
22
4
30
4
41
45
22
22
35
19
8
27
33
18
15
33
15
27
26
22
12
17
12
13
7
9
37
26
21
34
17
42
11
37
42
15
22
24
24
17
9
19
39
24
29
11
5
14
13
13
19
21
22
21
24
20
9
23
23
37
14
39
32
10
48
21
18
3
39
30
6
25
9
7
5
33
36
32
10
18
24
22
14
32
30
10
23
28
9
20
13
23
29
8
46
30
30
15
19
18
35
12
27
7
12
7
19
22
33
4
16
11
10
21
6
17
37
22
31
11
20
14
20
33
20
37
14
42
13
8
35
13
40
9
17
14
23
40
14
9
28
11
22
16
1
9
7
28
29
16
32
25
21
33
14
25
14
44
47
15
51
15
27
28
33
44
11
5
15
19
16
35
40
7
15
32
31
17
35
2
28
21
17
38
42
38
26
13
15
9
12
24
13
11
9
19
31
19
20
11
37
22
34
5
12
28
9
11
20
13
19
14
5
22
19
35
21
8
22
14
39
25
16
28
36
25
14
41
12
26
25
15
8
8
7
36
16
20
24
18
45
19
35
28
15
20
22
21
33
8
8
36
6
17
13
3
19
35
31
26
14
12
33
13
14
21
10
16
32
33
40
31
33
16
26
48
17
23
18
20
8
16
9
38
16
19
16
13
30
40
36
18
21
29
35
18
31
17
25
41
9
18
11
18
10
18
10
11
18
10
24
3
20
10
13
17
30
36
21
38
33
18
11
15
15
21
19
9
13
16
31
28
25
33
17
17
23
32
10
7
15
19
18
8
26
21
13
23
18
29
16
14
19
24
31
27
9
13
9
22
32
2
25
34
33
11
25
26
35
8
23
8
22
10
20
24
5
7
43
34
31
41
15
19
38
29
19
22
9
11
22
27
20
23
34
8
12
9
34
16
13
15
8
43
16
16
18
11
11
36
40
9
10
29
12
16
31
14
25
27
8
38
31
10
23
11
13
5
5
10
15
22
19
8
38
5
37
8
15
30
34
20
7
17
12
38
29
5
25
8
8
16
17
22
12
7
18
29
13
38
24
3
21
32
20
16
16
8
20
9
8
32
20
6
38
14
23
34
22
10
24
10
8
14
5
8
26
6
12
13
11
13
25
6
3
17
10
22
18
29
14
35
37
37
27
23
9
30
36
12
29
19
20
14
32
5
13
36
8
3
1
10
12
18
25
8
23
22
14
32
28
29
24
47
7
21
1
25
16
7
9
9
14
17
23
11
15
9
25
23
12
13
32
25
13
13
6
20
23
25
25
11
26
33
12
15
34
13
16
1
12
44
17
11
28
17
15
13
33
10
8
15
15
25
15
7
9
30
15
7
6
16
8
6
17
12
16
6
41
4
10
18
30
25
24
31
32
9
9
46
25
4
41
27
11
27
41
8
12
25
24
41
3
11
19
28
24
13
18
18
20
23
25
8
26
6
20
21
7
13
13
23
15
13
16
22
23
15
42
23
14
19
39
19
27
19
18
7
5
4
27
13
25
12
19
21
9
12
47
22
19
7
21
8
6
12
16
8
9
14
10
13
25
9
26
11
18
14
18
10
19
15
5
20
11
24
29
16
17
5
10
14
11
47
38
24
15
15
4
13
22
17
30
29
16
24
14
15
17
5
12
27
6
11
14
34
4
13
16
6
19
15
19
19
4
5
11
10
26
10
25
17
31
0
18
26
12
5
16
6
21
44
17
33
33
31
9
6
49
5
13
24
11
32
2
22
18
28
8
8
20
15
14
20
20
43
12
27
18
14
27
9
29
23
38
6
8
2
13
6
10
19
6
3
1
25
6
16
20
30
25
27
7
28
44
7
41
8
27
24
12
11
10
30
17
10
20
10
16
5
19
19
12
12
20
16
29
14
39
12
4
14
16
9
15
25
7
25
33
8
37
9
6
25
24
12
5
16
26
29
27
43
14
35
29
16
15
11
19
15
18
6
3
10
13
22
11
10
13
21
41
21
16
1
29
28
33
27
13
10
15
18
36
23
16
12
20
17
20
11
20
15
30
8
37
25
22
27
25
17
21
22
28
16
18
8
11
38
16
10
21
7
12
14
24
17
21
8
2
40
19
8
37
16
36
13
26
31
25
13
18
10
22
18
31
10
18
10
18
24
7
5
5
29
9
19
10
21
25
19
10
15
11
24
10
8
30
6
21
19
20
23
31
23
18
13
20
7
26
13
36
0
13
7
4
12
9
15
29
22
19
24
40
35
15
13
6
38
24
10
19
43
29
22
23
32
6
15
30
4
10
14
12
11
25
24
31
7
24
17
27
29
5
27
28
37
20
8
7
19
22
8
8
38
22
22
24
18
8
4
20
14
25
13
18
16
6
12
25
25
37
16
28
22
18
29
10
5
14
32
9
18
16
13
27
20
10
14
20
19
21
20
14
24
25
31
20
20
40
9
38
35
16
38
16
13
3
12
12
18
13
19
5
16
18
23
24
18
12
26
30
13
24
20
23
14
21
12
18
26
7
5
10
35
8
7
10
5
7
14
21
14
13
9
15
18
18
26
17
4
7
10
9
25
3
12
10
51
3
37
26
20
19
21
20
19
30
36
15
32
12
30
14
6
13
21
29
31
22
13
7
24
17
10
10
10
9
13
28
15
18
17
38
11
12
8
10
18
30
24
17
20
22
17
10
31
42
16
22
35
34
8
3
18
7
28
7
33
16
7
8
21
11
21
10
8
27
7
11
23
20
24
24
19
15
14
38
8
31
5
10
16
14
26
24
12
8
6
13
39
9
4
29
5
6
16
17
26
20
12
13
48
16
21
17
5
13
23
14
18
8
2
9
16
21
15
14
24
8
6
32
14
37
21
9
14
24
24
18
10
13
17
41
17
20
20
10
16
21
31
29
6
10
13
35
20
38
24
15
9
16
19
7
5
27
32
9
15
5
11
11
15
28
12
25
18
49
10
6
40
11
5
11
32
11
24
24
11
19
11
17
13
11
18
6
21
15
14
20
23
34
8
26
19
26
18
10
31
30
54
5
13
14
15
13
45
17
18
17
27
33
23
10
5
2
2
24
18
8
20
5
38
23
9
56
28
19
8
11
10
20
25
10
8
26
27
26
21
25
11
44
13
13
12
30
16
23
22
34
5
16
12
11
10
4
16
13
29
30
7
7
8
31
17
21
34
5
23
11
26
19
21
31
17
15
19
11
32
34
8
35
32
2
29
12
19
17
23
12
20
5
10
32
30
27
12
31
18
20
29
7
20
18
27
22
20
38
11
10
12
21
32
10
20
16
20
9
21
38
10
21
14
22
18
33
19
35
11
18
19
15
15
30
9
19
3
9
9
15
25
30
23
9
9
15
23
0
19
20
3
6
15
18
15
26
30
16
34
25
12
26
31
6
10
37
29
18
22
25
26
16
12
23
22
26
14
4
8
33
8
27
24
15
30
22
27
23
25
8
15
42
4
23
17
40
11
11
13
29
31
8
34
13
18
21
22
10
31
15
7
14
33
5
5
7
10
2
30
12
15
17
25
8
19
15
20
16
28
21
13
6
22
11
4
40
28
23
2
22
30
18
4
9
6
3
24
28
23
16
6
14
26
26
31
34
24
5
16
26
15
33
14
2
2
20
10
29
10
25
15
19
9
13
15
14
16
2
11
2
5
7
13
11
28
24
16
23
17
16
15
13
10
3
17
26
17
12
14
4
2
11
7
26
16
25
32
50
35
15
36
27
5
6
13
22
7
4
13
21
42
21
10
29
31
5
10
18
4
14
12
5
11
5
30
14
18
14
43
5
8
27
12
21
34
6
10
20
11
19
4
8
12
7
6
26
21
8
1
19
37
16
27
13
24
12
20
16
19
20
17
8
13
12
19
7
4
24
31
11
19
14
16
10
36
16
23
47
10
1
43
24
9
7
6
8
4
1
7
14
23
37
15
8
18
18
17
18
7
19
22
27
7
10
11
30
21
26
23
4
11
3
17
10
7
9
6
15
13
18
9
25
35
20
35
40
34
24
30
30
5
11
16
12
12
18
25
26
14
16
10
20
16
31
28
8
22
30
9
21
32
40
17
23
16
9
24
28
23
11
15
9
27
31
18
18
31
2
5
24
8
18
26
34
14
18
19
2
10
41
16
4
6
20
15
33
5
36
10
15
12
8
6
7
15
4
23
18
16
25
17
17
4
17
15
5
11
21
9
10
7
2
7
1
1
8
32
37
34
26
1
8
5
19
24
25
13
14
21
17
6
15
19
8
26
30
15
9
6
8
7
5
17
8
14
27
14
15
33
29
4
21
17
12
27
30
21
13
14
9
30
50
10
5
26
19
17
8
7
10
14
22
31
17
5
10
16
8
21
9
19
13
16
39
30
34
7
12
19
11
16
14
23
6
19
23
26
12
11
19
42
10
14
22
23
19
10
18
14
13
17
30
5
18
14
21
10
32
40
7
4
10
37
23
14
28
21
11
12
7
10
21
9
16
10
20
5
23
16
15
27
14
7
35
11
15
4
12
13
11
18
22
24
22
9
18
8
4
12
13
26
28
2
19
14
20
33
31
29
18
12
16
7
16
18
23
31
13
17
27
1
17
16
15
15
12
20
6
29
27
6
11
6
18
19
36
25
6
5
3
18
15
25
10
17
7
6
8
24
20
14
38
1
30
14
12
17
19
17
21
7
5
22
13
33
17
5
5
18
22
12
5
23
12
8
21
9
4
18
34
36
17
13
18
30
4
14
4
23
16
8
11
27
20
13
28
42
5
8
6
7
16
6
4
16
17
17
33
16
23
16
5
4
4
20
11
14
10
14
19
42
20
28
35
15
11
14
7
11
29
20
5
19
20
16
20
8
12
7
10
44
22
25
27
5
14
14
20
9
31
8
18
7
21
6
15
16
25
20
6
10
22
17
13
13
12
29
27
7
11
12
16
19
19
34
16
21
19
22
27
4
10
25
24
15
30
4
13
19
24
6
2
12
21
9
3
20
6
8
14
10
25
7
17
21
5
26
19
4
9
28
27
10
14
28
37
29
2
9
19
29
9
38
28
18
12
8
28
32
14
19
15
7
4
6
25
5
14
13
23
8
6
39
25
27
15
4
9
3
26
28
15
15
19
8
26
8
22
10
16
28
13
23
21
4
5
14
7
18
17
17
20
12
4
27
11
27
8
14
27
2
5
24
16
22
10
10
44
43
20
5
13
20
17
18
26
7
9
23
9
23
28
2
13
28
30
7
6
6
31
25
16
26
22
8
10
7
24
12
12
14
11
9
31
34
25
12
24
14
11
11
28
23
10
14
17
7
24
32
4
28
10
8
20
11
14
14
20
8
35
9
24
23
23
9
18
24
23
30
16
11
30
34
21
16
4
2
8
21
20
18
15
16
27
35
19
15
28
24
8
30
2
4
7
16
6
17
26
19
20
19
8
5
14
30
26
12
5
8
2
10
9
15
45
4
23
6
29
14
5
26
23
6
26
3
12
7
10
42
8
27
7
11
26
14
13
11
26
7
4
3
7
8
7
12
30
26
14
34
6
9
12
19
8
21
10
6
8
14
19
11
30
19
16
23
21
6
8
36
1
6
11
11
14
2
3
24
25
32
23
9
16
5
20
18
19
7
19
16
12
35
16
16
4
19
5
31
32
3
10
20
18
6
19
20
14
4
14
20
13
25
32
2
21
17
7
30
10
17
3
6
12
8
27
10
37
24
16
28
19
40
23
23
14
14
8
12
9
21
8
7
16
7
9
18
14
8
10
3
5
4
38
9
21
17
21
19
7
19
28
6
8
7
11
8
10
10
30
19
1
27
9
26
16
15
12
15
12
12
17
14
9
23
18
17
11
8
18
11
17
17
12
23
13
5
12
14
5
19
10
25
14
17
15
5
17
8
2
12
22
10
19
12
18
12
9
8
8
16
4
6
5
4
5
33
27
7
16
12
5
8
34
29
23
7
4
31
6
4
25
9
10
23
9
10
23
20
26
5
21
21
14
16
2
4
15
19
34
11
17
12
41
14
16
11
16
5
17
4
8
28
10
3
19
19
25
13
12
23
20
8
15
18
13
7
18
13
9
5
18
7
13
4
13
14
1
9
11
3
8
23
24
14
6
12
9
12
1
13
13
4
8
5
2
15
5
12
23
5
19
11
11
13
26
6
13
5
8
7
19
18
18
19
6
6
12
19
4
3
23
10
4
4
6
23
3
8
17
8
25
23
22
11
9
16
14
7
12
5
12
1
7
7
17
23
18
7
22
9
11
1
6
3
3
5
30
9
37
10
17
4
20
11
9
14
20
6
19
7
4
2
10
11
17
23
8
1
17
16
5
4
15
11
7
9
2
8
12
10
31
12
25
6
6
33
6
4
10
14
7
11
9
18
11
7
18
11
12
11
36
21
15
20
12
18
11
14
41
10
16
5
1
44
20
35
8
18
29
4
17
5
1
5
11
1
14
14
24
5
3
19
19
16
41
18
5
7
10
7
11
5
2
10
9
11
4
16
16
17
19
17
13
10
9
10
4
14
13
5
9
8
15
7
6
10
26
4
8
12
8
14
27
15
30
7
15
6
6
5
7
22
8
7
14
9
15
8
8
4
24
7
3
13
12
13
6
2
6
4
10
0
21
11
7
7
18
13
36
28
17
19
12
6
9
5
10
7
8
14
2
26
15
4
8
7
21
18
3
3
9
15
26
22
7
21
6
16
3
5
24
37
25
10
30
7
4
11
5
21
27
8
9
20
11
25
1
21
15
5
20
17
13
11
7
7
13
9
16
4
15
25
11
4
11
9
4
18
7
6
14
5
10
7
12
17
14
9
4
6
8
13
7
15
14
23
10
4
20
22
19
10
12
4
15
8
1
19
15
33
30
23
12
6
21
28
14
4
8
2
11
2
27
18
12
14
2
7
9
11
9
24
11
16
7
11
4
20
4
16
15
8
1
10
9
22
18
13
27
23
23
19
20
9
8
4
8
20
24
12
13
13
7
1
21
10
3
5
10
12
5
5
11
24
5
4
35
21
24
18
16
7
22
15
10
1
9
26
8
7
7
3
8
10
18
26
21
17
4
17
14
3
28
39
18
11
0
7
21
11
16
16
15
16
9
11
21
25
27
3
7
19
23
31
5
12
9
16
12
29
10
17
22
14
10
16
13
8
11
4
10
6
4
8
19
12
16
11
10
16
5
15
23
9
16
23
37
4
17
17
15
22
1
10
7
18
12
13
5
5
2
13
6
13
18
34
13
21
1
17
22
2
27
4
15
17
11
3
12
13
2
18
8
7
13
0
11
21
4
12
24
22
11
14
32
35
33
25
11
13
11
3
4
8
9
19
7
14
6
6
1
16
2
5
2
16
18
4
17
21
32
28
31
16
24
21
12
9
26
14
5
25
11
10
1
19
10
12
13
7
16
16
9
8
1
10
21
17
8
8
5
4
6
14
5
20
14
27
17
5
18
8
14
15
6
7
15
7
9
8
25
10
8
11
15
14
3
14
16
10
12
12
11
15
19
15
4
15
7
20
18
30
8
23
3
22
21
15
13
12
10
5
23
7
14
8
6
1
9
34
8
6
23
12
7
7
15
7
37
11
18
8
5
27
13
1
7
14
30
12
20
12
15
8
14
12
15
7
6
7
8
5
5
3
19
8
12
7
4
8
5
13
12
4
3
22
8
11
3
15
10
10
14
17
7
11
23
25
32
14
14
14
15
2
15
12
19
25
13
19
18
22
27
6
10
2
15
4
2
21
22
13
20
8
9
5
17
30
21
34
5
0
19
12
3
5
18
9
16
28
31
9
9
12
16
23
10
10
15
6
17
7
19
3
16
27
21
9
4
5
4
4
13
3
13
6
8
3
15
19
5
13
18
2
11
5
7
10
12
3
17
18
18
8
2
7
35
19
0
13
18
14
9
11
15
15
10
19
12
15
5
11
11
34
22
5
10
14
4
15
17
8
17
22
6
12
7
13
9
17
14
4
18
14
1
19
13
13
4
8
3
22
8
17
24
19
7
9
23
19
8
27
12
15
12
18
3
8
7
9
4
2
13
2
11
13
10
13
12
15
4
16
15
16
17
36
15
8
7
10
6
22
13
9
3
1
2
21
11
16
14
2
24
3
19
10
7
5
30
8
10
6
17
7
26
11
4
3
21
5
2
12
8
24
9
21
3
12
16
6
36
10
10
10
27
5
12
15
2
10
9
10
17
12
12
14
1
5
3
16
18
4
8
23
11
6
5
12
16
6
21
4
1
13
7
1
3
5
19
25
17
24
16
16
6
14
9
25
15
14
11
24
9
17
13
16
9
16
18
48
34
9
7
16
14
1
21
6
13
8
17
10
13
18
10
9
25
7
28
8
12
22
28
15
1
7
3
23
4
9
5
3
2
12
31
11
26
14
7
14
3
22
13
21
9
10
7
9
12
5
15
12
4
18
11
8
38
23
17
22
17
12
4
18
7
9
12
12
13
20
2
15
8
13
17
33
10
21
20
5
20
4
4
7
12
9
28
7
23
25
10
29
7
19
4
6
15
5
13
12
4
16
23
3
14
15
25
12
22
8
7
30
5
16
15
24
13
17
8
3
10
5
2
20
5
23
22
9
8
14
20
9
21
3
27
6
11
9
6
5
5
8
17
2
15
8
18
5
4
20
19
29
15
8
9
5
34
21
15
13
11
7
18
22
5
19
23
15
10
19
9
13
10
0
21
3
20
12
20
22
6
23
13
2
2
7
2
10
19
19
14
14
18
30
6
19
10
3
11
12
12
16
8
6
32
13
28
24
17
11
18
5
6
26
20
19
35
16
28
9
18
25
17
13
7
19
5
8
16
7
15
19
12
5
8
11
1
12
9
17
15
12
15
12
11
19
15
16
28
27
24
19
13
8
19
18
6
17
29
21
13
24
19
27
19
7
5
10
3
6
4
5
11
13
2
21
21
5
10
37
4
8
3
12
16
21
3
24
11
7
2
7
2
20
27
6
13
38
21
5
9
9
22
9
12
13
10
13
16
17
13
1
4
3
28
9
6
27
25
5
4
5
2
12
26
9
9
23
10
13
10
17
4
1
0
21
2
3
26
5
11
4
11
10
26
25
14
4
14
0
7
30
3
6
19
8
6
6
10
2
15
13
7
14
15
8
4
3
17
10
9
3
6
8
10
14
15
7
10
9
5
6
9
19
4
36
30
11
14
13
21
5
2
9
18
17
10
6
5
13
24
2
4
15
17
26
7
7
15
26
7
16
4
19
11
18
3
23
9
23
21
10
17
2
4
4
21
11
20
1
2
36
15
19
13
6
12
25
26
21
28
7
5
8
6
15
29
9
13
13
5
5
5
17
27
12
14
8
38
23
14
28
5
8
10
30
7
19
5
1
6
14
11
9
32
3
15
25
8
2
7
13
20
4
13
1
25
6
22
23
4
3
16
17
7
7
8
9
2
19
34
21
7
5
25
14
9
7
18
13
7
10
11
7
10
2
7
27
0
11
13
7
21
17
12
7
5
7
8
16
21
6
15
12
21
11
8
23
8
23
1
21
19
10
19
11
7
12
22
11
14
15
25
3
16
8
10
22
8
32
19
8
14
17
26
3
10
13
21
10
5
11
16
7
17
14
20
10
2
32
6
27
13
11
8
7
9
13
11
16
17
19
16
9
5
35
16
5
3
18
3
6
12
14
6
9
4
21
11
1
12
24
6
6
13
4
18
13
2
3
14
7
13
13
18
16
4
9
6
8
14
6
6
23
3
6
0
16
5
19
20
11
7
11
13
19
24
10
22
3
26
21
10
9
11
23
21
2
13
9
4
4
8
26
16
16
2
6
1
23
31
8
21
3
8
6
11
10
19
7
8
5
17
12
10
21
7
6
12
3
13
9
24
12
8
22
8
1
8
2
17
12
17
9
7
2
8
1
8
2
32
18
3
13
32
16
23
4
22
16
13
17
7
4
5
16
30
20
4
8
9
9
5
8
17
6
13
6
6
3
10
9
13
15
8
21
3
9
4
16
6
11
20
9
15
4
8
22
7
9
10
8
11
10
23
2
16
18
1
6
7
10
6
13
3
9
12
2
12
11
5
9
21
10
11
7
4
11
3
24
12
1
14
15
6
8
11
8
10
30
26
19
14
13
15
10
4
15
22
21
23
11
12
35
8
25
12
7
6
10
9
1
6
13
3
2
7
18
4
18
4
7
25
10
23
11
18
13
13
17
11
12
8
10
19
7
5
21
15
7
5
4
12
8
6
9
6
9
11
2
10
4
2
9
25
5
3
2
16
7
22
17
17
14
34
9
9
5
6
21
5
21
7
27
20
2
2
11
6
21
28
18
7
0
12
5
9
4
5
10
26
19
7
17
16
18
18
5
18
11
16
13
5
3
2
14
24
17
3
3
6
24
25
6
9
6
21
29
29
11
2
10
11
11
15
13
11
14
4
7
12
18
8
6
10
22
14
3
3
21
12
20
32
7
12
7
2
5
4
6
5
6
7
7
7
7
8
9
33
0
7
5
18
23
14
5
9
25
7
21
1
2
6
14
8
10
8
2
21
23
9
17
12
11
14
6
10
6
19
10
16
5
23
22
26
8
8
2
7
13
5
15
9
2
20
12
2
11
10
17
10
11
3
11
7
5
6
7
21
3
14
5
7
11
10
21
5
8
19
28
10
6
8
0
11
1
1
19
4
13
15
10
7
23
3
2
1
12
7
3
1
16
30
6
5
15
10
6
9
12
26
12
14
19
15
10
15
9
25
6
16
27
6
8
8
13
11
23
15
2
6
22
9
6
10
11
1
11
19
13
4
28
12
12
40
9
11
14
2
6
17
28
5
5
12
13
6
10
17
6
6
10
5
16
20
8
3
4
4
22
9
31
8
3
26
12
7
20
6
6
5
8
6
11
20
15
5
5
4
7
19
5
7
6
5
8
10
16
10
10
6
9
15
10
12
14
10
9
3
21
16
27
13
4
10
9
13
8
8
10
8
13
6
18
9
11
23
9
6
10
14
9
3
15
11
7
12
6
16
1
8
8
5
20
10
6
19
1
1
2
5
13
3
21
10
1
19
11
5
18
23
0
5
4
16
15
16
14
0
25
0
16
13
20
21
6
14
10
4
4
6
15
3
6
4
13
11
7
8
6
4
26
2
17
4
12
13
10
17
8
17
8
3
11
13
5
17
5
10
13
9
13
8
11
9
20
12
15
12
10
15
9
0
4
8
5
13
5
6
2
18
33
5
4
11
9
2
3
21
30
17
19
8
0
19
6
17
6
19
15
17
18
10
20
27
14
5
11
2
7
22
12
11
27
8
17
9
17
15
16
5
1
6
14
18
10
16
17
14
4
10
11
14
6
4
18
11
9
5
1
12
29
6
11
4
2
9
19
13
7
4
5
24
11
7
7
11
3
7
9
8
2
8
2
18
12
3
4
2
8
32
12
6
13
24
10
8
28
16
2
12
19
14
5
13
7
17
10
7
1
6
7
10
16
3
0
27
3
8
6
14
11
6
14
4
30
4
3
7
20
4
6
4
7
4
17
14
8
25
19
30
5
14
12
18
6
4
13
12
13
6
8
8
6
12
4
16
14
2
9
17
2
7
10
23
5
9
7
15
8
6
11
6
31
6
5
7
6
18
8
1
5
14
6
12
10
20
15
14
24
9
5
5
16
16
19
4
16
13
25
19
12
5
3
4
10
32
4
7
9
13
8
15
8
9
22
1
8
4
13
7
9
18
8
5
4
4
15
7
3
12
4
4
9
6
17
2
11
11
0
7
1
19
8
8
6
26
39
20
9
32
27
30
3
18
18
9
27
31
14
19
14
21
6
19
2
14
8
3
17
4
12
4
9
15
8
18
16
20
9
28
18
3
2
13
15
15
30
12
14
13
30
15
1
3
2
6
13
4
13
8
21
7
8
11
11
7
17
16
3
24
4
8
6
4
13
19
32
7
11
9
13
5
7
4
1
2
9
5
6
20
16
0
11
3
11
20
12
5
2
2
19
3
4
4
2
2
7
21
17
15
5
9
4
6
7
15
3
7
9
15
6
7
16
4
0
13
5
5
3
11
10
10
21
23
7
4
6
14
10
6
3
6
13
8
20
1
31
14
10
10
5
2
9
8
3
2
3
8
14
6
6
3
2
5
29
7
9
8
9
19
4
11
13
9
27
12
4
13
7
0
2
5
13
17
19
22
5
6
7
11
8
13
3
3
7
5
9
4
7
6
12
9
24
24
7
18
6
3
6
13
4
2
3
7
7
7
4
14
2
6
12
21
11
10
2
4
7
11
9
17
3
3
4
32
22
19
7
6
2
12
9
11
6
9
2
2
5
4
4
3
10
1
26
2
3
9
7
10
15
4
14
13
20
3
8
2
8
18
13
8
12
2
23
17
15
18
13
10
7
3
4
11
15
25
23
11
14
2
8
6
10
2
26
5
5
6
2
16
22
15
22
12
7
14
20
14
6
15
4
10
6
11
9
13
20
5
5
5
16
8
2
4
2
5
12
10
7
19
27
18
13
9
5
3
10
5
8
4
10
6
12
4
23
14
21
14
12
17
13
14
3
1
5
8
7
6
5
9
4
10
7
6
10
7
6
7
7
17
13
13
6
3
5
3
6
2
5
9
2
10
18
2
2
8
6
9
7
1
6
4
2
2
6
4
4
12
3
4
1
5
17
7
5
14
13
12
12
20
12
10
15
1
10
17
11
8
8
4
27
25
5
8
14
5
4
12
5
5
5
6
24
8
9
7
2
2
3
8
27
6
21
15
8
24
23
11
8
16
5
6
14
4
3
3
15
6
4
8
9
1
9
1
1
12
23
7
1
5
22
13
17
17
20
1
18
26
8
17
16
4
7
13
22
0
13
13
26
10
7
12
1
11
5
4
8
13
7
2
2
13
4
12
12
14
10
3
3
11
3
0
28
3
9
18
4
1
7
5
3
28
6
13
14
14
13
8
8
9
4
6
30
23
9
12
3
2
11
19
9
5
12
6
10
6
13
10
10
2
3
2
7
19
3
26
9
8
10
22
4
10
13
17
7
8
2
3
2
6
6
11
14
3
8
23
18
16
20
2
2
17
18
10
9
13
5
10
20
4
6
13
4
2
12
8
2
6
5
3
8
17
18
17
10
10
8
15
5
7
2
14
11
9
12
12
6
13
6
31
11
33
10
7
2
11
15
3
3
11
3
1
20
7
12
5
5
7
3
3
14
3
21
8
2
3
4
4
6
13
3
8
12
4
34
6
23
6
5
6
16
18
10
9
2
12
13
12
4
2
14
20
23
6
28
21
10
4
14
11
15
11
9
0
11
7
7
6
8
8
15
7
8
2
18
18
8
9
12
5
14
7
5
11
6
6
3
9
8
16
12
13
10
8
4
1
7
2
19
26
3
19
5
6
9
2
11
5
5
3
9
2
7
9
3
12
10
4
16
4
4
5
8
18
18
16
6
10
5
2
18
26
5
5
11
25
16
6
8
8
8
25
4
7
11
7
4
14
6
10
22
16
39
24
0
5
14
1
4
17
2
12
11
13
4
8
3
15
5
14
9
21
3
5
5
7
5
11
3
4
12
15
11
12
0
18
6
6
22
1
10
7
18
5
7
13
3
14
4
5
24
10
5
29
13
8
11
5
4
4
10
10
9
5
4
18
6
7
15
13
2
2
7
23
17
8
14
5
7
14
19
8
3
2
1
22
8
13
7
14
3
5
12
2
3
13
17
5
2
7
2
7
3
3
1
10
7
5
7
15
21
4
8
17
1
7
14
11
19
7
22
16
6
3
8
2
17
34
23
2
2
3
2
8
10
2
3
3
15
10
19
24
25
3
9
4
4
9
9
17
2
8
15
8
2
6
8
6
10
18
17
9
11
2
1
9
4
2
14
18
4
12
9
5
3
11
2
15
6
6
8
1
8
9
4
7
3
11
9
5
8
1
10
9
7
19
6
5
21
8
16
3
13
1
15
4
7
12
13
4
5
13
10
16
7
14
2
10
31
14
8
17
16
8
10
9
14
4
4
5
4
24
9
5
3
5
11
18
4
2
2
5
0
30
9
0
3
17
7
12
9
12
4
1
5
4
7
12
15
6
2
8
18
21
1
9
8
13
13
8
6
16
17
4
6
7
13
8
8
6
7
28
12
12
6
25
7
12
7
12
7
3
14
7
17
15
9
4
3
11
6
1
10
6
3
29
13
7
11
8
5
11
3
1
13
10
6
7
7
6
11
5
6
2
2
22
16
5
5
2
19
13
22
10
5
5
7
1
0
19
14
12
28
11
12
3
10
2
4
9
14
3
13
0
18
11
9
10
16
9
15
6
7
18
16
15
8
19
14
15
4
8
7
7
8
0
6
4
5
7
7
12
3
2
7
1
12
11
7
7
14
11
19
8
3
3
5
6
4
3
10
0
11
7
1
5
12
4
12
9
4
12
26
10
8
3
2
4
8
21
3
6
11
18
8
11
6
14
26
1
1
3
4
5
6
4
7
10
4
0
2
9
3
2
2
8
16
4
5
2
15
10
14
4
1
16
5
8
8
7
10
22
16
14
15
7
4
4
2
17
6
3
5
4
10
17
8
8
2
8
8
8
4
9
15
3
22
9
10
24
8
5
15
10
1
7
8
15
15
22
7
21
17
13
16
8
4
2
0
17
2
4
13
4
7
9
2
6
17
6
3
7
1
13
10
15
2
3
3
11
2
4
3
3
10
6
2
15
3
12
10
3
10
2
6
8
16
4
4
2
6
12
13
0
13
16
7
4
12
13
13
10
15
17
8
4
7
23
4
7
24
15
15
0
14
9
14
8
1
3
2
5
0
4
8
23
25
3
18
30
8
22
3
23
7
4
7
4
11
9
1
6
10
9
5
14
3
17
1
5
6
3
5
7
5
4
7
4
19
10
23
3
8
21
2
2
10
20
5
5
17
9
3
3
7
5
12
10
8
7
4
13
7
0
17
12
11
4
21
12
5
10
6
8
6
6
7
12
11
7
14
12
7
4
16
12
9
18
0
5
0
19
32
8
3
2
14
24
23
3
4
13
10
7
4
2
4
11
6
5
7
3
5
8
11
5
5
16
2
9
3
10
10
4
22
1
2
10
10
13
4
5
0
1
4
11
8
15
2
5
4
23
22
9
3
10
11
15
14
13
13
14
24
11
5
4
9
0
10
0
7
10
5
2
5
0
13
10
11
13
3
4
6
4
15
10
15
16
7
9
3
9
5
8
3
15
6
10
10
6
1
1
17
11
6
13
7
15
3
4
8
26
12
6
4
8
4
4
5
1
10
5
4
15
2
12
9
8
12
15
6
6
3
20
19
7
4
1
7
6
9
8
10
13
10
5
1
17
18
24
9
6
16
8
4
2
5
4
1
6
2
4
13
3
21
9
4
17
15
4
8
9
5
5
5
6
5
2
20
11
18
5
2
3
23
13
0
12
4
3
4
12
0
9
4
8
21
9
6
11
29
9
2
8
7
13
8
5
12
20
11
8
5
2
21
8
7
9
8
12
0
7
7
16
2
2
11
23
9
15
7
13
9
1
5
1
10
6
7
7
8
4
16
3
2
9
6
10
9
31
25
13
35
2
1
2
4
3
6
16
19
21
21
6
6
7
12
10
2
0
5
4
17
8
11
5
9
10
13
3
3
4
4
3
8
8
7
0
11
3
4
6
5
4
8
20
14
1
24
2
22
10
5
1
8
19
13
7
3
10
7
32
6
20
17
14
7
22
4
7
10
7
4
6
3
1
10
6
13
5
6
10
18
20
12
13
15
4
2
15
7
3
6
12
3
4
5
17
2
7
3
1
5
10
11
5
3
6
11
3
7
3
12
4
6
3
5
10
4
4
16
4
2
17
10
1
5
7
8
8
10
2
11
9
7
3
7
4
6
10
8
5
5
6
18
2
4
0
5
4
3
17
1
1
10
3
17
11
3
6
7
5
7
21
7
2
4
11
5
13
3
3
16
17
2
0
12
15
4
13
2
6
7
2
21
6
12
9
10
2
4
3
8
1
8
10
10
1
2
6
6
7
5
9
11
7
10
10
22
8
11
4
12
3
5
4
6
7
19
2
4
5
14
2
6
5
12
25
38
18
11
2
5
22
6
18
3
8
5
8
2
7
13
5
3
18
12
7
6
4
17
11
15
21
9
2
4
15
14
6
18
11
2
8
19
1
11
16
7
2
15
12
14
18
5
15
1
2
3
9
6
8
4
5
2
3
3
33
3
3
11
2
2
3
8
3
2
7
12
25
4
3
6
2
3
5
6
18
7
10
10
19
7
8
1
5
8
13
5
18
2
3
16
8
15
16
8
2
2
10
5
8
11
3
5
14
9
15
6
9
9
9
2
14
7
7
9
12
6
20
23
14
0
3
0
3
7
4
10
5
3
21
10
6
4
7
22
3
5
5
6
19
10
20
4
8
0
21
14
4
6
3
6
14
2
1
12
18
10
7
7
20
6
2
5
26
5
5
4
8
20
10
8
4
28
11
7
7
9
17
7
4
7
9
7
1
7
5
10
4
3
2
13
7
3
19
1
33
9
3
4
22
1
15
1
11
1
5
7
17
20
21
2
28
9
5
11
5
10
7
1
6
13
6
7
6
11
2
1
3
13
7
5
10
3
4
10
19
9
7
11
7
7
0
5
7
4
8
3
7
9
2
13
7
10
19
3
9
22
7
10
5
4
0
5
20
3
13
5
3
10
3
9
5
17
1
8
14
14
10
7
14
8
8
8
1
5
6
10
2
2
9
7
14
10
6
6
6
4
8
8
22
9
0
17
10
7
5
12
13
13
5
3
7
7
7
1
12
1
3
6
2
1
11
1
11
14
5
12
11
4
5
17
8
7
2
19
1
3
4
1
1
13
13
13
6
3
2
14
8
17
5
2
19
4
2
14
20
6
3
17
2
7
4
10
14
2
6
8
14
8
6
3
5
21
5
0
10
2
14
10
4
2
4
3
6
4
1
4
17
9
5
9
12
4
12
11
5
6
6
3
3
4
5
3
3
12
11
10
15
2
15
13
19
3
1
12
3
2
1
16
8
11
0
18
8
11
10
2
27
11
10
7
17
14
13
11
16
21
7
3
10
8
13
17
7
6
7
11
3
11
9
12
12
1
8
8
14
6
9
4
10
6
12
4
1
10
2
18
2
5
6
2
7
13
20
8
8
6
6
16
22
5
6
15
15
16
14
2
6
0
10
11
6
10
17
16
4
8
9
5
4
2
2
2
13
3
13
9
9
12
0
1
6
6
3
1
3
11
12
3
6
2
4
6
10
15
24
8
6
6
2
19
5
8
9
15
4
18
1
11
4
0
2
8
8
6
7
3
1
5
3
8
2
6
6
15
4
13
9
4
13
9
1
4
6
1
5
5
5
3
8
12
5
4
4
15
14
6
12
17
9
14
7
27
13
3
2
13
8
9
6
3
3
2
2
1
21
3
4
6
14
8
7
15
16
4
4
3
2
8
14
0
28
7
14
4
2
11
4
12
6
7
9
13
1
8
11
0
0
12
0
10
25
9
6
13
9
3
3
18
6
15
1
7
12
17
5
15
3
8
8
8
11
1
12
7
1
8
21
4
16
7
8
21
21
4
8
4
13
12
6
12
4
1
9
16
12
1
14
23
3
1
6
8
4
8
2
2
9
5
4
2
7
2
4
5
19
5
4
3
8
9
11
10
7
4
1
6
5
4
4
3
14
0
1
3
12
22
10
20
25
21
2
5
3
6
2
11
7
4
14
9
5
6
9
2
9
2
9
4
7
2
8
13
11
12
9
2
13
12
2
8
8
3
16
5
2
26
3
11
6
2
7
7
4
13
9
5
1
9
5
1
19
15
3
12
5
13
6
8
10
6
10
13
10
9
1
1
1
0
1
5
17
2
7
8
5
9
8
4
6
7
7
8
5
9
5
6
5
7
12
16
18
3
4
2
3
2
14
21
3
9
10
13
12
8
4
7
7
3
3
19
9
3
11
8
5
5
9
0
2
3
14
17
20
6
10
1
12
17
3
3
7
8
8
17
5
4
3
24
23
12
15
5
20
11
5
1
11
1
4
4
12
7
3
1
1
1
3
2
10
6
10
7
11
10
4
16
6
11
5
6
2
14
5
7
2
7
1
17
7
11
11
3
14
3
3
2
5
3
2
11
6
2
4
3
3
4
1
12
14
6
1
6
2
4
4
1
4
11
13
9
13
7
11
3
5
8
15
13
1
1
3
7
4
20
1
18
3
11
12
9
2
6
13
15
8
1
3
8
6
5
16
8
12
1
8
1
24
3
6
12
3
2
2
3
5
11
9
4
8
10
2
9
10
6
11
13
9
9
7
8
2
11
9
1
1
4
2
4
6
15
8
2
3
5
4
2
2
1
1
1
8
1
19
2
20
13
2
7
11
2
12
6
4
2
12
1
5
5
5
3
12
2
16
9
2
7
2
5
10
6
1
3
5
8
3
15
3
2
2
11
5
22
2
16
11
12
15
1
11
2
3
7
12
10
18
18
13
13
2
4
0
0
14
9
2
1
12
15
3
19
5
5
6
15
6
0
0
14
20
1
18
6
8
12
2
6
1
14
2
1
4
21
13
10
10
9
11
10
6
5
8
6
4
5
13
19
2
2
6
2
3
25
13
6
11
9
0
21
1
17
2
12
10
4
5
1
1
1
7
5
1
11
3
11
19
8
5
12
7
4
6
3
6
6
6
5
8
4
4
8
16
24
12
2
4
3
8
7
2
10
10
3
7
10
12
6
9
6
14
3
4
4
15
5
9
10
2
3
3
6
5
10
4
1
5
5
1
4
4
9
18
5
1
1
11
4
10
1
11
4
4
3
10
1
3
2
7
0
10
9
1
0
4
1
1
8
28
2
4
4
10
4
8
2
10
25
3
2
2
14
3
3
7
9
8
9
2
3
5
7
9
15
2
12
5
1
3
13
15
2
2
13
15
40
0
8
10
25
19
22
5
18
5
5
1
4
3
13
3
2
5
16
4
7
5
11
3
10
8
7
3
10
8
1
7
8
1
7
2
14
25
4
8
28
4
8
4
1
10
11
11
6
2
14
2
3
11
18
12
16
12
12
3
1
15
18
8
10
2
14
14
20
18
9
12
4
9
2
6
18
13
7
4
3
11
9
1
4
11
12
1
2
9
5
22
15
3
3
9
4
3
14
3
4
2
0
4
13
6
21
3
2
4
3
1
6
5
21
4
4
9
11
6
14
12
6
1
1
1
2
3
9
2
12
6
3
1
7
6
11
6
2
14
1
4
3
11
7
6
7
2
5
2
9
5
15
10
4
3
1
5
10
3
13
3
14
4
6
7
20
14
8
1
3
10
7
17
10
10
3
3
2
2
8
4
2
3
12
3
4
6
6
4
5
4
2
2
16
1
8
6
19
16
3
0
24
5
5
9
4
1
9
0
1
8
8
6
5
8
9
4
8
6
1
12
10
10
18
4
6
15
5
5
5
5
7
6
28
2
8
33
7
4
3
5
2
7
10
7
4
2
4
5
9
10
4
16
7
4
12
5
18
11
3
1
3
2
7
11
4
4
6
16
12
3
6
9
2
13
13
3
11
0
5
2
3
2
10
2
7
7
1
12
12
4
13
5
2
1
0
7
8
9
6
0
6
6
12
10
0
3
5
16
3
6
4
24
1
9
18
5
12
16
7
6
3
18
7
2
3
7
7
1
5
5
5
15
8
7
9
2
7
7
4
6
3
2
5
7
5
7
0
15
0
1
10
23
5
14
8
12
1
7
7
3
3
9
11
8
8
9
10
8
6
11
2
10
4
5
6
3
8
8
12
8
12
7
5
0
6
18
8
2
1
1
4
1
3
7
3
9
10
3
2
11
10
2
9
7
0
2
15
3
9
9
11
6
19
9
5
5
5
6
5
2
1
23
25
4
8
15
6
8
3
5
2
7
14
1
6
8
8
5
11
6
12
12
6
17
8
2
5
7
1
5
12
1
6
14
1
6
7
11
7
5
5
6
5
10
5
1
3
11
7
8
7
2
23
8
2
7
13
3
7
11
10
15
9
3
4
9
15
1
1
13
5
10
12
4
0
12
9
4
5
9
2
1
1
6
5
7
4
10
2
8
4
9
11
1
3
2
0
4
9
3
3
7
8
5
2
11
7
13
10
7
11
3
7
15
10
5
0
21
16
4
2
5
3
1
0
4
13
12
7
5
3
6
3
5
20
0
11
0
7
4
2
1
2
4
4
1
4
2
1
5
6
8
20
7
4
4
10
4
4
4
2
4
4
8
15
2
9
6
6
0
4
1
5
4
5
4
4
7
4
1
4
3
9
6
2
4
0
8
20
9
16
10
3
3
15
8
14
7
5
11
12
9
6
10
3
15
4
13
4
17
1
22
14
7
6
4
0
2
2
9
10
1
12
11
4
8
7
0
3
19
0
12
14
1
11
15
8
6
2
12
4
11
6
5
10
7
6
5
0
3
6
2
15
8
2
8
5
7
1
6
2
15
10
2
13
4
3
9
9
3
18
2
5
3
2
2
13
7
6
4
4
0
1
2
12
6
8
4
8
1
4
22
16
4
18
8
8
4
3
4
7
1
6
12
5
5
8
4
4
18
2
2
9
11
10
16
15
7
11
7
4
8
6
1
6
12
12
10
5
6
13
4
5
14
7
17
4
1
1
5
15
12
0
15
12
2
13
8
14
3
8
19
12
9
2
3
8
11
16
3
9
16
2
8
1
12
6
5
10
4
6
2
1
8
11
0
13
5
3
0
7
5
1
9
5
3
15
14
1
4
4
5
3
10
1
3
5
2
16
9
9
8
2
0
2
4
3
8
4
7
18
1
3
4
6
7
4
8
4
5
9
1
1
3
2
2
2
0
7
1
0
2
7
4
1
14
8
1
2
4
16
3
11
8
10
7
4
8
2
19
13
11
8
7
8
4
6
6
9
0
2
2
1
3
18
6
0
7
4
4
1
0
15
8
5
14
4
10
11
4
8
4
6
3
8
3
3
5
4
16
5
2
8
1
3
1
11
25
21
5
8
4
27
5
6
1
10
10
22
12
4
9
7
1
5
22
23
5
16
13
18
2
3
1
1
3
9
3
19
9
3
2
6
6
6
11
3
6
23
4
4
1
13
20
0
1
8
14
12
9
6
5
3
2
2
2
2
6
6
3
1
3
4
5
0
0
2
1
1
13
4
3
2
17
5
7
2
12
22
10
2
1
20
18
6
8
4
3
1
6
7
13
7
3
3
0
1
5
8
5
8
1
9
3
5
6
5
4
9
6
13
6
8
11
7
1
12
12
6
5
22
17
10
4
10
3
6
5
2
0
7
4
4
5
5
1
3
1
6
5
21
13
4
9
4
7
8
23
9
5
8
7
3
3
0
3
5
12
12
4
12
12
4
7
11
4
2
22
9
0
4
9
5
4
1
2
1
15
6
15
7
5
5
5
5
4
3
2
3
13
5
20
5
4
0
13
12
15
0
4
6
2
1
4
19
19
21
10
3
2
11
4
4
1
0
5
20
8
12
1
8
17
4
0
13
1
11
9
11
13
3
14
6
13
16
2
1
8
8
0
2
2
1
7
0
0
2
0
17
19
10
16
8
7
8
11
14
16
8
4
0
4
16
4
8
5
4
15
11
12
8
3
3
3
2
5
18
3
2
1
0
2
6
1
15
6
3
4
5
1
7
2
2
2
13
3
4
13
6
13
4
6
5
3
1
4
5
5
11
11
0
23
13
17
8
5
3
1
2
5
3
7
4
7
6
26
1
22
2
6
9
9
9
11
7
8
6
4
3
5
9
9
4
2
4
7
3
4
0
9
8
3
19
28
24
12
3
0
1
3
0
5
1
2
1
0
10
2
11
6
2
1
8
1
6
17
6
6
1
6
5
7
5
16
2
0
12
6
4
5
1
13
1
3
12
0
9
6
3
1
0
5
3
3
3
2
0
10
13
5
10
7
15
1
0
6
11
2
18
11
28
16
20
4
7
22
1
6
5
3
4
3
10
6
5
6
7
9
3
1
23
3
3
10
8
3
0
6
7
12
9
1
1
6
7
16
0
5
11
3
11
1
4
12
1
8
3
18
5
1
1
2
3
5
1
10
3
4
6
1
6
4
0
8
16
8
8
17
3
8
6
3
3
1
8
3
14
11
1
6
11
7
17
6
5
1
9
13
7
14
8
0
1
5
2
3
4
7
2
3
5
13
22
3
7
6
5
7
7
3
3
0
7
9
2
6
8
8
8
2
0
2
0
10
8
3
3
2
4
3
3
11
9
2
5
2
8
7
5
4
6
0
0
3
6
6
8
3
8
2
11
8
1
7
4
3
21
6
9
3
9
5
0
1
13
5
6
15
10
9
4
12
0
12
2
0
6
14
14
5
1
5
5
5
4
12
11
16
0
4
0
5
3
4
1
3
4
1
2
1
14
14
3
3
3
11
2
4
2
9
9
5
4
2
8
3
3
17
14
2
3
10
3
5
0
7
23
4
4
7
0
8
9
4
5
5
6
3
2
3
15
2
2
3
6
3
6
5
16
8
5
10
2
11
7
4
9
6
6
6
3
5
3
11
6
4
2
2
6
8
13
9
4
2
1
1
1
16
12
9
3
5
2
4
3
2
7
6
9
18
1
9
3
11
17
1
2
12
9
4
4
9
11
3
2
1
8
9
1
11
2
9
1
4
9
16
13
3
1
7
6
4
14
7
1
2
4
0
1
2
0
8
3
10
2
6
3
4
3
2
3
10
14
6
1
2
1
0
0
0
14
4
9
2
12
8
2
3
6
11
1
6
4
2
9
4
3
1
2
3
17
8
5
14
7
2
5
10
0
3
7
4
1
5
10
9
8
0
0
1
15
8
2
6
5
4
4
4
1
5
14
6
4
2
5
0
18
2
10
7
13
15
6
8
16
3
8
10
5
3
3
8
2
11
6
14
9
10
11
10
4
4
6
14
6
5
5
8
4
8
9
5
5
6
4
2
7
3
5
1
1
2
5
8
1
3
6
3
0
3
2
4
2
7
8
2
10
8
1
4
3
4
2
6
6
4
2
6
1
8
6
4
0
5
12
4
17
2
1
7
1
2
4
2
5
15
2
8
4
1
1
1
8
1
12
11
4
5
5
4
2
4
2
18
4
2
1
2
0
1
3
4
9
8
8
5
5
4
4
9
7
1
5
2
4
13
11
4
6
4
5
4
10
11
8
9
2
14
16
12
1
18
16
16
19
17
5
5
1
5
2
8
4
13
1
3
12
0
1
2
3
4
5
3
5
4
2
8
3
7
2
17
7
15
3
6
9
15
3
3
2
14
3
2
1
12
9
12
1
6
0
2
5
8
10
12
4
6
2
5
9
5
2
0
1
2
9
8
6
12
1
2
0
11
6
3
11
11
11
6
4
0
8
5
5
1
13
12
2
20
4
5
5
6
8
5
5
2
7
15
7
3
0
8
11
13
8
13
8
6
1
5
6
4
1
0
8
3
13
2
1
6
8
5
4
0
1
6
2
14
8
3
4
3
10
1
7
4
0
8
3
4
3
0
1
2
14
5
9
2
1
7
9
12
12
4
9
0
8
16
2
3
0
8
8
3
12
13
19
3
1
4
14
13
12
2
6
3
6
0
20
4
15
11
4
1
9
8
11
3
3
8
5
7
7
4
5
6
10
13
10
2
12
4
5
7
5
6
10
16
24
4
3
12
7
8
18
6
8
7
15
5
7
5
12
22
3
6
3
18
19
0
0
1
11
0
6
11
4
8
3
8
4
7
5
7
3
3
3
1
3
1
6
5
15
1
1
7
3
1
7
6
5
13
2
9
4
6
5
5
7
2
0
4
1
9
9
1
4
11
3
3
1
5
3
14
7
4
6
13
3
2
18
6
3
3
0
6
5
12
2
3
4
9
3
4
4
4
1
3
4
4
3
1
7
1
12
3
4
3
6
3
0
5
10
3
2
9
5
14
8
3
6
15
2
0
8
0
2
8
7
1
5
1
7
8
11
3
3
6
7
1
7
1
0
13
4
8
1
3
1
2
2
2
8
7
9
3
7
2
4
10
2
3
4
7
1
6
16
3
6
3
7
5
15
4
4
5
3
4
13
9
1
5
9
1
4
6
2
0
6
3
1
4
0
3
1
5
0
3
2
8
8
0
9
12
4
4
14
5
15
7
3
0
4
2
6
16
5
8
3
2
7
2
16
11
12
14
6
4
5
8
5
0
1
8
8
8
8
16
1
2
1
7
2
0
2
22
5
2
2
2
10
2
11
11
10
11
8
12
2
9
2
5
2
5
6
10
4
4
1
8
2
13
1
4
10
4
4
7
3
2
1
2
12
1
2
7
1
6
8
0
8
1
1
1
11
19
7
3
4
0
4
0
9
9
12
5
1
2
4
32
12
2
19
7
0
2
3
6
8
2
4
8
2
0
19
1
11
2
2
2
8
1
1
7
1
11
0
5
5
1
0
7
1
10
4
4
5
1
1
2
5
16
8
5
8
7
15
1
4
0
6
2
6
16
7
0
1
4
7
3
9
1
10
6
5
7
5
1
8
5
4
18
15
5
1
3
5
7
9
7
6
3
3
4
7
5
6
2
8
2
3
0
5
1
3
4
2
5
7
5
18
2
1
7
16
3
5
13
2
7
2
4
6
2
8
2
0
11
11
7
12
14
1
1
6
3
1
2
7
10
7
0
0
8
10
3
11
1
2
4
4
2
8
5
3
6
0
3
4
3
3
3
6
4
6
16
9
6
2
4
1
5
8
2
8
5
4
4
5
4
3
3
13
1
0
12
6
2
7
2
8
2
4
13
2
3
0
0
8
2
5
9
9
3
6
1
3
10
14
1
2
13
10
11
2
13
6
3
19
3
2
1
8
3
1
6
4
4
1
3
3
14
6
2
4
2
18
0
16
1
3
2
3
6
4
2
12
14
6
6
7
1
1
4
3
16
1
2
5
4
1
10
4
4
2
14
4
5
16
4
1
10
1
6
5
6
6
5
3
5
3
2
7
7
2
4
6
2
16
0
2
3
4
5
3
1
3
7
2
5
7
1
6
8
1
6
2
3
2
14
17
4
10
5
0
8
3
2
4
1
5
1
1
5
5
1
6
4
2
1
9
4
3
11
10
4
4
10
3
6
11
0
2
2
5
10
2
6
1
6
5
3
1
9
11
12
4
11
4
3
3
3
3
4
3
7
22
7
4
4
15
4
2
8
12
1
1
4
5
4
5
7
9
10
7
6
4
10
14
4
3
3
1
5
21
4
2
7
10
8
5
9
7
1
0
3
2
3
4
6
5
10
3
3
2
1
8
2
13
6
0
4
0
0
3
13
18
16
2
3
4
0
6
4
0
14
5
8
11
13
1
18
1
12
1
7
10
6
12
2
0
10
8
3
2
5
3
8
9
2
8
0
3
2
1
0
3
6
1
1
8
3
7
3
7
14
0
3
2
0
7
1
2
0
18
2
0
6
3
9
15
1
1
2
7
5
2
3
1
10
16
1
0
10
2
3
4
0
1
7
9
2
5
6
0
4
10
5
17
11
10
6
0
4
6
8
1
8
3
5
4
7
12
4
2
3
9
5
2
6
6
9
6
13
6
2
8
1
0
0
3
5
7
8
9
0
4
10
2
2
2
2
4
6
10
8
12
8
7
6
9
9
2
2
2
14
4
12
6
5
7
1
3
6
8
8
10
4
6
13
1
5
11
7
3
2
5
1
0
18
4
0
0
1
1
1
10
9
3
8
3
13
10
14
1
5
12
1
4
1
2
1
2
0
3
7
5
4
4
0
1
7
4
3
4
9
7
10
4
0
2
5
5
11
1
6
2
3
1
7
2
10
9
6
11
11
12
3
3
2
4
5
4
8
10
0
2
3
6
8
3
21
5
7
10
5
14
9
8
1
8
9
7
2
5
4
5
6
11
11
3
7
11
5
10
2
16
0
0
2
3
3
2
2
1
7
1
8
7
1
6
4
4
3
5
6
6
3
1
2
4
7
0
26
0
2
10
2
19
17
5
12
3
2
4
9
8
10
4
12
1
10
6
5
2
1
11
2
5
4
8
12
7
5
2
0
0
2
4
12
1
2
3
2
5
7
12
12
7
5
5
5
7
0
11
6
4
4
6
9
21
3
0
4
0
1
3
5
7
2
8
4
7
6
1
2
5
4
3
3
0
0
3
4
7
1
1
11
1
8
0
3
4
14
22
8
4
3
0
0
4
3
8
9
1
4
1
1
4
4
13
0
5
2
5
8
5
2
12
10
1
6
3
1
16
5
2
12
1
4
9
3
2
4
9
2
20
4
10
8
2
1
0
5
2
2
5
3
7
1
8
10
8
13
3
5
5
1
2
12
1
3
2
5
10
2
2
4
13
19
10
4
6
6
8
9
3
5
7
2
5
3
2
4
1
3
3
2
10
4
8
3
3
10
2
5
7
4
4
6
6
1
3
2
9
15
3
14
3
11
1
4
9
5
3
2
4
0
11
9
2
4
2
6
3
22
11
13
14
2
4
3
8
6
14
4
11
5
5
3
6
8
5
3
2
0
1
10
0
6
12
1
3
4
6
7
5
1
0
3
6
5
1
0
15
2
1
2
2
14
4
3
16
2
5
12
1
5
2
9
7
5
9
6
9
8
2
1
1
2
6
17
5
12
1
4
6
4
5
1
1
4
5
2
2
2
4
2
0
1
0
1
2
4
1
3
17
4
1
14
5
0
0
0
9
4
7
7
4
7
8
4
12
11
10
2
5
6
9
4
1
6
12
12
2
8
4
2
4
8
3
5
7
2
5
9
4
4
6
10
3
4
1
0
3
14
4
6
1
0
7
3
1
6
14
6
4
11
12
10
14
3
8
2
10
9
4
6
2
1
6
5
6
6
1
1
1
4
5
14
3
6
5
12
7
1
5
2
6
14
3
5
2
2
3
2
4
1
1
7
5
6
9
9
3
8
2
4
2
1
4
2
9
1
8
8
5
4
6
10
2
3
3
1
4
10
4
7
10
11
7
13
9
3
1
8
6
9
3
3
13
2
11
12
8
7
1
8
2
1
5
6
2
5
6
10
15
12
8
3
5
7
3
4
5
2
4
2
5
1
5
1
5
1
12
24
6
0
0
5
4
7
3
10
5
6
10
3
1
1
5
3
4
9
9
12
0
4
5
1
6
5
3
2
1
5
4
6
0
11
0
1
1
3
4
1
0
5
11
8
9
10
7
7
2
0
13
10
12
8
1
8
0
1
11
5
2
12
7
6
4
14
5
7
6
4
7
7
3
0
8
9
0
6
4
10
2
0
3
2
1
4
7
8
1
2
0
1
0
4
1
0
2
9
3
0
1
10
0
0
3
2
2
4
12
1
4
9
4
2
10
2
10
9
6
2
1
8
8
4
4
6
8
6
6
3
2
12
20
1
3
2
3
2
2
3
2
2
4
5
6
7
2
3
2
1
9
6
8
4
1
6
9
4
12
8
4
12
11
7
11
0
8
6
5
4
9
4
4
2
3
3
6
8
3
7
9
14
0
3
5
5
3
2
3
1
3
0
1
2
7
3
9
2
10
9
0
0
2
8
2
11
4
11
0
9
2
5
5
3
5
1
2
6
5
9
3
9
2
5
1
13
4
5
3
10
10
11
2
3
12
9
3
8
2
6
5
1
7
1
7
7
14
0
0
5
3
5
2
8
0
2
9
7
14
4
1
7
2
2
5
1
3
11
3
10
7
3
0
4
1
2
4
1
2
12
3
6
4
2
1
11
6
4
2
0
6
0
9
0
1
10
9
1
1
7
5
2
1
5
7
8
6
2
1
9
1
2
2
3
0
6
2
2
2
2
12
1
8
1
5
1
20
2
7
2
9
0
1
0
14
5
5
10
2
3
2
2
5
2
4
2
4
4
2
19
0
1
4
2
2
3
2
5
1
2
0
6
3
1
10
3
0
3
8
6
20
1
12
5
4
3
4
6
0
13
12
13
1
4
0
4
1
7
2
5
1
2
4
3
1
1
11
5
3
0
6
8
4
1
8
6
1
14
0
1
3
1
1
12
10
6
9
4
0
5
1
0
1
0
1
4
2
3
4
6
3
7
4
4
2
1
3
2
8
3
5
4
9
4
8
12
4
2
0
3
4
3
7
10
9
13
6
9
12
2
9
8
6
12
5
13
2
5
7
9
5
3
1
1
13
6
0
1
4
3
5
0
0
3
8
2
5
4
10
13
7
0
2
6
1
1
0
8
3
3
2
6
6
8
2
1
2
0
5
3
7
3
5
2
0
0
6
2
6
3
11
14
6
6
5
6
12
9
3
5
3
1
10
4
7
9
7
2
9
9
16
0
0
5
0
1
0
5
11
6
7
18
10
2
9
2
2
3
4
4
15
1
10
1
5
6
7
1
12
2
5
8
5
1
0
3
13
20
9
3
14
4
2
4
0
4
0
1
0
1
1
3
2
3
4
2
4
8
6
3
8
2
8
3
3
3
4
5
3
0
9
1
6
0
3
8
15
6
8
0
0
6
3
1
2
8
3
5
5
0
6
2
5
8
0
6
3
18
7
6
9
5
2
4
2
3
3
3
4
2
5
2
1
2
5
6
1
5
6
13
2
2
10
7
8
4
7
5
4
4
3
2
15
1
3
4
2
3
1
16
3
8
3
5
3
4
5
1
3
6
4
4
3
1
1
3
10
6
11
6
3
3
10
5
0
6
5
8
4
2
2
5
1
3
10
5
3
2
19
8
6
6
1
1
3
2
2
4
5
0
2
4
0
1
8
11
1
1
0
2
3
5
10
15
6
3
11
11
6
7
4
3
0
2
5
1
2
1
7
3
14
7
4
7
5
6
6
3
3
5
3
7
10
3
4
5
6
8
4
2
4
9
8
6
6
14
1
18
8
1
9
0
11
1
1
1
10
6
6
6
16
3
3
2
4
3
3
1
4
11
14
0
0
3
6
18
3
3
9
0
2
0
1
5
11
8
1
0
0
6
1
4
4
1
8
6
5
3
1
10
2
1
9
2
5
4
13
2
6
2
4
8
2
2
1
0
5
11
3
2
4
2
6
6
1
5
4
6
9
5
2
12
3
3
2
11
6
9
3
5
5
7
2
12
9
12
2
6
0
1
3
2
4
2
11
2
2
3
7
3
6
0
5
2
3
8
11
2
0
3
9
2
2
4
1
2
2
2
7
3
0
0
2
3
10
2
2
0
2
2
15
4
13
3
4
6
3
10
1
4
1
2
6
11
0
4
4
0
4
7
7
2
7
4
5
0
2
3
12
6
7
7
6
0
12
6
7
8
1
1
0
2
3
1
3
12
2
2
8
5
0
6
8
2
4
7
4
5
15
0
0
3
4
0
12
4
0
3
3
2
4
1
12
14
5
0
9
0
2
4
11
1
18
8
4
7
6
18
11
10
3
2
1
1
7
1
1
0
3
7
1
2
3
5
3
3
5
2
5
1
3
7
3
2
2
3
8
4
4
6
4
2
6
4
1
1
3
14
1
4
9
1
2
4
2
5
3
1
7
0
3
9
8
2
7
4
4
2
4
6
6
5
3
1
8
7
2
2
2
4
4
2
11
1
15
13
6
1
0
9
9
1
4
1
4
3
6
5
7
6
7
2
3
7
1
1
0
2
10
3
6
6
7
6
3
15
7
5
3
3
1
0
6
0
3
2
0
9
8
8
8
12
4
0
8
0
3
3
1
3
7
0
1
10
9
10
5
12
1
1
1
11
4
0
4
2
10
8
14
5
12
6
2
6
3
9
8
2
16
10
10
1
2
2
1
2
0
5
4
1
4
3
15
7
8
24
0
6
17
6
0
1
0
5
6
3
7
17
11
3
6
1
11
2
6
2
0
2
8
0
6
4
7
4
2
0
1
3
5
2
11
14
6
1
3
8
5
2
3
2
1
4
4
2
0
1
1
6
5
12
2
5
4
10
1
4
10
6
9
1
9
0
4
4
4
1
3
3
5
3
5
6
2
7
4
2
5
0
4
0
15
12
4
3
7
3
3
7
2
1
3
4
1
1
3
9
2
1
1
2
7
5
7
6
5
12
7
4
4
1
1
3
4
1
1
8
0
2
4
7
6
4
1
2
5
9
2
16
1
6
8
0
3
4
7
5
10
5
6
4
1
4
8
4
6
3
5
1
6
0
5
5
8
7
6
5
2
6
3
8
3
1
1
9
5
8
5
8
5
3
0
2
5
5
1
1
8
4
4
9
8
12
5
4
3
5
3
5
3
6
1
0
0
1
3
6
3
2
7
18
2
1
7
0
2
9
2
8
4
2
6
6
6
2
3
3
6
16
1
4
6
5
5
1
3
1
1
3
8
3
5
3
3
1
3
3
0
2
8
5
2
11
0
9
1
10
3
3
0
3
6
7
5
4
1
4
1
4
9
10
4
1
3
0
4
4
4
7
0
1
9
6
1
1
0
2
3
0
0
5
3
1
4
6
5
3
0
2
1
4
0
2
0
8
9
10
3
0
4
0
1
0
0
3
5
6
1
3
2
1
0
1
0
10
12
12
13
3
5
1
6
6
6
2
4
1
1
2
1
6
3
1
15
9
2
6
6
12
1
5
10
6
7
0
2
4
6
2
7
8
2
3
9
11
0
4
0
4
4
4
7
5
2
6
11
9
5
3
1
7
6
1
7
2
4
4
1
5
5
1
3
2
5
5
3
11
2
3
0
2
1
2
6
1
8
1
9
6
3
2
1
3
1
8
6
9
3
0
0
8
7
0
9
1
0
8
4
1
6
4
0
4
0
6
2
5
2
3
4
5
5
3
1
3
2
5
5
8
2
3
1
0
1
4
10
2
1
1
0
1
16
4
4
10
5
14
8
4
7
0
1
3
0
0
1
1
1
6
4
2
3
2
4
1
6
0
4
2
5
16
6
6
3
2
4
2
2
13
2
0
5
2
4
1
2
1
6
5
5
1
8
6
4
1
1
3
2
1
5
0
2
1
3
0
3
2
5
3
4
5
5
3
6
7
6
3
9
1
4
2
14
8
1
7
2
3
2
6
7
4
8
17
10
5
4
1
2
8
1
1
2
13
1
2
0
0
2
1
7
0
8
5
7
6
1
1
3
2
7
16
4
4
2
10
11
2
2
1
0
5
5
5
10
5
3
2
3
3
1
1
0
6
4
7
9
2
0
1
3
5
2
2
1
2
0
1
4
0
0
7
0
9
5
1
14
14
3
3
2
2
2
2
4
2
2
1
3
2
2
0
1
3
5
1
9
3
4
2
1
16
1
5
0
0
17
1
2
4
6
0
0
2
1
11
0
0
2
5
2
0
2
0
5
1
4
4
2
0
12
3
7
3
18
4
7
0
2
1
2
1
1
2
7
0
11
1
4
9
0
4
8
5
5
0
0
0
8
1
6
4
8
5
5
3
1
6
5
12
3
9
1
9
2
3
5
1
0
14
3
1
4
5
0
8
5
3
9
2
1
0
1
0
2
8
13
3
1
4
9
8
6
3
0
3
5
6
3
1
0
6
1
5
6
7
5
2
3
15
1
0
0
7
1
1
6
1
4
1
3
10
2
9
2
9
3
8
7
6
3
4
7
12
4
1
7
1
2
3
10
0
4
4
0
8
1
3
0
2
2
1
0
1
5
0
7
7
3
9
1
5
5
0
0
10
3
6
0
1
7
2
3
0
4
1
1
6
9
1
3
1
3
7
4
1
1
6
1
7
0
17
4
1
4
3
1
1
9
13
1
3
1
3
0
6
8
7
1
2
4
7
1
5
8
5
5
1
3
6
8
1
2
8
7
8
9
2
1
7
5
5
0
9
6
6
5
1
3
1
1
4
5
2
15
3
7
2
1
3
3
6
0
6
1
0
4
8
1
11
3
0
2
4
0
10
5
2
2
0
1
5
4
8
14
6
6
7
8
12
1
7
7
10
7
1
5
0
14
8
7
4
2
7
3
9
9
4
2
12
3
1
3
4
0
1
9
1
1
3
2
3
8
4
3
3
6
5
3
2
6
0
5
2
4
1
3
3
3
5
5
3
10
3
6
8
4
1
10
1
9
3
1
9
8
5
3
0
6
3
4
1
3
5
6
5
4
1
7
7
9
1
0
7
4
0
4
3
2
1
1
2
3
2
2
6
7
1
3
9
8
5
3
13
3
0
3
8
7
2
2
0
4
2
0
8
1
2
3
2
0
1
3
7
1
1
6
4
1
0
2
1
2
2
0
6
7
5
0
5
1
4
3
11
3
5
8
5
3
0
1
8
3
8
4
2
2
4
2
2
8
9
4
2
5
2
2
3
5
0
1
3
3
0
3
0
2
3
17
1
3
0
4
7
5
5
0
2
0
2
2
6
4
2
7
3
1
6
2
4
4
7
3
3
10
17
6
4
8
3
3
0
1
1
2
0
7
11
4
0
0
0
2
10
7
3
1
4
11
3
4
4
7
7
6
0
3
2
1
3
0
5
6
10
2
7
4
3
7
0
0
2
3
7
1
7
4
14
1
1
7
5
2
14
3
1
7
2
1
0
1
1
15
7
0
4
1
0
4
3
12
3
2
4
4
1
2
7
7
1
1
7
7
2
5
3
1
2
3
0
1
2
2
7
3
9
1
1
0
9
6
10
3
0
4
4
4
10
14
2
1
2
1
3
4
3
17
3
2
2
4
1
2
8
5
1
3
2
3
8
8
18
3
1
0
1
6
3
9
3
3
9
7
1
3
1
10
5
2
3
3
7
6
2
2
8
7
2
3
7
3
7
2
0
4
4
0
1
9
0
1
4
1
8
5
0
14
7
7
5
6
11
10
3
3
3
18
4
4
0
0
0
3
2
4
5
1
9
1
4
1
2
7
8
0
2
3
6
5
3
3
2
4
1
1
5
0
4
9
1
3
11
1
9
2
3
4
1
6
10
8
1
13
7
0
10
4
3
1
0
7
2
0
1
0
0
2
6
2
1
0
0
3
10
2
9
3
5
5
3
1
0
1
0
6
16
8
3
15
12
15
14
4
15
1
5
7
16
1
8
2
11
3
4
0
1
15
3
0
2
2
3
1
3
0
7
1
1
5
8
12
0
3
0
0
7
9
1
7
0
3
0
8
2
0
4
0
0
1
1
2
1
3
2
5
1
1
4
4
1
3
3
1
2
13
5
1
6
0
9
7
8
3
2
11
2
2
0
0
4
2
4
3
9
1
13
3
5
6
7
4
4
1
5
2
5
4
10
12
4
7
2
7
1
8
2
10
4
1
1
1
4
1
6
2
4
4
7
1
1
2
4
4
5
1
4
10
0
3
5
2
3
2
8
0
3
0
1
1
1
2
0
1
0
1
0
4
1
2
11
0
2
2
14
2
5
1
2
4
0
3
6
4
7
3
2
0
2
4
1
1
1
5
2
5
5
6
11
2
11
5
1
2
4
6
5
2
4
2
9
5
7
9
6
8
8
6
11
2
3
1
3
3
2
0
13
1
8
6
8
12
2
4
6
6
6
0
1
0
7
4
6
1
3
4
7
1
1
8
2
3
0
0
2
3
0
1
10
0
4
5
3
1
0
3
1
6
20
9
2
4
3
8
5
3
6
4
6
0
1
4
1
8
5
12
6
6
11
8
10
6
5
5
5
2
2
2
15
2
0
3
2
3
10
2
2
5
3
1
2
13
8
8
0
5
2
0
2
2
2
1
2
8
1
8
2
1
4
4
2
9
3
4
5
3
9
0
4
0
7
5
1
5
10
1
2
14
2
3
0
7
0
5
10
2
3
0
1
0
0
0
1
9
4
3
2
2
4
1
3
1
4
1
0
14
7
1
2
4
6
5
0
2
5
2
2
4
3
4
2
2
0
8
2
2
0
0
6
2
1
6
4
3
0
3
0
1
7
1
0
2
4
8
1
0
3
2
2
2
6
0
0
2
6
14
3
2
1
1
1
3
0
0
1
2
2
2
1
6
4
2
9
0
5
7
4
3
5
4
5
7
2
5
2
2
4
4
1
4
8
9
0
0
2
7
0
6
3
1
7
0
5
1
5
6
1
6
8
0
1
2
2
3
4
2
2
0
7
3
2
2
3
8
3
4
3
3
2
1
6
2
12
2
1
1
1
2
1
5
1
4
1
1
2
7
5
6
3
3
2
0
1
5
2
1
7
1
0
14
2
4
5
7
4
3
4
0
5
10
5
7
2
9
0
1
10
4
2
2
3
4
1
2
1
2
3
3
8
1
2
3
0
1
2
1
3
2
3
4
3
3
4
1
1
0
8
2
1
0
1
1
2
4
0
0
2
2
0
2
4
1
3
2
10
5
1
17
8
8
8
3
0
7
4
6
0
1
6
8
0
3
2
3
6
0
0
0
6
0
2
1
0
2
1
0
0
1
1
3
5
6
2
3
2
1
4
4
3
2
1
3
3
5
0
5
0
7
0
3
2
6
1
0
3
6
3
7
0
1
1
2
0
2
0
1
3
1
1
6
6
8
7
1
1
2
3
0
16
15
13
1
0
3
1
3
6
2
1
8
4
6
1
1
6
4
4
8
5
0
6
1
0
4
11
1
4
2
5
0
1
7
1
1
2
3
2
4
6
1
4
3
6
7
6
5
5
2
4
0
5
5
5
3
1
1
8
3
0
2
0
6
3
1
0
3
5
4
6
6
0
8
5
3
3
3
2
2
3
1
3
3
3
3
5
1
0
3
10
8
1
3
8
1
5
5
2
1
2
1
2
2
0
1
7
1
6
4
2
1
3
4
9
1
0
5
1
4
3
13
0
1
13
2
2
0
0
1
4
0
2
9
4
3
1
9
7
7
3
3
0
3
4
0
0
3
1
8
0
2
1
2
1
0
8
7
2
3
10
7
3
12
1
2
0
0
3
8
1
1
0
1
1
6
13
0
0
2
2
6
1
1
6
0
0
2
1
1
2
0
7
2
4
1
4
2
1
3
1
2
1
9
7
1
1
2
0
3
6
5
9
3
2
3
0
1
1
6
2
4
4
1
4
2
5
1
6
10
1
10
2
7
0
1
8
7
1
3
2
3
2
5
1
1
1
3
0
11
0
4
6
6
2
1
2
13
1
4
4
8
10
6
3
1
4
6
5
0
1
1
7
6
3
4
6
1
1
3
4
1
1
4
6
5
0
0
14
2
4
0
0
5
6
2
0
2
7
5
6
7
1
0
2
1
2
4
0
8
2
9
5
10
0
0
1
0
1
5
2
4
1
6
0
5
15
7
9
11
2
7
6
1
0
1
4
0
2
14
3
7
5
3
5
1
2
0
2
6
11
1
3
7
2
0
3
1
3
5
4
3
9
3
11
0
1
3
0
4
2
5
1
1
5
5
13
2
2
5
0
2
0
3
8
3
2
2
1
4
1
11
5
3
5
0
9
0
4
3
3
2
3
0
2
1
3
5
0
2
3
1
4
0
5
12
7
1
5
1
10
2
10
0
0
4
7
1
2
0
0
1
0
2
1
2
3
0
1
4
2
5
7
0
0
5
4
0
4
2
11
2
5
10
2
0
2
0
4
2
1
4
8
4
0
8
2
4
10
2
1
0
0
2
0
1
17
17
11
2
1
0
4
1
2
2
12
12
0
2
2
2
1
6
7
0
3
1
10
12
3
10
6
5
0
3
2
1
1
2
4
2
0
1
1
1
1
0
12
2
4
4
0
1
1
1
0
3
4
2
0
0
0
2
0
7
6
2
2
0
0
1
10
12
1
1
6
0
1
3
1
3
1
9
0
8
9
4
6
8
2
7
1
1
1
1
3
9
0
3
1
0
2
4
6
4
0
2
3
1
2
2
2
2
5
1
2
14
5
4
3
5
20
3
5
1
2
1
1
0
0
2
9
12
2
2
9
0
0
1
14
2
2
8
2
2
0
5
3
5
4
4
4
5
0
5
7
2
3
1
2
2
6
1
2
10
2
10
4
4
9
8
7
4
1
1
3
1
2
0
3
0
2
0
12
7
4
2
6
2
5
1
3
1
7
2
4
1
4
2
5
0
0
4
1
1
2
3
1
5
0
0
11
3
1
1
0
4
7
2
1
6
2
3
3
6
0
2
2
0
0
2
0
9
4
2
1
4
0
3
4
2
3
10
2
4
1
0
0
1
0
8
4
13
3
6
2
13
4
13
13
7
4
0
1
1
6
2
4
3
4
3
0
2
0
0
5
2
2
1
0
0
3
2
6
8
3
5
4
10
3
2
3
6
3
0
1
0
0
11
3
1
0
2
7
1
11
0
0
1
4
3
0
1
9
8
3
0
1
5
4
9
0
9
4
8
2
1
1
6
4
9
2
5
4
2
8
12
1
1
8
8
3
7
1
0
1
3
6
5
0
4
0
1
0
0
3
3
2
1
4
1
0
0
10
9
5
12
7
2
0
0
13
2
1
14
7
0
10
4
1
3
0
0
8
4
0
4
5
2
1
0
0
7
9
5
1
1
2
2
2
1
3
3
1
9
4
8
4
7
2
1
3
6
0
5
5
6
2
4
9
4
0
7
5
5
2
1
5
0
2
2
3
4
1
0
5
1
5
0
0
3
2
8
0
2
8
3
1
3
1
6
4
12
0
4
9
2
0
9
4
7
4
9
1
5
2
0
7
1
0
0
1
2
9
1
2
1
8
0
5
0
2
6
0
5
2
0
4
3
2
2
1
11
1
2
8
2
1
6
3
3
7
0
3
0
0
1
2
1
0
0
8
1
0
3
1
6
1
1
0
0
0
0
0
0
0
1
1
2
1
0
1
11
5
0
0
1
5
5
5
1
1
11
7
0
1
10
0
0
2
1
2
4
2
4
5
2
3
2
3
1
1
1
1
1
5
0
1
1
4
0
3
1
5
3
1
2
3
0
7
6
5
1
7
5
0
6
4
1
5
1
4
1
2
9
6
4
4
10
1
2
1
7
8
2
1
3
9
2
6
1
2
11
3
8
0
10
9
11
1
0
6
0
1
0
0
4
4
3
0
2
9
4
0
8
4
3
7
7
5
4
4
6
6
3
1
1
0
3
3
6
1
1
3
2
1
10
4
0
4
0
1
0
1
4
4
3
4
15
4
1
3
2
3
5
3
0
3
6
1
3
6
5
1
7
3
2
5
0
2
1
5
8
1
6
5
3
3
1
5
5
11
3
5
1
7
0
8
0
3
0
3
0
6
4
2
5
5
2
12
2
2
5
3
0
8
4
0
0
11
4
4
4
3
2
6
1
4
1
2
0
3
0
2
1
1
2
3
2
1
6
8
0
4
5
5
1
1
2
0
2
2
7
0
2
1
2
5
3
0
2
0
3
3
1
8
9
4
1
0
0
5
1
6
5
0
0
7
6
7
6
5
4
7
4
0
2
3
0
3
4
2
5
2
1
0
2
3
0
3
0
2
3
3
0
3
1
2
2
1
5
0
2
1
3
7
2
3
6
1
4
3
2
2
9
3
1
3
0
6
3
2
5
10
2
10
0
0
2
2
0
1
0
1
2
7
0
0
2
9
2
2
6
3
5
0
11
3
2
0
12
2
0
0
5
6
0
6
11
12
4
0
9
10
2
1
4
2
0
0
5
1
7
1
5
2
4
8
14
2
0
1
5
0
9
9
7
2
2
5
6
2
1
0
7
5
4
1
4
7
2
2
0
3
2
4
4
2
1
3
0
1
6
3
9
8
2
5
7
1
1
2
0
1
1
1
5
1
4
8
1
14
0
6
1
1
8
3
3
0
4
1
5
3
2
4
0
3
1
4
0
1
2
3
1
0
0
6
2
2
3
2
11
5
2
0
15
4
13
0
5
1
0
1
13
0
1
13
1
1
2
3
1
4
2
1
0
1
5
0
3
11
0
2
0
9
3
4
5
0
7
10
4
4
11
0
1
1
3
2
12
0
0
0
1
6
5
5
0
3
3
1
1
10
3
1
1
5
5
3
4
3
4
6
0
0
0
4
2
4
9
6
0
3
5
7
5
3
8
12
8
1
0
2
4
1
3
1
0
1
1
1
0
4
8
1
6
1
1
0
4
1
7
1
0
1
2
2
4
1
6
4
2
1
0
6
0
12
5
10
7
9
3
1
1
4
2
0
6
1
1
2
8
0
7
13
0
4
1
0
3
7
0
0
1
0
8
2
7
2
4
7
2
0
0
1
10
1
1
8
3
0
0
1
1
0
0
0
0
1
1
0
7
0
0
1
0
0
1
0
0
7
2
1
6
1
0
3
0
3
3
1
0
3
6
4
2
0
8
3
0
5
4
0
2
1
3
1
9
5
0
1
3
6
2
8
4
1
6
1
1
6
2
9
7
5
5
5
0
1
0
5
2
4
2
2
1
4
4
3
4
6
0
3
0
0
3
4
5
10
0
1
0
7
5
4
2
0
0
1
3
5
1
5
3
2
5
5
1
5
2
3
5
3
1
15
4
6
1
2
2
4
5
5
5
4
1
4
2
0
5
4
6
2
6
5
1
1
2
0
2
11
5
0
1
9
10
6
3
11
1
6
1
1
0
1
1
6
6
4
4
10
8
12
0
7
10
0
5
7
2
6
2
1
0
1
4
6
4
3
3
2
2
9
4
3
6
3
6
5
4
2
4
1
5
9
1
3
6
6
11
3
11
3
6
0
0
3
2
0
4
1
0
3
3
4
7
3
16
1
10
4
5
1
2
3
4
10
4
7
2
1
7
0
3
1
1
0
2
4
2
2
7
2
3
0
1
5
1
8
2
2
0
5
0
3
0
0
1
2
1
7
3
1
6
5
3
0
1
8
3
0
6
1
1
0
1
5
1
8
3
3
4
4
9
0
1
8
12
12
0
0
0
1
0
2
3
0
0
2
9
3
5
2
1
5
9
0
1
4
8
2
0
9
3
9
3
2
1
1
0
2
0
1
1
0
7
4
2
2
2
0
4
4
2
4
1
6
2
2
5
0
3
1
10
4
1
0
2
0
6
8
10
2
7
0
1
7
2
2
4
0
0
1
1
0
0
4
3
5
1
0
5
5
8
6
5
2
2
0
0
3
1
5
4
0
4
1
1
12
1
2
3
6
4
2
0
1
0
0
1
1
3
1
4
3
4
4
0
0
4
0
3
4
7
3
0
2
2
1
1
0
0
0
0
1
6
6
3
6
3
0
2
5
6
1
0
1
4
1
2
3
2
3
0
7
0
2
2
3
5
1
1
2
0
7
3
9
1
2
0
2
5
1
2
1
10
4
0
2
2
1
5
1
7
4
3
3
6
6
1
2
12
10
3
2
0
2
7
8
4
13
10
8
6
5
1
3
1
6
4
1
0
4
0
6
2
6
2
3
0
1
1
2
2
8
1
1
0
3
1
0
0
2
2
0
14
1
6
12
5
8
1
1
0
2
1
1
2
3
2
6
7
10
1
1
6
2
1
2
1
4
6
1
0
1
1
1
1
11
7
5
0
5
3
1
0
11
4
0
5
10
1
3
0
0
5
0
6
4
4
1
3
0
1
1
2
5
2
0
2
0
0
0
0
0
1
1
0
0
0
1
0
2
3
3
1
1
0
9
15
2
4
2
5
2
1
6
13
1
1
17
8
1
0
1
9
1
3
1
3
3
0
0
2
0
1
1
0
2
2
7
2
0
0
6
4
12
4
4
4
1
3
5
1
2
0
3
1
7
2
1
5
2
4
0
3
3
0
8
1
1
5
4
2
1
1
6
0
4
2
0
5
9
1
6
0
1
3
3
3
6
7
9
10
6
7
10
0
5
6
0
9
1
2
0
2
12
0
0
1
2
2
1
0
3
8
2
5
8
1
3
6
6
6
1
0
1
0
0
11
2
1
0
7
0
1
3
0
10
9
1
9
2
2
2
1
3
9
5
9
1
0
0
7
1
1
1
2
5
5
2
0
6
1
1
0
5
2
3
4
6
1
1
0
2
0
0
1
3
3
1
4
2
7
1
2
0
1
3
13
5
0
1
5
2
0
6
1
0
3
1
2
0
4
2
10
0
1
0
2
0
2
1
0
1
0
2
7
9
7
9
2
3
1
3
2
9
2
1
2
1
3
1
5
6
8
0
9
1
4
3
4
6
14
1
0
1
1
9
1
3
5
8
2
2
6
6
3
0
0
2
0
1
3
2
2
0
2
1
0
7
5
1
0
2
1
2
1
6
2
0
2
5
1
0
5
0
3
0
1
0
1
0
0
6
7
5
0
2
1
2
0
5
0
3
4
1
0
1
2
6
2
2
1
2
3
0
1
1
10
5
3
6
0
6
1
2
0
0
6
6
4
7
2
2
4
3
6
2
3
0
2
3
1
6
2
2
2
1
1
0
4
0
6
2
3
2
1
4
0
0
2
7
2
1
0
3
4
1
0
3
5
5
0
9
1
0
5
5
9
1
0
0
12
6
0
1
1
7
1
2
2
7
3
2
6
3
2
0
3
2
6
6
1
0
0
4
1
6
2
0
1
4
6
0
3
1
4
0
1
0
2
0
0
0
3
1
2
0
6
1
5
5
0
0
3
2
3
4
3
4
0
1
0
2
2
4
1
1
1
2
3
3
2
1
4
2
6
3
0
5
1
3
7
0
0
1
11
3
5
2
0
1
5
1
0
0
0
2
1
1
11
9
8
1
0
0
2
7
1
1
2
4
0
1
5
3
4
4
2
3
1
1
5
0
1
0
1
2
4
7
0
1
4
5
0
4
3
3
8
2
2
4
3
4
10
7
1
3
6
0
2
5
2
1
3
3
0
3
1
1
7
5
3
4
1
0
0
2
0
6
2
0
2
4
2
0
0
5
12
4
7
5
9
3
0
0
5
4
0
3
3
6
6
1
6
1
1
7
4
1
4
2
0
9
1
6
0
5
0
4
0
0
3
2
4
3
2
2
8
4
11
0
0
6
3
4
6
3
4
1
1
9
6
3
8
5
0
5
0
1
6
2
6
0
0
3
0
8
1
6
10
0
0
0
1
0
1
7
4
8
0
0
1
1
2
3
1
2
1
1
0
3
6
7
3
4
6
1
0
1
0
0
1
1
2
1
7
0
1
3
0
1
2
1
0
3
4
4
1
2
3
0
3
0
0
3
0
3
3
1
14
1
1
3
9
5
0
2
5
0
4
6
0
7
16
3
0
1
1
6
4
1
2
1
0
4
0
7
3
3
3
0
2
0
0
3
9
4
7
5
4
5
1
3
1
0
1
1
1
0
2
6
6
2
8
2
6
2
0
8
1
2
0
2
9
6
3
2
5
3
7
0
5
3
3
1
0
4
1
5
1
2
2
2
1
1
5
1
3
2
0
0
1
2
4
3
5
5
3
2
5
4
6
4
6
2
3
5
11
3
0
6
1
0
3
5
8
1
2
3
12
0
11
3
2
0
4
16
1
2
1
0
3
4
4
5
9
0
0
8
1
2
6
5
2
5
2
0
3
0
3
1
2
1
2
4
6
0
0
2
11
5
0
5
2
7
9
0
0
1
2
1
4
5
0
7
1
8
2
0
5
0
0
4
1
5
2
4
1
2
4
2
3
1
6
0
2
5
1
1
0
0
3
4
2
0
9
0
1
2
1
3
0
2
6
4
0
2
4
12
8
3
0
2
3
3
0
1
6
4
2
4
4
1
4
0
5
2
1
0
0
0
2
0
4
0
4
1
1
1
2
2
4
1
1
0
1
1
1
5
0
7
3
15
8
11
3
7
5
5
5
1
0
1
1
6
3
2
1
0
0
13
5
0
1
0
0
0
7
4
3
14
2
1
2
3
5
1
3
0
1
1
0
0
4
0
0
0
5
10
8
11
6
1
10
2
2
1
3
5
7
1
5
8
5
5
2
6
1
4
0
0
0
4
0
1
4
5
1
0
0
6
3
5
12
2
1
1
3
4
0
7
0
6
1
0
0
6
2
1
1
2
9
4
1
3
0
12
9
0
1
0
3
7
3
2
2
3
2
2
8
8
5
8
2
5
7
9
1
3
3
6
2
1
2
3
0
1
0
4
3
2
0
0
1
2
1
1
2
0
0
4
8
2
2
0
3
0
1
1
6
2
1
1
5
3
1
5
3
4
1
4
0
8
0
5
2
2
0
0
6
5
1
3
1
1
6
5
7
0
1
3
11
0
0
0
5
8
5
3
2
7
0
1
2
3
3
3
1
2
11
1
0
1
0
2
0
0
3
4
0
0
3
0
1
8
4
0
1
2
1
3
0
2
0
4
0
9
4
0
2
3
1
3
1
2
1
1
1
4
0
0
0
1
6
2
0
1
8
3
0
4
3
2
2
0
2
0
0
7
11
3
3
1
5
2
1
1
7
2
7
0
6
4
0
2
1
4
0
3
0
1
1
2
1
3
2
0
1
1
3
0
0
4
2
0
2
4
1
1
4
0
0
3
5
7
3
2
9
3
0
0
1
1
1
4
6
0
3
4
1
5
2
4
2
4
1
2
10
1
3
2
3
3
0
1
2
5
3
4
2
2
0
0
0
1
1
4
0
9
4
4
0
2
6
1
0
1
1
7
0
5
1
0
4
4
1
3
1
4
4
4
0
0
3
5
5
2
0
5
1
2
4
6
1
0
1
0
6
0
14
2
5
4
2
2
0
1
0
3
2
3
0
2
3
1
5
2
2
0
9
5
1
0
0
5
1
5
4
0
0
2
0
5
6
6
3
2
0
2
6
3
0
2
4
2
4
0
1
1
0
3
6
2
7
2
6
1
5
1
1
1
0
2
3
7
4
0
5
3
4
6
1
0
0
1
3
1
0
2
3
10
2
2
3
5
3
4
2
1
2
3
4
4
6
2
9
0
0
2
3
8
1
6
7
0
0
2
1
1
0
0
11
0
3
3
1
2
7
4
3
2
1
2
6
0
0
2
0
2
1
3
2
5
0
0
3
0
2
1
2
9
1
0
0
3
0
4
1
0
4
0
1
4
2
3
0
6
4
2
4
0
4
4
7
4
3
2
0
1
11
3
5
10
0
0
1
1
4
2
2
0
2
3
0
0
1
7
5
5
7
1
5
4
0
7
1
4
0
0
2
8
1
0
0
0
2
6
0
7
0
4
4
4
1
5
3
1
2
6
0
0
7
2
2
0
1
0
2
1
4
1
2
4
4
3
0
2
1
0
10
4
2
1
14
1
3
1
0
4
3
0
4
1
1
3
0
1
6
0
3
2
0
2
0
1
4
1
3
1
3
2
1
1
6
0
0
2
4
0
1
0
5
1
3
3
1
3
0
1
0
1
0
0
0
5
0
2
1
3
5
6
5
5
0
9
2
4
2
4
2
2
1
1
0
1
1
6
1
0
1
3
2
1
2
4
3
2
0
2
2
0
1
1
2
2
7
7
3
9
0
3
7
3
2
2
2
3
3
2
0
2
3
0
0
1
0
1
3
4
3
0
1
7
2
1
6
1
0
2
0
0
1
4
2
1
0
0
1
5
1
2
0
11
0
0
0
0
2
0
1
8
1
1
2
1
6
2
1
0
1
1
0
4
0
2
2
1
5
0
0
1
12
9
0
4
2
0
0
5
1
3
4
10
0
2
1
3
0
1
7
4
7
9
0
0
2
4
4
3
3
2
1
10
6
12
5
2
5
2
7
3
0
0
3
6
0
2
2
0
1
6
3
2
3
2
1
3
2
0
3
1
1
3
5
0
2
0
5
2
3
0
4
0
3
2
4
2
1
2
0
0
1
3
1
0
8
0
5
0
2
1
4
0
2
1
4
0
0
2
0
0
9
4
5
1
4
0
9
1
1
7
0
2
1
0
2
3
6
1
0
2
3
0
1
0
0
2
3
2
1
0
1
7
2
6
4
2
6
2
6
0
1
0
0
0
0
2
3
2
4
0
0
1
0
2
3
4
4
0
1
3
1
2
1
3
2
2
3
6
2
2
2
0
0
4
3
4
2
2
1
2
1
0
2
0
1
7
3
4
12
10
0
0
4
7
1
8
0
2
0
2
1
0
6
1
2
1
2
0
2
2
6
2
2
5
5
0
2
0
4
1
3
0
2
2
3
7
1
1
2
2
1
4
0
3
1
1
2
0
1
3
5
5
5
0
1
2
1
0
1
0
0
0
2
1
1
1
1
1
1
2
6
4
0
3
0
4
3
1
0
4
1
4
0
2
0
2
4
3
0
1
2
2
6
2
0
1
1
0
1
7
3
3
1
1
0
7
2
4
0
0
1
1
3
4
0
0
5
2
5
2
4
6
1
0
0
2
6
0
0
1
0
0
0
3
5
4
0
0
7
6
4
5
6
6
3
5
1
1
1
2
4
1
5
1
1
0
0
2
1
1
0
0
5
1
0
0
3
4
4
1
3
3
4
3
0
0
10
0
2
0
0
1
3
3
2
5
0
2
0
0
0
2
1
1
5
8
0
4
3
3
1
4
1
3
2
0
1
2
1
4
0
4
1
4
6
1
1
2
6
2
3
2
1
1
3
3
0
0
1
2
6
1
1
7
2
2
1
2
2
1
0
2
2
0
0
2
17
14
0
0
1
1
0
1
4
0
0
5
5
6
2
0
3
3
1
3
1
1
1
6
9
0
3
5
0
2
3
2
3
5
1
0
2
4
0
1
0
0
0
0
0
0
2
1
1
5
2
4
0
0
1
8
1
0
5
3
4
0
2
11
4
2
1
0
2
0
4
0
6
1
3
4
6
0
2
2
0
1
0
1
1
8
0
0
4
2
4
0
2
2
3
0
2
0
0
1
5
3
8
0
1
2
0
3
5
1
5
0
0
5
0
2
1
5
0
2
0
3
0
0
2
0
3
0
0
2
1
2
0
1
1
2
0
2
0
3
5
1
0
11
1
2
1
1
0
1
4
1
2
1
2
10
2
0
3
0
2
1
0
0
0
0
8
7
3
4
4
0
5
1
4
1
5
5
0
0
0
2
0
4
0
0
0
2
3
1
0
1
0
0
4
1
2
1
5
1
2
8
4
1
3
4
1
0
1
1
0
1
0
11
0
5
7
0
3
1
2
3
2
4
2
0
1
3
3
3
2
2
2
2
0
2
3
6
3
1
1
4
2
0
3
9
2
0
9
2
0
6
2
3
2
3
0
2
6
2
3
2
1
4
0
0
1
0
0
0
4
1
0
1
6
9
3
1
2
0
6
6
0
3
1
1
0
0
0
7
1
3
0
1
1
1
2
1
6
0
4
12
1
0
1
1
9
1
0
3
0
1
0
1
4
2
2
1
2
0
0
0
1
0
2
1
2
3
0
0
0
4
0
1
0
0
0
0
0
5
7
1
4
1
4
1
1
3
6
4
1
3
4
0
0
4
2
5
0
0
1
7
1
6
2
2
1
1
3
1
1
3
1
5
1
2
3
0
5
1
3
1
0
1
3
1
0
0
0
6
0
1
2
5
2
5
3
8
4
9
5
1
2
0
6
1
0
0
7
4
1
1
0
0
6
4
6
0
0
0
3
0
3
5
2
1
1
5
5
3
0
1
0
0
0
2
5
0
1
0
3
0
0
1
1
2
4
2
5
3
0
0
0
7
2
8
0
0
5
0
7
0
0
0
8
1
5
0
4
0
0
3
0
1
5
0
0
0
1
1
6
0
0
6
0
2
1
3
2
1
1
1
5
6
1
1
6
0
1
3
4
2
4
2
2
1
0
0
0
1
7
5
2
3
2
6
1
4
2
3
2
11
0
0
0
4
3
3
1
5
0
11
2
0
9
1
0
1
5
2
0
2
0
2
3
0
2
8
0
2
0
2
3
0
3
1
2
0
3
4
4
0
1
3
0
3
7
0
2
1
0
0
0
0
1
4
0
0
1
1
0
1
3
0
3
2
0
1
2
1
4
0
2
0
3
0
1
8
0
6
2
0
0
0
1
0
0
0
0
0
0
1
1
1
0
5
7
1
0
4
0
2
6
8
1
3
4
3
1
1
2
0
0
0
8
1
4
0
1
0
0
2
2
1
2
0
1
0
2
3
2
1
3
9
1
5
8
9
1
0
1
7
2
2
4
0
2
0
2
3
2
2
3
6
1
7
0
1
0
1
5
0
5
0
1
1
1
5
0
2
0
3
1
1
6
0
0
6
1
3
0
1
3
0
3
0
1
5
2
1
2
0
2
4
4
3
4
3
2
3
0
7
4
2
9
1
2
3
4
1
3
2
2
6
0
1
2
1
1
2
2
1
0
4
7
1
0
0
0
0
1
9
0
3
9
2
0
1
4
1
2
0
1
4
2
7
1
3
2
0
5
1
4
4
5
2
1
1
0
2
2
0
1
2
2
3
5
3
2
3
0
2
0
2
2
0
1
1
0
0
5
1
0
2
2
2
0
0
4
1
0
4
3
0
1
1
4
0
1
7
3
2
0
1
1
0
3
4
0
2
1
4
3
5
3
2
2
1
11
3
7
0
1
0
0
0
1
4
5
3
0
1
8
0
0
3
0
0
1
0
0
1
0
4
0
2
3
0
1
0
0
5
3
0
6
0
3
0
6
12
1
3
1
0
0
3
0
1
7
4
2
3
3
3
0
0
0
0
6
6
3
1
1
4
1
4
0
3
1
7
7
3
3
4
1
8
2
6
3
2
2
0
6
1
1
3
0
1
0
0
0
2
2
0
0
2
0
1
2
0
1
4
5
7
8
6
4
1
4
4
2
4
1
1
3
14
2
3
7
3
3
1
4
2
3
3
2
0
0
1
0
2
5
10
0
4
0
1
8
6
2
8
10
3
1
1
2
0
4
6
3
1
4
2
1
4
0
1
8
8
0
1
2
1
0
0
1
1
1
0
2
2
1
0
2
0
2
0
2
2
3
0
0
3
6
0
0
0
3
2
0
0
3
0
1
0
0
0
1
7
1
1
2
4
5
1
9
1
0
1
1
12
0
1
6
0
2
0
0
1
5
0
2
3
3
1
5
3
2
2
4
4
0
1
2
3
0
0
0
0
4
2
3
2
4
0
0
2
1
0
1
0
6
0
4
2
2
0
0
2
3
3
2
4
1
6
2
4
2
0
2
5
4
1
1
15
6
8
2
4
1
0
4
9
0
5
0
1
3
0
1
2
2
1
9
2
2
0
0
1
2
1
8
3
0
2
7
2
2
5
0
0
0
1
1
1
1
0
2
0
3
0
4
0
3
3
2
1
5
2
5
3
1
0
0
0
0
2
2
3
0
0
2
0
0
10
7
7
7
1
0
1
0
0
0
1
7
0
3
0
2
0
3
1
0
0
8
2
1
1
3
3
0
0
1
2
5
0
2
1
2
2
2
3
1
4
1
1
8
3
0
0
2
1
0
4
0
0
0
1
6
0
6
1
1
7
1
1
0
1
2
2
0
1
3
0
0
0
0
2
10
1
4
0
2
4
3
0
2
1
4
2
0
6
0
0
2
0
4
0
3
1
0
4
1
6
0
0
0
2
2
9
3
0
0
0
0
3
2
1
2
1
0
5
0
1
1
1
1
3
1
2
2
2
8
2
2
4
2
5
4
0
1
1
0
3
1
0
4
0
0
1
1
1
1
1
8
0
2
2
3
2
0
1
1
4
1
0
1
2
0
5
1
0
1
6
4
3
0
1
3
2
7
0
2
0
1
11
3
1
0
0
0
2
1
3
0
0
2
0
2
3
1
3
12
7
1
0
0
0
2
3
0
3
5
1
3
1
5
5
7
0
2
0
0
2
6
2
2
0
0
0
4
4
4
0
10
2
1
1
3
1
2
0
0
0
3
8
2
7
3
1
1
0
2
7
2
3
2
0
1
8
2
2
2
0
5
15
5
1
2
3
2
6
7
1
3
1
3
4
1
4
8
3
1
2
0
2
1
1
3
1
1
4
7
2
1
8
5
1
3
0
11
1
0
1
1
2
0
5
3
4
0
0
0
1
0
8
0
0
2
0
0
0
0
1
3
1
7
11
4
0
6
2
8
2
2
2
1
1
4
2
0
2
1
5
0
3
0
5
0
0
1
5
4
0
0
0
0
2
3
11
1
2
0
0
0
3
0
4
5
2
1
10
2
9
6
1
5
2
4
1
3
8
4
1
0
3
0
0
6
3
2
1
6
1
3
1
10
0
0
0
3
3
5
3
2
1
5
0
1
3
1
2
2
1
4
0
1
3
1
7
1
0
0
2
1
1
5
0
4
2
3
2
1
0
5
0
0
1
2
6
2
1
6
4
0
0
1
0
1
1
0
0
0
3
1
0
4
0
2
0
2
1
3
0
1
9
1
0
1
0
1
3
1
3
2
1
2
6
0
4
6
3
3
1
8
1
0
6
2
4
0
0
6
2
0
0
1
0
0
6
1
2
0
4
0
0
0
5
4
2
3
1
1
0
5
1
2
0
0
3
2
0
2
2
5
2
1
3
0
1
0
0
0
2
1
1
8
7
5
6
3
0
0
2
1
4
6
0
2
4
1
0
2
5
5
3
4
0
5
1
2
2
3
2
6
3
4
2
4
3
0
2
0
5
2
1
1
1
0
0
1
0
4
0
2
1
3
1
0
7
16
4
5
1
0
8
2
3
1
3
0
0
2
2
4
1
3
7
3
9
5
1
4
2
3
3
4
1
0
2
14
2
7
1
2
4
1
0
3
0
1
1
0
0
7
6
6
0
0
0
0
8
0
4
0
5
3
3
1
0
0
3
0
0
0
5
0
3
0
1
2
0
0
5
1
5
0
1
4
5
3
6
1
5
1
1
1
2
1
1
1
1
1
0
0
5
2
5
1
0
1
1
0
1
3
0
1
0
1
1
0
3
1
1
1
2
4
1
3
0
0
10
1
6
0
0
3
1
0
5
3
1
5
0
14
3
1
0
3
7
0
0
0
3
2
3
1
2
0
2
2
2
4
1
4
0
0
1
4
4
0
0
1
1
0
2
3
3
2
1
3
1
0
0
2
1
1
2
0
3
7
2
1
0
0
5
0
4
1
1
2
3
2
1
1
1
2
3
1
3
2
1
3
4
0
0
0
7
6
7
2
7
3
3
1
0
3
0
0
0
0
3
2
3
2
7
1
6
0
0
1
3
4
1
0
3
1
3
9
2
6
7
0
0
8
0
2
2
3
0
1
1
3
1
2
0
2
2
3
1
2
3
2
2
2
5
0
0
3
1
1
0
4
2
2
2
0
0
2
5
2
2
0
0
3
3
5
0
3
2
6
7
2
4
2
2
0
0
1
2
3
4
0
2
0
6
0
0
4
6
2
2
7
3
2
0
0
2
3
6
2
3
7
4
1
2
1
2
8
4
8
0
3
1
4
0
6
1
0
1
4
0
2
0
4
1
2
1
3
5
2
4
4
2
4
1
2
1
5
1
1
2
5
2
5
4
3
3
3
0
1
0
5
3
0
0
1
0
1
2
1
7
1
0
4
0
0
1
4
0
0
1
0
3
0
1
0
0
0
1
1
0
0
5
1
1
4
3
5
0
6
3
5
3
1
4
8
2
5
1
0
1
2
9
11
5
3
2
6
1
5
5
2
1
2
2
0
1
1
2
2
1
0
0
0
2
0
0
1
0
4
5
6
2
1
1
0
0
1
2
0
0
1
0
2
3
2
0
0
1
0
2
2
3
0
2
0
0
2
0
0
1
0
1
0
1
3
2
1
0
0
1
4
1
1
0
2
0
0
2
2
1
0
0
10
5
5
3
0
2
2
3
1
0
1
3
0
0
0
2
0
5
1
0
1
1
3
5
4
0
1
1
0
2
1
0
4
1
0
0
4
2
6
2
0
0
1
3
3
0
3
2
6
4
3
1
5
2
3
1
2
3
1
0
0
1
1
1
2
0
4
3
0
4
0
2
0
1
2
0
2
2
0
0
2
3
1
4
0
2
8
1
3
2
7
1
5
0
0
11
1
0
2
2
4
0
0
0
3
4
4
0
0
3
0
6
1
0
0
17
7
3
5
0
3
1
0
0
6
4
4
1
3
0
1
2
0
3
1
4
1
0
0
2
0
5
1
0
0
0
0
0
1
0
0
0
8
2
1
7
0
0
0
0
3
1
2
0
1
1
3
2
0
3
0
0
0
5
2
2
0
5
0
0
1
0
0
2
1
0
5
1
1
2
1
1
4
4
0
0
5
7
2
7
2
3
4
4
7
8
7
3
0
0
4
4
4
1
0
1
2
1
0
3
5
4
0
3
0
2
3
0
6
1
5
2
4
2
0
1
2
1
4
4
2
0
5
2
0
1
1
0
0
0
0
3
2
0
1
0
3
1
2
0
7
4
0
3
4
4
2
2
7
3
5
2
3
1
0
7
3
5
0
2
2
3
0
0
1
0
0
3
0
3
0
2
5
0
1
0
1
1
4
3
1
0
0
0
2
0
0
1
3
2
2
6
3
2
1
5
1
7
8
2
1
2
1
1
1
2
0
1
0
4
3
0
2
4
1
2
0
5
0
4
3
6
2
3
6
3
2
1
9
1
1
2
2
0
2
1
0
3
1
1
2
1
2
0
1
0
1
1
0
0
5
4
0
0
1
5
2
0
1
0
1
3
2
0
0
2
3
2
1
5
0
6
7
2
0
1
2
2
1
1
4
0
0
1
1
0
3
0
6
2
2
0
3
13
4
2
2
1
0
0
1
3
0
2
0
5
2
2
1
0
0
0
2
4
2
1
2
12
1
3
1
5
5
0
8
4
0
0
1
1
3
0
2
6
2
0
3
2
1
0
0
0
7
6
0
1
1
0
0
0
5
0
1
4
1
0
3
1
0
9
0
4
10
0
5
2
1
0
0
4
0
7
1
5
0
2
0
1
3
1
3
3
1
2
2
1
2
4
0
1
0
1
2
5
1
1
1
4
0
0
1
0
0
0
5
2
1
3
0
4
4
4
3
4
1
2
1
1
2
2
0
7
6
2
2
2
0
0
0
0
1
0
0
2
2
1
4
0
11
1
2
3
1
1
0
2
2
1
5
10
0
2
0
2
2
1
3
1
0
0
3
8
6
9
1
0
2
0
1
0
3
2
1
0
0
1
1
1
0
0
3
1
0
3
1
1
0
1
0
2
2
3
2
1
2
1
0
6
1
1
8
9
5
2
0
4
0
2
1
6
3
6
3
4
1
1
1
0
1
2
6
2
2
0
1
2
1
2
1
0
1
1
1
2
0
9
4
0
0
1
0
0
5
2
1
2
2
4
0
7
1
2
1
1
6
2
4
2
4
2
3
0
0
1
1
0
4
3
0
4
1
0
1
1
0
0
2
3
1
1
2
2
1
1
10
5
5
4
1
1
2
3
0
0
3
1
1
5
5
8
2
0
0
2
0
7
0
0
2
0
6
0
0
1
0
6
0
1
1
2
0
6
1
4
0
1
2
0
1
1
1
1
3
1
0
6
0
2
8
1
4
2
5
2
2
0
3
1
4
0
0
0
0
1
0
2
0
3
4
6
1
0
1
6
0
0
0
5
4
2
1
2
0
0
1
2
1
0
2
2
2
3
0
0
1
0
2
1
1
2
0
2
0
1
3
0
1
3
2
0
0
3
2
6
2
1
4
1
9
3
0
1
1
1
0
1
0
0
0
0
2
1
0
0
1
8
0
6
0
0
0
0
2
0
6
2
1
3
0
2
0
0
1
1
1
0
1
1
4
4
1
3
0
4
2
0
0
8
0
5
3
6
0
1
0
1
0
4
0
7
0
0
0
3
7
0
0
6
0
4
1
2
3
4
5
0
10
3
7
2
4
1
0
0
0
5
0
1
2
0
2
0
1
1
0
1
2
6
0
1
4
0
0
0
4
0
5
5
7
0
3
2
1
1
0
0
3
3
0
2
2
4
0
3
1
0
0
5
4
3
6
2
2
0
7
0
0
0
0
0
0
0
0
1
5
1
0
2
3
2
3
1
1
3
0
1
0
2
2
2
0
3
0
0
0
4
0
3
0
4
2
2
0
0
0
3
2
2
0
1
5
6
6
6
1
0
0
2
0
0
2
0
1
0
0
4
3
1
0
3
4
0
2
3
4
0
4
6
0
0
0
3
1
0
0
5
3
2
2
0
1
0
1
1
1
2
1
0
3
1
2
5
4
7
0
2
3
0
1
0
0
2
1
1
1
1
2
1
0
1
0
0
5
0
0
2
0
2
1
1
9
4
9
7
0
0
0
3
4
2
4
1
2
0
2
1
0
1
0
0
7
0
1
1
3
3
0
0
5
5
3
1
2
0
0
0
3
0
3
4
2
0
2
0
2
1
1
0
0
0
5
0
0
3
0
2
3
1
1
3
6
1
0
1
0
0
3
1
1
0
1
0
5
0
0
1
2
1
3
0
0
3
1
0
0
1
0
3
3
1
0
0
6
1
3
6
3
1
1
1
1
2
3
0
2
1
0
0
0
1
2
4
0
3
1
1
0
5
2
0
0
0
1
7
2
1
3
2
4
1
1
0
1
1
0
5
0
3
0
1
2
0
2
0
6
1
2
0
1
1
3
4
1
0
0
0
0
2
3
4
1
0
1
1
5
1
2
3
1
0
1
0
3
8
5
1
2
2
4
0
0
0
0
0
1
2
10
8
3
5
0
0
4
5
1
0
0
1
3
6
2
0
1
4
1
0
1
1
0
0
1
5
1
7
1
0
1
2
4
1
3
0
2
1
2
6
2
2
0
0
0
0
4
1
1
1
5
0
2
2
3
0
0
1
1
0
0
1
1
0
0
1
4
4
1
2
0
5
11
4
0
0
3
2
1
1
0
0
4
0
5
3
1
3
1
1
0
7
1
0
0
1
0
0
7
1
0
3
2
0
2
3
2
0
1
0
0
1
4
0
4
0
0
3
0
1
1
5
0
0
0
3
2
0
1
1
1
1
5
2
5
0
4
0
1
0
0
4
1
1
2
0
1
6
2
3
4
2
5
1
3
9
2
0
2
4
2
3
8
0
0
3
6
0
1
3
5
2
3
1
5
1
6
2
3
2
1
1
3
0
0
1
0
2
0
1
2
1
0
0
1
1
3
1
0
1
2
0
1
3
4
1
7
4
2
4
3
7
0
1
3
3
0
0
0
2
0
3
4
0
1
1
0
4
4
0
2
2
2
7
4
2
1
1
0
1
2
0
2
3
3
2
0
2
1
0
3
0
0
1
6
1
0
2
8
1
1
5
4
1
0
1
4
2
0
1
0
0
0
3
0
1
5
3
0
5
4
4
1
0
1
4
0
1
0
1
4
0
1
0
4
1
1
2
1
2
4
1
0
1
0
3
0
0
0
1
0
1
1
5
1
0
1
0
2
1
1
3
1
0
4
1
1
6
1
0
0
1
3
8
2
2
2
2
0
1
1
4
0
0
0
0
2
1
1
1
1
0
0
4
7
11
0
0
0
0
0
0
1
0
1
2
0
0
2
2
0
0
2
3
2
10
10
2
0
1
1
1
6
6
0
1
2
2
0
4
1
4
1
1
0
2
0
3
0
0
0
7
0
3
3
0
2
0
3
1
3
0
3
0
0
2
2
0
0
2
0
2
2
6
1
0
9
3
2
3
0
0
4
1
1
0
0
1
0
0
1
1
1
0
1
1
0
1
0
0
2
0
0
0
1
1
8
0
3
0
0
0
0
3
0
1
4
0
0
1
0
0
7
0
1
2
2
1
1
0
0
1
1
0
0
0
1
1
1
1
0
1
0
0
3
0
0
3
1
6
1
1
0
0
4
4
1
1
2
0
1
0
1
3
1
1
0
1
1
1
1
1
0
0
0
0
0
1
0
1
1
4
0
3
0
4
3
1
1
3
0
2
1
2
0
0
1
4
3
2
1
0
2
1
0
1
3
3
0
1
2
1
3
2
1
2
1
3
1
5
5
1
1
0
0
3
1
1
1
1
2
0
1
1
0
0
0
1
2
0
0
8
1
2
6
0
1
1
0
0
1
5
2
4
2
0
7
12
6
0
3
6
1
1
1
5
1
0
0
0
0
0
4
1
0
0
0
1
5
5
0
1
1
0
0
0
6
1
2
0
0
3
2
11
4
0
7
0
0
3
1
1
1
1
3
0
1
5
1
0
0
0
1
0
0
2
0
2
3
0
3
3
1
0
0
5
2
0
0
1
7
4
2
0
12
0
0
0
1
0
2
4
1
5
9
0
0
1
0
2
2
2
3
0
2
0
2
4
0
0
0
0
0
1
0
3
6
1
3
0
3
0
0
0
1
1
0
1
0
0
4
2
8
0
2
1
2
2
1
1
1
3
3
3
3
8
4
4
0
2
1
4
1
0
0
1
1
2
0
0
0
4
1
2
9
1
2
3
5
11
1
0
0
3
3
2
0
6
1
1
0
2
0
1
0
2
1
0
5
2
0
1
5
0
5
3
0
1
1
0
1
4
0
4
0
0
0
4
2
3
2
2
1
0
4
2
2
1
1
0
0
1
1
7
2
1
0
1
3
2
0
1
1
0
3
3
1
0
0
1
8
0
1
0
1
2
0
3
0
2
0
0
0
0
0
4
6
2
0
0
2
1
0
1
0
3
1
2
0
6
0
2
0
1
0
3
2
1
0
0
2
4
1
1
0
1
2
0
0
0
0
0
3
2
1
2
0
2
1
0
2
7
4
1
0
0
3
0
1
6
0
4
0
0
0
1
1
1
1
3
3
1
2
4
0
2
4
2
3
5
0
0
2
1
3
2
2
0
2
0
3
1
0
0
0
0
0
0
2
1
0
1
0
1
0
0
0
0
0
0
9
4
6
1
0
1
0
0
0
0
1
1
0
0
2
3
1
1
0
1
0
2
0
1
0
2
0
0
0
1
0
0
1
0
2
2
1
3
1
0
1
2
0
1
0
1
4
5
1
1
0
0
4
3
2
2
1
0
1
0
1
0
2
4
4
2
0
4
0
1
0
0
7
4
2
3
1
0
2
0
0
0
1
0
0
4
1
2
8
6
3
3
1
1
2
4
5
0
1
8
2
0
5
0
1
0
0
2
0
6
1
1
1
3
0
1
2
3
2
4
1
0
5
0
2
0
0
0
0
0
0
1
2
0
0
0
4
5
5
9
1
1
1
2
3
0
0
3
1
0
4
1
0
4
2
1
2
0
5
0
1
0
0
0
0
2
3
0
0
2
2
3
0
1
1
1
7
0
1
1
2
0
0
1
0
0
5
0
2
4
0
0
0
2
3
4
1
6
3
0
2
0
0
0
0
0
1
1
1
3
1
0
0
1
0
2
2
2
4
1
1
0
1
0
1
1
3
6
1
3
1
1
3
1
8
2
6
1
1
2
0
2
0
1
1
2
0
0
2
1
1
1
4
1
0
0
1
4
0
1
0
0
0
0
6
1
0
1
2
0
0
1
0
2
2
1
0
4
2
0
2
3
1
2
2
1
0
0
0
1
5
4
0
1
1
4
0
6
0
4
0
0
0
2
5
0
8
1
0
0
2
1
4
0
0
0
5
0
0
1
7
2
0
0
1
0
1
0
0
0
1
1
2
1
0
0
2
0
1
3
2
2
0
0
1
0
0
1
2
2
1
3
1
1
1
2
0
1
0
0
2
0
0
0
4
3
8
1
1
1
0
6
0
1
2
1
3
1
1
4
1
0
1
1
1
0
2
2
6
3
0
3
5
0
4
2
1
4
0
0
3
0
0
0
5
11
6
4
5
6
4
1
1
3
4
2
0
0
0
1
0
1
1
1
3
1
3
2
0
0
0
7
0
2
0
0
1
0
3
1
3
3
0
0
0
1
0
2
1
0
0
5
2
3
0
2
0
1
4
2
1
0
0
0
1
0
1
5
3
2
3
0
0
2
5
2
0
1
1
5
0
1
0
1
0
3
0
7
2
2
0
0
1
0
3
1
5
3
1
1
1
0
5
0
0
0
0
0
0
3
2
4
1
0
0
5
7
1
2
0
4
1
6
1
4
1
1
2
1
0
2
1
3
0
2
1
1
0
3
2
0
1
0
2
1
2
1
2
2
1
3
2
2
0
0
2
3
0
2
0
1
7
5
0
4
0
1
5
0
1
2
3
0
4
1
1
1
0
1
7
2
2
2
3
0
0
1
0
0
1
0
1
2
0
0
1
0
0
0
3
1
1
1
0
4
3
1
3
1
0
2
2
1
1
3
2
0
3
1
3
0
6
1
3
1
3
0
0
4
0
0
0
0
0
4
1
1
1
2
0
0
2
0
2
2
1
0
0
2
0
1
0
1
0
0
0
0
5
1
0
6
0
0
0
1
7
0
0
1
0
0
3
2
1
1
1
0
1
0
3
0
2
3
1
6
6
3
1
0
3
0
0
1
4
2
0
0
1
0
0
3
1
1
2
3
0
4
1
0
1
1
0
0
1
9
4
1
2
4
4
9
2
3
4
2
2
0
0
2
6
0
0
1
0
5
0
1
4
0
2
0
1
0
2
0
3
0
1
1
0
0
2
1
3
2
2
0
0
5
4
0
0
3
0
2
1
1
2
1
2
6
1
0
2
1
1
4
1
1
0
1
0
1
1
0
0
2
1
6
1
1
1
1
2
1
0
1
1
1
0
0
4
0
0
0
6
1
0
0
5
2
3
1
5
4
1
1
2
0
4
1
0
0
1
2
7
0
0
0
0
1
0
0
0
1
1
3
5
1
2
0
4
1
0
1
0
1
0
2
3
1
2
1
0
0
1
5
1
1
2
5
0
3
0
0
1
2
0
3
2
0
7
0
0
0
0
0
0
3
1
0
1
5
4
1
0
5
0
0
3
2
2
0
1
1
0
3
0
0
1
1
1
1
1
2
3
1
1
0
0
4
1
0
5
0
0
0
2
1
0
1
1
1
0
0
1
8
3
2
4
0
2
1
0
0
0
0
3
1
0
0
2
1
1
3
7
1
4
2
0
2
1
1
1
1
0
0
1
0
3
4
2
4
0
3
1
2
0
2
4
2
1
1
0
1
7
0
1
1
2
5
1
0
1
0
1
0
1
0
1
4
1
2
4
2
4
1
0
4
2
2
1
2
1
1
4
0
3
1
1
1
3
4
0
1
5
0
4
1
0
1
2
2
0
1
1
1
1
2
5
0
2
3
1
2
1
0
0
1
1
0
1
0
2
0
4
0
0
1
0
3
0
2
0
7
0
0
1
0
0
2
3
0
1
1
1
5
2
0
3
2
0
1
0
2
0
1
0
0
0
1
0
0
3
3
0
0
4
2
1
3
1
2
0
0
0
2
7
6
4
1
0
1
1
1
2
2
1
0
3
1
1
1
0
8
1
0
1
0
2
1
4
3
1
0
0
0
0
1
1
0
5
3
0
0
3
1
3
3
0
1
3
0
2
2
1
1
3
0
2
1
0
0
0
1
0
2
3
4
7
2
1
1
1
2
1
1
1
0
1
0
3
1
4
1
7
2
0
3
0
0
1
1
3
1
0
0
0
0
0
2
2
2
1
3
1
1
2
3
0
0
2
1
0
2
1
0
0
0
2
1
2
3
4
1
0
2
3
4
3
2
3
2
0
3
1
1
1
1
2
0
2
0
10
3
2
1
0
3
1
0
0
0
1
0
0
4
0
0
1
1
5
1
0
3
0
0
1
1
1
5
1
1
1
1
0
1
0
4
0
3
2
3
4
1
0
1
0
6
3
3
2
0
1
0
2
2
2
2
1
4
1
4
0
1
1
2
2
2
4
4
1
2
0
4
7
0
2
5
3
3
2
2
3
3
3
1
4
1
1
1
0
5
3
1
1
2
0
0
7
0
1
0
1
2
0
4
0
2
2
0
0
0
0
6
2
2
0
2
0
1
5
1
4
2
1
0
0
0
3
2
0
4
1
9
6
1
1
3
1
1
2
3
0
3
1
5
1
3
0
3
0
1
1
0
0
1
1
1
1
0
0
4
1
0
1
0
0
1
1
0
5
0
0
1
2
1
0
3
0
2
5
0
2
1
0
2
5
8
1
2
0
0
0
1
2
3
2
3
1
1
7
1
0
0
0
1
0
1
1
3
2
1
1
0
1
1
2
1
4
3
1
0
0
0
0
3
1
2
0
0
5
0
1
2
2
2
1
1
1
2
0
1
1
1
3
2
3
0
3
0
0
1
3
0
3
0
3
2
0
2
0
0
0
2
1
0
1
2
1
2
4
4
0
1
0
0
0
1
1
1
1
1
0
0
9
0
3
0
2
0
0
4
3
0
2
0
2
3
4
4
4
2
0
0
1
0
0
1
0
3
2
1
3
1
1
0
1
1
0
2
3
0
2
2
2
0
0
4
4
1
8
0
0
1
1
2
1
11
0
1
0
1
1
2
5
0
0
0
3
3
0
1
0
0
0
0
0
7
2
1
2
6
0
4
2
2
2
0
0
6
2
2
1
2
6
3
0
2
1
0
2
2
3
0
2
1
0
0
2
2
0
0
0
6
0
2
1
0
0
2
0
2
0
2
0
1
0
3
3
4
5
12
3
7
4
3
2
0
2
0
1
2
3
1
0
0
1
0
0
1
2
0
3
1
0
0
3
1
2
2
0
1
1
0
0
1
0
1
0
0
0
0
2
1
4
2
0
4
0
1
5
3
0
1
3
1
1
1
2
1
3
0
2
2
0
0
0
0
1
1
2
3
1
0
1
3
0
1
0
2
0
0
0
1
1
0
2
0
1
3
4
3
0
5
0
1
0
1
3
7
2
3
3
1
1
0
0
3
2
1
5
6
0
0
0
0
2
8
4
0
1
5
0
1
3
0
0
0
0
1
2
0
1
0
0
0
2
0
0
1
2
2
4
1
0
1
1
1
0
0
0
2
2
3
4
3
4
1
0
2
0
4
1
2
0
5
0
1
5
0
0
0
1
0
1
1
0
0
1
1
0
5
4
0
1
1
0
2
0
0
0
5
0
0
1
2
0
1
0
0
0
1
0
4
0
0
2
0
2
1
1
1
2
2
0
1
2
2
0
2
0
0
2
1
0
1
0
0
0
0
0
0
0
0
3
0
1
1
0
2
2
3
1
2
1
2
0
1
2
2
0
1
1
1
5
0
0
0
2
3
0
6
4
0
2
5
2
0
1
0
3
1
1
0
0
0
4
0
0
0
4
2
1
1
2
0
0
0
1
1
0
0
5
3
0
10
1
1
4
1
0
2
1
3
6
2
2
0
1
2
1
1
0
0
0
0
3
4
1
6
3
2
2
1
0
2
1
0
0
1
0
0
0
0
0
0
0
2
0
3
3
2
2
0
1
3
0
0
2
1
0
0
2
3
1
1
6
8
1
1
0
0
4
0
2
1
2
0
0
1
2
0
2
0
2
0
3
0
4
0
3
1
2
3
3
0
1
1
10
0
2
2
1
1
1
4
0
2
2
1
5
1
2
1
0
0
0
0
2
0
1
0
2
0
0
1
7
1
1
0
2
3
2
0
4
2
0
3
0
2
1
0
0
1
0
7
3
0
0
1
0
1
3
2
1
0
4
0
2
1
2
0
3
0
0
2
0
0
3
4
1
0
1
0
1
1
6
5
2
1
1
0
0
1
0
4
0
0
0
0
4
0
0
0
0
2
1
0
0
3
0
1
12
1
0
0
0
1
0
0
0
4
0
1
0
2
2
0
4
3
2
1
0
0
3
0
3
5
0
3
7
0
4
1
1
0
7
3
3
0
4
2
1
4
2
0
1
1
0
1
1
0
0
0
1
0
0
1
1
2
2
1
1
2
2
0
1
1
0
5
0
1
3
2
5
3
0
0
0
0
2
1
1
0
0
0
0
0
0
0
0
1
0
2
0
2
0
3
2
0
0
1
1
1
2
0
4
1
1
0
0
1
0
1
1
1
1
1
0
0
4
2
1
3
1
0
2
2
0
0
0
0
2
1
0
1
7
0
0
0
2
1
1
2
2
0
2
0
0
3
1
1
0
0
0
0
1
3
1
1
1
0
0
0
1
1
1
2
2
0
2
3
2
0
1
1
2
2
1
0
2
1
0
1
0
0
0
1
0
1
1
1
5
0
2
0
0
1
5
2
0
1
2
2
0
7
3
0
1
1
0
0
0
4
1
0
0
0
4
1
0
1
0
0
0
2
0
0
1
5
2
1
1
2
2
2
3
0
1
0
0
1
0
4
0
1
4
1
2
1
2
7
0
1
1
2
3
0
3
0
4
3
1
0
0
3
3
2
0
2
0
1
2
0
4
0
1
1
1
1
0
1
0
2
4
3
0
3
1
0
1
1
2
4
1
9
5
1
0
1
0
1
8
3
0
0
1
1
3
0
0
0
0
1
4
1
2
1
4
3
1
3
0
0
0
0
2
1
4
0
0
0
3
1
1
0
0
2
2
4
1
1
0
0
0
0
0
1
1
0
0
0
1
7
0
2
0
1
1
0
0
0
0
1
0
0
2
2
1
2
2
0
1
0
1
1
3
4
6
1
3
0
4
3
0
0
2
3
3
3
4
0
3
1
4
0
5
2
0
1
0
1
4
0
0
0
0
1
2
0
0
0
1
1
0
3
2
4
7
1
1
2
0
0
0
0
1
1
0
0
0
1
2
0
1
1
6
2
1
1
3
4
0
2
1
0
0
1
0
3
2
0
0
3
4
3
2
0
2
2
1
0
0
2
4
0
0
2
1
0
0
2
4
1
2
2
3
2
1
1
1
1
0
2
0
1
1
1
0
0
0
0
0
0
0
0
1
7
0
0
4
0
3
0
0
1
2
3
1
1
0
1
1
0
1
1
2
0
3
3
0
0
4
0
1
1
1
0
1
3
1
0
1
0
0
1
1
1
2
3
0
0
0
2
3
3
0
0
6
0
1
1
5
4
2
5
1
0
1
3
1
0
4
2
0
1
0
1
4
3
2
0
0
1
4
0
0
3
0
1
1
0
3
2
3
5
0
0
0
2
1
0
2
0
0
0
2
2
0
2
0
1
1
1
1
2
0
0
5
4
0
4
0
3
1
1
0
1
4
2
2
0
0
2
0
1
3
6
0
0
0
2
5
4
2
0
2
1
1
0
1
1
0
0
0
1
0
1
1
1
2
1
1
2
0
0
0
0
0
1
0
0
0
0
1
1
1
1
0
0
0
0
2
0
2
1
1
1
0
3
1
0
0
1
3
0
1
2
3
0
3
4
2
1
2
1
0
1
1
2
2
1
3
0
0
0
1
2
2
2
2
1
2
1
4
1
1
1
1
0
2
0
0
1
0
0
2
2
0
3
0
2
3
1
0
1
0
0
1
0
0
0
0
1
3
1
2
2
0
4
1
0
2
4
3
3
0
0
1
2
0
3
0
0
0
1
0
0
1
0
2
0
3
0
4
0
0
0
0
6
0
0
0
0
0
2
0
0
8
0
0
0
1
0
10
1
0
2
1
1
1
0
0
0
1
0
1
0
4
3
1
0
0
0
0
0
1
4
1
10
4
3
2
0
0
0
1
0
6
0
0
1
2
3
0
1
1
2
1
1
0
0
2
0
0
2
1
1
3
3
4
1
1
1
0
1
3
0
1
0
0
0
1
0
3
1
1
3
2
2
0
0
0
1
1
1
1
0
1
3
6
0
0
0
0
0
2
0
1
1
3
4
1
2
1
0
4
1
1
1
0
2
0
0
5
0
0
0
0
1
2
1
1
1
0
1
1
0
0
1
2
1
5
1
1
2
1
1
0
1
0
3
0
0
2
0
0
1
3
1
2
2
5
3
0
5
3
1
3
0
1
0
0
0
0
1
0
1
0
0
1
2
0
0
0
2
3
3
2
4
5
0
2
2
1
2
2
0
1
1
1
1
2
0
2
2
0
0
1
0
1
3
2
7
5
0
1
0
1
0
1
1
0
3
2
0
0
1
0
3
0
1
1
3
0
0
0
2
0
0
0
1
2
2
0
1
4
0
1
4
1
1
2
1
6
2
0
0
0
3
0
2
2
3
0
0
1
0
0
8
3
1
0
7
1
6
0
2
0
2
0
1
1
0
2
1
0
7
9
0
1
2
0
0
3
4
0
2
0
0
2
1
0
3
1
0
2
0
3
0
3
2
2
7
4
1
10
0
0
2
1
0
2
0
0
1
0
1
0
0
0
0
1
0
0
1
0
1
0
8
0
0
0
1
2
0
6
0
2
5
1
0
1
0
0
1
0
0
2
2
1
0
3
0
3
0
0
0
1
2
1
2
3
1
0
1
1
2
0
0
1
2
3
0
3
0
5
0
2
0
1
0
1
1
2
1
0
0
1
2
0
0
0
0
0
3
2
1
0
2
1
1
1
0
0
0
2
0
3
0
0
1
0
2
0
0
3
1
0
0
0
1
0
0
1
0
0
1
0
6
1
1
0
0
1
3
6
2
5
3
1
0
1
0
0
1
0
0
1
0
1
0
1
0
0
0
0
1
2
5
4
0
2
3
1
0
1
0
3
2
0
3
8
0
0
0
7
0
2
5
1
2
0
0
0
2
0
2
1
2
0
0
0
0
0
4
3
0
0
2
0
1
1
0
0
4
3
1
1
0
0
4
1
1
2
0
0
0
1
3
1
1
1
3
3
0
1
0
2
0
1
0
3
1
1
0
0
0
4
0
6
2
1
0
5
1
2
4
1
1
1
1
0
0
0
1
0
2
1
7
0
1
0
3
2
7
2
3
1
0
1
0
0
1
3
3
1
7
0
0
2
0
3
1
0
1
2
0
0
2
0
1
1
1
1
4
1
0
4
0
3
0
1
3
1
0
1
3
1
2
0
4
5
0
0
1
6
0
1
2
0
3
5
2
4
3
4
1
1
2
0
1
1
1
1
3
0
1
1
0
0
0
0
1
1
1
3
3
0
1
1
0
0
1
0
3
0
0
0
0
0
0
2
0
0
0
0
1
0
0
1
1
1
0
0
0
2
0
2
0
4
1
1
0
0
5
1
0
3
0
1
1
0
0
3
1
1
0
0
4
0
0
2
1
0
3
1
1
0
0
0
3
0
0
8
3
0
1
0
0
0
0
0
0
2
1
1
0
1
0
3
4
0
1
0
0
1
3
0
1
1
1
2
2
0
0
1
0
1
5
6
1
0
0
5
3
0
3
1
0
4
0
1
1
0
7
0
1
0
1
0
1
2
0
1
0
1
0
3
5
2
0
1
0
0
1
1
1
2
2
1
0
0
0
6
0
3
1
4
3
0
0
3
0
0
5
1
2
4
0
0
0
3
2
0
1
1
0
2
0
0
2
3
2
4
0
0
0
0
2
0
0
0
0
2
0
0
1
1
1
0
2
0
1
0
0
1
0
1
0
0
0
0
0
0
2
1
1
1
0
9
1
0
1
1
2
1
0
1
4
0
0
0
0
0
0
0
0
0
3
2
1
2
0
0
1
1
0
1
0
3
2
3
0
2
0
1
1
3
0
0
3
0
1
0
0
1
1
0
0
2
1
2
0
1
0
0
4
0
0
0
1
1
0
0
0
0
1
0
0
0
2
0
1
0
4
5
6
3
0
0
0
0
3
0
1
4
0
0
1
3
1
1
1
1
4
0
0
6
1
2
4
1
2
2
1
0
0
0
2
0
4
2
1
2
0
2
0
4
2
2
2
4
2
1
0
0
1
3
2
0
0
1
1
1
0
0
2
1
1
0
0
1
2
1
0
0
4
1
1
0
0
0
0
1
1
0
0
1
0
1
0
0
0
2
0
0
0
0
0
1
0
3
0
1
0
0
0
0
0
1
0
0
0
1
2
0
0
0
3
3
2
3
0
1
0
0
0
0
0
3
0
1
1
0
1
0
4
1
2
1
1
0
1
1
1
1
0
1
0
0
1
0
1
2
0
0
0
1
0
0
2
0
0
0
0
0
1
4
5
0
4
2
0
0
5
0
0
0
0
1
2
0
3
1
1
5
5
1
1
0
0
1
0
1
0
3
0
2
1
1
0
1
1
4
1
0
1
2
0
0
1
1
2
0
0
4
1
2
0
0
0
1
2
0
0
4
1
1
0
4
0
0
0
0
2
1
1
0
0
2
1
3
1
1
1
0
2
0
1
2
3
1
5
0
0
0
0
0
0
0
0
0
2
8
0
2
0
0
0
3
2
3
0
3
0
0
0
0
0
2
1
3
0
0
0
0
0
3
0
1
1
0
0
3
4
1
2
0
1
2
1
3
1
3
2
2
0
4
0
5
2
3
1
0
0
2
0
3
0
0
0
2
3
0
1
1
0
1
0
1
5
1
1
0
1
0
0
1
2
0
0
3
3
0
2
0
2
2
1
2
2
3
3
2
4
0
0
1
4
0
1
2
3
0
1
1
0
0
2
1
0
2
3
1
0
0
1
3
2
0
1
0
1
1
0
4
2
8
0
0
0
0
0
0
0
4
2
0
1
2
1
4
0
0
1
0
1
0
1
1
0
2
0
0
0
1
2
0
0
1
2
1
0
0
1
5
0
0
0
0
1
1
0
0
1
3
0
2
0
4
2
5
2
0
0
0
1
0
0
1
2
6
2
0
0
0
0
2
1
0
2
0
2
1
3
4
1
0
0
1
1
0
0
1
0
0
2
0
0
1
0
0
4
2
2
0
0
6
1
2
1
6
1
0
0
0
1
3
2
1
0
0
1
0
0
2
2
1
0
0
0
1
0
0
4
0
0
1
2
2
0
0
1
2
2
0
0
1
0
0
0
0
0
3
1
0
0
2
0
0
0
0
0
0
3
4
3
0
1
0
1
1
1
6
1
0
11
0
0
1
0
0
1
0
1
1
0
1
0
4
2
1
1
4
2
2
3
0
1
3
1
0
2
0
0
2
1
1
0
0
0
0
1
0
0
0
0
1
0
0
1
1
0
0
0
1
8
1
0
0
4
7
0
1
0
1
0
1
2
2
2
2
0
1
0
0
0
3
2
0
2
1
1
3
0
0
0
0
0
0
2
0
0
2
0
0
1
0
0
1
0
0
1
0
4
0
1
0
1
0
1
2
0
2
1
1
0
0
0
3
0
0
0
1
3
0
0
0
0
0
0
1
1
1
0
0
3
2
1
0
0
1
0
1
0
0
3
1
0
0
0
0
0
1
6
6
0
1
3
2
0
0
2
2
0
0
0
0
0
0
0
1
0
2
1
1
5
0
1
2
0
1
2
2
1
1
0
3
2
4
1
0
0
0
0
1
0
1
1
2
2
0
1
0
2
1
0
0
1
0
1
0
2
0
0
1
0
0
0
0
1
3
0
0
0
0
0
4
0
1
1
1
1
1
2
0
0
0
2
1
0
3
1
0
6
0
0
0
7
0
0
2
0
1
0
0
2
1
1
0
1
1
2
0
0
0
1
2
1
0
1
0
0
1
0
0
0
0
4
1
1
1
0
5
1
1
0
0
1
0
7
1
1
1
0
1
3
0
0
1
0
3
0
2
2
0
5
0
1
2
2
1
1
0
2
0
0
0
0
0
0
4
0
1
0
0
0
1
0
1
0
2
1
1
3
8
0
0
0
0
2
0
1
0
2
2
0
1
3
0
0
0
1
2
0
0
4
0
0
0
0
1
0
0
0
0
1
0
0
0
1
0
0
1
2
2
0
1
2
0
0
0
0
2
0
0
0
2
1
6
0
1
1
1
0
1
4
0
0
5
0
1
1
9
3
1
0
1
0
0
0
3
0
2
1
1
0
0
4
0
2
2
3
1
0
1
3
3
1
0
0
1
0
0
0
2
0
0
2
0
0
1
2
1
0
1
1
2
0
2
2
0
0
1
0
4
0
0
1
1
1
1
2
0
1
2
1
5
1
0
3
5
0
0
3
0
0
1
1
0
0
2
0
0
1
0
0
1
3
4
0
4
2
4
0
1
0
0
0
0
0
0
0
1
0
0
2
1
3
1
0
2
0
3
0
1
1
0
0
0
0
1
1
0
2
1
0
5
0
1
0
1
3
3
2
0
0
2
1
2
0
1
0
0
3
1
3
0
1
3
1
0
0
0
0
0
3
4
1
3
0
1
1
2
3
4
1
0
0
1
2
1
0
0
0
2
0
3
0
1
2
1
0
0
0
1
1
2
0
1
1
2
1
4
2
0
4
4
0
0
6
0
1
0
0
0
0
0
1
1
1
1
0
1
0
2
2
0
0
2
0
4
2
2
0
2
2
1
2
0
0
1
1
2
0
0
2
0
0
2
1
0
0
1
0
2
0
0
0
1
3
0
0
2
0
0
0
0
2
0
1
0
0
0
1
1
0
0
5
0
0
0
1
1
5
1
5
2
0
0
3
3
0
1
5
0
1
1
0
1
2
2
6
2
4
2
0
1
0
2
1
3
2
2
3
0
1
1
0
1
0
0
0
0
0
1
1
1
1
0
0
2
1
3
0
1
3
2
2
3
0
1
0
0
0
1
0
2
1
1
0
0
4
2
0
0
1
0
2
1
0
3
3
1
1
2
1
0
1
2
0
0
1
0
1
0
0
0
0
0
0
0
1
3
0
1
0
2
2
9
2
0
3
3
1
0
3
6
0
1
1
2
0
7
0
0
2
0
0
0
1
0
0
1
1
3
1
2
0
0
1
0
3
0
3
0
0
0
2
0
0
1
2
0
1
3
2
0
0
0
3
5
1
0
3
0
0
0
0
0
0
0
1
2
0
0
1
0
1
1
0
1
8
1
0
0
0
1
1
1
4
7
0
1
1
2
0
1
0
0
1
2
4
0
4
5
0
2
1
0
2
0
1
0
0
0
0
2
5
2
0
1
1
0
2
1
3
2
3
0
0
1
1
0
1
0
3
0
0
1
2
2
1
1
1
2
0
1
0
0
0
0
0
2
0
1
0
1
2
2
4
6
0
1
1
0
1
0
0
2
2
4
0
3
1
2
1
1
0
2
0
1
5
0
1
1
1
0
0
0
2
0
5
0
0
0
0
0
0
0
0
1
2
1
5
0
1
0
1
1
3
1
0
0
0
0
0
0
0
2
2
3
0
4
0
1
0
0
0
0
1
0
3
4
1
1
0
0
0
3
2
0
0
1
0
1
1
0
0
1
0
0
1
0
2
3
1
0
1
0
1
0
0
3
0
2
0
0
0
1
0
0
0
1
2
2
2
4
8
3
0
0
0
0
0
2
0
0
4
1
1
3
4
0
3
0
0
2
1
0
1
1
0
3
0
1
0
2
0
6
1
1
2
0
2
1
1
3
3
0
0
1
1
0
2
0
1
2
1
1
0
1
0
1
3
0
2
0
0
2
1
0
0
2
0
2
3
0
3
1
2
0
0
1
1
1
2
0
1
1
0
0
2
0
0
1
1
0
0
0
2
0
1
1
3
4
1
0
0
1
0
0
3
0
0
0
0
2
0
1
2
1
4
4
4
3
2
0
0
1
2
1
1
0
0
0
0
0
1
5
3
0
0
1
0
0
2
1
0
0
1
2
1
0
1
3
1
0
1
1
1
1
0
3
0
1
1
0
0
0
2
0
2
0
0
0
2
1
0
1
0
0
0
0
0
0
1
0
0
2
0
0
2
2
1
2
0
0
1
2
3
0
1
2
2
0
1
1
1
2
2
5
0
0
0
1
0
0
0
1
2
1
1
3
1
3
0
3
1
0
0
0
1
2
0
4
2
0
0
1
1
4
0
1
0
0
0
0
1
0
0
0
1
2
0
0
0
0
0
0
1
0
0
0
2
1
1
0
1
2
0
2
1
0
5
6
0
1
0
3
6
2
1
2
0
4
0
5
1
0
0
2
0
1
0
0
3
0
1
3
2
0
1
3
0
0
1
4
6
3
1
0
1
1
1
0
0
1
3
4
0
0
1
0
1
0
0
0
2
0
2
2
0
0
3
0
1
1
0
4
0
2
2
0
1
0
0
0
2
3
0
0
0
1
1
3
0
0
1
1
0
0
0
3
1
2
0
0
2
0
0
0
0
0
0
1
2
1
0
1
0
0
1
1
0
6
5
3
1
1
3
0
2
1
4
0
0
1
0
0
0
1
0
1
0
1
0
3
13
4
0
1
0
0
0
3
0
1
0
0
0
0
3
2
4
3
0
1
0
1
0
2
5
1
5
0
1
0
5
0
0
0
0
0
0
0
0
1
2
5
2
0
0
2
2
0
1
2
4
2
3
1
0
4
1
1
0
0
0
2
2
0
2
0
0
1
1
1
2
1
0
1
0
1
1
0
2
1
0
1
1
1
4
0
0
0
0
0
0
3
0
1
0
1
1
2
0
1
0
0
2
2
0
0
1
0
2
0
0
0
4
1
0
7
0
3
1
2
0
1
2
0
3
2
0
0
1
1
1
1
1
0
0
1
1
0
1
3
0
1
1
2
0
0
0
0
4
2
2
1
1
2
0
0
1
1
0
0
0
0
0
1
1
1
1
4
0
0
0
1
1
1
0
1
0
1
2
0
1
3
2
3
1
3
0
3
0
0
1
0
1
4
0
1
0
1
0
4
1
0
0
0
4
0
1
0
1
3
2
1
2
0
1
1
1
0
3
0
2
1
2
2
1
0
0
0
0
1
0
4
0
3
0
1
0
0
0
0
0
0
0
0
0
1
1
0
0
0
0
3
0
3
2
0
2
0
0
3
2
0
2
0
1
2
0
0
2
1
1
0
0
2
0
1
2
0
3
1
0
6
0
0
1
2
0
0
0
0
2
0
2
1
2
0
0
0
3
0
0
1
1
0
0
0
5
1
0
2
3
0
0
1
3
1
3
0
1
0
0
2
2
0
1
0
0
0
1
0
0
1
0
0
1
1
4
0
4
1
0
1
3
1
0
0
0
0
0
0
0
0
0
1
1
2
3
0
2
0
1
0
1
1
2
0
1
0
0
1
0
5
0
2
1
0
3
0
3
0
1
1
0
0
0
1
0
0
2
0
0
0
0
0
1
0
0
1
0
1
1
1
0
0
0
0
0
0
0
0
11
5
3
0
0
2
3
1
0
3
4
1
0
1
0
1
1
3
1
0
1
1
0
1
1
0
1
1
3
0
1
0
0
4
0
0
0
0
0
0
0
0
2
0
0
0
2
2
0
1
1
1
0
0
2
1
2
1
3
2
1
3
0
0
6
0
1
1
2
3
1
1
1
0
1
1
0
2
1
0
3
1
1
4
0
2
1
0
1
3
0
2
0
1
0
1
0
2
0
0
0
1
3
0
1
0
2
0
2
0
0
1
0
0
0
0
1
7
1
0
0
0
0
1
1
2
2
2
