1506
1225
1160
1027
911
954
905
911
871
883
890
886
825
889
873
844
829
774
833
833
724
756
714
656
759
771
728
737
763
684
706
717
693
666
714
621
621
614
679
647
634
691
521
652
625
669
647
606
622
605
629
612
540
606
562
544
559
582
570
553
650
456
534
606
479
627
527
544
585
541
475
552
590
565
571
565
549
527
614
529
605
517
527
492
580
529
495
554
531
511
571
515
508
536
477
480
525
563
536
532
540
476
499
521
525
518
469
522
496
506
404
465
371
482
480
496
536
498
510
463
483
471
336
502
501
507
478
487
488
449
522
386
505
506
512
404
501
509
466
517
452
478
427
387
423
440
512
443
446
462
460
426
320
466
444
407
439
469
496
435
324
413
490
480
479
416
473
468
424
465
419
433
348
379
437
326
362
375
440
447
409
410
415
439
432
406
337
382
458
448
441
428
416
387
425
379
432
418
371
430
390
455
463
406
422
394
427
217
443
394
356
374
289
378
311
349
356
295
402
378
384
407
397
353
336
386
345
316
403
415
455
359
441
362
365
415
362
376
316
314
415
395
398
386
378
366
402
415
370
371
339
326
307
360
423
296
373
408
371
366
289
314
385
426
352
368
383
294
315
376
345
382
351
326
350
354
272
283
281
357
445
250
382
262
370
380
248
283
372
358
337
386
367
358
368
389
344
436
401
288
360
208
375
339
357
378
263
358
364
191
252
373
285
348
291
255
233
307
352
373
358
313
287
301
379
368
275
363
369
379
375
354
358
371
351
332
347
374
395
343
411
276
337
328
378
291
356
333
348
394
351
347
295
242
308
357
342
376
279
326
308
285
285
316
351
308
392
330
344
287
324
353
373
276
235
318
313
345
290
329
336
335
311
191
364
179
320
330
306
345
340
344
298
286
254
300
291
373
352
246
317
296
338
308
328
343
332
362
278
315
219
316
198
324
227
381
304
286
291
329
329
241
221
192
277
342
215
224
294
261
312
325
339
302
349
286
343
292
353
319
342
266
212
285
299
202
299
329
303
239
272
203
341
334
306
234
272
337
186
273
191
275
335
300
307
317
234
290
310
303
192
207
302
253
305
335
244
261
308
206
204
297
284
289
246
256
294
150
330
298
228
207
164
238
316
288
274
220
290
221
262
360
293
246
297
294
270
327
240
240
243
236
276
288
238
293
267
318
336
210
302
333
254
270
304
277
294
182
269
273
313
269
171
288
286
274
328
291
245
324
235
307
188
241
294
271
228
191
316
247
275
229
252
229
265
286
303
194
241
259
216
254
303
162
258
164
227
250
257
247
268
174
255
299
331
304
154
233
161
278
175
291
246
246
298
194
324
176
257
268
276
206
303
282
311
240
244
329
293
270
337
255
260
290
188
208
195
152
263
163
285
285
211
239
217
226
301
210
263
278
218
215
206
203
249
248
207
214
257
176
286
193
266
242
250
211
265
289
246
277
227
173
217
260
256
292
259
230
243
236
276
210
167
183
191
262
213
292
203
251
246
293
210
231
214
295
194
294
261
253
161
223
266
249
227
245
250
217
225
270
276
275
235
283
267
288
212
314
249
253
228
229
157
174
241
196
231
237
137
174
210
213
209
232
232
189
223
296
245
286
291
251
258
213
224
140
201
211
203
259
271
251
282
244
208
222
232
280
238
162
241
174
226
252
102
226
216
151
158
169
249
229
200
200
295
243
180
252
201
209
216
267
197
285
206
248
239
237
233
219
199
241
178
167
175
215
269
183
255
203
240
171
142
172
279
227
121
204
162
194
259
223
260
231
238
186
224
221
232
172
261
179
186
120
195
243
195
223
260
255
174
186
229
219
173
184
215
215
225
191
138
206
248
182
181
233
200
226
248
211
238
231
142
157
242
159
210
204
165
245
269
157
255
191
241
243
246
161
218
200
233
163
146
223
172
186
154
154
210
214
156
255
200
201
253
229
211
238
208
146
193
221
236
228
225
147
160
144
240
158
252
196
142
235
214
199
204
225
209
236
177
176
204
233
249
145
218
251
256
216
163
197
139
246
214
197
231
240
266
193
158
185
197
151
167
215
137
169
197
194
224
241
232
221
162
234
232
191
142
175
185
255
247
165
204
186
218
108
239
116
141
96
228
188
250
145
218
156
201
130
231
205
165
162
221
142
167
177
190
193
253
198
155
169
145
200
229
129
153
255
113
141
170
185
209
135
245
166
99
119
135
165
240
84
99
216
198
195
188
160
188
137
154
189
167
126
181
181
152
160
198
219
153
157
99
191
168
161
223
193
195
150
193
166
170
237
118
148
218
163
194
171
206
188
207
262
103
82
111
190
86
146
181
154
158
180
182
183
184
178
118
222
115
155
152
190
205
182
142
176
172
98
216
228
183
212
195
129
268
180
221
192
194
199
135
200
167
207
144
141
179
234
111
147
191
182
217
238
207
183
168
148
237
214
223
130
158
221
195
222
163
214
143
134
187
143
223
122
225
106
143
175
228
172
227
177
216
200
136
167
108
188
144
168
178
159
174
128
205
176
224
153
205
156
159
218
123
215
215
217
223
219
153
218
197
221
180
219
177
187
193
198
128
121
143
158
229
234
224
185
192
184
131
136
157
104
144
91
148
189
174
162
168
184
129
165
160
227
189
149
85
95
164
148
119
238
153
227
197
97
160
87
223
199
207
164
177
192
192
140
146
178
189
175
100
170
148
213
188
243
208
163
211
189
193
163
196
136
157
98
143
152
128
173
253
111
168
161
123
109
166
135
228
191
191
216
160
143
146
218
127
141
175
122
133
187
165
137
150
95
207
213
174
112
171
151
128
93
139
162
158
101
96
195
119
43
192
181
75
102
143
215
147
209
114
196
180
169
177
134
157
96
106
188
201
184
193
165
218
158
203
178
213
105
169
118
155
99
139
213
178
114
186
133
105
165
115
96
177
120
192
154
159
149
105
139
180
178
178
132
81
149
169
139
119
198
179
199
107
123
118
191
129
203
151
130
193
102
86
225
199
188
103
139
165
135
154
84
137
164
96
117
155
98
139
148
151
127
124
186
128
80
171
139
64
140
154
238
222
163
108
191
150
173
130
215
139
170
161
152
154
181
171
114
142
188
204
133
164
131
124
169
124
188
188
156
123
145
133
158
147
162
179
96
98
181
112
167
142
150
161
150
187
170
135
129
192
158
166
105
119
109
146
170
162
180
150
113
97
189
143
138
105
155
157
158
171
152
133
124
191
133
166
182
188
108
110
135
110
185
123
180
167
86
171
135
125
88
87
108
143
133
132
96
158
92
122
107
106
81
189
195
154
121
160
102
136
185
197
157
130
176
179
105
138
121
139
90
116
171
127
133
181
182
182
100
182
186
135
105
122
93
144
162
110
118
128
134
156
149
118
181
142
135
139
119
161
131
169
116
110
112
131
116
80
138
84
200
112
82
156
124
113
106
122
108
181
176
118
115
118
163
112
137
124
143
125
175
94
104
128
66
205
98
177
100
132
192
93
156
173
119
154
86
113
119
81
120
139
72
125
179
217
120
144
134
115
122
159
141
74
162
148
161
158
139
147
160
110
97
94
141
138
159
119
121
127
97
207
73
165
168
153
122
90
136
173
140
71
76
122
143
135
101
167
118
109
136
188
93
114
70
109
170
144
166
163
68
98
155
138
76
101
187
152
140
163
123
141
166
126
154
137
167
91
100
113
141
101
101
92
101
105
89
173
162
153
96
151
101
72
87
125
121
129
96
185
93
177
114
99
128
140
86
145
167
144
145
159
133
137
85
103
85
142
133
75
126
125
75
56
117
191
156
114
106
46
120
82
143
131
155
168
159
120
169
132
165
79
55
103
122
121
101
82
111
113
146
155
166
134
103
105
118
87
148
158
162
134
104
138
150
66
80
121
69
157
152
163
166
98
133
157
121
180
116
94
111
118
140
139
92
132
144
123
92
124
148
157
168
169
117
108
150
154
100
128
77
112
174
121
141
149
103
151
145
102
77
84
185
129
70
66
138
134
125
137
118
129
53
134
76
70
131
113
143
123
112
156
146
59
70
188
139
138
94
110
119
89
179
127
183
78
103
155
120
147
165
147
156
73
141
69
110
180
152
147
164
67
76
131
111
138
149
160
120
97
131
99
50
96
188
87
99
89
79
103
114
112
121
122
112
138
140
80
115
181
75
180
76
84
130
79
151
108
48
110
147
134
139
75
176
101
144
118
138
146
179
93
148
115
116
121
141
136
139
161
104
198
132
136
103
165
115
161
160
142
114
102
116
118
151
127
131
56
45
90
110
153
122
109
111
110
95
139
160
67
130
152
67
122
146
111
50
88
115
156
156
123
105
73
160
86
108
76
100
96
112
104
92
150
127
83
70
78
118
148
78
116
126
82
95
95
76
51
132
104
114
100
148
115
65
134
148
160
107
152
96
75
137
91
100
134
153
67
76
63
122
116
67
55
96
79
82
47
99
67
42
134
88
120
104
66
93
57
98
116
82
135
113
164
98
66
124
103
108
111
121
139
106
134
138
133
106
167
84
95
74
151
147
92
82
74
73
140
106
53
147
101
60
126
129
74
103
102
176
78
125
106
75
155
117
122
103
58
92
45
112
116
85
115
159
74
106
42
50
76
61
88
168
112
66
38
55
92
109
41
129
105
97
79
123
61
163
78
121
97
142
129
75
71
89
93
52
149
81
88
73
133
117
158
90
134
123
130
121
87
125
98
104
35
136
85
110
85
88
83
113
68
123
129
99
172
121
121
124
80
102
87
63
67
127
124
143
124
120
105
116
157
124
165
85
148
92
89
86
145
118
140
151
105
112
117
120
135
162
130
148
146
66
70
85
100
120
127
118
76
113
72
143
52
59
62
90
99
123
66
143
109
75
105
159
103
124
101
46
117
68
136
120
96
103
103
62
125
111
161
49
120
43
83
112
83
123
125
79
95
69
118
107
149
140
90
103
79
106
68
100
112
136
113
84
136
156
110
87
155
50
82
131
77
57
78
65
112
111
45
94
58
46
118
90
143
148
142
100
101
112
141
61
100
25
93
95
63
111
74
72
108
111
108
83
106
117
134
90
80
89
118
83
136
79
132
62
103
117
70
87
64
115
134
117
96
132
115
131
108
133
125
58
92
104
53
141
101
51
124
110
86
112
133
33
80
77
131
99
122
153
88
120
102
119
71
90
48
54
135
111
112
78
104
113
56
111
101
47
101
143
130
125
91
124
126
115
74
122
77
108
135
157
154
102
128
102
125
41
105
77
104
84
109
102
89
89
126
96
111
142
107
73
91
129
150
94
89
117
81
109
62
54
103
120
70
135
106
144
77
114
119
131
58
67
126
177
70
97
95
88
111
138
50
95
130
111
82
74
136
134
107
60
103
75
93
129
64
62
93
112
64
117
101
149
150
98
66
130
57
84
84
94
115
82
85
138
74
68
142
99
98
141
142
86
112
116
13
131
131
99
78
79
86
90
107
63
52
113
101
77
89
105
85
106
76
69
75
94
79
82
118
98
108
93
58
73
122
98
141
69
69
107
55
46
64
102
105
60
67
100
123
113
79
100
72
87
100
140
37
132
103
65
69
54
40
103
102
85
90
133
54
88
125
44
117
98
110
81
118
49
59
63
112
63
114
117
98
83
77
50
131
104
80
94
73
126
117
60
71
89
55
38
107
78
90
123
132
92
92
78
163
136
82
58
103
115
117
83
88
97
84
70
102
107
47
116
105
141
91
97
138
103
116
122
60
91
108
151
118
78
72
131
48
62
103
92
86
116
112
72
77
89
107
142
69
102
49
115
62
119
78
127
110
91
118
110
33
76
85
72
157
95
58
69
46
129
112
138
32
86
109
84
121
104
82
126
76
81
94
70
61
40
137
80
71
140
125
119
108
110
107
74
108
98
93
76
90
57
104
83
151
61
99
93
44
115
60
104
66
114
33
92
81
117
98
98
119
68
78
45
98
78
90
68
106
50
89
118
104
51
126
80
135
123
72
52
88
115
90
27
95
60
90
58
56
102
71
85
141
102
70
142
55
64
48
103
135
55
100
145
115
103
116
87
106
86
126
78
61
114
61
71
129
94
81
86
85
119
63
108
69
96
81
125
110
63
127
106
85
48
60
132
152
108
48
120
80
43
74
109
140
97
52
48
35
50
65
101
51
108
40
101
95
54
98
89
64
92
104
52
59
72
87
100
79
70
63
62
57
34
56
46
92
95
67
60
114
87
93
58
75
101
78
38
74
64
123
68
81
39
117
33
59
60
70
53
95
115
62
108
112
63
132
71
82
115
32
105
126
141
87
107
56
78
115
65
106
95
87
42
142
113
101
78
62
88
100
65
76
127
131
116
67
123
29
57
68
103
125
104
60
79
64
120
47
40
93
92
72
103
126
68
123
85
84
91
120
101
56
94
110
116
90
78
66
100
111
97
98
57
94
52
126
91
59
52
119
118
88
99
51
102
118
34
66
84
30
54
84
112
56
120
95
44
62
103
101
86
78
79
35
77
66
112
111
55
101
51
52
78
134
69
105
102
109
108
48
104
43
24
79
47
66
72
99
116
129
94
89
58
83
59
108
115
98
79
79
107
90
89
39
72
59
109
47
68
67
77
35
115
111
53
35
51
41
50
103
103
54
69
48
50
80
82
38
114
107
105
29
86
90
105
101
43
54
79
120
83
51
50
56
81
100
45
58
125
108
127
85
54
74
84
41
83
89
67
44
106
104
73
123
77
50
38
85
118
73
74
47
81
79
30
91
66
103
97
90
50
66
73
87
32
74
89
54
87
56
130
82
126
32
80
94
69
116
58
67
156
42
65
80
76
60
53
26
68
123
60
52
79
44
37
88
43
37
100
87
72
46
75
76
46
56
56
55
53
88
32
67
32
90
36
41
71
79
98
57
76
89
91
61
60
68
63
86
102
108
63
77
90
66
91
52
53
88
56
94
90
27
109
101
74
100
70
36
128
99
34
42
84
73
97
89
88
129
81
85
112
45
52
51
92
127
53
57
90
69
123
40
45
50
96
66
42
48
106
91
78
84
102
144
59
118
31
60
87
69
44
27
54
93
76
72
64
59
102
75
73
67
71
42
62
90
96
116
110
73
52
118
50
58
79
85
50
58
56
62
84
112
57
67
57
71
49
98
83
98
39
96
50
129
87
41
89
46
62
97
49
60
105
78
57
105
70
83
94
106
54
100
61
41
33
38
44
59
88
45
75
49
64
73
98
111
37
109
31
78
85
82
73
53
68
29
110
96
67
34
79
32
82
92
113
102
88
130
45
89
44
35
132
139
53
54
98
41
77
69
79
90
43
46
94
95
95
119
67
56
76
37
79
57
87
77
46
57
79
84
66
42
74
53
114
67
90
92
122
85
98
91
65
84
104
124
103
51
56
62
44
69
65
79
88
81
82
69
34
51
49
58
42
99
40
95
13
54
62
27
52
65
78
107
61
84
86
82
75
82
45
78
73
104
68
91
104
108
108
89
78
69
108
79
76
67
108
63
77
76
91
41
76
119
39
57
83
52
117
58
97
60
98
84
70
57
44
37
74
78
91
61
71
59
40
75
64
96
113
80
70
65
113
94
120
33
104
78
38
93
78
90
80
71
79
83
70
61
92
78
100
52
78
40
87
63
95
62
103
67
70
41
53
70
58
116
77
59
52
56
62
57
73
92
94
95
26
51
37
54
61
76
52
65
86
51
86
87
114
85
52
90
70
83
42
35
82
25
90
72
108
90
94
75
66
58
68
65
77
84
73
107
64
65
54
62
115
83
121
39
86
36
92
115
116
47
99
69
27
97
60
80
85
104
93
31
69
74
77
71
89
58
25
44
90
21
40
44
65
106
112
81
88
82
106
97
116
109
120
77
51
70
100
64
42
36
50
35
46
97
64
89
105
37
45
49
32
59
99
53
74
77
56
42
48
90
70
42
32
86
70
67
86
30
44
112
56
40
51
61
41
34
68
94
71
74
117
84
71
105
118
87
42
23
58
76
109
86
69
54
31
41
35
56
46
59
44
85
85
63
54
77
48
23
67
52
34
34
79
55
82
61
43
32
55
79
91
100
57
62
83
105
64
35
61
40
81
61
27
49
88
102
52
90
99
57
27
40
111
101
42
28
12
73
76
48
54
30
41
97
59
59
52
68
35
24
53
77
43
95
87
98
64
99
26
30
68
64
120
46
69
64
81
35
14
96
30
45
51
62
62
55
48
65
64
86
59
61
39
102
69
49
42
55
65
56
65
45
36
45
52
92
101
47
74
102
46
59
95
99
87
65
26
49
35
74
70
37
74
55
59
93
73
89
67
91
76
54
33
76
68
95
66
72
81
79
85
114
66
47
64
78
76
86
40
93
76
50
87
96
113
43
105
52
19
54
111
40
24
35
72
61
68
50
77
97
74
79
109
87
73
61
45
54
76
83
40
86
85
50
71
52
37
55
66
51
64
59
73
69
65
77
80
31
20
56
77
112
54
35
38
78
87
85
13
77
53
61
56
54
47
66
64
101
78
60
78
77
79
35
56
45
67
82
112
29
55
70
75
22
37
100
72
68
64
86
62
65
37
19
55
34
38
75
111
67
67
30
75
68
43
46
58
77
64
45
105
68
23
54
57
23
55
59
118
96
69
75
60
106
67
65
24
77
77
60
79
77
51
49
35
43
57
44
29
87
80
62
64
65
54
72
80
101
84
71
74
37
86
98
22
11
88
47
75
39
75
118
30
56
38
25
53
73
39
86
25
67
81
81
43
57
72
39
44
41
63
31
37
40
64
47
29
63
96
82
79
89
58
94
75
22
45
99
65
66
35
46
71
39
86
48
75
85
49
60
97
65
72
46
43
55
109
48
85
30
82
72
36
83
86
43
21
80
89
46
89
61
23
79
26
35
42
66
44
77
88
48
27
74
94
62
83
48
79
72
56
84
38
29
37
82
43
61
91
104
88
53
74
41
54
35
40
35
35
48
40
77
51
97
45
25
79
45
45
51
25
32
53
56
23
70
59
78
75
58
86
102
63
77
65
37
46
27
82
47
82
86
36
70
70
21
50
41
70
55
74
52
70
50
58
72
82
61
63
40
32
28
72
60
67
76
68
23
52
110
48
45
71
40
70
67
26
16
53
57
46
72
25
78
92
99
72
41
18
42
85
49
111
85
51
74
25
32
29
46
25
47
60
73
45
60
48
93
67
36
43
50
58
51
70
51
80
46
33
59
55
62
98
28
65
49
31
20
60
51
64
56
30
48
71
53
76
78
50
56
56
68
51
98
73
44
103
62
84
62
38
52
55
34
55
25
44
41
72
46
49
86
60
40
28
76
45
97
26
66
40
84
68
73
64
75
68
47
65
35
14
51
36
50
69
51
75
39
48
58
56
71
56
51
77
44
61
44
61
40
56
77
40
49
62
62
41
44
57
37
32
53
80
31
52
55
62
39
54
40
37
54
49
27
57
26
51
71
92
108
71
62
62
47
53
49
29
55
61
24
94
68
49
99
56
43
29
88
77
37
96
58
77
38
34
32
62
56
61
54
28
67
70
61
88
79
38
53
73
60
92
23
64
48
16
38
56
64
17
44
76
49
28
84
39
76
62
64
39
56
63
48
31
81
51
39
49
36
77
54
74
69
94
58
52
24
62
41
70
33
38
34
58
51
103
88
33
55
50
43
47
37
59
31
69
30
38
14
26
68
51
76
60
87
54
70
85
99
65
52
94
38
39
74
61
61
25
77
84
29
28
63
84
43
36
36
39
50
50
47
52
35
32
75
29
28
20
24
65
23
49
67
79
90
35
48
38
40
37
66
51
64
69
43
84
53
67
28
65
45
61
84
82
96
56
52
65
54
58
90
72
73
80
78
60
57
86
73
103
61
67
74
100
104
45
67
46
33
40
19
34
45
86
31
38
61
34
44
41
54
64
48
51
43
77
40
82
88
41
62
59
77
28
85
43
50
14
86
71
13
103
34
73
33
48
58
39
66
66
62
60
36
49
21
30
88
77
71
49
88
35
41
35
70
60
56
35
64
54
65
69
84
45
49
60
27
95
43
55
42
59
75
48
88
39
38
99
58
51
54
29
65
28
27
18
66
39
38
74
28
46
15
25
92
41
69
37
59
74
45
40
40
62
65
24
57
35
44
21
70
70
56
80
30
48
75
47
48
41
28
77
60
40
37
43
55
59
50
81
61
51
56
58
46
49
52
70
40
39
42
29
39
56
62
48
42
55
88
87
37
45
51
67
58
40
27
47
90
63
42
96
42
40
78
61
49
47
73
67
78
35
43
100
60
37
35
56
57
64
95
59
22
66
50
73
42
80
19
38
68
70
69
35
58
61
61
68
82
71
92
58
81
56
50
58
62
47
47
42
86
54
81
39
17
38
66
70
43
84
23
36
59
87
81
88
72
82
73
68
40
103
23
81
64
74
46
37
77
61
21
24
47
20
37
66
61
59
62
24
66
96
64
34
31
69
39
41
71
61
62
21
29
29
70
35
44
98
77
56
60
35
43
32
30
49
67
77
39
32
48
43
21
48
78
47
57
57
57
66
42
32
81
100
17
40
84
28
31
16
81
38
23
79
60
50
28
22
27
49
35
72
21
22
41
78
45
38
15
28
23
49
60
90
57
34
69
46
27
78
14
34
25
89
34
38
79
99
48
52
72
68
36
25
54
56
31
45
73
40
54
63
38
79
30
102
54
45
41
71
25
48
33
26
42
50
60
53
34
25
46
24
94
41
96
37
89
39
40
62
95
23
50
16
42
67
62
41
57
66
58
47
75
29
21
29
44
44
57
53
34
53
67
24
46
46
18
66
37
49
27
66
71
71
31
26
54
81
23
24
34
69
25
61
54
24
39
23
43
36
29
41
58
42
56
22
19
81
81
29
51
62
66
26
21
45
61
34
26
41
48
59
47
28
92
51
23
103
35
74
30
55
38
85
39
69
35
30
46
30
59
57
58
44
93
36
73
41
60
10
76
62
38
33
45
67
29
69
41
26
26
45
55
45
37
56
85
49
39
32
23
24
68
68
62
20
38
39
37
41
34
38
39
48
40
49
37
83
40
18
53
69
72
66
59
51
32
93
26
38
37
45
40
82
49
38
20
52
26
17
60
51
32
37
21
38
46
44
63
57
26
40
62
66
39
27
78
38
56
73
64
10
43
47
46
72
46
56
56
87
61
55
47
71
46
28
29
58
74
59
56
80
57
38
48
40
59
87
65
58
57
16
14
33
93
57
55
44
30
40
51
64
67
37
49
46
50
34
42
62
44
55
43
17
42
31
77
48
22
45
60
72
69
48
47
45
12
34
34
37
56
22
79
50
63
50
21
40
36
40
69
68
32
61
84
66
59
63
26
75
37
62
74
25
35
37
41
50
48
68
34
72
14
15
36
33
25
22
57
39
62
42
39
45
12
33
41
31
21
59
42
44
67
21
48
38
46
44
29
45
48
35
44
53
50
12
39
67
40
70
49
59
47
53
55
64
58
31
52
80
58
46
56
42
37
34
27
55
12
36
53
32
78
31
25
51
56
13
49
19
58
56
26
58
21
46
79
72
74
23
56
56
40
64
41
69
79
104
62
59
52
52
102
33
83
66
48
42
34
67
34
20
53
27
37
34
50
63
74
30
14
20
74
27
50
22
50
30
40
17
43
69
26
35
28
69
43
55
10
60
38
67
12
88
16
28
53
22
48
80
63
31
36
27
67
19
50
47
32
25
73
82
50
64
27
21
51
71
35
54
35
39
21
47
28
21
24
32
19
16
31
60
62
58
42
45
28
46
34
79
31
14
94
19
14
63
39
33
25
32
16
40
54
47
58
61
42
60
53
61
57
35
18
37
63
39
41
57
31
22
42
73
21
16
65
39
22
35
22
23
40
37
51
70
51
47
91
42
33
71
22
79
70
50
28
55
22
17
67
67
48
41
61
22
87
14
28
37
36
26
26
23
14
33
10
19
86
51
60
79
35
85
60
45
22
34
26
35
33
41
35
20
86
38
72
73
51
46
52
73
18
65
37
55
40
49
12
43
36
27
30
32
44
62
45
32
54
36
45
56
31
31
23
44
27
22
32
62
89
37
49
18
60
46
81
37
53
15
41
47
72
39
49
59
70
50
42
12
27
41
43
48
41
64
26
41
37
67
57
42
49
39
36
52
56
52
71
46
66
66
26
59
45
38
50
75
65
25
76
27
31
81
51
44
35
35
82
22
18
12
44
66
33
35
47
40
16
36
54
30
49
47
25
45
61
43
22
39
16
16
47
52
39
21
24
83
52
62
45
35
46
69
62
17
71
49
63
41
44
19
41
14
18
25
21
33
35
62
45
22
38
20
9
55
44
7
13
39
67
40
47
31
70
37
61
31
49
34
30
52
16
43
54
36
36
37
54
30
13
38
49
45
70
35
38
26
55
77
36
45
35
18
50
40
38
71
20
43
48
44
69
71
48
55
15
25
55
21
21
41
56
26
51
55
13
49
63
21
70
43
38
34
22
36
49
36
31
21
29
17
8
17
6
50
17
76
39
21
61
39
27
72
41
40
23
38
49
52
41
27
66
46
60
48
61
21
14
92
21
48
37
65
41
29
63
23
41
60
64
25
65
32
22
42
7
51
40
37
16
57
38
58
61
30
66
44
73
27
33
46
64
51
25
18
34
21
20
44
28
60
33
33
61
27
58
46
30
58
43
71
49
29
34
22
38
43
26
62
38
74
70
21
39
62
47
75
31
38
1
30
40
57
78
63
15
39
35
25
40
37
43
18
68
34
33
44
15
34
39
25
57
53
25
30
50
50
58
33
43
20
25
17
33
27
72
29
14
39
41
28
30
23
31
45
58
66
42
16
55
34
49
42
37
53
30
42
51
45
58
61
55
37
19
58
39
47
33
60
25
32
23
31
18
35
24
4
24
18
72
47
45
47
20
27
28
77
60
40
67
20
19
81
58
32
22
35
28
26
43
32
14
70
46
23
19
66
20
26
69
43
57
30
45
45
43
42
67
50
81
36
41
56
30
59
24
57
36
18
50
52
36
38
25
18
41
21
26
37
16
79
25
11
73
63
70
28
37
16
25
28
56
28
30
46
60
31
72
57
38
36
31
26
18
34
23
23
20
37
61
65
53
25
46
32
29
69
47
59
47
26
25
47
39
35
14
46
39
31
59
55
39
38
41
33
31
85
61
24
22
23
23
45
63
80
44
71
72
45
33
24
45
53
41
20
23
24
60
47
29
23
40
31
42
44
47
28
46
15
53
48
52
38
22
40
40
25
18
45
44
16
51
52
53
30
58
77
62
11
40
45
47
52
38
64
67
67
19
46
18
25
72
18
20
19
34
83
50
35
20
32
18
21
24
60
50
44
27
32
51
46
40
3
25
48
49
49
39
27
15
18
53
39
51
10
33
48
25
30
49
16
36
77
50
32
74
34
50
47
18
61
54
43
75
25
14
44
42
45
52
47
57
28
14
16
47
30
25
55
44
46
34
30
38
17
47
45
42
43
18
38
61
40
41
17
31
13
51
18
46
5
25
16
40
36
47
44
27
9
18
40
78
28
25
38
63
23
29
9
17
21
19
16
20
25
34
43
38
25
36
70
62
47
32
43
27
30
20
11
53
46
27
67
30
23
38
43
19
51
72
32
20
35
27
41
20
22
37
49
28
31
27
41
47
38
83
49
43
56
31
23
25
63
47
31
16
47
17
18
56
28
65
23
75
66
46
58
35
35
50
8
26
27
38
31
29
35
47
38
25
54
83
26
31
59
45
37
21
19
51
24
45
30
44
36
39
30
13
17
59
32
62
61
10
11
29
35
32
39
53
45
53
33
63
48
19
72
59
26
34
22
20
35
47
67
25
9
29
30
31
27
43
14
21
62
54
50
49
8
22
27
15
31
21
30
29
41
59
25
44
43
31
33
13
51
20
44
27
20
50
61
46
53
6
12
63
18
34
72
41
25
31
21
13
18
52
22
82
24
49
20
33
50
46
36
27
41
42
27
36
16
60
50
65
36
41
60
55
53
36
7
48
33
32
26
26
31
15
57
17
40
33
55
30
51
15
48
31
39
14
33
19
19
31
21
54
11
42
22
45
66
48
15
65
48
27
35
50
42
36
36
12
73
47
12
11
33
46
59
27
19
35
41
22
58
54
26
27
20
19
38
43
19
36
39
47
62
28
24
42
68
46
71
22
14
32
44
37
38
46
75
13
32
33
55
61
19
57
43
58
21
30
41
41
45
34
45
45
3
54
51
37
10
69
22
38
32
33
22
57
73
56
51
59
48
14
46
27
16
74
71
30
59
64
53
25
52
26
46
19
32
23
24
21
20
31
29
37
44
24
10
45
49
18
53
28
28
25
31
25
16
45
65
30
55
58
68
47
38
17
30
18
55
36
39
60
20
19
47
32
14
16
16
29
13
32
41
52
13
40
35
46
33
11
64
48
59
19
41
16
46
20
41
43
32
35
28
63
62
40
40
47
45
34
68
13
46
60
21
31
19
58
48
39
21
39
23
26
30
41
44
24
61
36
20
21
41
31
44
42
25
65
63
50
79
18
42
50
70
48
44
33
24
38
30
41
34
27
5
19
18
30
50
65
10
36
39
49
32
32
39
43
17
19
24
39
26
38
27
13
41
62
56
59
24
20
51
19
50
30
30
52
21
40
35
33
25
27
15
35
21
53
35
30
49
10
11
59
28
28
13
61
17
29
18
29
42
17
40
56
17
23
28
9
39
45
30
54
16
11
73
40
18
12
26
40
17
18
17
42
79
35
49
13
47
34
30
22
23
47
42
30
29
36
48
23
40
33
27
50
16
9
23
18
12
11
32
21
31
8
43
27
8
47
44
29
37
30
46
59
60
24
11
41
53
57
59
10
50
32
29
45
21
55
22
18
30
39
32
21
26
49
19
49
24
25
14
25
46
38
32
16
51
18
36
51
17
19
42
25
57
42
60
21
52
38
23
35
20
50
18
39
45
18
24
53
65
59
38
10
17
16
8
26
35
33
43
45
30
38
36
28
48
30
28
27
58
43
48
69
28
54
30
32
21
7
29
46
39
38
9
11
27
19
6
47
19
20
19
9
15
39
25
31
26
49
60
32
34
31
31
24
76
60
53
39
51
19
14
26
35
30
36
6
39
6
37
51
36
29
53
58
17
20
25
18
37
17
17
20
14
14
32
37
30
10
20
15
59
42
47
38
45
47
17
25
34
22
24
25
23
19
35
29
16
46
65
34
59
57
21
27
49
41
57
38
35
19
5
22
68
16
24
22
20
23
37
34
47
21
18
32
42
24
45
51
52
40
22
56
67
32
47
22
26
17
40
22
20
24
15
38
9
7
40
23
45
50
53
62
47
39
42
58
29
51
41
20
20
15
44
41
56
32
32
28
22
29
31
22
38
30
14
39
24
29
10
25
40
35
22
40
46
20
20
22
47
21
30
11
54
57
31
30
18
9
22
44
38
33
25
27
16
33
9
14
41
51
47
49
44
39
36
28
41
19
17
20
49
27
38
60
10
29
13
48
64
23
16
58
26
47
16
47
12
53
10
11
18
42
18
32
20
11
32
27
15
57
28
38
55
50
28
68
16
27
9
23
24
59
24
43
33
49
52
50
29
31
37
26
30
42
35
27
32
36
27
28
72
11
44
27
32
43
36
17
43
12
16
51
15
16
66
19
43
21
47
26
40
17
18
29
69
65
43
33
35
43
27
23
23
43
12
12
10
25
71
40
42
29
24
26
70
62
14
45
60
21
33
17
48
24
45
12
5
29
29
51
25
37
51
31
47
8
62
7
12
38
23
19
17
25
38
64
43
44
31
37
39
23
39
17
13
36
74
22
71
14
35
25
14
37
41
26
41
42
31
52
27
29
26
23
18
19
65
46
49
23
40
32
31
20
46
47
41
47
18
25
14
19
44
30
41
34
39
22
25
21
20
15
51
38
37
16
23
58
51
15
31
52
60
8
49
9
24
57
25
19
20
34
66
50
27
46
46
35
48
62
55
13
80
45
18
23
12
24
48
59
17
23
31
32
12
21
35
57
39
11
17
31
57
25
7
6
11
46
44
37
52
52
37
39
34
19
24
37
14
11
38
32
41
34
54
47
34
34
23
32
68
46
20
38
29
24
23
13
12
22
41
38
12
8
32
16
46
37
6
56
37
10
6
11
19
67
56
17
47
45
32
16
45
43
11
23
8
13
29
38
49
27
19
60
26
27
40
35
13
49
26
34
22
23
21
28
13
40
15
27
27
42
10
40
20
27
37
35
36
35
19
26
37
31
15
34
30
29
10
30
45
12
16
42
43
39
10
33
26
45
10
62
21
50
29
10
26
10
31
39
22
47
12
38
54
37
23
20
33
33
18
19
19
39
58
28
27
12
33
21
22
31
30
28
36
7
49
35
45
28
28
36
58
21
26
20
26
14
19
33
15
33
9
13
33
26
11
10
16
39
30
58
43
49
11
8
30
38
24
19
30
28
27
30
21
25
33
17
8
36
39
30
16
33
27
35
22
28
63
12
49
64
4
25
24
20
41
14
35
7
31
4
3
38
47
47
31
44
26
4
36
9
18
16
41
35
11
8
29
42
47
24
10
21
13
21
55
19
28
11
30
33
19
30
24
36
46
26
18
37
23
22
31
30
22
33
7
22
37
27
35
53
38
28
17
37
45
30
18
10
59
23
33
27
25
14
22
20
35
25
22
17
41
30
44
19
50
37
20
71
36
25
21
23
26
38
32
11
29
47
6
51
50
18
22
26
34
50
27
19
22
19
24
58
56
30
47
34
20
62
41
25
39
14
36
6
21
21
12
28
12
31
15
52
62
36
15
27
19
14
32
10
26
15
10
22
25
26
14
53
20
12
23
39
41
32
50
26
40
11
7
47
59
30
11
13
39
22
21
11
12
39
27
36
34
23
21
12
10
37
37
22
44
54
29
34
36
56
9
21
35
24
18
21
21
42
9
8
33
20
42
31
52
9
11
27
8
69
11
6
41
31
40
26
8
12
15
34
14
35
32
26
26
9
38
9
18
35
24
46
21
21
20
30
31
23
61
38
13
29
24
33
36
19
33
24
34
9
14
44
30
17
21
18
62
51
18
40
24
49
54
16
9
15
18
22
42
44
14
24
27
5
12
9
18
49
26
33
24
8
13
41
46
24
20
19
45
37
15
32
20
53
52
19
33
18
43
61
5
17
10
18
22
64
16
22
4
8
12
18
40
32
33
22
20
30
16
20
15
47
31
19
32
36
34
30
24
14
18
31
34
17
45
51
31
13
40
34
18
28
42
29
22
24
28
12
39
33
23
10
21
17
14
22
19
27
21
64
21
22
28
61
19
46
47
59
49
23
45
52
40
14
53
38
26
18
20
40
27
30
48
48
24
31
22
11
8
59
13
36
63
49
32
12
31
40
34
29
23
14
30
11
34
12
27
28
19
19
17
12
25
19
34
34
18
26
15
22
31
22
23
40
43
15
33
7
12
42
33
54
26
19
17
28
41
52
57
33
38
24
36
24
31
47
50
16
18
15
32
15
51
30
24
10
17
37
13
15
27
24
13
9
25
17
28
27
35
35
11
22
5
22
8
32
33
16
36
13
15
31
35
19
31
46
20
14
30
53
30
5
22
24
59
17
24
26
37
21
10
27
11
31
8
26
9
22
12
29
38
23
72
17
28
20
21
15
35
5
34
66
27
20
34
17
39
29
34
5
19
53
28
33
16
18
44
36
40
25
26
48
35
32
22
18
12
34
32
37
37
21
39
10
41
38
24
17
45
17
18
25
1
44
35
30
26
44
45
48
33
29
40
31
21
12
29
38
25
21
22
11
24
35
16
31
17
20
13
17
13
9
14
18
57
30
7
11
19
34
20
23
14
13
18
8
50
23
47
11
5
59
37
37
40
51
11
27
28
44
35
31
19
28
10
47
34
30
17
11
36
41
39
45
19
3
20
4
29
19
6
7
35
22
55
34
30
23
52
36
13
36
30
34
19
43
33
4
9
37
50
9
19
18
27
70
28
40
54
39
29
26
9
8
42
58
51
18
34
15
33
28
31
12
29
9
10
12
57
31
21
44
25
34
29
19
24
10
18
36
18
31
41
34
9
24
26
20
9
10
37
32
22
20
16
15
12
13
16
9
46
14
16
6
4
5
23
20
12
10
31
8
25
29
36
32
18
21
21
20
12
9
36
44
22
34
6
45
36
14
35
52
28
41
14
20
31
11
41
24
18
17
42
30
21
31
43
17
24
71
16
13
18
14
24
12
11
35
45
12
23
14
50
11
33
45
48
59
60
30
6
20
29
19
41
42
10
17
36
20
19
21
21
28
20
41
44
14
1
21
27
10
7
23
48
10
9
20
22
4
12
32
23
34
32
38
28
23
41
32
17
36
29
18
20
35
28
22
19
46
6
23
33
13
12
50
26
18
55
23
28
31
19
19
11
17
24
45
28
19
9
48
10
26
3
8
36
24
24
28
36
30
48
13
8
19
35
23
18
17
30
19
21
31
19
32
14
10
26
18
53
29
22
17
39
19
20
15
38
25
24
55
36
31
23
20
13
14
19
27
14
32
13
24
21
26
41
27
39
46
29
24
36
21
40
51
25
33
11
18
24
43
24
17
17
36
14
5
22
48
46
8
11
40
25
43
16
15
35
21
25
14
34
10
36
60
16
29
13
31
25
36
35
21
11
16
46
24
13
59
11
17
41
36
22
22
27
18
24
13
54
49
20
23
23
38
16
30
29
15
14
26
31
50
14
37
33
49
19
32
18
22
25
15
11
43
8
39
32
43
26
18
6
6
25
34
29
40
30
7
10
7
13
25
31
24
16
46
61
21
18
20
22
16
29
26
35
18
40
14
16
18
34
6
24
30
31
17
28
20
30
43
32
39
19
21
40
18
6
14
27
7
20
10
18
28
9
12
12
32
21
37
19
23
22
24
23
45
14
30
6
24
14
9
4
28
21
29
24
11
15
35
28
11
28
15
35
19
9
16
11
19
13
42
17
19
33
11
12
13
24
10
31
8
21
17
30
19
14
38
34
30
32
17
51
30
29
26
16
47
37
17
45
25
37
17
35
15
40
40
25
2
30
21
22
10
27
36
30
6
35
7
21
19
23
29
33
12
39
7
49
9
8
5
27
36
20
27
8
7
13
35
20
18
49
16
29
31
34
17
29
26
38
19
32
29
33
31
51
14
37
25
45
4
6
38
30
22
24
24
39
8
41
17
26
13
24
21
25
23
30
30
22
1
9
34
11
5
19
72
26
25
39
20
42
39
38
26
18
60
37
13
37
17
39
8
23
13
20
19
25
38
23
19
20
9
31
30
19
26
34
10
11
51
36
24
9
11
30
11
12
23
4
19
24
5
15
19
27
6
20
12
19
43
16
35
12
10
41
14
30
14
45
4
36
27
27
8
28
20
16
11
22
12
17
29
53
40
41
6
16
31
26
31
26
25
10
29
16
20
40
29
16
12
18
20
33
51
41
24
10
18
22
15
39
20
15
32
21
10
44
9
29
13
11
8
30
31
40
38
22
20
2
25
8
25
25
46
10
40
20
18
31
43
18
31
16
39
39
21
14
18
21
38
18
34
15
23
30
6
35
14
32
14
22
14
7
54
13
30
20
34
9
39
28
19
13
12
34
25
60
14
20
8
34
20
34
18
16
17
16
45
24
39
28
18
40
13
30
50
17
9
20
10
9
15
15
30
26
10
7
27
24
30
25
41
27
15
19
31
57
9
13
29
4
41
22
10
41
26
30
16
28
14
27
20
12
11
14
10
20
13
37
15
24
50
15
29
27
52
57
31
22
26
29
19
28
33
19
60
5
4
19
20
27
18
11
12
40
24
15
41
26
25
18
13
43
17
54
7
38
18
21
45
22
26
22
13
17
4
10
15
36
27
28
13
13
24
4
11
15
4
22
19
44
27
35
42
8
44
23
42
8
20
21
31
46
24
14
19
15
14
28
22
20
15
25
26
28
15
40
18
12
18
27
27
16
25
33
31
26
42
44
52
33
20
47
10
11
32
11
19
15
12
16
28
45
38
51
17
37
24
21
3
26
27
9
45
27
18
34
32
5
19
30
20
27
27
8
32
35
18
21
38
12
38
40
36
26
18
41
36
30
31
6
35
11
34
24
19
24
7
10
37
27
26
18
27
20
11
29
54
10
17
48
28
29
26
18
12
13
26
7
12
28
36
26
34
36
24
24
22
50
26
17
62
43
17
8
8
30
14
49
10
5
30
31
7
34
46
51
33
40
18
15
28
13
43
23
14
22
16
11
22
5
39
29
13
13
23
17
34
17
12
44
34
29
10
48
1
8
36
4
5
6
11
21
24
32
45
23
34
45
18
16
18
50
17
8
20
13
27
17
26
7
25
26
19
31
7
4
26
5
10
11
19
11
33
23
21
38
54
49
10
47
18
44
22
28
44
19
29
39
38
4
26
10
1
23
32
24
11
11
20
35
18
30
8
33
32
24
27
30
9
28
15
22
28
29
24
27
33
19
18
33
7
8
40
37
25
17
9
6
50
33
11
35
8
4
22
16
25
31
24
29
21
45
13
34
13
25
21
31
13
18
17
24
12
19
17
23
6
26
32
25
24
20
29
16
20
2
8
26
9
14
11
24
29
32
3
10
18
29
21
9
17
52
31
13
31
12
46
12
9
17
18
11
30
5
35
20
11
36
13
17
33
31
2
45
28
36
47
36
22
19
17
10
12
25
18
18
29
29
35
25
32
22
22
13
36
15
7
30
41
31
9
24
20
26
6
16
4
16
29
3
9
29
15
53
45
16
24
30
33
39
41
12
2
14
12
28
20
41
16
43
34
13
33
32
14
8
11
23
5
14
24
16
17
8
23
21
15
20
19
22
16
12
21
28
14
9
9
29
14
21
26
32
44
5
21
36
27
12
20
5
7
32
8
5
20
6
6
57
16
19
16
5
8
11
45
29
33
14
19
47
32
19
29
0
22
26
20
26
6
29
16
10
32
34
13
15
27
17
21
24
33
6
10
16
25
41
20
11
15
25
8
9
39
25
16
23
33
19
51
25
21
15
31
42
5
25
26
17
4
5
14
9
17
3
9
13
43
34
13
50
23
14
22
5
10
42
28
8
40
25
3
22
23
14
18
17
17
19
41
23
44
27
15
34
16
9
17
47
42
26
13
33
38
22
25
37
30
14
19
6
30
24
43
46
30
22
38
9
24
49
33
24
28
35
10
42
18
25
16
27
20
6
23
14
20
11
31
17
22
27
37
32
40
10
16
43
11
25
20
6
4
31
19
8
25
7
22
23
31
33
10
10
36
19
7
46
23
12
15
42
22
25
16
20
38
33
1
0
16
12
11
8
14
32
10
6
10
34
28
14
15
18
19
24
17
24
39
30
34
21
19
34
38
21
16
26
37
40
28
36
6
19
26
37
37
22
37
24
44
19
39
43
16
34
29
33
35
12
11
25
9
9
50
28
17
12
13
44
31
22
39
19
21
9
27
28
11
42
17
34
35
28
38
12
42
12
42
8
36
24
18
13
31
22
9
18
7
6
31
16
22
25
19
22
15
34
7
31
19
23
18
17
30
40
18
22
18
16
27
28
26
4
16
5
31
27
23
29
35
10
22
40
27
23
31
29
21
34
31
44
22
12
14
12
21
8
7
20
4
41
38
19
13
20
15
17
9
40
26
35
13
27
42
16
14
33
6
31
40
17
16
12
7
34
37
26
23
21
8
52
19
24
21
39
9
9
43
35
35
41
7
18
23
11
18
8
24
18
19
21
15
20
19
23
19
19
33
6
32
26
28
14
16
19
23
43
14
14
16
19
27
44
34
19
37
24
31
29
14
6
27
36
8
15
20
6
25
18
17
24
11
17
20
24
15
37
15
24
29
12
21
18
15
30
15
30
32
26
19
6
20
26
16
22
13
22
22
15
14
28
34
36
37
20
38
26
25
11
52
40
4
18
41
13
8
17
29
6
7
15
39
22
26
34
41
2
27
13
35
19
11
8
16
24
46
10
16
36
13
23
22
20
22
8
18
7
11
28
29
33
38
9
9
39
13
19
33
17
6
7
20
21
10
26
18
15
21
2
26
9
24
24
33
23
13
11
32
15
7
34
12
42
22
4
25
27
12
17
34
16
18
31
11
2
8
7
25
8
13
35
17
12
12
22
3
8
11
14
20
25
22
25
27
23
9
19
10
29
38
19
3
24
41
20
9
23
27
21
26
31
21
12
26
13
18
13
20
17
17
8
19
15
3
8
16
16
11
19
16
4
14
11
25
16
29
22
9
20
24
18
15
16
7
18
14
6
5
32
27
16
18
28
14
6
24
8
33
39
43
38
29
27
10
4
12
49
13
16
23
25
27
36
7
16
5
28
33
10
21
22
12
36
5
3
7
27
15
29
23
31
15
38
35
11
21
15
30
26
27
34
33
9
12
24
12
16
16
26
26
15
20
12
16
16
56
24
20
19
22
28
17
15
24
36
25
7
12
26
21
25
11
4
13
29
22
39
20
29
18
15
26
35
26
14
15
18
19
9
27
8
7
8
15
20
19
19
22
13
25
10
5
20
27
11
19
43
4
3
9
22
6
12
10
16
11
23
23
21
11
24
35
25
26
12
14
28
15
20
5
5
35
30
42
44
19
36
19
5
11
28
30
43
23
12
20
18
21
15
10
15
18
11
12
9
22
13
33
52
4
36
6
12
2
14
14
11
24
39
28
19
15
14
31
25
15
20
32
15
26
37
18
16
13
12
13
10
16
21
8
9
4
34
28
16
14
5
27
14
15
13
12
11
10
18
9
23
16
27
30
7
15
12
31
7
10
11
22
13
9
42
26
4
17
20
21
7
5
5
36
12
15
24
27
32
36
18
9
30
25
19
6
10
39
20
43
22
15
39
30
22
11
21
42
10
10
5
26
27
23
8
9
14
11
10
15
15
37
12
27
21
19
29
20
17
17
6
20
6
24
7
13
23
31
24
43
22
32
39
39
29
5
16
13
23
19
39
5
12
28
0
16
18
13
11
6
23
20
9
36
14
28
16
32
8
43
39
34
17
1
11
25
36
33
10
22
8
19
30
18
8
36
36
31
28
40
12
34
16
0
7
15
10
26
33
6
3
29
18
28
15
26
11
22
15
35
18
35
35
26
13
8
30
9
18
16
15
18
36
33
3
11
20
8
15
16
5
13
9
28
26
27
25
17
35
29
23
14
16
12
36
10
23
17
12
10
12
29
4
39
19
14
1
35
16
14
15
24
8
27
14
21
29
12
27
9
4
4
26
8
34
27
12
10
8
32
20
23
15
10
17
13
8
10
8
29
21
7
20
11
4
9
6
27
27
45
27
28
16
38
4
33
17
3
7
24
9
21
13
12
44
48
38
14
44
25
13
12
16
12
32
26
36
20
6
3
24
11
15
37
21
28
18
23
12
22
6
13
29
24
11
9
26
2
15
16
25
18
36
17
28
19
14
10
14
8
18
11
11
16
16
8
21
10
23
47
6
19
24
16
17
21
6
0
17
19
13
16
39
8
2
26
12
31
27
17
21
44
15
13
26
22
17
54
8
20
12
28
19
34
22
26
7
15
7
17
28
24
3
32
28
11
18
16
12
2
11
7
18
26
7
11
41
24
23
6
14
40
14
23
49
7
3
14
5
21
17
18
16
12
28
17
13
21
38
29
37
13
7
15
11
26
23
24
19
7
11
27
5
30
1
16
11
15
23
8
14
14
9
20
43
25
17
17
3
9
16
12
7
7
27
11
20
13
15
10
10
18
9
44
32
13
4
25
26
18
18
36
15
37
12
27
26
41
2
15
19
31
11
10
13
26
27
6
32
8
20
13
11
31
5
29
9
12
25
9
8
11
10
6
19
22
11
16
3
12
38
20
4
35
11
17
30
41
39
19
36
5
30
29
15
18
44
7
8
12
15
27
11
33
34
10
6
19
15
10
24
17
24
12
25
23
13
9
8
14
17
32
19
6
19
16
9
9
8
16
8
26
13
17
29
43
15
27
29
8
23
18
13
29
2
16
3
10
32
43
18
24
17
20
21
5
11
14
5
9
23
25
9
6
11
10
12
6
11
24
5
34
5
19
26
3
4
34
19
16
22
26
12
38
19
14
18
29
17
4
12
24
16
9
19
23
20
18
19
15
36
15
6
9
8
3
11
14
11
25
11
15
9
15
10
14
16
25
11
5
17
7
31
6
18
19
4
5
4
25
35
5
26
20
28
33
12
19
22
17
3
8
16
19
6
33
9
13
18
6
17
8
21
15
27
17
13
28
13
7
24
4
7
13
15
20
7
7
29
5
25
27
16
19
13
16
24
17
8
25
19
21
10
27
7
6
18
12
16
6
24
11
29
32
10
13
23
15
7
5
22
15
21
16
39
37
24
26
26
42
13
4
19
32
5
22
8
20
12
14
19
15
17
19
22
13
12
18
20
30
13
12
12
13
35
11
10
12
10
34
30
30
19
18
8
4
11
10
12
28
34
13
30
14
16
13
21
19
12
20
34
47
30
10
39
9
6
24
11
27
21
16
20
20
32
18
13
19
14
24
18
1
34
2
3
23
28
18
26
29
24
13
16
22
10
24
19
22
7
19
23
1
12
9
28
29
18
23
14
0
44
24
21
14
30
2
6
15
14
22
19
13
24
31
35
19
5
9
16
9
8
17
16
6
28
20
7
8
11
29
27
15
20
20
18
12
11
15
18
11
21
15
10
12
4
1
42
13
11
16
13
25
6
36
19
7
5
15
5
17
3
19
10
22
17
11
18
28
22
21
6
14
9
32
24
22
15
19
10
23
9
19
13
23
26
18
9
17
10
25
33
8
15
30
22
13
28
15
18
4
16
3
24
5
20
18
3
8
9
13
16
29
1
4
22
17
14
25
18
21
19
26
14
28
27
20
14
21
16
23
20
26
13
22
4
24
9
17
10
8
9
10
27
12
9
28
16
32
7
37
22
4
31
18
25
35
19
32
21
9
32
32
14
30
20
13
28
6
12
15
29
2
27
16
19
8
8
9
24
25
33
8
33
43
14
20
13
7
11
3
19
10
2
20
23
20
37
36
33
31
33
8
6
15
14
7
7
10
7
7
21
25
35
10
16
10
10
19
35
45
8
10
5
10
23
17
15
13
9
15
7
8
5
18
13
20
27
16
19
20
30
41
12
0
15
36
22
9
22
21
7
34
26
21
6
16
28
24
16
16
17
9
22
27
23
15
21
7
32
26
4
7
5
35
9
4
7
8
27
21
6
17
27
18
26
13
21
31
39
22
42
12
33
16
15
20
35
9
12
13
10
16
12
16
12
13
37
24
0
1
18
33
6
7
19
5
20
16
15
4
7
10
10
7
28
10
29
4
9
5
24
18
18
20
10
22
9
29
12
16
27
23
13
38
11
8
12
19
14
35
11
11
6
14
27
25
19
9
1
48
19
13
19
26
10
29
34
28
32
17
22
20
27
2
22
31
28
27
16
36
23
33
24
17
7
14
24
23
27
1
5
10
32
13
13
14
22
3
8
7
14
7
11
24
14
18
8
44
2
16
19
20
17
28
12
14
8
6
13
18
13
7
13
25
5
7
2
24
18
5
13
24
11
18
21
29
35
20
14
9
10
22
30
26
9
35
10
30
17
14
15
19
0
11
32
16
5
9
9
19
24
18
20
11
8
16
10
2
35
3
28
8
19
3
8
13
7
14
19
11
25
29
30
14
15
4
5
12
20
15
27
21
8
6
14
11
12
28
7
10
15
15
16
41
17
13
23
13
14
8
29
15
11
15
7
11
7
26
15
13
14
17
17
29
2
34
31
1
6
8
18
23
4
4
8
14
29
10
16
8
16
11
15
9
9
9
5
5
21
12
11
22
11
9
18
20
12
38
6
18
16
7
11
16
7
6
8
6
31
22
17
12
18
18
17
2
21
12
10
15
3
23
19
7
23
35
9
14
17
10
13
11
18
15
11
26
17
19
23
16
8
20
14
14
27
27
15
10
7
12
12
21
13
4
12
14
3
21
14
11
14
18
10
18
6
5
15
17
24
2
22
23
31
24
19
14
9
32
17
8
28
21
15
12
13
5
29
14
9
11
9
11
11
3
4
12
30
2
10
24
15
3
32
26
20
15
9
14
36
7
6
10
31
12
25
2
29
14
8
8
43
15
22
14
16
7
17
8
5
24
7
5
15
31
4
15
22
22
7
16
10
15
17
13
4
21
8
3
3
6
6
21
11
22
4
4
18
3
14
2
38
6
12
10
20
13
2
6
13
3
28
27
14
19
21
26
13
14
21
30
20
24
20
13
29
20
36
1
5
7
28
11
8
15
14
21
22
11
8
20
9
20
20
5
12
6
40
20
18
16
5
26
20
18
10
39
15
21
13
21
2
13
4
37
14
21
19
13
11
14
14
19
11
14
33
15
16
36
7
13
24
26
20
21
27
23
20
8
22
31
23
13
9
8
20
15
1
14
27
27
20
10
6
6
3
29
16
8
16
5
10
4
5
6
26
10
19
12
27
11
11
3
18
29
23
7
7
25
23
12
10
1
6
4
43
27
22
23
29
10
14
7
11
8
5
9
33
31
9
5
10
27
26
25
5
37
21
16
6
1
31
7
13
2
33
5
14
10
25
1
17
7
23
23
11
14
21
6
10
17
25
18
12
23
16
10
9
7
13
3
8
7
4
19
5
12
2
9
24
21
7
9
13
17
22
17
12
14
16
7
23
15
10
24
20
21
22
13
18
8
20
22
44
13
3
9
14
18
9
2
7
2
4
32
25
34
34
33
2
24
31
11
4
10
7
13
15
13
22
12
13
24
30
12
30
3
23
15
33
12
5
28
18
15
35
24
29
15
4
8
1
6
14
21
14
17
10
24
29
24
17
10
19
10
21
9
24
22
8
18
23
25
9
27
2
21
15
16
4
16
37
20
19
30
19
23
6
19
14
12
9
12
10
6
20
21
21
16
15
15
21
21
16
19
34
1
9
14
16
10
13
6
2
10
19
38
9
16
9
11
21
6
15
14
6
13
38
18
12
16
29
18
10
19
11
18
10
18
17
4
3
19
9
14
8
3
22
16
12
18
8
4
2
16
49
14
5
14
12
20
22
4
8
14
22
33
14
6
4
35
35
16
14
7
32
4
7
14
2
20
4
12
26
22
33
9
17
19
18
24
21
4
3
14
7
6
7
7
21
11
25
0
9
12
22
12
12
8
14
13
17
12
12
17
8
14
14
5
3
21
14
2
24
16
14
9
11
18
13
24
22
13
12
16
15
28
5
2
10
10
21
16
2
10
3
31
34
6
26
19
17
19
9
12
14
1
3
10
15
6
21
5
23
9
5
14
18
12
8
36
8
1
5
4
7
16
8
20
22
13
1
11
5
6
20
18
6
11
21
22
20
28
13
18
21
15
19
6
10
25
6
32
27
9
21
9
6
12
8
27
5
12
13
12
32
16
10
14
23
19
19
14
14
35
6
25
3
12
7
27
24
13
3
14
4
5
14
14
2
16
21
9
14
13
29
1
5
8
41
2
15
5
12
35
28
8
3
12
3
10
13
8
35
3
16
23
32
7
2
4
28
25
22
3
15
18
6
15
3
25
12
13
33
23
13
12
3
21
9
8
7
7
32
12
5
2
13
9
11
28
19
15
17
21
25
21
25
5
8
13
13
6
7
21
13
13
7
18
17
13
6
10
4
10
21
4
2
6
9
7
24
32
40
22
13
5
5
12
12
15
11
4
17
12
23
6
2
9
19
4
11
30
10
3
2
27
23
26
33
23
9
22
6
24
3
5
2
20
17
13
30
8
28
18
26
22
11
15
14
18
19
22
6
5
11
11
18
16
36
12
11
6
6
16
22
6
16
6
6
8
24
6
7
35
20
12
16
23
8
7
7
16
9
13
25
17
10
10
13
7
14
21
6
7
10
14
8
0
34
5
6
21
14
7
19
20
12
42
22
20
21
10
27
25
8
5
5
6
31
17
16
21
9
27
31
9
27
26
31
2
20
16
10
27
28
29
38
36
7
2
4
9
30
19
6
18
15
9
13
8
16
16
5
24
10
9
20
20
17
21
7
34
30
25
24
13
2
20
46
27
14
2
28
5
30
14
9
22
15
20
22
29
10
4
16
14
17
10
5
5
23
12
12
17
13
12
13
2
1
8
6
6
9
14
1
27
11
6
7
7
5
17
24
1
25
7
13
36
26
17
23
17
8
14
28
11
12
12
11
17
1
22
2
9
5
28
10
32
19
7
21
10
2
4
15
3
4
0
16
15
20
7
13
8
10
7
9
5
20
9
12
14
10
2
9
7
9
13
10
11
3
4
16
9
6
6
13
26
1
21
13
24
9
25
12
10
21
25
0
19
12
13
38
15
16
3
15
22
10
7
41
16
17
15
5
4
29
12
47
13
7
7
9
28
6
19
25
5
10
20
12
2
16
17
17
5
14
26
30
13
7
8
16
30
4
45
35
8
21
13
7
9
7
3
20
24
33
6
22
22
11
12
13
33
27
17
15
12
9
22
14
34
16
21
23
9
18
14
23
6
13
6
11
3
15
6
12
8
16
11
8
9
20
5
34
23
15
15
9
19
13
19
13
14
2
3
10
5
5
13
10
12
11
22
14
4
25
7
5
23
15
38
29
27
14
16
10
7
12
13
34
30
5
8
30
8
21
14
12
12
9
10
7
2
5
12
3
13
7
12
19
11
14
19
13
4
8
7
24
15
22
17
14
12
13
17
7
6
5
7
21
3
18
17
7
16
10
13
9
11
23
11
29
10
17
25
12
32
11
6
28
17
7
9
19
14
21
19
17
1
15
13
12
21
14
23
17
7
11
7
21
15
8
7
1
7
10
10
25
6
4
4
16
9
10
7
6
15
16
7
14
12
4
5
14
14
11
21
21
38
17
16
3
21
39
6
13
10
31
4
23
33
10
8
19
13
17
10
8
17
8
6
17
23
33
18
15
6
11
35
29
30
11
6
16
26
4
4
7
5
1
19
14
6
15
9
17
26
15
12
10
6
2
23
8
8
4
28
19
19
19
20
2
7
5
22
19
15
4
13
12
24
5
6
0
4
15
10
39
28
4
10
35
0
16
9
14
10
9
22
23
2
17
8
4
11
19
12
21
4
11
1
3
4
23
13
29
13
6
16
6
17
7
22
1
13
11
16
31
12
9
3
25
26
8
27
29
8
6
22
6
3
4
26
8
5
3
21
16
25
7
8
17
14
11
6
7
7
24
10
9
11
24
19
11
11
17
15
10
3
17
15
32
10
9
21
21
12
14
21
16
5
12
16
12
14
14
31
17
11
17
10
23
8
37
24
9
3
4
9
2
7
19
19
9
8
7
13
4
4
22
18
20
18
12
5
7
1
16
5
9
10
11
2
9
4
4
12
12
27
10
13
6
3
12
10
19
3
14
10
17
20
2
10
3
24
15
24
20
24
24
3
6
7
4
19
6
8
8
2
10
21
7
13
24
19
7
9
18
12
5
27
19
13
17
20
14
11
8
15
27
2
11
5
17
19
3
11
1
22
6
10
12
16
12
12
23
8
12
2
16
29
5
12
9
18
2
23
4
20
13
19
4
18
17
9
8
27
4
15
15
10
10
20
14
8
10
20
12
16
19
17
3
37
9
15
10
14
12
8
23
9
15
22
18
6
11
19
12
4
26
18
23
7
14
12
4
11
4
6
7
19
6
11
6
5
1
7
9
13
19
4
8
9
5
16
19
4
5
13
15
14
4
8
10
12
4
8
3
3
17
12
4
2
3
6
15
7
26
25
21
25
26
22
3
6
18
5
22
9
26
6
8
4
22
13
10
14
17
23
17
3
18
4
4
21
3
6
6
23
10
16
7
33
3
20
7
5
9
8
11
12
0
29
29
28
5
23
18
9
8
11
3
14
18
1
15
20
5
4
9
5
2
30
5
4
18
18
16
6
6
5
9
12
11
13
1
20
32
14
6
18
11
13
13
3
15
5
3
6
22
31
12
21
11
7
4
8
14
12
12
2
6
8
8
10
7
17
19
17
24
14
13
27
20
14
8
2
2
5
2
18
4
9
16
22
23
30
13
22
27
3
9
16
17
17
14
5
19
14
18
9
16
15
15
18
14
20
13
12
17
7
16
28
8
8
9
3
20
23
24
18
1
2
21
25
11
16
9
17
19
6
1
13
10
30
16
5
9
15
12
13
4
23
11
6
1
9
7
13
11
10
11
11
19
5
9
12
5
27
17
15
24
17
6
12
21
11
18
23
17
10
4
14
12
35
34
20
6
20
14
9
22
13
18
1
7
21
11
13
9
18
9
8
10
22
15
7
11
2
11
24
3
6
14
4
3
10
15
19
4
6
3
5
14
2
1
18
11
12
3
29
24
16
6
23
2
22
16
39
13
7
8
5
7
5
4
6
24
5
27
12
20
8
23
13
14
16
2
10
10
21
5
7
8
24
6
4
9
15
13
6
20
14
35
17
0
18
8
16
12
23
3
19
10
1
15
14
9
26
1
20
30
9
14
14
10
16
21
9
20
1
1
19
3
12
3
1
16
29
11
5
8
11
17
5
23
1
10
11
18
6
5
19
17
20
22
19
12
7
11
12
16
27
20
26
10
19
14
11
23
16
12
9
11
15
1
19
6
8
20
4
20
13
12
2
5
11
23
2
5
14
9
14
8
2
34
15
18
23
2
21
23
1
8
13
13
17
0
10
2
16
11
12
20
32
9
13
9
25
13
13
13
23
21
2
5
11
15
19
12
29
17
22
12
14
4
19
12
6
26
9
2
23
6
12
29
34
0
1
9
2
2
17
13
4
36
8
23
23
22
12
16
22
19
14
21
3
12
7
16
6
17
1
3
18
18
16
4
7
20
12
7
16
1
19
18
11
15
23
17
7
10
30
6
4
30
12
15
22
6
24
24
12
17
4
17
12
4
19
9
27
18
5
12
8
9
13
19
9
32
12
8
3
1
14
6
8
31
19
13
11
20
5
23
28
9
5
12
10
14
13
11
25
16
14
13
19
11
22
15
13
6
1
9
4
8
7
5
4
0
11
6
13
9
19
11
16
6
18
10
8
15
10
11
4
15
20
10
13
16
12
11
8
6
3
4
15
11
7
13
13
10
14
5
27
6
5
7
8
10
6
3
14
14
4
20
13
1
8
5
18
3
17
6
24
25
16
5
5
21
33
28
34
14
13
15
3
17
10
17
1
13
2
12
10
22
13
19
1
8
12
24
13
1
7
4
18
22
3
0
9
6
7
23
29
14
21
14
1
33
22
14
4
8
24
16
16
5
6
10
0
5
10
22
9
16
5
22
5
7
21
25
3
9
19
5
4
10
3
5
2
4
0
23
35
12
16
20
19
23
33
7
13
9
26
4
14
8
18
2
23
9
29
22
14
18
7
18
7
0
14
14
26
25
6
12
12
3
4
23
21
3
11
13
19
5
11
22
21
32
8
12
17
14
34
34
9
29
18
11
17
30
9
6
4
30
2
10
16
18
1
22
29
18
15
21
16
22
18
7
6
9
23
13
18
19
17
8
11
27
20
27
3
11
10
15
7
10
15
10
5
9
28
8
5
0
23
17
22
9
15
5
13
3
3
4
11
6
4
12
12
13
17
21
11
15
15
7
3
11
36
20
12
12
6
7
7
9
9
13
15
16
7
5
23
16
23
8
3
10
7
12
28
13
13
11
26
13
16
6
5
13
12
21
1
5
8
11
10
19
5
13
7
9
15
8
13
7
3
10
20
7
1
22
0
8
22
14
21
10
20
15
21
19
19
4
16
9
5
4
15
8
21
10
2
8
13
36
2
18
5
3
2
17
7
16
8
6
14
2
1
16
16
10
25
23
6
10
16
8
9
7
13
5
1
5
9
9
16
8
13
9
32
19
18
15
12
7
2
11
8
15
19
16
5
10
11
5
6
16
5
4
17
11
6
8
10
28
18
19
8
7
6
18
26
0
8
1
4
31
3
0
14
18
11
18
14
9
3
7
11
20
11
6
3
6
2
6
4
9
24
4
9
13
9
14
17
10
13
3
4
9
18
19
26
32
17
16
19
14
10
7
14
5
22
17
12
7
5
22
15
6
2
13
18
7
11
23
26
10
15
9
27
2
17
14
31
23
3
9
21
19
14
26
0
5
9
10
12
7
3
6
7
10
18
2
9
0
6
17
10
11
28
21
3
19
19
10
15
3
8
4
5
10
19
19
10
2
3
7
3
12
17
11
10
2
5
5
14
0
11
7
14
9
24
8
18
19
21
11
5
21
17
7
21
2
8
19
11
8
10
25
15
20
16
18
13
12
16
7
9
17
2
8
21
10
1
3
11
11
20
8
16
3
20
16
8
18
19
5
23
3
9
8
10
20
10
2
18
12
2
14
27
2
19
8
17
11
7
10
7
7
13
25
13
21
22
12
13
11
12
3
14
8
11
5
23
16
5
8
6
23
10
4
9
17
16
12
11
4
1
12
8
15
35
11
8
8
19
24
11
3
2
12
13
6
23
28
5
13
6
11
4
12
12
5
2
22
2
6
8
4
0
7
9
9
7
7
9
31
13
2
9
8
18
9
7
12
4
8
12
16
3
17
24
12
20
20
8
6
15
6
4
2
8
1
4
21
13
13
9
3
15
21
10
9
16
14
12
9
3
3
5
5
4
2
7
8
3
12
19
17
4
5
8
5
1
1
6
15
16
10
29
16
5
11
12
9
13
8
3
4
11
4
7
4
8
12
3
3
10
23
21
3
25
7
16
6
8
13
10
14
11
21
7
24
17
14
17
21
5
12
9
5
23
16
9
21
14
17
1
3
6
11
4
5
10
5
29
28
5
3
16
20
4
0
2
4
23
12
27
1
16
1
28
15
23
17
10
9
17
17
33
17
6
16
10
5
17
12
15
10
17
7
17
7
4
10
6
7
5
6
25
14
14
9
8
17
6
5
3
13
11
1
4
15
7
7
4
3
16
24
2
20
4
13
6
21
11
21
7
5
21
1
16
3
0
19
0
2
28
9
3
12
17
3
0
14
13
3
5
16
10
18
21
12
8
12
11
3
22
6
13
21
7
3
14
25
14
16
5
10
10
11
14
5
11
8
6
0
4
11
3
4
18
3
19
13
8
11
4
17
23
10
7
4
15
13
4
8
15
3
11
1
4
6
5
13
6
6
6
9
7
12
4
4
4
2
6
1
4
9
18
0
15
4
1
19
12
14
13
23
19
10
4
18
10
4
7
15
20
17
22
17
3
6
1
7
9
4
26
12
14
17
15
15
10
21
6
5
8
4
10
6
10
28
4
5
20
12
24
5
4
5
3
19
2
4
24
4
7
15
15
13
11
3
12
2
1
10
3
7
5
3
23
7
21
8
11
9
3
27
8
1
1
34
7
28
25
1
5
7
4
9
10
20
2
2
12
4
10
11
19
4
14
8
3
3
1
14
11
4
3
16
20
11
8
17
26
6
15
11
3
32
9
1
6
18
9
15
19
10
15
19
5
11
17
15
16
21
5
11
9
7
0
5
7
5
26
4
7
8
1
6
8
18
20
6
12
17
15
3
0
5
6
18
13
16
9
7
16
1
5
18
26
7
1
3
11
5
7
25
15
22
11
6
8
7
4
28
10
5
8
24
6
5
3
12
9
9
10
6
4
5
11
17
3
7
10
4
20
1
27
9
4
7
9
7
18
23
22
8
13
11
14
5
8
18
15
4
10
7
9
4
4
7
14
14
9
7
13
14
16
1
14
14
8
13
8
6
10
19
14
16
8
16
6
10
6
10
5
12
21
16
10
30
12
18
9
5
8
15
5
11
7
10
1
10
14
14
34
2
14
13
12
14
16
15
4
1
5
8
22
21
3
9
5
3
8
9
3
6
14
22
3
3
7
10
2
14
12
7
6
5
7
11
4
12
8
12
2
10
17
11
1
3
12
8
11
10
3
18
1
4
16
6
1
12
6
3
8
3
23
17
16
3
21
11
19
19
7
6
7
8
12
24
5
3
3
11
9
3
14
7
12
10
19
18
7
14
2
13
2
24
11
7
16
3
5
21
8
12
3
13
7
5
30
19
5
13
13
29
5
1
6
0
13
3
1
3
11
11
28
18
19
10
1
8
2
26
10
21
3
17
6
3
9
5
6
8
9
17
4
10
12
32
4
2
16
25
3
3
4
2
6
9
7
10
7
11
3
8
12
7
29
16
4
6
4
6
1
5
3
34
18
6
18
4
9
4
17
22
22
4
1
9
13
15
8
2
2
17
8
16
3
6
3
3
19
2
18
5
0
8
10
3
3
10
6
7
4
31
8
8
25
15
15
4
15
12
10
12
5
5
3
6
13
9
2
13
18
32
8
10
9
31
16
16
16
14
15
2
12
1
4
3
16
3
9
11
2
11
1
19
9
13
8
13
15
12
6
6
4
26
13
3
7
5
6
7
11
20
1
13
11
16
5
5
5
6
18
7
10
9
9
5
14
8
2
5
6
2
7
10
4
11
10
2
16
6
10
8
2
4
4
5
11
6
9
6
4
1
13
9
8
8
7
22
10
1
6
13
4
14
3
16
6
7
12
10
18
14
22
12
11
5
18
14
26
6
27
6
10
16
15
10
17
5
14
18
2
10
14
4
8
11
8
12
5
4
3
12
1
7
24
5
0
7
13
12
1
2
1
5
6
5
5
2
5
9
9
16
9
4
11
7
11
13
16
9
6
11
5
7
14
1
14
10
18
10
10
16
0
14
18
0
17
9
17
13
10
3
4
7
4
23
23
17
14
17
7
12
21
6
17
10
11
12
8
8
11
19
4
4
20
10
2
7
17
2
10
2
20
1
11
2
13
10
9
12
9
16
3
10
8
17
6
6
2
30
5
17
9
3
8
0
7
8
11
8
7
11
6
6
14
7
18
14
3
22
2
9
16
6
18
10
2
8
8
4
4
7
17
14
10
6
22
11
17
24
11
23
4
2
0
10
3
6
15
10
8
1
4
4
8
12
17
10
14
13
4
9
2
3
14
0
5
4
11
5
7
12
8
4
5
12
10
8
26
3
6
17
21
4
21
17
2
29
18
11
9
22
7
4
13
13
24
8
10
5
13
8
9
10
2
24
25
6
9
16
7
5
8
8
10
9
0
7
13
20
6
6
9
31
11
2
22
17
0
3
0
1
14
10
4
3
3
8
15
11
17
20
7
6
1
3
14
3
10
3
9
10
9
14
26
11
17
18
9
7
6
12
8
10
3
3
13
5
4
12
9
13
4
2
0
9
2
2
14
21
2
18
21
12
1
2
7
2
25
3
15
19
32
7
19
1
8
4
9
18
21
12
4
15
1
11
15
9
8
1
0
3
9
4
3
2
23
0
7
6
5
6
13
6
14
4
4
3
23
8
6
10
6
12
14
10
11
9
10
12
0
9
6
24
25
1
15
5
13
14
5
5
3
9
10
12
12
2
12
5
7
1
16
6
9
2
12
14
3
0
17
8
3
21
10
8
16
6
2
7
14
10
5
11
12
4
15
9
2
10
8
26
15
11
0
7
11
6
18
21
5
7
19
0
3
3
1
6
12
28
12
5
2
5
9
8
2
11
28
9
10
13
11
10
6
14
16
8
6
5
2
6
7
6
15
3
10
26
16
8
20
5
5
17
10
11
2
8
20
6
9
19
15
5
14
5
6
6
6
8
12
10
3
2
7
9
5
16
4
7
6
19
10
22
11
21
4
7
11
14
9
9
15
4
9
5
9
7
3
13
2
12
20
7
28
0
15
16
14
12
7
12
24
4
7
9
6
28
18
26
22
19
13
9
7
11
5
18
10
4
8
4
4
4
9
17
9
29
22
4
24
22
2
7
6
11
9
9
1
4
7
13
10
11
12
14
7
9
2
7
17
7
4
3
13
4
14
10
1
10
7
9
4
6
0
16
12
2
2
5
3
7
6
5
5
4
3
7
4
8
11
12
1
14
11
14
11
13
1
12
12
5
19
5
0
10
6
9
17
11
4
3
21
11
4
19
10
2
10
7
17
7
5
3
2
17
6
20
30
23
1
1
3
4
1
5
6
17
14
27
4
22
1
8
7
9
2
6
1
8
15
13
2
1
12
5
5
20
7
10
2
5
10
14
10
2
25
3
7
19
13
10
7
8
2
1
11
10
11
1
6
5
6
4
2
8
17
3
3
1
13
6
19
12
19
12
25
21
13
15
7
2
12
9
5
13
17
8
28
3
7
1
10
7
2
19
0
4
8
18
20
1
5
8
12
8
7
17
5
6
6
7
9
14
25
19
3
7
5
10
9
6
2
6
13
10
9
20
18
10
19
0
6
3
2
5
6
4
9
15
6
5
6
15
6
11
9
11
0
2
2
8
2
7
1
35
5
9
7
24
10
10
5
4
8
12
19
26
22
6
2
9
8
2
3
0
3
1
12
1
10
14
14
6
2
7
3
3
1
2
5
26
6
5
7
2
10
8
9
3
1
6
9
14
2
7
2
1
5
3
2
19
3
4
2
6
6
5
10
3
2
2
15
8
1
14
9
5
3
3
10
5
11
19
24
8
23
3
14
15
9
23
6
7
5
5
4
13
4
3
3
8
13
0
5
4
8
0
1
3
3
8
2
2
3
8
20
1
9
7
4
15
2
13
19
11
10
5
1
2
8
4
7
6
4
5
8
1
7
5
13
3
3
16
7
11
11
10
2
4
15
1
7
10
21
8
30
11
17
12
15
4
4
6
6
6
8
1
3
12
10
14
17
1
1
4
2
21
7
4
5
5
4
5
11
6
8
11
12
11
2
3
3
12
7
2
6
7
4
12
13
17
17
5
3
7
7
13
20
19
10
3
8
19
9
11
0
4
13
0
4
6
8
15
6
17
12
4
3
2
3
6
24
11
1
2
5
13
3
8
1
12
10
13
20
26
3
15
5
5
3
5
7
4
12
4
1
18
7
9
11
12
8
14
3
16
6
4
15
17
5
8
13
8
10
7
15
4
6
11
2
2
18
13
15
7
2
1
1
9
4
10
28
2
10
9
2
13
5
16
22
0
18
11
10
12
6
13
5
1
11
7
13
7
4
9
9
8
12
9
6
9
14
19
9
3
18
8
13
2
3
20
19
13
11
11
22
9
12
6
13
15
12
4
9
4
3
14
25
3
6
3
11
12
5
7
10
6
4
14
2
16
22
1
7
5
21
4
8
13
10
1
10
3
14
2
5
6
5
2
2
3
2
5
8
4
18
26
0
3
1
5
9
15
23
8
5
8
0
2
5
19
5
1
7
0
2
5
2
6
5
4
9
9
4
16
8
13
6
17
12
7
8
3
4
12
2
4
8
2
4
9
8
16
8
4
4
3
2
1
14
4
1
0
9
8
4
11
10
7
1
8
13
10
6
9
3
15
3
10
6
3
8
9
2
26
2
2
4
14
0
10
18
8
4
4
9
2
9
9
8
20
8
9
3
24
5
14
9
20
10
7
4
3
23
6
13
5
1
3
8
1
3
1
11
15
10
5
5
6
10
13
8
20
5
13
7
10
6
16
5
21
7
11
5
6
25
2
1
8
1
9
5
10
13
2
5
7
8
7
23
1
3
5
10
8
2
15
22
6
11
7
10
9
4
2
8
10
20
7
3
15
3
7
3
6
12
8
6
1
1
14
7
10
7
12
6
3
21
21
14
0
7
16
14
12
23
18
10
7
9
8
11
2
11
12
10
15
12
15
5
12
10
9
18
4
5
13
14
6
2
8
10
5
13
4
0
10
21
12
23
10
17
5
5
10
6
4
20
9
7
0
4
13
4
1
2
2
2
5
12
9
5
10
8
9
7
7
4
2
7
13
7
10
2
1
2
15
9
4
1
9
5
4
8
3
23
3
6
6
1
7
12
10
2
6
13
9
4
7
9
18
0
19
20
11
14
11
0
18
8
3
4
15
11
13
18
2
6
11
1
18
16
8
1
2
18
4
6
10
12
8
9
0
18
4
12
4
11
14
8
3
2
4
3
10
14
4
10
2
6
4
4
7
14
7
2
10
8
6
4
3
13
12
14
6
13
7
13
13
4
8
12
3
7
5
3
9
2
0
2
10
9
7
1
9
1
11
7
4
10
4
19
9
17
16
1
7
2
5
4
14
12
6
13
8
5
8
12
2
15
3
14
16
1
1
5
11
16
8
9
7
10
2
20
13
14
14
7
18
8
12
8
17
0
2
5
0
7
11
5
10
12
8
3
3
7
6
6
5
10
11
5
12
4
8
12
2
13
11
13
3
5
11
13
12
0
0
0
10
10
5
13
6
11
12
18
6
8
1
6
7
10
9
5
7
10
7
6
4
5
4
7
16
9
15
9
6
5
10
14
8
17
5
10
12
18
7
24
5
7
4
12
6
15
3
7
9
6
8
2
4
6
2
3
5
2
0
6
7
8
7
14
5
19
13
5
7
4
9
12
9
10
2
6
13
2
10
4
13
15
9
7
5
7
5
8
16
10
9
4
6
7
17
5
7
5
7
5
12
8
18
3
7
9
7
14
3
10
10
10
14
13
22
4
4
10
5
1
7
0
12
4
15
4
13
11
24
3
4
0
3
14
16
11
12
7
8
19
3
14
13
10
13
12
12
10
13
6
20
6
9
10
2
2
3
4
5
12
9
15
2
11
10
7
0
5
9
13
3
3
4
0
14
7
18
8
26
6
7
13
8
21
1
4
7
14
2
9
3
0
3
5
8
1
3
15
7
17
10
6
0
8
6
6
13
1
5
10
3
21
16
6
4
25
13
13
19
8
2
16
9
15
3
17
23
21
8
22
8
6
11
15
13
9
22
6
9
10
7
4
0
3
3
15
5
6
9
1
1
2
9
2
2
15
18
7
18
1
3
2
7
6
2
3
7
1
7
5
5
9
11
13
5
6
8
4
10
11
4
2
2
1
16
4
8
20
7
9
0
10
1
20
8
14
9
13
1
0
7
7
3
10
4
6
1
2
4
14
4
3
5
9
1
9
6
3
3
3
17
22
7
9
2
10
1
3
11
10
11
6
5
11
12
21
20
3
7
17
8
3
8
2
4
8
3
16
16
24
4
9
4
8
6
1
1
3
7
5
11
10
1
26
4
1
7
5
22
6
2
8
13
9
8
5
8
1
3
11
11
5
6
2
9
5
10
13
11
18
4
3
3
13
18
15
2
5
8
7
8
11
3
14
4
0
8
3
0
15
13
6
4
5
16
6
6
13
10
9
7
12
6
10
3
10
3
1
16
19
15
1
5
5
1
13
7
10
14
7
4
4
1
2
7
9
5
27
8
5
1
6
17
7
4
3
3
27
9
7
15
1
8
7
10
19
6
1
4
5
7
12
15
4
7
10
17
7
1
10
8
7
17
5
6
2
6
4
4
3
3
9
11
12
0
6
5
5
12
6
1
11
13
12
8
4
5
2
10
5
6
1
5
3
11
9
2
5
10
3
20
15
0
7
22
2
15
4
0
6
5
2
8
3
7
8
4
2
6
9
5
1
3
14
3
9
5
16
0
3
9
7
3
6
5
10
11
9
11
22
4
15
4
7
17
17
7
14
5
16
6
3
8
4
16
8
8
5
5
5
2
10
0
8
15
5
10
10
4
12
13
13
4
1
15
1
10
12
10
4
9
9
4
13
2
10
4
8
7
20
3
5
6
5
6
6
18
12
0
7
10
8
9
3
16
13
8
6
21
8
9
10
20
19
4
14
3
1
13
8
7
5
5
6
3
8
4
17
10
1
3
3
3
3
2
16
16
6
1
3
4
3
7
9
8
3
1
1
5
16
6
4
3
5
13
11
3
6
1
15
3
4
18
3
2
8
13
4
7
19
6
5
3
1
0
19
6
14
5
7
9
8
6
3
10
8
9
15
2
4
7
1
6
17
0
5
7
4
8
5
3
5
20
3
6
6
15
10
4
5
9
12
9
11
19
5
10
1
3
10
8
5
2
11
13
5
3
6
4
8
17
9
4
5
8
1
6
9
12
9
4
4
7
12
3
17
9
13
11
3
12
9
1
7
4
5
9
1
6
3
18
7
17
1
6
4
5
4
13
13
15
10
1
11
11
16
2
7
1
5
9
6
12
1
4
6
13
8
6
2
3
12
10
14
4
15
11
15
7
13
7
20
13
4
8
2
2
10
21
16
8
2
2
12
7
7
8
4
3
18
1
4
16
12
10
4
6
5
19
2
4
6
2
1
3
2
3
0
2
8
3
8
5
14
1
6
11
6
5
16
1
1
6
18
5
2
7
7
6
12
7
7
3
7
5
8
4
12
1
14
4
18
12
23
1
4
14
4
18
7
10
11
8
6
5
12
1
9
3
1
9
11
5
10
5
20
10
3
4
2
10
1
5
12
9
9
0
0
21
27
3
6
4
14
3
5
14
7
8
11
16
2
5
5
7
22
8
4
4
6
11
11
1
7
8
0
5
10
0
9
4
0
4
8
13
1
15
16
2
17
9
15
17
3
22
19
6
4
9
6
5
3
7
1
4
6
2
0
6
5
1
6
2
3
1
4
6
9
9
7
13
6
11
4
10
2
5
4
7
6
3
3
5
8
3
23
4
5
3
6
12
6
11
19
1
15
0
6
2
7
4
7
15
11
9
5
6
13
12
6
5
7
1
9
3
3
4
7
4
11
7
2
4
8
1
5
5
3
5
2
4
6
5
18
23
8
13
6
1
19
6
2
4
15
15
22
0
1
1
10
4
7
14
5
3
1
2
3
4
10
4
10
6
13
3
8
7
7
11
8
5
9
0
18
9
14
21
2
3
11
11
8
11
8
8
1
5
3
0
7
6
4
10
12
15
3
4
10
6
8
6
7
18
12
11
11
10
4
7
9
6
8
8
5
3
6
8
4
14
1
0
2
14
0
0
6
1
3
2
4
6
2
0
9
5
2
9
15
4
10
0
7
15
2
16
12
12
0
3
0
14
10
14
3
2
8
7
15
11
7
4
2
3
4
0
1
2
8
0
10
3
3
4
7
7
6
13
9
2
11
11
0
16
1
6
16
13
23
9
6
9
8
6
1
2
0
10
7
2
2
7
4
4
3
6
3
14
0
12
12
6
6
7
6
6
6
6
1
5
12
3
11
5
13
4
0
1
6
3
5
0
8
6
12
8
15
3
3
18
8
14
8
1
14
19
7
1
9
8
1
11
2
3
6
3
8
14
0
5
12
2
16
4
9
0
3
3
21
9
12
12
0
16
22
1
4
2
29
8
6
20
3
10
2
1
10
2
1
5
5
23
9
0
9
4
7
15
9
8
4
6
5
4
6
4
2
5
14
10
17
5
25
2
8
12
12
7
11
5
3
19
21
2
2
8
4
2
5
8
8
3
1
11
7
8
7
12
9
13
11
1
9
5
10
5
7
2
2
3
4
4
4
1
9
2
1
13
6
9
3
6
4
5
6
2
2
6
3
3
0
12
0
4
6
4
6
1
16
17
11
4
4
4
5
6
2
6
0
25
9
3
4
8
14
5
17
6
1
5
2
2
0
1
1
4
1
7
11
9
12
10
0
7
15
2
2
6
6
3
15
6
15
16
10
17
8
15
8
6
2
8
6
1
1
4
4
9
12
5
4
2
10
5
6
4
7
5
7
0
1
13
11
0
11
8
7
12
4
5
8
13
11
10
2
11
4
17
6
12
7
1
4
25
7
5
3
2
4
3
11
0
9
18
9
12
7
8
16
11
0
6
0
13
10
1
9
6
9
1
5
5
12
4
5
8
4
2
14
6
7
5
15
4
7
6
10
12
6
17
1
6
3
16
11
15
5
4
8
3
14
6
16
7
10
9
3
7
18
4
4
0
7
6
0
3
13
13
7
4
4
11
7
6
2
9
3
5
4
6
5
5
15
9
8
4
11
2
12
8
11
3
8
2
2
11
19
3
4
7
3
10
3
8
4
5
1
2
7
1
12
1
16
11
5
6
4
2
1
10
13
3
17
8
0
7
7
10
10
3
13
5
15
7
14
2
6
5
13
0
5
16
3
0
6
11
5
15
20
6
6
10
4
6
7
5
8
5
8
8
15
4
0
6
4
6
22
21
6
7
8
8
7
14
7
6
2
4
4
0
9
11
2
6
4
4
7
2
0
14
11
5
9
5
5
7
3
10
7
3
11
1
0
1
10
2
0
20
13
1
2
3
6
4
8
3
9
3
4
1
16
0
20
9
13
12
2
8
2
10
13
0
9
0
9
2
2
5
10
4
4
26
0
8
3
5
5
10
7
4
15
19
20
3
3
3
2
5
9
1
12
5
5
10
13
8
16
1
9
6
6
13
8
4
5
3
3
5
13
11
9
4
3
19
14
3
13
7
9
2
17
4
1
12
21
3
9
17
16
4
0
4
5
2
1
6
2
2
11
2
1
8
2
0
6
6
2
22
10
4
3
2
8
7
4
18
7
17
7
2
5
4
3
8
5
17
4
1
13
8
2
7
2
12
0
17
6
5
1
4
2
2
13
5
5
6
2
2
14
3
4
10
9
9
4
12
2
7
13
4
7
6
9
17
12
16
0
5
7
1
2
1
4
0
3
6
6
2
6
1
3
12
19
2
21
4
4
15
11
7
0
1
12
2
9
6
10
4
0
18
0
0
3
11
11
4
16
6
5
7
8
3
9
4
1
10
6
2
4
4
2
20
2
2
3
17
4
1
1
5
2
7
7
4
6
6
9
1
2
1
7
6
25
0
4
7
6
6
3
0
18
4
4
19
7
9
1
10
9
0
10
3
21
3
7
7
3
0
13
19
4
10
10
9
5
9
24
15
7
4
5
12
3
4
8
5
10
10
10
1
2
2
17
10
4
5
2
6
6
2
14
3
2
1
4
6
7
15
5
14
10
4
2
2
11
6
14
8
13
7
7
7
1
12
8
12
2
7
11
18
18
12
2
9
1
13
2
3
15
5
2
11
0
21
18
6
2
7
10
4
1
0
6
5
7
17
8
8
2
12
8
8
11
11
10
10
9
21
11
15
8
2
12
0
4
7
0
6
12
2
2
15
14
11
6
7
8
8
1
2
1
10
11
3
5
3
6
6
9
4
4
10
1
5
8
6
1
8
2
0
3
21
3
4
2
2
2
4
2
3
22
0
5
9
1
2
16
10
18
1
2
9
21
6
0
21
2
4
5
11
10
13
1
7
1
2
3
5
2
2
5
11
2
5
6
15
13
5
11
4
21
18
0
10
7
13
3
4
2
15
12
3
5
8
9
6
10
4
13
3
9
8
15
6
3
8
11
12
0
1
1
20
2
7
6
11
15
1
4
11
4
3
2
1
9
21
13
9
7
16
1
8
2
2
3
13
0
2
7
2
13
7
6
11
5
4
1
3
3
4
8
12
6
5
3
15
11
3
7
10
6
5
7
3
4
3
13
2
14
3
5
12
21
14
10
5
1
5
0
3
11
4
2
10
7
6
17
14
1
4
8
2
7
9
9
8
20
9
12
6
3
6
2
8
1
2
4
6
12
0
5
6
3
7
2
2
10
9
5
9
1
10
5
3
4
0
7
8
0
1
4
0
2
1
1
9
1
2
2
3
5
5
3
5
8
4
12
15
5
17
6
2
1
0
6
2
5
4
5
8
2
10
1
4
7
4
4
2
1
18
18
17
15
6
16
11
6
14
2
4
7
3
9
2
3
4
0
2
11
6
4
5
13
5
12
3
1
6
1
5
1
10
12
11
6
2
2
14
10
3
16
12
8
7
0
0
9
0
11
7
6
1
7
11
1
9
6
2
11
1
5
12
12
2
4
3
1
4
5
5
13
8
10
7
4
4
3
9
9
0
6
16
7
3
1
4
0
14
3
1
5
6
4
6
0
10
10
0
7
1
21
14
4
9
5
8
15
2
8
9
3
3
5
2
2
0
1
8
4
8
1
0
3
1
9
15
10
11
6
6
3
8
10
5
5
10
12
19
8
1
7
11
8
4
2
2
19
8
11
6
13
7
6
6
14
3
10
4
3
8
1
18
4
10
2
3
0
8
8
13
5
12
11
8
5
8
4
8
4
4
13
14
10
10
10
11
3
9
10
15
9
7
20
3
7
4
4
16
1
2
3
9
2
4
0
4
0
8
4
5
0
11
3
7
7
4
8
8
7
9
8
10
9
2
3
0
5
2
4
4
11
1
10
5
5
11
9
2
14
5
2
12
5
12
0
4
2
5
9
8
10
0
3
9
1
2
2
4
3
6
2
14
4
5
9
4
3
8
13
0
2
8
5
16
2
0
4
5
16
21
2
4
1
5
5
4
8
1
10
5
21
6
19
1
4
0
8
1
1
15
14
2
3
23
1
4
4
3
4
2
8
5
3
3
7
16
4
0
8
1
0
1
5
21
15
7
13
10
4
4
2
5
13
1
4
4
16
2
12
4
1
3
8
5
1
4
13
1
6
2
3
6
12
15
11
2
5
4
6
4
20
6
2
4
4
0
1
3
2
14
2
3
5
2
2
0
1
12
1
13
4
7
13
5
2
4
7
4
9
0
11
1
0
4
9
5
2
7
7
15
12
6
4
8
4
2
5
2
8
3
12
10
7
3
10
6
6
5
5
8
5
6
6
7
6
4
1
8
12
15
9
5
3
7
1
9
7
3
1
0
0
1
9
12
3
13
7
3
12
1
8
6
5
3
4
8
27
21
1
3
2
3
5
4
15
14
0
13
7
0
8
1
4
2
12
14
1
0
3
4
0
4
2
7
2
0
4
3
7
11
1
2
7
6
8
25
14
3
5
9
6
0
3
2
4
1
14
1
13
1
2
5
6
9
3
2
10
12
1
2
3
7
10
8
9
16
2
1
12
4
14
3
2
7
1
5
21
5
4
3
6
7
1
11
12
13
1
15
9
3
12
10
17
8
3
8
3
8
4
8
1
10
1
14
5
3
13
13
1
7
14
8
9
2
0
3
17
8
6
9
2
5
13
0
1
5
7
18
9
5
5
5
6
1
0
17
4
1
1
1
5
13
18
11
8
12
8
13
8
15
12
9
2
4
10
6
4
0
12
3
6
4
4
0
6
5
5
2
7
17
1
0
1
9
7
11
7
12
5
7
2
10
4
9
1
0
4
6
2
3
5
3
1
6
14
10
11
0
1
5
6
6
5
14
5
11
5
9
5
3
10
12
5
11
7
2
15
2
3
5
4
1
10
6
5
17
2
3
3
2
1
3
4
4
3
3
14
1
3
21
2
13
8
13
5
4
1
2
6
0
9
4
5
4
0
12
3
0
10
9
5
2
4
5
13
8
2
3
3
9
0
10
12
9
7
4
3
4
7
3
3
4
5
5
2
3
4
4
6
4
1
4
2
2
6
12
12
2
1
6
2
1
7
3
1
12
6
1
9
3
7
8
11
5
0
4
1
0
8
6
11
3
8
5
3
1
9
7
14
1
12
1
8
0
1
7
2
7
5
1
4
21
7
2
4
7
2
6
5
2
6
3
15
11
4
5
3
9
10
2
6
7
5
3
7
0
0
1
2
7
11
9
7
5
10
15
3
2
2
3
11
0
12
2
2
0
3
0
3
10
2
6
8
2
3
2
3
2
9
1
2
6
9
7
2
7
10
14
2
5
7
9
2
4
7
7
11
5
7
15
3
2
7
2
10
11
12
6
0
19
11
5
3
10
1
10
3
4
15
9
6
0
6
1
4
3
10
3
4
6
4
9
12
3
10
9
7
8
6
7
7
6
6
3
4
10
2
4
2
2
4
17
1
7
2
17
5
8
2
3
2
0
4
8
7
13
6
1
8
3
12
6
8
0
2
3
5
2
3
8
4
4
4
5
2
3
1
8
6
7
3
0
7
2
6
10
13
9
15
10
2
1
2
1
1
5
9
0
8
0
1
1
7
3
4
3
10
7
5
5
7
7
13
10
11
5
27
7
3
1
8
13
8
3
11
2
1
2
5
1
4
2
6
2
4
11
5
4
6
9
1
7
2
1
4
13
8
9
2
1
20
2
9
7
8
6
2
15
8
6
9
10
4
8
7
1
0
5
4
5
1
3
2
6
6
8
9
1
9
6
9
1
6
11
2
10
0
11
4
3
3
1
7
7
9
6
6
18
6
6
9
3
2
4
0
5
7
12
2
7
1
1
8
2
5
4
5
4
18
4
3
4
10
7
5
10
9
2
3
7
7
6
6
6
6
4
3
2
2
5
9
9
2
13
1
3
2
4
0
0
8
13
10
11
0
2
1
11
1
4
3
1
3
14
15
15
12
4
1
9
2
6
8
4
13
1
13
2
9
16
2
1
8
4
16
5
9
7
2
5
3
13
3
10
3
3
1
5
19
8
3
11
3
1
5
3
7
4
4
7
7
4
3
1
6
7
0
1
10
2
9
6
1
5
9
3
2
3
3
4
1
3
6
1
3
8
4
1
0
5
5
5
5
0
7
1
3
6
8
15
3
3
2
4
11
12
2
4
6
1
0
3
3
3
17
6
8
2
3
3
6
8
1
1
6
3
2
0
0
2
7
2
3
3
19
0
2
7
4
8
4
2
4
1
8
22
3
5
10
4
0
7
1
2
6
7
5
9
1
1
6
11
1
1
3
2
15
12
7
1
2
5
0
2
4
14
4
8
7
1
0
5
10
4
11
2
11
3
4
2
2
10
5
2
8
0
4
6
1
5
3
2
9
0
8
0
3
4
5
1
1
5
7
6
6
5
5
5
0
1
13
6
1
1
16
1
5
6
7
3
0
5
13
1
1
7
18
3
2
3
13
3
2
12
0
6
15
4
5
9
1
11
3
15
3
7
8
11
2
1
8
0
5
5
4
2
1
3
2
2
3
1
4
8
6
5
5
7
5
0
8
7
5
2
4
10
17
3
8
5
3
8
5
16
4
5
4
12
1
6
5
8
7
1
7
0
3
2
2
0
8
10
3
1
11
5
1
6
8
13
9
0
7
8
10
13
0
5
7
9
2
12
16
2
6
16
18
8
6
9
1
9
10
8
1
7
0
5
7
15
4
8
1
5
1
2
0
5
10
7
1
1
11
5
1
5
13
9
6
13
13
15
5
16
6
4
6
3
13
11
9
4
9
16
5
8
5
12
4
0
5
8
5
1
1
3
5
2
9
10
11
9
11
1
5
4
5
1
5
7
5
3
1
9
9
6
2
10
11
4
1
2
3
18
21
4
7
2
5
6
4
3
8
18
9
10
2
2
4
1
19
0
8
6
2
6
3
8
6
4
10
4
0
5
5
14
5
6
6
4
18
8
7
10
1
4
10
1
2
9
16
3
0
6
11
3
7
3
9
1
15
0
11
9
5
9
7
14
1
6
3
1
6
2
4
6
3
10
1
5
9
5
4
13
6
3
6
6
5
1
4
7
2
1
0
8
18
0
1
13
1
3
6
10
1
19
9
1
2
5
5
4
1
0
1
5
4
5
0
2
2
6
20
6
3
1
4
3
6
11
3
0
6
22
0
2
1
2
6
8
4
2
4
13
6
3
4
4
0
5
3
4
5
6
3
8
2
9
7
3
5
7
4
6
7
5
4
20
6
0
11
4
0
10
7
1
0
19
9
11
14
1
12
0
0
10
3
10
3
17
7
17
2
0
5
4
7
2
1
6
17
3
1
2
3
3
4
5
3
1
2
4
2
9
10
2
2
11
4
3
1
11
10
4
9
4
2
10
1
0
5
4
0
0
8
6
3
10
8
1
14
13
8
3
14
10
7
2
10
3
1
4
3
2
2
3
5
0
2
5
5
3
3
2
3
1
1
4
3
6
6
2
5
2
1
2
1
5
3
6
9
6
2
1
1
1
0
1
4
6
3
5
1
7
4
17
6
3
9
7
7
10
3
0
2
10
8
1
4
2
1
3
1
11
0
5
8
3
3
1
4
7
4
4
1
5
1
14
6
5
4
3
1
11
0
5
2
6
5
20
2
1
3
6
1
0
8
8
5
3
6
12
2
7
1
1
5
3
6
0
3
3
15
1
4
8
5
3
4
3
2
5
4
1
5
6
6
7
2
1
3
4
3
0
6
8
4
4
5
7
1
12
9
6
13
6
3
17
6
7
10
6
7
4
3
1
4
1
1
5
4
5
9
4
6
6
4
2
2
11
8
8
7
4
1
5
11
5
5
12
1
6
4
1
1
5
16
16
0
0
0
0
3
1
14
9
4
10
8
6
6
3
8
0
8
8
2
11
7
6
2
3
0
3
0
3
3
3
3
0
2
8
1
3
3
4
14
7
0
3
6
2
3
8
7
9
2
7
5
6
6
7
0
4
6
8
10
6
16
17
3
4
5
4
6
8
4
4
8
6
10
2
4
6
0
5
5
0
1
0
13
3
4
5
0
2
4
0
14
0
15
4
4
15
3
4
1
3
4
16
14
6
10
1
0
9
1
3
5
14
8
11
4
13
5
4
10
14
5
1
1
3
1
1
4
3
2
2
3
0
0
6
10
0
3
0
7
1
3
11
5
8
5
3
1
2
11
9
5
5
1
0
11
2
6
4
4
4
1
1
9
3
5
1
7
14
5
4
3
5
3
9
7
1
10
1
0
4
7
7
4
4
3
2
16
9
7
0
3
6
3
4
3
4
6
8
1
13
2
3
4
2
5
3
10
2
6
3
2
6
2
10
3
2
11
9
4
4
10
1
4
4
5
5
7
11
0
3
4
4
5
8
6
3
5
7
1
1
0
3
0
1
6
2
10
0
3
2
5
1
0
2
2
9
3
5
3
2
3
2
9
1
7
2
6
9
9
5
8
0
3
3
22
3
4
10
6
3
2
2
0
2
9
4
0
5
0
12
3
13
4
4
6
2
5
1
5
7
5
3
8
16
2
13
10
5
6
11
1
1
10
12
0
3
3
7
6
11
7
9
4
4
6
5
5
3
4
8
1
2
2
2
6
1
13
7
12
2
10
8
9
8
4
0
1
12
8
5
21
9
3
5
2
3
5
1
2
0
2
2
2
1
0
7
1
3
5
2
10
9
1
5
10
1
2
4
3
6
5
3
5
4
1
2
8
1
7
9
13
5
0
10
13
7
7
9
1
5
6
4
12
2
2
2
3
15
11
0
3
2
2
3
5
11
0
11
1
6
10
2
11
4
2
2
7
4
12
8
1
4
25
9
13
9
9
6
0
3
1
8
9
4
9
4
6
0
14
5
12
2
13
2
2
12
1
5
6
3
5
7
16
0
1
11
5
6
1
1
4
5
6
0
7
9
4
2
13
3
9
3
0
0
9
8
2
2
3
10
5
4
10
1
6
3
6
1
11
7
3
2
3
3
5
1
1
1
2
2
6
4
6
3
2
11
9
6
1
7
8
0
6
6
2
1
18
3
9
4
3
6
4
18
2
7
5
2
6
10
2
3
9
2
3
2
7
0
1
2
2
1
3
7
8
16
8
1
9
13
2
3
15
10
7
16
0
6
2
6
3
1
3
1
0
0
3
4
3
1
4
3
2
6
2
4
1
3
2
2
0
3
6
6
3
0
13
13
4
5
6
8
4
5
5
8
5
0
9
8
2
7
1
5
13
4
10
7
3
4
12
6
7
0
4
6
1
7
8
4
14
5
7
8
1
2
5
3
2
3
8
3
4
0
1
3
5
2
0
1
9
5
2
4
3
2
7
4
1
3
4
3
5
11
5
0
4
6
1
8
1
5
5
1
2
11
2
6
10
11
0
1
12
11
4
10
4
4
10
9
2
3
6
8
10
3
10
6
4
1
3
16
0
4
0
3
3
2
3
1
5
6
3
1
3
6
2
7
2
12
1
2
6
2
12
2
3
0
2
2
7
1
3
0
3
1
1
3
2
6
11
20
7
6
9
10
1
6
6
3
2
7
10
2
2
2
6
9
4
4
8
1
7
2
4
2
0
4
1
4
2
8
10
5
3
6
4
7
2
7
4
5
5
21
13
4
4
1
1
2
2
0
0
1
8
5
8
6
3
4
1
3
2
3
9
3
2
1
8
3
11
9
5
1
1
2
6
1
2
3
2
1
21
1
4
6
8
3
2
4
0
6
8
13
4
13
7
2
1
4
5
4
7
2
7
1
0
17
6
7
3
2
4
4
3
2
2
6
1
3
3
0
3
4
10
3
7
3
1
4
1
0
7
3
6
6
4
7
9
12
1
15
10
10
4
9
1
4
7
4
2
9
4
8
2
3
4
7
2
1
12
2
3
17
10
4
3
2
7
5
2
5
5
7
8
1
3
3
10
10
4
10
5
3
10
0
10
1
0
0
3
13
6
8
5
2
3
3
0
3
2
8
5
3
2
11
4
1
4
1
2
9
1
1
2
7
2
5
1
1
8
0
9
2
14
4
1
10
16
2
3
2
2
3
13
7
6
9
3
15
5
1
5
4
5
3
7
4
6
9
11
4
4
5
0
10
5
1
17
2
0
1
5
4
2
1
7
4
1
0
5
5
6
5
5
1
5
2
8
2
13
7
1
1
4
7
2
1
5
2
8
5
4
3
1
2
12
2
2
8
8
1
5
7
1
2
1
7
4
4
0
13
6
4
2
2
3
0
5
11
6
1
2
3
4
2
6
5
2
0
2
5
10
4
4
2
6
11
9
5
2
4
10
3
0
9
0
6
3
1
3
10
1
3
9
4
2
3
6
1
6
6
3
4
0
11
1
7
5
8
8
6
2
10
2
4
2
1
7
5
9
3
5
5
8
1
1
3
10
11
7
0
8
2
8
0
9
1
2
3
3
6
6
2
0
6
5
2
14
2
11
2
1
0
4
2
4
3
3
0
4
3
14
3
7
7
8
9
8
5
8
6
2
8
1
0
0
7
1
9
12
9
1
9
6
13
0
5
10
8
7
2
1
0
1
5
16
5
14
4
1
2
2
3
0
3
9
0
2
6
7
1
7
2
6
4
3
5
3
10
1
5
1
4
5
14
5
0
11
7
7
5
2
1
4
3
2
1
5
1
8
14
10
7
1
4
1
8
8
18
4
12
14
2
19
5
18
13
2
0
2
1
24
3
1
1
6
0
5
13
8
3
3
5
2
5
10
7
7
2
1
0
7
8
5
4
7
13
8
14
10
7
6
7
1
6
5
3
3
1
9
2
11
1
9
5
6
1
5
7
1
3
2
3
0
3
2
10
6
8
1
5
15
3
9
5
1
4
7
4
1
1
3
3
0
3
2
4
0
5
3
3
0
7
2
5
4
16
11
6
10
4
3
1
10
4
3
3
7
5
5
5
5
6
1
4
5
3
3
5
4
5
0
2
2
2
3
5
4
1
7
6
5
0
3
3
2
0
1
6
10
2
7
4
4
4
2
5
2
0
5
7
5
9
4
0
1
1
4
5
6
6
3
7
2
11
2
8
4
7
6
6
3
6
4
0
3
0
3
5
3
1
0
0
1
1
4
3
4
2
7
4
4
0
8
18
4
1
3
2
4
3
13
15
4
7
1
1
3
0
1
1
0
2
5
2
4
15
3
2
6
3
14
0
1
2
17
2
11
4
0
4
1
2
9
6
2
2
6
4
8
1
14
3
8
3
4
2
3
5
4
5
7
5
4
7
3
4
9
2
1
3
3
6
10
8
16
3
2
14
5
18
10
3
6
8
0
9
3
3
5
3
9
2
2
1
4
6
1
7
0
3
0
0
8
7
0
4
0
8
5
12
9
3
2
4
2
4
11
2
3
6
2
4
0
4
1
5
0
6
10
5
5
11
3
8
3
4
5
13
1
10
1
2
8
5
5
2
15
1
1
0
1
17
3
14
15
1
10
0
1
4
5
4
4
4
0
2
1
8
0
4
1
3
6
17
7
11
11
6
4
3
15
2
5
0
6
8
5
10
3
3
0
6
5
8
2
4
2
4
1
4
1
10
3
3
8
5
6
2
9
13
7
8
7
2
6
1
1
2
3
0
3
6
1
7
2
5
3
7
7
4
2
3
5
0
4
4
1
9
4
2
10
1
4
3
11
2
1
6
1
5
0
10
3
8
6
4
9
5
3
5
12
12
5
0
3
1
3
5
3
2
3
6
0
4
3
2
2
1
6
4
0
4
3
3
2
1
2
5
8
7
8
8
0
0
8
1
5
9
2
6
5
1
15
6
3
0
5
13
4
2
7
8
1
0
1
5
2
12
2
2
12
1
2
6
5
0
6
0
11
2
4
4
11
1
4
7
1
8
0
0
0
0
8
7
2
8
15
14
8
9
11
3
11
0
0
8
6
10
12
1
1
3
3
2
1
5
2
8
3
1
0
2
0
4
4
9
4
5
6
2
11
15
6
11
8
2
3
1
4
0
3
2
7
3
1
5
5
10
3
0
7
1
3
13
4
4
1
3
6
0
2
17
1
2
1
8
7
2
0
2
6
5
4
7
3
10
1
12
3
8
3
3
13
16
14
8
4
4
1
3
5
8
0
4
5
1
4
2
9
6
1
7
6
2
0
5
3
2
2
1
5
2
2
4
6
2
3
9
0
3
6
0
5
7
1
2
3
8
5
0
4
3
7
4
2
5
2
5
3
11
2
3
2
6
3
2
3
10
3
5
1
4
6
0
0
1
2
4
2
2
1
6
4
12
9
1
2
2
2
0
2
3
2
2
6
6
13
5
8
3
2
5
2
12
9
3
0
7
1
3
2
10
7
6
2
3
6
4
0
1
0
1
9
3
2
6
9
5
1
6
5
6
7
11
8
7
9
7
1
1
2
2
7
11
0
1
1
0
0
4
1
2
1
0
4
0
6
3
12
0
2
11
2
9
10
5
9
1
1
2
1
5
3
3
2
0
4
5
4
3
6
2
3
7
10
0
1
3
6
6
5
3
3
0
0
2
0
2
3
1
2
9
13
7
2
0
9
5
2
4
11
2
0
10
7
1
3
17
1
0
6
1
5
3
1
0
6
7
0
6
7
9
6
1
1
0
9
2
1
7
7
2
6
1
6
6
9
4
5
5
6
4
6
0
7
1
6
5
1
1
5
5
2
10
7
4
3
13
4
6
14
0
2
8
0
2
0
4
3
2
1
9
2
6
1
1
0
2
10
6
4
15
0
1
1
3
5
1
3
4
1
1
4
2
6
7
6
9
0
0
2
2
4
1
4
3
2
1
1
1
12
3
2
3
7
3
8
2
7
8
12
1
3
0
9
2
4
5
0
1
3
6
1
5
14
0
11
13
0
5
8
2
1
3
3
4
1
1
5
8
8
3
4
2
7
3
3
2
4
7
9
10
15
10
12
7
11
9
3
7
3
15
3
15
10
7
13
4
0
5
7
0
1
2
6
5
0
4
1
6
4
1
2
2
2
9
4
2
2
5
4
12
6
4
0
2
6
4
7
6
8
0
2
7
1
1
15
3
9
3
4
4
10
6
13
13
5
4
3
3
3
9
4
5
4
1
3
0
4
2
3
0
3
3
12
7
9
6
2
5
5
4
1
3
2
2
7
0
0
17
7
3
8
1
10
3
1
1
4
2
6
1
3
6
7
6
3
0
1
2
13
7
7
0
4
0
0
7
3
2
3
5
3
4
1
11
1
7
5
4
8
3
1
0
9
3
10
6
2
3
2
5
2
3
1
1
4
2
1
3
7
5
5
2
3
2
9
17
4
12
10
2
1
1
1
8
0
6
0
18
10
10
2
9
6
1
2
4
0
11
13
3
2
8
7
9
8
0
8
12
3
1
0
7
0
0
3
3
2
2
0
0
4
8
0
2
0
10
0
13
1
3
1
3
0
2
3
0
3
2
1
4
9
0
8
1
12
3
8
14
9
3
2
9
0
0
5
0
3
10
1
3
5
5
4
5
1
3
13
3
1
2
3
2
4
0
5
1
4
3
2
4
0
2
4
17
9
6
4
3
3
1
4
7
5
1
2
4
1
6
2
0
8
4
2
9
0
3
15
1
3
5
0
5
4
3
7
2
1
3
1
8
1
15
6
4
7
4
0
2
5
10
4
0
9
2
3
0
0
3
1
4
3
1
4
1
4
11
5
0
5
6
3
4
2
7
0
1
2
9
1
5
3
0
2
3
2
5
2
3
2
1
12
11
5
2
1
3
4
8
1
2
3
4
4
2
4
2
9
3
5
5
15
3
10
4
1
4
10
2
6
2
8
5
5
5
1
5
7
3
3
1
3
2
1
13
1
1
5
2
7
0
2
3
0
8
0
2
1
6
1
2
4
17
1
0
5
7
4
13
7
1
5
0
10
1
2
3
3
4
8
1
0
7
7
9
3
5
1
14
5
0
4
4
1
14
5
3
4
4
10
11
6
4
5
2
7
10
4
1
2
6
7
1
17
4
0
6
0
0
0
9
1
16
2
5
2
1
3
9
1
9
2
2
7
9
13
4
7
4
5
0
2
0
7
2
3
1
0
3
1
6
6
1
3
5
6
11
0
3
1
0
0
3
2
0
6
1
2
5
2
8
6
0
5
3
5
4
3
8
3
6
0
2
5
15
0
5
7
7
8
1
4
1
0
2
1
5
7
7
3
2
3
5
2
2
0
7
6
0
2
1
0
3
1
1
2
4
0
7
1
1
3
1
4
2
6
0
1
1
1
2
1
2
2
7
4
4
7
3
3
6
2
3
4
0
4
1
7
3
6
5
3
5
7
8
5
4
7
4
1
7
1
0
3
2
2
2
16
2
7
1
0
4
6
4
6
4
4
3
5
6
12
5
3
1
9
0
4
4
5
1
8
9
0
1
7
1
1
3
0
0
1
1
4
5
5
1
0
0
12
3
8
6
2
3
2
2
1
3
0
0
1
2
2
9
0
2
0
6
0
5
5
4
7
3
1
4
1
5
2
1
4
2
0
4
9
4
10
0
2
3
7
6
2
3
0
2
11
4
7
7
11
1
12
0
7
4
3
0
5
7
1
14
1
2
1
6
0
6
4
6
4
9
1
0
1
10
2
2
1
3
4
2
2
2
7
7
3
2
3
0
1
6
2
3
4
6
4
4
5
2
1
1
1
2
0
3
3
3
8
1
4
2
2
4
2
3
1
1
1
2
7
1
3
2
6
8
4
3
5
0
1
9
0
4
0
7
2
1
3
6
1
5
10
3
12
1
5
1
6
9
11
4
1
6
0
0
4
3
1
8
5
3
7
5
0
9
3
7
6
1
1
5
0
4
2
2
1
2
2
5
2
2
3
1
4
1
0
5
6
6
5
2
7
14
1
2
5
2
1
7
4
0
4
7
1
6
2
0
1
1
4
6
0
4
2
4
1
0
2
7
8
14
2
6
1
0
2
4
1
7
4
5
1
0
1
3
1
3
3
1
10
12
8
4
2
6
5
1
0
3
4
7
4
2
3
4
7
4
3
0
2
1
3
6
11
5
6
7
1
4
2
8
3
1
3
0
10
0
5
2
3
5
3
5
12
0
3
6
1
5
2
6
8
2
0
6
0
5
1
9
0
1
5
5
1
4
1
7
11
8
2
3
6
6
0
1
5
1
2
3
0
4
1
1
5
0
10
2
1
8
3
3
4
6
3
1
5
0
1
4
3
3
10
6
0
7
2
1
1
2
1
0
3
3
3
2
6
0
1
0
4
5
3
5
2
6
3
1
1
3
5
3
4
6
7
0
4
8
5
11
0
11
2
3
1
1
0
14
4
8
5
2
1
7
3
3
0
7
5
2
4
3
9
10
3
9
8
11
15
3
1
0
2
3
4
0
3
4
6
2
11
7
6
3
4
5
3
3
4
1
0
1
2
1
3
8
6
3
1
1
1
1
5
4
2
2
1
1
1
3
4
4
1
2
2
0
4
0
3
3
0
5
4
1
10
1
2
3
2
0
10
12
6
4
4
0
4
4
3
1
3
3
3
3
3
0
2
3
5
4
2
3
2
5
5
1
0
3
10
1
1
6
2
1
1
1
1
8
2
1
0
0
1
2
9
1
1
14
7
1
0
16
5
5
5
3
2
5
5
7
1
5
1
2
3
0
3
0
4
5
5
2
1
6
5
6
2
9
2
4
1
3
0
1
1
4
0
2
2
0
9
11
4
0
2
3
1
4
3
5
3
7
0
3
6
8
2
6
1
4
8
1
0
3
6
6
1
5
0
1
1
3
6
2
6
5
13
6
9
0
8
4
6
0
1
7
3
7
2
8
2
1
1
5
0
3
4
1
0
1
1
5
12
5
6
2
1
8
5
7
9
7
11
1
1
2
1
2
0
0
0
6
0
1
10
6
3
3
2
0
0
3
1
9
6
2
11
1
2
6
3
0
11
5
13
5
1
5
1
11
7
7
5
2
1
3
1
2
11
4
7
9
2
2
2
7
0
2
11
3
0
3
6
5
1
9
8
0
1
3
6
2
9
1
3
3
0
2
3
1
3
9
11
10
10
3
3
3
3
2
2
5
0
0
10
2
0
0
1
0
6
3
9
1
14
3
20
2
3
16
2
2
3
3
8
1
2
1
10
6
1
2
4
1
3
2
2
6
0
1
1
4
2
0
6
5
1
0
1
1
10
0
5
2
11
14
4
0
0
3
11
4
4
3
2
0
8
2
0
12
5
1
4
5
2
8
9
0
3
1
3
3
0
1
5
4
8
8
4
5
0
8
0
2
2
2
0
3
13
1
3
5
5
14
2
0
4
3
0
1
7
3
1
10
4
8
1
1
10
5
4
4
1
5
2
4
3
3
6
4
1
7
4
8
2
16
7
1
2
5
0
0
1
9
1
0
10
1
2
0
1
1
0
1
0
3
0
1
2
0
7
1
5
7
4
2
5
12
4
6
7
3
1
1
1
4
3
0
2
7
3
3
4
2
6
2
3
1
2
9
8
3
0
0
0
1
0
2
5
7
18
7
4
4
0
2
7
1
15
0
1
1
1
4
0
5
0
1
5
2
5
3
5
1
8
6
8
0
3
3
3
7
3
7
5
11
4
0
3
2
6
0
3
4
3
1
1
4
1
0
12
5
2
5
9
3
0
8
4
3
2
2
5
8
3
2
2
5
4
3
2
4
2
0
6
5
0
2
7
0
2
5
2
2
1
4
1
4
10
4
0
5
3
6
4
6
1
5
2
0
8
1
1
0
3
4
2
6
6
0
3
3
3
2
1
3
1
10
2
0
1
10
11
3
1
4
4
4
2
0
12
6
1
2
4
2
3
7
1
10
3
2
0
7
8
1
2
2
0
3
2
11
0
0
3
3
3
2
0
3
7
6
0
0
9
5
2
2
5
8
1
8
1
7
0
4
6
1
8
1
1
0
3
2
1
4
0
3
8
1
3
4
2
7
5
2
8
0
1
7
0
0
3
1
0
9
4
0
5
5
0
5
2
2
1
13
0
10
4
6
13
8
2
3
2
1
3
0
9
2
5
0
0
12
5
8
1
6
7
6
12
3
2
1
0
12
10
2
2
4
5
3
5
4
10
3
2
8
11
0
9
4
0
0
0
2
2
6
4
0
0
4
5
10
4
8
2
4
7
2
0
2
0
1
5
5
8
8
2
1
4
3
1
1
1
7
1
2
2
6
0
5
8
2
1
4
10
4
1
4
4
2
1
2
3
5
1
1
0
2
3
4
2
2
2
0
7
4
1
7
9
1
4
3
0
12
6
4
1
3
2
1
1
6
4
3
1
17
3
1
3
5
2
3
2
5
3
1
1
1
0
2
2
2
4
3
7
1
2
11
10
0
0
5
0
8
8
3
1
5
0
1
5
0
7
0
1
2
0
6
2
2
2
4
2
4
3
5
2
2
5
3
3
0
3
7
0
3
3
7
4
1
1
2
2
3
4
9
7
1
5
3
2
1
9
3
0
5
0
0
4
1
4
3
0
8
8
4
2
2
8
5
2
3
7
1
2
2
2
7
1
1
7
0
3
1
2
3
10
5
6
3
0
8
2
0
0
4
1
2
10
2
1
3
4
3
1
4
5
3
7
4
2
1
0
1
0
3
4
7
8
3
2
0
4
2
5
2
2
1
5
4
10
3
2
0
2
1
4
3
4
2
5
16
2
1
1
0
2
2
5
6
0
6
4
4
5
2
4
3
7
0
0
2
13
3
0
1
0
1
6
1
6
1
1
3
4
8
14
1
3
5
2
3
1
1
4
0
4
0
2
1
2
2
5
5
3
6
2
1
7
2
1
1
11
4
4
2
4
2
2
0
5
3
4
5
9
2
12
3
5
9
1
4
1
2
0
1
1
2
0
1
5
2
5
5
2
0
0
1
1
1
2
2
13
0
4
7
1
2
4
7
0
1
4
5
4
7
3
8
3
1
4
7
8
6
3
2
0
1
4
1
3
2
9
4
6
5
0
2
4
1
6
1
5
6
0
7
6
0
1
1
0
3
5
0
1
2
1
5
0
2
0
1
0
1
0
6
6
4
1
4
3
0
6
2
0
3
0
4
1
2
11
2
0
4
0
3
7
2
0
3
2
0
0
1
5
4
5
7
8
6
6
0
8
0
3
0
0
1
3
1
5
17
4
2
4
1
9
4
8
6
3
15
8
11
2
0
3
0
1
0
0
1
1
5
3
0
1
2
6
4
0
3
2
4
1
3
3
6
3
1
1
2
1
6
3
2
1
3
4
0
1
1
3
1
7
4
2
3
4
4
5
2
0
2
4
7
0
1
7
2
2
0
7
1
8
3
1
3
1
0
0
9
1
2
3
3
1
4
6
4
2
0
1
2
2
4
6
6
8
0
2
0
4
2
4
1
3
1
0
4
4
6
2
3
3
1
3
1
6
3
0
4
0
2
1
3
1
3
0
0
2
0
2
0
0
0
2
6
5
6
2
0
0
5
1
1
7
6
3
1
6
0
2
1
3
0
3
7
3
2
0
0
2
4
5
3
4
7
2
14
14
1
6
1
7
3
5
3
5
5
6
6
5
6
1
5
6
2
7
0
0
4
0
2
7
4
4
1
9
0
6
2
3
12
4
2
7
4
1
1
0
7
1
5
1
3
2
0
1
2
1
1
1
12
1
1
0
1
1
6
6
0
3
1
1
1
2
2
2
6
4
0
2
8
0
7
3
0
5
0
2
4
2
0
2
1
3
1
3
5
0
5
11
3
3
0
2
4
7
3
7
4
2
1
3
1
3
5
3
4
8
1
4
4
2
0
1
1
4
4
1
9
5
3
7
1
6
3
5
2
1
2
1
0
0
3
5
3
0
6
2
1
0
0
7
1
4
13
4
5
1
3
4
3
1
4
1
5
0
2
2
10
2
1
1
0
8
12
7
10
0
0
1
3
5
0
3
3
0
2
3
11
11
3
1
4
13
0
1
2
11
14
8
4
3
2
1
0
0
1
6
4
5
0
4
7
3
0
2
0
4
2
4
4
1
0
12
1
9
5
3
6
1
5
2
1
2
0
0
5
7
7
0
0
0
0
2
11
0
9
0
2
4
7
2
5
0
4
5
2
8
2
2
2
0
1
1
1
1
2
1
6
0
3
1
4
3
1
0
2
1
2
0
1
3
0
1
6
0
4
1
8
1
3
0
6
3
1
1
7
3
1
9
5
0
1
2
1
1
6
4
1
3
3
6
1
4
2
1
4
4
5
3
1
5
3
0
3
0
1
0
3
1
1
1
0
0
0
3
4
7
3
1
1
1
1
10
1
0
11
1
3
7
0
1
1
0
0
2
10
0
1
0
5
7
4
1
7
2
1
0
5
1
3
1
3
0
9
3
2
1
12
4
0
6
3
4
1
2
0
0
1
6
5
2
4
8
2
1
3
6
0
5
13
2
2
1
1
0
0
4
4
4
1
4
4
6
2
4
1
2
0
1
1
6
10
2
13
3
2
4
4
2
3
2
6
2
2
1
6
2
0
1
6
0
7
3
1
2
1
1
4
0
3
3
0
3
1
4
3
6
3
5
7
5
2
0
4
7
1
5
1
7
2
0
7
3
4
2
4
4
1
7
1
1
1
7
4
2
2
6
9
6
2
9
1
2
4
11
6
5
5
5
5
9
3
3
0
3
3
10
7
6
1
2
1
1
0
3
4
3
2
0
1
3
3
4
7
3
10
4
1
12
8
9
10
3
1
6
0
0
4
2
0
1
6
4
5
6
3
0
5
3
3
2
4
9
8
4
2
0
0
6
9
3
6
8
0
0
7
0
1
2
7
0
4
1
8
1
2
6
0
4
10
0
5
6
1
1
5
2
3
4
1
0
8
4
9
0
1
0
1
0
7
6
6
2
0
1
3
0
0
1
2
0
3
0
8
5
7
3
4
2
12
8
0
2
6
0
0
1
1
6
7
5
2
2
1
2
5
0
11
7
0
2
0
1
0
8
1
3
1
1
2
6
2
0
3
1
5
0
1
3
6
1
1
1
4
3
7
2
2
1
2
0
2
3
4
3
1
0
1
2
4
0
3
6
3
2
4
2
0
2
1
3
1
1
1
1
4
9
2
8
1
7
5
4
0
0
0
12
12
0
4
9
5
0
1
3
0
2
4
1
1
3
7
3
4
1
0
0
0
13
1
10
2
8
0
1
0
3
3
3
7
1
2
5
2
2
8
0
2
2
1
1
2
0
5
4
0
3
6
1
0
0
1
3
2
0
2
0
2
2
1
7
2
4
6
4
3
5
1
2
5
4
1
11
4
4
3
4
4
1
9
0
2
0
5
9
6
8
4
5
7
8
1
8
5
3
5
0
1
2
3
1
0
0
6
4
1
1
1
3
5
0
1
1
1
3
2
6
2
2
3
1
0
2
2
0
2
2
0
1
4
1
2
0
3
3
6
7
3
2
11
1
5
4
2
16
1
3
6
2
0
3
6
5
11
0
3
5
0
6
3
1
0
0
0
2
0
1
1
8
4
1
1
0
5
3
3
3
1
2
5
5
3
8
1
1
1
6
1
7
0
0
1
6
4
1
1
1
1
13
1
1
5
2
1
1
1
0
4
1
1
0
1
3
0
1
4
8
1
1
2
0
1
6
4
6
1
3
1
8
2
0
0
1
1
4
0
6
0
3
3
7
7
4
5
1
1
1
3
0
1
5
4
1
6
3
3
6
2
0
2
4
0
3
0
5
9
0
0
1
7
8
3
6
4
3
1
4
0
1
3
3
7
8
1
9
3
7
10
11
4
2
0
4
2
5
5
1
1
2
2
1
1
6
6
4
1
0
5
1
3
2
5
2
0
9
5
3
3
0
3
5
1
2
1
1
0
3
3
2
3
2
1
4
2
0
2
0
0
6
1
5
2
4
2
0
4
3
4
1
0
0
1
5
1
1
4
1
5
4
0
5
4
5
1
2
5
1
8
4
3
3
4
1
2
2
3
2
1
6
3
0
8
3
1
1
4
7
9
0
5
4
3
0
6
1
1
9
1
11
0
2
1
0
4
0
2
4
1
1
0
4
3
1
7
6
7
7
0
2
12
14
2
1
2
2
13
5
1
11
5
1
11
6
7
8
2
3
0
2
1
10
3
3
0
3
4
1
0
1
5
1
1
2
1
1
2
6
7
1
4
2
1
1
2
8
4
0
5
4
6
5
1
1
2
3
3
2
4
0
1
0
2
2
1
0
7
4
1
1
2
3
0
0
0
1
5
1
1
2
5
0
3
0
1
0
0
2
8
8
2
3
2
10
1
2
3
3
1
0
1
1
5
5
1
3
2
4
6
2
1
1
6
7
0
1
3
7
1
1
1
0
0
2
0
4
0
1
1
2
2
6
3
10
1
3
5
4
1
4
0
0
1
9
0
0
0
0
3
2
3
5
2
3
4
0
0
0
4
8
6
2
3
3
1
2
0
8
2
3
2
3
8
3
2
1
1
0
6
5
0
2
1
0
1
1
7
0
3
3
0
2
1
6
2
10
1
6
0
2
5
4
1
10
0
7
0
1
0
1
1
0
0
5
1
2
0
4
5
1
0
0
0
0
3
0
1
6
4
0
10
1
3
2
1
2
2
3
1
0
1
3
2
3
4
0
5
5
0
3
6
6
2
4
4
0
1
3
1
5
4
0
6
2
5
2
1
2
3
3
1
4
3
4
0
4
1
1
1
0
1
2
2
4
4
1
2
5
0
1
1
2
5
6
1
8
1
0
5
8
1
4
3
15
2
1
0
3
1
4
0
1
12
2
13
7
3
2
5
4
7
4
5
2
7
1
2
6
5
11
4
1
2
2
6
6
6
0
0
2
2
2
2
0
4
7
1
2
3
2
1
0
8
0
3
3
4
7
9
3
5
0
3
3
10
0
0
3
10
0
4
4
6
4
2
2
1
0
2
1
6
8
1
6
7
0
4
0
0
5
1
0
3
9
2
2
0
10
3
3
0
12
5
0
0
0
6
1
0
0
1
3
2
1
1
1
0
12
3
1
2
4
0
0
0
7
12
5
0
10
5
1
8
1
3
1
0
5
2
4
3
2
2
0
1
0
5
11
0
1
3
1
5
6
1
8
1
10
0
3
7
4
3
3
7
5
0
0
0
4
11
3
1
0
1
0
0
7
4
2
1
3
1
1
1
5
2
2
1
6
2
3
2
15
4
1
4
12
8
0
4
3
1
1
3
12
2
0
2
3
1
7
1
0
2
1
13
2
6
2
1
1
3
11
3
0
1
7
1
11
4
5
2
2
0
13
6
2
0
5
1
4
8
5
2
0
3
1
3
6
7
3
4
1
0
1
2
3
0
0
1
2
0
11
4
2
0
0
12
6
2
1
3
1
5
1
2
2
1
3
0
0
1
0
5
4
2
2
5
2
0
5
4
3
6
3
12
3
3
1
4
1
1
0
2
0
0
0
1
5
8
5
2
0
7
4
0
0
11
8
1
0
4
1
1
3
1
0
5
0
5
1
7
5
8
11
1
3
0
3
2
0
0
1
0
6
0
1
2
2
3
1
0
2
1
0
1
4
0
4
6
2
3
7
5
6
5
13
1
0
0
1
5
12
1
0
0
0
1
2
8
1
4
1
3
0
5
3
2
6
4
4
1
0
2
12
10
5
9
2
6
3
0
2
0
0
2
9
2
1
2
1
4
5
1
0
1
3
2
1
5
1
2
0
10
3
5
0
6
3
7
1
5
3
2
8
1
2
2
1
3
1
1
1
4
2
0
1
0
2
2
3
3
2
2
1
10
7
6
1
0
0
1
1
0
3
3
0
5
2
1
3
0
6
3
2
0
1
4
2
6
0
1
0
1
5
0
1
5
1
2
8
3
6
1
1
0
1
1
3
6
1
6
3
4
2
0
1
7
3
0
1
5
3
5
0
7
6
5
2
0
0
1
0
0
0
3
6
0
3
3
7
2
2
1
2
3
7
4
3
3
1
3
1
10
3
0
0
0
1
4
4
0
3
1
0
7
5
0
3
2
6
3
0
3
0
3
1
7
2
5
10
0
0
5
0
0
5
1
3
1
1
2
3
2
4
1
3
1
3
2
11
0
4
1
0
3
1
4
4
3
13
1
0
4
2
1
8
0
1
3
9
1
1
17
4
3
4
0
0
0
1
3
3
1
3
8
1
1
7
3
6
4
5
2
6
3
6
0
1
3
1
4
4
1
1
1
2
1
3
0
5
2
2
0
3
1
7
1
1
0
2
0
3
7
4
9
5
5
5
7
9
1
4
9
0
0
5
1
0
2
3
2
2
3
9
3
2
9
5
1
0
0
0
11
3
0
0
1
1
3
1
1
6
0
0
5
7
6
0
8
5
5
3
3
14
2
0
4
0
2
4
1
5
4
2
0
1
2
3
1
3
13
2
2
1
3
0
0
4
3
0
5
0
9
1
2
4
2
5
0
2
0
1
0
2
3
2
4
0
1
4
5
1
2
9
10
0
1
4
4
8
8
10
5
3
0
7
0
2
0
1
0
1
0
8
4
3
10
0
3
5
2
1
0
6
4
0
3
4
0
0
4
0
0
7
7
2
6
1
1
11
1
3
5
1
2
1
3
3
7
5
6
2
0
6
0
2
6
5
2
2
1
2
3
4
2
5
11
1
3
1
1
1
5
4
5
4
5
3
7
2
2
5
3
1
1
7
8
8
3
1
1
7
1
11
0
3
3
3
1
4
0
0
5
2
5
9
2
12
1
0
0
3
0
8
5
3
3
3
1
8
6
1
0
2
4
14
2
4
2
3
4
2
0
7
0
0
2
2
2
7
3
4
0
0
0
0
0
5
3
7
4
4
0
3
1
1
1
0
0
6
4
0
0
4
0
4
0
0
1
7
3
0
5
10
3
2
2
2
5
3
0
1
4
0
3
2
2
0
0
8
1
4
2
1
2
1
4
0
3
1
3
2
1
1
3
1
2
1
10
1
2
2
8
4
2
0
1
2
3
3
0
1
2
2
2
4
2
3
4
0
7
0
3
1
1
11
1
1
1
1
7
0
2
2
1
4
9
0
2
0
0
0
0
0
1
3
1
4
0
3
5
0
7
10
5
9
4
1
0
12
1
1
2
4
1
1
0
3
1
3
3
2
0
3
0
1
3
0
1
1
3
1
5
0
2
0
4
1
1
2
0
1
1
0
1
4
3
0
3
0
2
1
0
5
1
4
5
2
5
3
1
3
8
0
5
3
3
9
2
2
1
2
4
6
5
4
0
2
3
1
1
7
4
3
2
0
1
0
0
0
2
7
0
4
3
3
3
1
4
2
4
4
2
3
0
2
0
0
1
5
0
2
5
2
1
1
2
1
2
2
0
0
5
1
1
2
0
1
5
4
2
0
2
3
4
2
2
11
7
0
4
1
0
0
8
1
7
1
1
1
3
1
6
9
9
4
4
8
4
0
6
2
0
0
1
2
7
5
4
2
3
2
4
2
2
3
2
0
2
2
3
0
1
1
8
4
1
8
4
0
2
5
1
0
3
0
0
5
0
5
0
1
1
7
3
1
2
0
3
1
9
0
2
7
3
5
2
0
2
0
3
0
1
2
3
0
3
0
0
6
0
3
2
1
1
1
4
6
4
1
8
4
1
6
0
4
1
1
0
1
2
0
3
1
2
7
2
2
3
3
1
1
2
3
0
4
5
1
1
4
0
1
0
3
0
3
3
1
0
3
0
0
0
2
2
0
1
1
0
6
4
0
3
6
2
0
4
0
1
6
0
3
8
1
1
7
6
0
0
1
5
15
7
3
3
2
1
3
6
0
3
1
2
1
6
2
1
9
7
1
0
8
1
1
1
1
6
1
2
2
6
0
1
1
5
0
0
3
0
15
4
1
6
1
2
1
2
10
0
2
3
2
3
5
0
0
2
0
6
8
4
2
2
7
3
1
1
1
2
0
0
3
2
3
1
1
9
6
1
5
0
6
0
0
2
1
3
0
1
0
1
0
1
7
0
2
4
6
2
0
0
0
0
9
7
0
1
3
1
6
0
5
2
0
8
5
0
2
1
5
1
0
1
0
3
0
2
1
1
8
3
6
0
0
1
2
0
1
1
4
0
1
0
0
0
3
7
9
1
3
0
1
16
3
0
16
9
4
4
0
0
0
3
0
2
1
3
3
5
1
0
7
1
1
0
1
3
5
1
4
1
1
1
7
6
4
6
4
3
6
2
3
1
3
0
2
0
0
1
2
0
0
2
0
3
2
8
4
9
0
3
4
1
0
5
7
8
0
2
1
2
3
7
0
10
2
1
3
3
3
0
1
2
1
0
2
0
6
3
0
4
17
0
1
3
0
3
0
2
4
1
2
3
0
5
1
7
2
4
8
0
1
0
5
0
4
1
2
4
1
7
0
14
2
4
6
0
0
0
9
0
2
5
7
0
0
0
0
0
0
0
1
0
0
1
1
0
2
1
2
2
1
0
5
4
5
3
2
3
1
2
0
10
2
2
5
3
2
5
3
2
0
1
0
0
0
3
3
0
0
0
2
4
10
2
7
10
2
3
4
1
6
1
0
3
7
4
3
2
0
0
0
2
0
10
0
0
2
1
1
3
3
1
1
2
5
3
2
5
5
2
1
0
2
0
0
3
3
3
5
2
0
6
1
1
3
1
1
1
4
3
1
1
12
2
3
3
6
4
4
1
3
2
0
5
7
0
3
1
7
2
1
0
1
3
1
2
4
2
0
0
1
3
0
4
8
5
11
0
5
2
0
3
0
2
5
1
1
2
2
3
0
2
1
5
0
1
1
1
3
2
2
1
5
7
3
0
0
1
4
1
0
2
0
0
1
7
0
0
6
0
5
5
4
0
2
0
7
2
0
5
3
4
1
2
1
4
0
0
1
2
6
4
1
2
0
4
2
0
3
5
4
2
3
2
0
2
3
0
3
1
1
0
0
0
0
0
1
1
3
5
3
7
10
2
0
0
3
1
0
4
0
4
7
0
0
1
1
0
2
1
1
1
7
0
3
2
1
1
7
11
1
2
6
3
4
1
0
0
4
4
4
1
0
3
0
0
2
3
0
8
10
2
1
2
1
1
1
3
1
0
6
0
1
0
3
12
0
4
4
3
2
1
3
4
3
1
0
0
2
0
3
1
0
1
0
3
3
3
3
1
0
2
12
5
5
1
6
1
1
0
3
1
2
3
1
1
2
2
3
1
4
0
0
5
3
2
0
13
1
4
7
2
4
0
3
7
0
1
4
0
0
5
8
5
5
1
1
0
1
2
2
1
1
2
2
4
1
1
1
2
2
0
1
0
2
2
6
4
0
0
1
3
0
2
1
2
2
9
5
1
9
1
2
0
0
1
4
4
2
7
6
10
0
3
6
1
3
5
1
1
1
4
6
1
1
0
5
1
1
5
1
0
0
1
4
6
2
8
1
0
4
2
2
3
4
7
16
3
1
5
2
6
0
1
4
4
3
10
0
7
2
2
0
0
3
1
10
1
1
4
1
3
4
3
1
11
6
1
13
7
0
7
1
2
0
6
6
1
3
1
2
3
1
1
2
0
6
2
0
1
2
4
4
0
5
11
1
8
1
4
4
2
7
0
1
7
4
5
0
1
6
4
2
2
0
0
7
3
1
3
0
6
1
2
3
0
5
0
4
0
6
3
0
9
3
4
2
0
2
2
3
1
0
1
1
2
2
0
1
3
3
2
2
3
1
2
1
5
9
1
0
0
9
4
3
1
1
2
2
1
0
1
4
0
4
6
1
0
1
4
2
1
13
0
2
7
0
4
2
0
4
2
0
2
1
0
6
3
2
3
1
10
3
1
3
2
3
1
0
2
7
1
9
1
3
4
5
4
4
1
1
1
2
5
0
1
1
1
1
0
2
4
1
0
0
1
1
3
1
0
1
0
2
5
0
1
0
8
0
5
7
9
1
4
0
6
0
1
3
7
6
8
4
1
1
4
0
0
9
7
0
4
2
3
1
3
3
4
1
2
0
0
1
0
1
0
2
2
1
1
1
2
1
0
7
0
1
0
2
3
1
2
3
1
1
1
1
2
4
8
2
3
4
0
1
0
2
2
5
3
0
1
2
3
0
2
0
1
0
2
6
13
0
3
0
0
2
2
10
3
0
0
1
1
2
0
0
8
2
1
2
0
2
1
0
9
2
0
1
3
3
3
4
0
0
0
7
3
2
5
0
4
1
2
1
2
1
0
0
2
3
7
2
1
0
3
2
4
5
0
2
1
5
5
8
1
8
7
9
1
1
4
0
8
1
1
2
3
10
3
1
2
2
3
4
5
8
2
0
2
8
1
0
11
6
5
1
1
6
1
5
3
0
1
2
3
1
5
4
1
2
0
0
3
2
4
1
1
2
0
1
1
4
1
5
1
1
2
4
0
7
3
2
1
1
2
1
6
8
2
5
0
0
2
0
0
0
5
1
3
3
0
1
1
0
5
7
0
0
9
6
0
7
0
1
0
0
1
0
2
2
3
1
5
5
0
4
0
3
0
1
5
0
1
2
3
2
0
5
9
0
2
4
6
0
0
1
2
4
2
5
1
0
5
4
0
2
8
1
0
1
2
3
2
1
0
0
2
7
0
2
0
5
2
6
0
1
2
2
0
2
0
1
2
0
1
1
1
2
3
2
6
2
3
2
0
0
4
3
2
1
2
1
1
1
3
4
3
2
7
5
6
0
10
1
0
1
1
0
9
0
2
2
0
1
1
3
0
3
0
2
0
5
2
0
2
2
0
1
1
3
0
2
2
3
5
0
0
3
2
1
0
3
1
1
3
1
8
4
4
2
4
5
3
5
0
4
0
2
3
2
8
0
1
0
0
9
4
0
1
0
6
0
3
1
5
5
5
6
7
2
2
1
2
0
3
3
4
1
4
9
0
0
0
4
2
7
9
0
1
4
2
3
3
3
0
2
1
3
11
1
5
0
0
2
0
1
3
2
3
4
0
0
1
1
3
2
1
1
2
8
3
0
6
0
2
0
0
2
1
0
1
0
1
4
5
4
0
1
0
2
6
5
3
4
1
2
7
1
2
0
2
1
2
2
4
4
5
4
6
0
6
1
4
2
4
0
0
2
2
1
1
7
2
0
1
1
1
0
2
1
2
3
2
0
0
2
4
1
1
1
4
1
0
6
3
0
0
7
0
0
3
1
2
5
1
0
1
0
1
6
1
2
7
1
7
0
0
2
2
2
0
3
1
5
1
1
1
2
7
1
1
1
2
5
3
1
0
0
2
4
4
1
1
1
2
2
1
0
2
7
2
0
1
1
3
5
1
6
0
2
0
0
2
4
11
0
3
5
0
0
2
5
4
6
1
2
0
2
1
0
2
0
6
1
4
9
5
9
1
1
0
0
4
1
1
0
2
3
0
3
0
0
7
3
1
4
0
0
0
2
0
2
1
4
1
1
5
0
4
6
8
4
2
0
7
3
1
2
2
2
2
7
0
5
6
1
7
1
2
3
0
4
1
1
1
1
3
0
1
2
0
5
2
3
6
3
1
2
3
1
2
1
2
2
1
1
1
3
2
0
4
2
0
5
1
8
1
0
0
7
3
9
5
1
6
7
3
6
0
0
0
0
2
0
3
0
3
9
1
6
0
6
6
9
7
3
1
4
2
4
2
2
1
1
0
0
0
3
3
4
6
7
1
0
3
3
1
0
1
3
2
5
0
1
0
2
0
1
0
3
1
0
0
2
5
0
4
5
1
0
6
1
2
1
7
0
2
1
1
4
2
0
3
0
3
0
2
0
1
0
2
1
3
1
2
2
2
3
0
0
6
0
0
1
4
2
3
0
6
4
3
4
2
1
0
1
6
0
0
0
3
0
3
1
0
0
2
2
2
5
5
1
2
2
7
1
8
0
0
0
1
7
0
1
9
1
0
5
2
3
2
0
0
0
1
8
6
1
1
4
4
0
11
7
4
2
7
0
0
1
0
3
2
4
3
2
0
3
0
7
10
0
3
2
1
6
0
3
6
1
0
3
1
2
0
5
0
1
1
0
0
3
5
3
3
3
2
1
1
0
7
1
2
2
10
1
0
0
0
1
0
4
0
1
1
3
0
0
0
4
0
0
10
5
2
5
1
2
0
1
1
1
4
1
5
3
3
0
0
0
0
0
4
4
2
3
3
1
2
0
1
0
2
4
2
3
1
2
2
0
5
0
3
3
3
0
2
1
3
4
0
2
7
1
2
1
2
1
0
5
3
2
0
0
0
1
0
3
6
1
3
0
1
2
2
2
0
7
4
2
2
0
1
4
0
1
5
3
10
1
0
0
2
6
4
2
0
2
5
1
0
7
4
4
3
0
0
0
1
0
0
1
1
0
1
2
4
0
0
6
2
0
0
4
2
2
1
2
1
1
1
0
3
0
1
4
0
2
3
4
1
1
7
1
5
1
2
0
4
1
1
0
0
1
3
3
3
2
0
1
5
4
1
1
3
2
2
1
4
1
0
7
1
1
2
4
1
0
3
2
2
0
1
0
0
2
5
4
3
2
2
2
1
7
2
2
0
3
1
7
0
4
6
4
2
0
2
7
5
1
1
4
1
3
1
1
1
4
5
12
1
5
0
1
3
1
2
2
0
3
6
2
10
9
0
1
3
4
2
3
4
4
1
0
0
7
0
1
1
1
6
5
5
5
11
0
1
2
1
4
3
1
2
0
4
1
0
4
8
3
5
4
3
1
2
0
2
5
1
1
2
5
1
5
8
1
1
4
2
4
0
1
0
2
0
3
1
6
3
3
5
0
8
1
1
0
1
1
1
3
1
2
4
3
1
0
1
4
0
8
0
4
2
0
3
1
0
0
0
3
2
3
1
2
3
7
6
0
14
8
3
1
4
2
1
3
5
0
0
4
0
1
1
1
8
5
1
0
4
1
2
0
0
2
1
0
0
7
0
0
1
6
3
0
2
1
1
0
1
3
0
1
3
4
0
2
2
1
1
0
2
5
0
1
2
1
10
4
6
2
4
0
0
1
9
0
2
4
5
2
1
0
0
0
3
2
0
0
0
2
0
1
1
0
6
1
0
6
1
1
1
2
0
2
0
6
3
0
1
0
1
2
4
0
0
1
2
3
0
0
0
2
3
0
2
1
0
1
0
0
0
4
4
4
0
4
1
6
0
0
0
2
3
3
2
1
0
1
0
4
2
4
1
0
1
2
1
1
6
1
0
1
3
0
4
3
1
2
3
0
2
0
1
4
1
1
2
5
2
3
0
1
4
3
5
3
1
1
6
0
1
4
1
0
0
1
1
0
7
3
5
0
5
0
0
2
1
2
0
8
1
6
1
1
1
0
1
1
5
1
2
2
4
2
1
1
2
2
6
1
3
3
0
3
9
1
3
0
1
5
4
0
0
0
0
4
3
6
0
1
1
3
2
1
1
1
4
0
2
2
4
4
0
0
1
3
0
0
4
0
4
1
2
3
2
5
5
1
9
7
0
1
0
7
2
0
5
5
3
0
1
3
7
0
0
2
0
8
2
0
0
1
0
0
4
0
1
4
1
0
7
2
2
2
1
6
2
1
6
1
1
2
4
0
5
0
2
7
1
5
1
2
1
2
0
2
1
6
3
1
1
2
1
1
4
1
1
3
6
11
5
7
2
1
6
2
3
2
3
0
0
1
1
0
1
2
4
0
0
1
5
0
7
1
1
0
1
0
3
3
0
2
0
1
2
2
0
0
0
2
1
3
10
4
0
2
1
9
6
4
3
6
0
3
2
11
0
1
1
3
0
1
1
2
4
1
1
6
5
2
2
4
11
5
3
9
1
0
0
3
0
0
1
0
0
6
1
1
2
9
3
2
0
1
0
0
1
0
0
0
3
1
1
1
0
0
1
3
1
2
1
2
5
0
2
0
0
1
3
0
0
1
0
2
1
0
9
1
2
1
1
0
1
2
0
1
4
8
8
3
1
1
0
1
0
5
3
0
3
6
1
0
0
1
1
1
0
1
4
1
1
3
4
0
0
0
0
0
1
3
1
4
0
2
8
0
1
5
0
1
1
1
1
1
1
3
3
0
0
3
10
0
2
2
0
0
5
1
0
3
2
1
0
0
0
1
4
2
1
2
2
1
0
2
2
3
0
2
2
1
1
4
6
0
5
0
0
2
1
1
6
1
2
0
2
2
2
0
0
1
1
2
1
2
3
1
0
1
2
10
4
5
5
1
3
0
0
5
2
4
0
2
3
1
1
7
1
1
0
1
1
1
2
3
0
2
2
0
1
1
4
1
2
2
2
3
8
3
4
0
1
1
1
0
1
0
0
1
2
4
1
0
1
0
9
3
3
2
1
7
0
0
0
0
2
1
0
1
1
0
1
0
1
1
0
2
2
3
0
5
0
2
1
1
0
3
0
7
0
2
6
1
8
1
1
4
3
2
2
2
8
11
1
4
0
3
2
0
1
0
0
2
0
1
5
6
0
2
1
1
0
2
0
1
0
0
5
7
3
2
3
0
0
0
1
2
2
4
0
2
10
2
1
1
0
1
1
0
1
1
1
1
7
1
1
9
2
0
1
0
2
7
0
1
5
0
0
1
3
1
4
3
2
0
5
2
2
4
0
1
4
6
0
0
6
4
0
0
0
5
3
3
1
0
1
2
1
2
2
0
1
0
0
6
5
4
1
1
0
0
3
1
2
3
0
0
2
1
1
0
1
0
0
0
1
0
1
0
0
0
0
2
0
3
1
7
1
1
1
0
4
3
3
0
0
3
3
3
1
2
0
1
6
2
2
6
0
0
6
1
4
2
1
1
7
0
3
2
1
4
1
1
3
6
4
1
0
0
1
8
0
0
3
2
5
1
0
0
0
0
0
0
2
12
2
0
0
0
3
4
1
4
4
1
1
0
0
2
1
0
1
2
5
2
0
1
0
3
0
7
3
9
0
0
3
3
2
0
2
2
4
1
3
0
1
2
1
3
2
2
4
11
5
0
3
1
0
0
10
6
0
0
1
3
2
0
3
3
1
5
1
1
1
2
3
1
0
6
3
2
8
0
3
2
0
11
2
0
1
5
1
0
0
5
2
0
0
0
0
1
0
1
5
2
1
1
4
5
0
8
7
1
1
0
2
3
2
1
1
4
0
3
5
1
1
2
4
0
1
1
1
1
0
1
1
1
3
0
4
0
1
0
1
3
8
4
4
2
1
15
1
1
8
6
0
3
1
2
1
1
2
0
4
1
0
1
2
0
3
4
1
1
11
11
0
4
3
9
0
1
6
4
7
2
1
9
7
6
9
1
2
8
1
1
0
0
0
4
4
0
0
0
3
3
0
2
2
7
3
0
1
0
4
0
6
5
3
6
1
5
5
1
3
1
0
0
0
5
4
1
0
3
6
6
1
0
0
0
4
1
0
2
0
4
0
2
2
0
2
1
0
0
1
4
0
6
1
1
2
2
0
7
2
3
3
0
1
1
0
3
1
2
3
1
2
0
7
0
0
0
6
2
3
0
0
2
0
0
5
0
0
2
4
6
1
0
0
2
1
4
2
4
0
2
2
1
2
2
0
2
1
2
0
0
0
1
0
2
0
9
2
0
1
3
0
1
2
0
0
7
3
1
4
0
3
0
0
2
5
1
1
1
0
6
5
0
0
2
0
0
5
6
0
1
4
2
1
0
0
0
0
3
0
0
4
2
1
7
0
3
4
0
4
0
5
0
0
0
4
2
2
2
3
2
0
0
1
0
2
1
1
0
1
0
3
1
1
3
7
11
0
0
2
0
0
4
1
1
1
0
1
3
1
5
1
0
2
3
0
4
4
5
0
0
0
2
5
0
0
1
1
2
0
1
0
0
0
0
4
6
0
0
2
1
3
1
1
0
1
1
0
1
0
0
9
2
8
0
4
6
0
0
0
2
0
2
0
1
1
0
0
0
3
1
2
2
6
8
2
7
3
0
1
5
8
4
1
1
1
0
2
1
1
2
0
0
0
0
0
6
1
0
6
2
1
0
1
5
4
3
1
0
3
3
2
3
0
3
9
0
0
1
1
0
4
0
2
0
3
0
3
1
2
0
3
1
3
4
2
5
0
0
2
1
5
5
3
0
0
0
0
2
3
5
0
2
5
2
1
1
3
0
0
1
1
1
1
6
3
3
2
0
0
0
1
2
1
0
4
3
1
0
6
2
1
4
6
2
1
7
1
1
0
1
0
7
1
4
2
2
1
2
2
1
1
1
1
1
0
2
7
2
0
0
0
0
8
3
0
0
0
1
0
6
0
8
0
6
0
2
1
0
1
3
0
1
3
2
2
2
0
2
0
0
0
3
4
1
4
2
3
5
1
3
2
2
1
1
3
0
4
0
3
11
0
1
0
2
3
3
1
2
1
4
1
0
1
2
3
1
7
0
2
1
1
0
2
8
7
5
0
1
4
2
0
1
2
2
0
1
3
4
3
1
4
2
1
0
1
0
1
2
0
3
2
0
0
0
2
1
3
0
2
2
3
2
1
0
0
2
1
1
1
2
6
4
4
3
5
0
3
0
2
0
1
0
5
0
0
2
2
3
0
2
1
3
1
2
1
2
1
4
2
1
2
1
2
0
2
5
10
2
1
3
7
1
1
1
2
0
3
2
2
0
7
0
4
1
0
1
6
0
1
2
3
0
2
6
0
0
0
2
2
0
3
2
1
0
3
1
2
0
0
4
1
1
2
2
2
5
0
0
1
0
2
3
3
3
5
4
1
5
1
2
1
0
1
1
2
0
0
0
1
0
0
5
4
3
0
5
1
2
2
0
4
4
0
0
1
3
2
0
0
1
0
1
0
4
3
0
0
0
0
5
3
0
0
4
5
2
1
1
1
0
1
7
2
0
0
0
5
0
4
2
1
1
2
0
1
0
1
1
0
1
1
0
0
4
2
0
1
1
2
0
0
2
1
1
0
5
14
1
5
6
3
0
3
1
3
0
0
0
2
0
1
2
0
2
1
0
2
5
0
6
0
1
0
0
3
0
0
3
2
1
1
1
6
2
1
0
0
0
0
1
1
0
3
0
0
0
1
3
2
2
2
1
3
5
4
8
4
0
2
1
0
3
3
2
0
4
0
4
1
2
0
1
2
0
1
1
0
1
2
1
3
2
0
0
0
1
8
0
0
3
6
5
2
5
0
1
3
0
3
2
0
8
1
1
1
3
1
1
4
1
0
10
0
2
1
2
0
3
3
0
3
3
2
2
1
4
1
1
4
4
5
6
3
0
6
7
5
0
0
2
0
1
2
3
1
0
5
2
3
0
1
1
1
1
1
3
4
4
1
0
2
1
7
0
2
6
1
2
3
0
6
5
1
2
6
0
0
0
3
3
1
8
3
3
0
0
1
1
2
0
0
1
0
3
3
0
1
0
1
2
1
0
0
0
2
4
0
0
1
0
4
2
1
7
6
3
0
3
2
4
4
0
1
0
6
1
0
3
1
0
0
0
5
0
4
3
0
2
1
1
0
8
0
3
0
3
4
4
6
4
2
1
0
1
2
1
0
4
5
2
3
0
0
4
7
1
0
0
1
2
2
4
0
2
3
4
2
1
2
0
5
5
1
0
0
0
0
3
4
0
2
1
0
1
3
3
0
0
2
4
1
0
0
3
1
4
0
0
0
1
0
1
6
0
0
1
1
1
1
1
0
1
2
0
6
0
1
0
3
0
0
0
0
2
4
0
0
3
3
5
1
0
2
2
5
0
0
0
0
5
4
1
1
2
0
8
5
5
0
0
2
2
1
1
0
2
6
1
1
2
4
5
0
0
0
0
1
0
2
1
0
0
13
1
0
0
0
0
1
1
4
3
0
2
1
4
1
4
3
0
7
0
6
2
0
2
1
0
0
3
0
2
2
1
4
1
1
1
1
11
5
1
0
0
3
0
3
0
2
0
4
0
0
2
0
1
1
0
0
3
1
1
1
3
1
5
4
0
1
0
0
0
1
3
7
0
6
0
1
3
3
0
5
4
2
4
1
1
4
0
1
2
1
1
3
0
0
0
1
1
0
3
1
1
2
2
2
1
0
2
2
3
9
3
3
9
3
2
1
3
2
0
2
1
0
2
6
0
3
0
2
0
0
0
0
1
0
2
0
1
6
1
5
3
0
1
4
0
2
10
0
0
0
2
9
2
3
4
0
2
4
0
1
3
2
0
2
2
0
2
3
0
7
0
1
2
0
2
1
1
0
0
3
3
1
0
0
1
2
3
0
1
1
2
2
8
1
2
0
3
0
1
1
0
1
2
1
0
0
0
3
3
0
0
3
1
0
0
4
1
0
0
2
2
2
0
1
1
0
8
0
10
2
5
8
2
1
1
2
3
0
2
0
0
0
0
3
0
1
0
3
11
0
1
0
0
4
0
2
4
0
3
4
7
4
5
0
4
2
0
0
2
0
0
1
2
0
6
5
0
1
1
0
0
3
4
0
2
1
0
3
6
1
4
0
6
3
1
11
8
6
8
4
1
2
1
5
1
2
9
4
7
6
5
6
2
0
3
0
4
1
3
3
0
0
1
3
3
0
0
1
1
0
4
3
0
4
3
0
2
1
4
2
1
1
12
6
4
2
1
3
2
0
1
4
1
1
1
1
1
3
0
5
4
2
0
11
5
1
3
0
0
8
0
3
0
0
2
5
1
2
0
0
1
3
5
0
1
4
1
1
0
2
3
0
0
1
0
2
0
5
2
1
3
2
2
0
0
1
6
1
2
0
3
0
2
0
1
0
2
5
2
6
0
10
6
4
0
2
5
1
0
1
1
2
0
2
1
1
0
2
5
1
1
1
1
1
3
1
1
1
1
1
0
3
2
0
0
3
2
1
0
1
0
1
3
2
3
0
0
2
2
1
0
0
1
6
1
0
2
0
2
1
0
2
0
1
3
1
2
0
0
4
1
0
0
2
1
3
2
4
0
0
0
2
0
0
1
0
6
1
0
1
9
1
0
2
1
0
0
1
1
1
0
3
1
1
5
3
0
4
0
1
0
6
0
1
2
2
3
2
2
2
3
0
2
0
3
0
3
5
1
2
1
1
4
1
5
5
5
1
6
0
0
4
2
2
2
1
0
5
2
0
0
1
4
3
0
0
1
1
1
0
0
1
1
1
5
0
1
2
4
0
1
2
2
1
0
3
2
1
0
0
8
3
1
2
1
5
1
3
1
0
3
2
5
2
0
0
0
5
1
6
1
7
3
0
0
0
0
4
7
0
3
1
0
2
0
0
2
0
4
0
1
0
0
1
0
1
1
1
3
3
5
1
4
1
4
1
3
0
0
0
0
0
3
4
3
6
3
1
1
1
1
1
1
1
0
0
1
1
3
1
3
0
4
8
0
2
2
2
3
0
1
1
1
2
2
4
1
0
6
0
0
5
0
1
0
1
2
2
0
0
2
2
1
1
1
4
5
7
1
8
2
0
3
0
2
3
0
1
3
0
0
1
1
2
0
0
0
1
2
2
1
1
7
0
0
1
3
0
4
3
1
3
1
0
1
0
2
0
5
0
1
0
0
1
1
5
1
1
0
0
0
1
0
1
0
0
1
0
1
1
3
2
5
1
7
1
3
0
6
0
3
2
1
5
2
1
0
1
0
0
0
2
2
1
1
0
0
1
4
1
4
2
0
7
10
4
2
0
0
0
3
2
1
6
4
2
4
1
2
0
1
1
0
0
4
2
6
0
1
1
3
3
3
5
2
0
3
1
1
4
0
0
0
4
3
0
0
0
2
3
2
1
4
0
0
5
1
4
0
2
1
2
2
0
0
0
2
2
3
5
0
0
0
0
1
1
0
0
0
0
3
2
2
1
1
1
2
1
0
2
3
4
1
4
4
8
0
1
3
1
3
4
1
2
1
0
0
2
3
5
1
0
1
0
2
0
0
3
3
4
2
1
2
3
0
6
6
1
2
0
2
1
3
0
4
5
6
3
1
2
3
0
0
4
0
2
2
5
1
6
1
1
2
0
3
0
1
2
5
5
0
1
0
1
2
3
4
0
0
0
0
5
3
2
0
2
4
1
0
2
2
0
0
2
0
1
0
0
0
2
3
4
1
0
2
4
8
2
0
4
2
0
9
1
1
3
0
5
0
0
2
1
0
0
5
1
0
3
1
1
1
1
0
4
2
4
1
4
0
2
1
4
0
2
0
0
0
0
0
0
2
2
2
0
0
2
2
0
0
1
1
1
1
1
0
0
0
1
3
0
2
7
1
2
2
0
5
0
4
6
4
2
2
1
0
1
2
0
0
0
6
3
1
4
4
0
1
1
2
1
1
0
2
2
1
0
1
1
0
3
2
0
1
1
0
1
3
1
1
3
2
1
0
3
0
2
1
1
5
3
0
0
0
1
1
3
0
1
1
0
0
1
1
1
1
0
2
0
0
8
1
3
1
0
0
1
0
2
3
1
1
1
1
0
3
1
0
0
8
0
1
2
2
2
1
1
7
1
0
1
0
0
2
1
0
1
2
3
0
0
0
0
0
1
0
4
2
0
3
1
2
0
0
0
6
2
2
0
1
1
1
1
3
0
4
0
2
2
2
2
0
1
5
0
0
2
1
1
0
0
1
8
0
1
0
0
1
0
2
5
1
0
2
6
0
1
0
1
2
0
0
1
2
1
0
0
1
0
0
0
0
4
1
3
2
0
1
2
1
0
10
3
4
1
3
1
0
1
5
1
1
3
0
1
1
1
1
2
2
1
4
0
2
2
4
0
2
3
3
0
5
3
4
2
0
1
0
1
0
1
3
2
0
2
0
2
0
2
0
1
0
4
2
3
0
2
2
3
1
3
2
0
5
3
3
0
1
1
0
1
2
2
0
0
1
0
0
2
0
0
1
3
0
1
10
1
1
0
2
0
0
6
1
0
1
1
2
3
0
4
0
1
0
2
7
0
3
0
1
1
5
3
0
0
1
3
0
1
2
3
1
0
2
4
0
0
1
2
2
0
1
0
2
0
0
1
1
0
0
1
0
7
1
0
5
5
0
5
3
4
1
1
3
2
1
1
1
3
0
3
1
1
1
1
3
1
2
1
3
4
1
2
3
2
1
1
1
2
4
3
2
1
1
2
0
5
7
1
0
0
1
0
0
0
1
1
1
3
3
0
2
0
0
1
7
0
1
0
1
0
0
0
1
1
0
0
0
1
3
2
5
1
2
4
1
6
2
0
1
1
1
1
0
2
0
0
1
4
2
0
0
0
5
0
0
0
0
2
0
0
0
0
4
1
0
0
2
5
1
0
1
2
4
2
2
1
0
3
1
1
1
3
0
1
0
1
0
3
5
1
2
0
1
1
2
2
1
2
0
1
2
4
0
4
0
0
0
5
0
2
3
0
0
0
1
6
1
4
0
3
0
1
0
2
1
5
0
2
1
2
4
1
0
6
0
4
1
3
3
0
0
0
0
2
5
0
0
0
1
0
1
3
0
2
0
0
1
0
1
3
1
0
7
0
2
2
1
1
0
0
0
1
4
1
1
3
2
1
3
4
1
0
0
2
1
1
0
3
1
3
1
0
0
0
2
1
0
0
4
2
1
7
0
4
1
6
2
1
1
1
5
2
6
0
0
1
1
8
0
3
5
0
0
0
1
0
0
0
2
0
0
1
5
4
6
1
1
9
0
3
5
1
8
0
0
2
0
2
1
0
0
0
5
0
2
2
1
2
1
1
0
0
0
2
2
1
1
1
2
1
2
2
0
1
0
0
0
2
6
1
0
1
1
2
0
0
1
2
4
2
2
1
2
1
3
3
5
0
1
0
2
3
4
3
3
1
0
2
9
3
0
0
3
1
0
4
0
0
0
2
1
2
1
3
0
1
1
3
1
0
0
2
4
0
3
0
2
2
5
1
1
2
0
1
0
0
2
0
1
1
0
0
0
3
1
0
1
1
1
7
3
1
1
0
2
2
0
0
0
0
0
0
0
3
2
0
0
0
0
4
7
1
2
2
0
1
1
0
1
0
0
0
3
3
1
0
2
0
1
1
0
0
0
2
3
2
0
0
1
0
3
1
1
5
0
0
2
2
0
1
4
2
1
2
6
0
4
3
0
0
4
0
0
0
1
11
4
1
1
0
1
0
10
0
0
1
3
1
1
0
0
0
0
2
1
3
2
0
1
0
1
2
0
2
1
1
4
2
0
2
4
2
4
1
5
4
7
2
0
4
0
1
0
6
0
1
3
0
1
2
0
2
2
0
0
0
2
1
1
1
0
0
5
4
0
2
0
2
7
0
2
4
1
0
4
0
0
3
2
4
0
0
1
3
0
1
0
0
3
1
1
2
0
1
1
3
1
0
0
2
0
0
4
1
0
2
2
0
0
1
0
0
1
3
1
3
0
1
2
0
0
2
3
1
0
0
1
1
4
8
1
2
0
3
1
2
0
1
4
1
0
1
0
3
1
0
0
4
2
0
3
3
0
1
1
5
0
0
6
0
0
0
4
0
1
0
0
2
1
1
3
0
2
1
0
0
0
1
0
3
1
3
1
3
1
1
1
1
0
2
2
1
3
2
1
8
1
0
1
4
0
0
2
4
0
0
1
1
1
8
2
5
0
0
1
6
1
0
6
9
1
3
2
2
1
2
1
2
1
0
2
4
1
1
0
0
0
0
0
0
0
2
4
0
0
2
1
2
3
2
5
2
0
3
0
0
0
2
0
1
0
0
3
3
3
2
0
1
3
0
7
1
2
1
3
1
1
1
2
3
3
0
0
1
2
0
0
4
5
3
1
3
2
2
1
2
0
1
0
0
3
1
1
0
1
4
0
0
0
1
2
4
1
2
0
1
1
3
2
3
1
0
0
0
4
1
0
0
0
2
0
0
3
4
0
1
2
3
2
1
0
7
5
3
0
3
4
1
0
1
0
0
2
2
0
3
0
1
7
1
0
1
0
0
0
1
4
0
0
0
3
0
2
0
2
2
0
0
2
0
1
4
2
0
0
1
1
0
0
0
1
3
1
1
0
1
3
1
4
0
1
2
0
1
0
5
2
2
0
2
0
1
0
3
3
3
1
0
0
4
3
2
0
0
1
0
0
4
4
8
1
1
0
1
0
0
5
0
1
1
1
5
0
1
0
5
2
0
3
2
3
4
0
0
0
1
0
1
3
0
4
0
0
0
2
0
0
1
3
1
2
3
0
0
3
0
0
1
1
3
1
1
3
1
1
3
11
0
0
0
0
7
1
4
2
0
5
1
2
1
3
2
1
2
1
1
1
6
0
3
0
1
0
3
0
0
4
1
0
1
5
0
0
0
3
7
1
0
5
2
4
4
0
1
4
0
2
0
0
1
3
3
0
2
0
4
3
0
0
0
1
1
2
1
0
2
2
0
0
3
0
5
5
0
4
1
1
1
2
5
1
1
2
1
1
0
0
5
1
0
1
1
1
3
0
6
1
2
0
1
3
2
0
2
0
0
1
0
5
4
0
0
0
1
0
0
2
0
0
7
3
2
0
0
1
0
2
2
0
5
0
1
3
1
0
0
1
0
0
0
1
0
0
2
3
0
2
0
1
3
0
2
0
1
0
3
0
0
0
0
0
1
0
0
5
0
2
1
2
2
0
0
0
0
3
1
4
2
1
1
2
0
1
1
3
0
0
2
4
0
1
2
0
0
1
2
1
1
1
4
4
0
1
1
2
0
1
0
2
3
1
1
3
4
4
2
3
2
0
0
4
0
1
0
0
0
0
1
0
2
3
0
1
6
5
3
3
1
1
0
6
3
4
2
2
0
1
0
0
0
0
4
0
2
2
0
4
2
2
0
2
1
0
0
0
0
6
2
0
3
1
3
1
4
2
3
3
0
0
2
8
0
6
4
5
2
0
0
0
0
5
3
5
2
2
1
3
6
1
0
0
1
4
0
0
1
3
1
5
3
0
2
1
2
2
2
0
0
1
2
2
1
1
5
0
3
0
4
0
3
0
2
1
0
0
0
5
1
0
1
0
1
0
1
1
0
0
1
0
2
4
1
1
2
0
1
3
1
0
1
0
2
3
0
1
0
0
4
0
0
2
0
1
4
2
1
1
0
5
0
6
0
1
0
1
1
2
4
1
2
1
2
0
1
0
1
0
0
3
2
4
1
2
1
1
1
0
3
1
0
0
0
1
2
7
0
0
0
2
1
0
0
4
0
1
0
1
1
1
0
2
5
1
1
2
0
5
1
4
3
0
3
0
3
0
0
0
1
2
0
1
1
1
1
1
0
3
0
0
0
1
1
0
2
1
0
1
4
2
1
1
0
1
4
0
2
0
1
0
0
0
0
1
2
2
4
0
0
3
0
1
0
1
0
1
3
5
0
1
1
2
4
0
3
0
0
1
1
0
2
0
3
3
0
1
1
1
1
1
1
3
3
0
4
1
2
1
0
3
1
0
0
6
1
1
1
0
0
1
3
2
2
2
1
1
2
1
0
1
1
1
4
0
0
2
1
0
5
1
2
3
0
1
0
1
1
2
3
3
0
0
0
2
1
2
1
3
1
1
0
3
0
1
2
2
3
4
1
5
1
3
0
4
0
0
1
0
0
0
4
1
0
1
1
0
3
3
2
3
3
2
0
0
2
0
1
3
1
0
0
3
0
5
2
3
1
0
1
2
0
0
0
2
0
0
0
1
1
1
1
1
0
1
2
0
0
0
0
0
1
2
1
0
0
1
1
0
2
2
1
3
1
3
2
0
0
0
0
0
0
0
1
0
0
0
3
1
0
3
0
0
0
0
0
0
3
0
0
4
9
0
1
0
0
0
0
2
2
4
5
5
0
1
3
4
4
0
2
0
0
4
0
6
0
3
0
0
0
3
3
0
2
1
0
1
0
0
3
0
1
3
0
1
1
0
2
0
9
1
0
1
0
3
2
3
0
0
2
1
2
0
0
0
0
0
1
4
1
0
0
1
1
0
0
2
1
0
0
1
0
7
0
1
0
0
1
1
1
1
1
1
0
1
3
4
1
0
0
1
1
4
4
0
1
4
2
0
0
0
3
0
5
2
1
1
0
0
0
6
0
0
0
0
3
6
3
0
5
0
0
0
1
3
0
0
0
5
0
1
1
0
0
6
1
1
1
2
1
4
1
1
4
2
0
0
0
1
0
2
0
0
3
2
2
0
0
2
3
0
0
1
2
0
1
0
1
0
2
0
3
3
0
4
0
4
0
2
3
2
7
2
1
1
2
1
1
2
3
2
0
1
4
1
2
2
0
0
2
4
3
0
4
2
0
3
5
0
2
0
1
1
2
3
1
1
1
2
3
0
0
0
0
2
1
2
0
0
1
0
0
0
0
0
0
1
3
2
2
0
2
2
2
1
0
2
1
2
1
2
3
0
0
0
3
0
2
0
0
1
0
0
0
1
1
1
0
2
0
0
0
3
0
1
1
2
2
0
0
1
0
0
8
2
0
3
1
1
2
0
0
0
2
0
0
0
1
0
2
0
0
0
2
0
0
1
1
2
0
3
0
0
1
1
3
1
2
0
1
1
1
1
0
1
0
0
1
4
0
0
0
1
1
1
0
1
2
0
3
1
2
1
1
0
7
0
1
0
0
1
1
0
3
0
1
0
4
0
1
1
1
0
1
0
4
0
1
1
1
3
2
0
0
0
0
4
4
1
0
0
1
1
3
1
4
1
3
1
1
1
2
1
1
0
0
0
0
1
1
0
1
4
0
0
0
0
1
2
0
3
0
1
0
1
0
1
0
0
0
0
1
1
1
2
4
1
1
3
1
1
3
0
1
1
0
3
1
1
1
0
0
1
5
1
0
2
1
0
1
2
0
1
6
7
0
2
2
2
0
1
1
2
1
2
1
1
0
0
0
0
2
0
1
1
4
0
6
2
1
0
0
2
0
0
1
5
2
0
1
4
3
1
3
4
0
0
2
3
0
0
1
2
0
1
0
1
1
0
4
1
0
3
1
0
0
4
1
0
0
0
2
1
3
0
0
4
1
0
0
2
0
4
0
1
1
1
4
0
0
0
1
0
0
3
0
0
0
0
0
2
2
2
0
0
0
1
4
3
3
2
1
3
1
0
1
0
1
2
6
3
1
0
1
1
5
0
4
7
7
1
0
0
1
0
0
0
0
0
0
0
0
1
0
3
1
1
0
1
9
0
0
3
3
0
1
0
0
2
0
0
3
0
0
1
1
2
1
2
0
0
1
1
0
0
0
1
3
1
1
0
0
3
4
1
0
3
2
1
3
3
1
2
2
2
3
0
3
0
1
3
1
1
1
1
0
0
2
1
1
0
0
0
0
0
0
3
4
0
0
1
3
2
2
1
0
0
4
1
0
1
3
3
2
1
1
1
0
1
0
3
1
0
3
4
1
1
0
2
1
7
1
1
1
0
0
3
4
2
0
0
1
5
2
1
5
3
5
0
0
1
1
0
0
0
0
4
4
0
2
3
0
0
3
1
4
2
0
2
1
2
0
2
0
0
1
0
1
1
1
1
3
3
5
4
0
0
1
3
0
1
0
3
2
0
1
1
2
4
0
0
0
3
0
1
2
0
5
1
0
0
4
0
0
0
0
1
1
0
3
3
1
0
0
4
0
0
1
2
0
0
2
4
2
2
4
2
0
4
1
0
1
3
2
1
0
1
3
3
1
1
1
1
2
0
2
1
0
0
1
0
1
1
1
3
2
0
3
0
1
1
1
0
0
1
0
0
5
0
1
0
3
2
0
2
4
0
3
1
4
0
0
1
0
1
3
0
2
0
0
1
1
0
1
0
0
5
3
0
5
1
1
7
3
1
3
6
1
0
1
1
0
2
1
0
0
0
1
4
2
3
0
0
0
0
0
1
1
2
1
0
0
5
0
6
0
1
1
5
5
5
0
0
0
3
1
0
4
1
5
0
0
0
0
0
1
0
1
3
0
4
1
0
4
3
4
0
0
2
3
9
1
0
1
2
1
1
2
0
4
0
1
2
0
0
1
0
5
0
2
2
2
1
3
1
0
3
0
4
1
0
0
3
0
0
0
1
2
2
1
0
0
0
1
1
3
0
5
2
4
8
0
3
6
3
3
1
1
0
0
0
3
1
0
0
0
4
2
0
2
0
0
0
0
2
2
3
1
3
1
1
1
2
1
0
2
5
1
7
2
1
1
2
1
0
0
0
0
0
0
0
0
0
0
0
1
1
0
0
0
1
5
1
1
4
2
3
3
3
5
2
0
0
4
5
0
0
5
1
0
1
1
2
2
0
0
2
1
3
8
4
1
0
0
3
0
0
0
0
3
0
0
0
0
0
1
1
2
1
1
1
0
0
2
2
1
2
0
3
0
0
0
2
0
0
2
2
0
0
1
0
1
0
0
0
1
3
0
1
1
3
0
0
0
0
0
2
4
3
0
1
1
0
0
2
0
0
3
0
2
0
0
1
0
1
1
0
2
2
0
0
0
0
0
0
4
0
0
1
1
0
1
2
0
1
0
1
5
1
0
1
3
3
0
2
0
0
3
5
0
1
0
0
0
0
3
0
0
0
0
0
0
5
3
3
0
2
0
0
3
1
0
0
3
1
3
0
0
0
3
3
0
0
0
2
3
1
0
0
1
2
3
1
1
0
3
0
1
1
0
0
1
1
1
1
3
0
3
3
0
0
0
0
2
0
0
0
0
4
0
0
4
3
2
1
1
0
2
0
0
1
2
2
0
0
7
0
3
0
0
0
0
2
0
2
0
0
0
0
0
3
0
0
4
3
4
1
0
2
0
3
2
1
2
0
0
1
2
1
0
1
2
0
1
2
3
0
1
0
1
3
0
0
0
1
0
1
0
1
5
0
2
0
0
3
0
0
0
5
0
0
1
1
6
1
0
1
1
0
0
5
1
2
0
1
2
1
3
3
0
2
6
6
0
2
3
0
0
2
0
2
3
2
4
1
3
1
0
2
2
0
1
0
0
0
0
1
0
0
4
2
2
3
0
0
1
1
0
0
0
1
0
1
0
1
2
3
2
1
0
0
0
1
0
0
2
6
0
3
0
1
0
1
3
0
0
0
0
2
1
0
0
1
1
0
4
1
0
0
0
0
1
0
1
0
0
1
0
0
2
0
6
1
0
3
1
1
2
1
0
1
4
0
0
3
0
0
1
0
1
2
0
0
0
3
3
0
3
3
1
2
1
0
1
1
0
3
3
0
0
1
1
1
0
4
1
1
0
0
1
0
2
5
0
0
2
2
0
4
0
1
1
2
0
2
1
0
0
0
0
0
0
2
4
7
1
1
1
0
1
0
0
0
0
4
0
1
2
0
2
1
0
1
0
0
0
2
0
0
5
0
2
0
0
1
0
0
0
0
0
2
4
0
0
0
0
1
3
0
0
0
2
0
1
0
1
0
6
1
2
1
0
1
3
1
1
0
0
1
0
0
3
4
1
1
0
0
1
4
4
0
1
0
1
0
1
1
0
0
0
1
1
0
0
4
0
0
4
1
1
1
0
0
1
3
0
1
0
0
0
1
2
0
0
3
0
1
2
0
0
4
0
0
0
0
1
1
0
7
6
0
1
2
0
3
0
0
0
4
1
0
0
0
0
2
1
1
1
2
2
0
2
0
1
1
5
2
4
0
0
1
0
2
1
1
0
5
1
2
0
0
8
2
2
0
0
0
2
1
0
0
0
4
5
0
1
1
2
0
0
0
0
1
2
2
0
0
0
1
3
1
2
0
3
0
0
0
1
0
0
2
1
2
0
0
5
3
0
3
0
0
0
2
1
1
0
0
0
0
0
2
3
0
0
2
0
2
1
2
0
0
0
3
0
1
1
1
1
1
1
0
0
2
1
2
0
2
0
1
0
0
1
0
1
4
1
0
2
1
1
3
4
2
0
1
2
0
0
0
4
0
0
0
1
0
0
0
0
2
1
6
1
0
1
0
0
0
0
8
4
1
3
2
0
3
2
0
1
1
0
1
1
2
5
4
0
0
0
1
0
1
0
0
1
1
1
1
1
2
0
2
0
0
3
1
0
1
4
2
3
1
0
1
0
0
1
1
3
0
3
2
2
0
0
4
2
5
1
0
3
3
2
0
0
2
1
1
0
3
0
6
0
0
0
0
0
1
2
4
0
0
3
1
1
3
3
0
0
0
0
1
1
0
1
1
0
0
6
3
0
1
0
3
0
1
1
0
2
0
4
0
0
4
3
0
0
2
5
0
2
3
1
0
0
2
1
0
1
0
1
1
3
1
3
0
3
2
1
0
0
0
2
3
2
0
0
0
0
1
2
1
4
0
0
2
4
0
0
0
1
0
1
0
0
3
1
1
1
7
0
0
0
0
3
0
0
4
1
0
5
4
4
0
0
0
0
2
1
1
1
0
2
0
0
1
2
0
1
1
0
0
0
1
0
6
0
1
1
1
0
0
0
4
0
3
4
1
1
2
0
4
1
0
0
0
0
2
0
2
0
0
1
0
1
0
1
0
0
0
0
2
0
0
0
1
1
0
4
1
0
0
0
0
3
2
0
3
2
0
1
0
0
1
0
2
0
1
3
1
0
0
1
1
0
0
4
4
2
0
1
0
0
0
0
1
0
1
3
0
0
1
1
2
0
2
0
1
1
0
0
0
1
5
2
2
1
1
2
1
0
2
0
3
0
0
1
0
3
3
2
2
0
0
0
0
2
0
0
0
0
0
0
0
0
1
1
5
0
1
1
1
3
0
0
2
0
0
0
1
0
2
0
1
1
2
0
0
0
1
0
2
0
1
0
1
1
2
1
0
0
1
0
1
3
2
0
4
4
0
1
2
0
1
0
3
2
0
1
0
0
1
5
1
2
1
1
0
0
0
1
3
0
2
1
1
0
1
0
4
4
2
0
0
0
0
3
3
2
0
0
2
4
5
2
1
0
0
0
1
0
0
1
0
0
0
0
0
4
0
1
4
3
5
0
2
2
7
0
0
1
0
1
1
1
0
2
1
1
3
4
0
1
2
0
0
2
0
0
0
1
0
0
1
0
3
0
0
0
0
0
0
1
5
1
0
0
1
0
0
0
8
0
3
1
1
0
0
1
0
0
1
1
0
0
0
0
0
1
2
2
1
1
0
0
0
0
0
3
0
0
0
1
0
2
1
0
0
1
2
0
1
0
0
4
0
5
6
2
2
1
0
0
1
1
0
0
1
1
0
5
3
0
1
2
6
4
2
1
0
0
0
0
2
1
2
0
0
0
1
1
5
0
1
1
1
0
0
0
0
2
2
2
1
0
0
0
0
0
0
0
0
0
0
0
0
0
0
0
0
0
0
0
1
3
3
0
0
0
0
0
4
0
1
0
0
1
4
1
2
0
0
0
4
1
0
4
0
0
1
0
3
1
0
0
0
0
0
2
3
1
1
1
2
1
1
0
0
0
0
3
2
0
0
0
1
0
0
2
0
5
0
1
3
0
1
2
0
0
2
0
1
3
1
1
2
2
3
1
5
1
0
4
3
4
0
1
1
0
0
0
0
0
1
0
1
4
0
2
2
0
3
1
1
0
1
0
2
4
2
1
1
3
1
1
10
1
0
1
1
0
0
1
1
0
4
3
0
1
0
2
1
0
2
0
0
0
1
3
1
1
3
0
2
1
1
5
1
4
2
4
1
0
0
0
0
0
2
0
0
0
5
1
0
0
0
0
3
1
0
0
0
0
0
1
0
1
6
0
1
0
0
4
5
0
0
5
3
0
0
0
1
0
1
0
2
1
1
0
0
0
1
1
1
0
1
0
2
4
1
1
1
1
2
0
3
5
2
2
2
0
1
1
1
0
4
0
4
2
1
1
0
2
0
0
3
2
1
1
1
1
0
1
0
1
0
0
1
4
0
0
1
0
0
0
4
1
2
1
3
1
0
0
0
0
3
0
3
0
0
1
0
0
0
1
0
1
0
0
0
0
0
0
0
1
1
1
2
1
1
0
3
8
1
3
1
0
0
0
1
0
0
0
1
4
3
0
0
3
0
3
1
2
1
2
1
1
0
5
2
1
5
2
3
1
2
0
0
7
2
0
3
5
0
2
5
6
0
3
1
0
2
1
1
0
0
2
0
0
2
0
0
1
0
2
0
0
0
2
1
0
0
1
0
2
0
2
0
0
0
2
1
0
0
2
0
0
0
0
0
1
0
0
1
3
5
2
0
2
1
0
0
0
2
1
3
5
3
0
0
0
0
0
0
0
0
0
0
1
0
1
0
0
0
0
2
1
0
1
0
0
3
0
3
0
0
0
0
0
0
1
2
1
0
0
3
2
4
0
0
0
0
1
0
0
0
1
1
0
9
2
1
0
1
1
0
3
1
0
2
1
2
5
0
4
1
0
0
2
1
1
1
0
2
0
0
0
0
3
1
1
1
0
0
0
0
0
0
4
2
3
0
0
1
1
0
0
1
0
4
2
0
0
0
2
1
1
1
0
1
1
1
0
4
1
0
2
0
3
0
0
0
0
0
3
0
0
1
0
0
2
0
0
0
2
1
0
0
2
1
1
1
1
1
0
4
0
0
0
0
0
2
0
4
0
0
1
1
3
4
0
2
1
2
1
0
0
1
2
1
1
1
1
1
0
0
0
0
0
0
0
0
0
0
2
0
1
0
3
4
0
1
2
0
0
0
1
0
2
3
1
0
1
0
0
3
1
2
2
1
0
0
0
2
0
0
0
2
0
2
0
1
1
2
1
1
0
0
0
1
4
4
0
4
1
0
5
0
2
0
0
1
0
1
1
0
1
1
0
0
1
1
1
1
1
2
2
3
3
1
0
0
0
0
6
0
0
0
2
1
0
0
2
0
0
0
0
1
3
5
1
2
0
0
0
3
0
0
0
3
1
0
2
0
0
0
2
4
1
1
0
0
1
0
0
1
2
0
0
1
1
0
1
0
0
1
0
0
1
0
0
3
0
0
1
1
2
0
2
0
1
0
2
3
2
1
2
1
0
0
0
0
0
2
3
0
1
1
0
0
1
1
1
1
2
2
0
1
0
0
1
0
1
0
0
1
1
0
0
2
1
2
2
0
1
0
2
1
0
0
0
0
3
0
0
0
0
1
1
1
0
1
1
0
0
0
0
1
0
1
3
0
0
0
0
3
1
0
0
0
4
3
2
3
2
0
0
1
2
1
0
0
0
0
1
0
0
0
2
0
3
0
3
1
2
1
0
1
1
0
2
0
1
0
0
2
0
0
2
0
1
1
0
6
0
0
3
1
2
0
3
1
0
0
2
1
0
2
2
0
3
0
2
1
1
3
1
1
3
3
0
0
1
0
1
1
0
0
0
0
1
0
2
0
0
0
0
0
1
3
0
0
3
0
2
0
1
1
2
2
1
0
0
0
0
0
2
1
0
2
0
2
1
0
0
2
0
1
1
1
1
4
0
0
1
0
0
1
0
0
2
1
2
2
1
0
1
0
0
0
1
1
3
2
1
0
0
0
3
0
1
0
0
1
4
1
1
0
0
1
2
0
0
2
0
3
0
4
1
1
4
2
2
1
0
5
0
0
0
0
0
1
0
1
1
0
0
0
0
0
0
2
1
0
0
1
2
0
1
1
0
0
1
0
1
2
1
4
4
2
0
0
0
0
0
4
3
0
1
0
0
2
0
2
0
1
0
0
0
4
7
1
3
0
1
0
0
1
0
1
0
1
1
5
1
0
2
6
0
3
0
0
0
0
0
0
1
1
1
0
0
4
0
1
0
0
0
0
2
2
1
0
0
0
3
1
1
1
3
1
1
0
0
1
1
1
0
2
1
1
2
0
0
0
0
0
0
1
0
0
4
1
2
0
1
3
0
0
1
0
1
0
1
1
2
0
2
1
2
2
0
1
4
2
0
1
1
1
7
1
0
2
3
1
1
1
3
0
3
1
0
0
2
0
2
2
0
1
2
3
1
1
0
0
0
5
1
0
1
0
0
0
2
0
1
0
0
1
5
1
1
0
1
0
1
5
3
4
6
4
2
1
1
0
0
0
5
0
1
1
0
6
0
0
0
0
0
1
2
0
0
1
2
1
3
0
0
0
0
0
0
0
0
4
0
0
0
1
1
0
0
4
0
4
0
2
0
0
0
0
0
1
1
2
0
1
3
2
0
0
0
0
0
1
0
0
1
0
1
1
3
3
2
0
3
0
1
1
0
0
0
2
0
0
2
1
0
0
0
1
1
0
0
1
0
0
0
2
0
4
1
3
1
4
0
1
2
0
2
0
3
1
4
0
0
3
0
0
1
0
0
0
1
1
0
0
0
1
2
0
0
0
1
0
0
1
1
0
0
2
0
1
1
0
0
1
1
0
0
0
1
0
2
0
3
4
1
2
0
1
1
3
2
4
0
2
0
2
0
1
1
0
1
2
2
0
0
0
1
1
0
0
2
4
0
0
1
0
0
0
1
2
3
1
1
1
3
1
0
0
0
0
3
0
2
3
2
2
0
1
1
0
2
0
1
0
0
0
0
0
0
0
0
1
1
3
0
2
1
0
0
0
0
1
2
2
0
0
1
1
0
0
0
1
0
1
0
1
1
2
2
1
0
0
0
0
0
0
2
1
1
0
2
2
0
1
1
0
0
1
2
0
2
0
1
2
0
2
0
0
1
2
0
0
0
0
0
6
0
2
0
1
0
0
1
1
3
1
0
0
0
1
2
0
1
0
0
0
0
4
1
1
4
2
7
0
1
0
0
4
0
1
1
0
0
0
0
0
2
0
2
1
1
2
2
0
0
1
0
2
1
0
0
1
1
1
0
0
3
0
1
1
1
0
3
0
2
1
0
0
0
0
1
0
5
0
0
0
0
0
0
0
3
2
0
0
1
3
1
1
0
6
0
1
3
7
1
2
0
1
3
0
0
1
0
0
0
1
2
1
1
0
1
0
0
0
0
1
1
0
1
1
0
0
0
1
0
0
1
0
1
0
0
1
0
0
2
0
2
1
1
0
0
3
0
0
0
0
0
0
0
1
2
0
3
0
3
0
1
5
0
1
0
4
0
0
0
0
4
0
3
0
2
2
0
1
4
7
0
0
1
0
1
0
1
2
0
0
2
0
4
4
1
1
2
0
3
0
1
0
0
1
0
0
0
1
2
4
0
1
2
1
0
2
4
2
0
0
1
0
0
1
0
2
4
0
4
3
0
2
0
0
0
0
2
2
4
1
1
3
0
0
0
0
0
0
4
5
0
1
1
0
0
0
2
7
0
0
0
4
1
0
3
1
3
0
0
4
0
0
1
0
0
0
2
2
0
0
1
2
1
0
2
4
1
0
0
0
0
0
0
0
