439.528885439504
2078.29204405658
1838.50712450221
3687.4064540863
489.992471672595
3096.87153253471
3549.65827739798
3487.92100237682
465.232211309485
257.65748344129
1364.55172113609
2047.71533888765
3086.29463789519
2725.05699010799
2214.0818442218
2059.26977308933
644.423985353205
1252.8065186413
2929.06939663924
952.582593653351
3288.67099679774
1824.95605432894
3028.2357143308
1720.38212546613
87.7263422333635
946.051661465317
1761.60006750841
2563.53042270988
519.775278680027
1468.87578913243
1202.935623948
1266.58446583198
2929.94359479519
3190.21671105176
1554.85365257598
1524.72190895118
2189.77887928952
3293.81078495644
1097.53908945015
2354.12500789622
1818.64358812803
771.938068005256
484.566119969822
2714.33051487431
3351.42314553028
2809.20976737281
480.744519818109
87.9679733491503
1845.41537516518
1068.67208383977
466.608110668603
1246.93410053384
791.810241364874
2555.53018319188
2241.87102484284
697.071859447751
3539.96392836794
3004.54674429959
2793.86732043698
1015.42017749045
320.042430991307
3140.28616076102
18.8143948023207
2921.24155059457
1438.62066797912
2797.38041362027
2650.00584713649
195.697503411211
3088.73591580894
1531.95544912247
1691.769432812
1654.39314079005
2673.35509917699
805.662153214216
3585.13042127481
1848.8407651009
2374.6389755141
3495.0496151601
2478.00852559973
1683.95685978932
402.429108400829
2164.18823115528
1451.25368493609
2860.73823729297
83.4001996857114
314.676660185214
3552.54162153695
1647.45176750701
3330.53838894004
1676.14327039802
2714.71058261348
798.72663672315
3073.47631709184
2347.40955797955
3097.58879495552
1046.60454136552
2750.44679761631
1941.45326727536
659.171817982569
1760.67223464372
3348.51489993045
1220.50667258911
2708.25647088233
3119.86446876079
2469.82505363412
2178.72742383974
2602.88619701285
280.928883191664
3144.06649875222
492.698388607241
2805.74295117985
2633.28438729979
1237.69745760597
3509.65306931874
639.338679020293
2639.67678835848
1918.11246492667
904.202057062648
938.520716198254
1378.48287709057
1731.96084598079
324.071373778861
2769.40332937986
2407.23773617996
2833.00831362605
28.1779746967368
3491.57179331873
3234.62163628545
3682.37535894848
3684.54151111655
2510.33941943664
3660.06248845719
2766.46056848578
2766.67120164726
1909.39146454912
2617.7946296311
1772.82084326958
1926.46318666404
2730.88405824266
2318.77119149314
1802.58728442248
93.9474022714421
41.2997403857298
2824.7896115575
2322.26205343846
3542.0930290455
3018.19770125672
1900.13416949194
3375.0576964533
897.532171045896
662.753945190925
1147.25753486389
1397.250719117
1284.14887328167
3338.29186566873
2152.89926161291
638.501514312811
1593.38476273231
3640.39038678864
2022.16353957541
1735.36400038283
988.751699212007
3594.33190884534
1574.64101714781
761.042688286398
1542.55274330266
1392.55857131677
290.24594811257
636.722699969541
3164.75661688484
2475.93696272699
2313.91969204182
1586.69746184489
2992.32551729539
2645.09538799524
2958.45293573337
2235.87374546332
2931.60677078879
77.9592837556265
1137.38851304865
1813.7459319667
353.085264845286
2398.10077470029
2185.15423795441
2484.95171769289
851.177881720942
1539.46340882219
3533.57496818528
1721.42955733929
3223.0216124095
62.1750884782523
1446.61522081587
3548.50977827562
949.698736604769
2517.12239815621
1452.71972579649
2255.02995027462
1562.79106023721
58.3605659636669
590.337926459033
2962.26447100053
2673.86900367681
2309.85529319616
1702.99469932448
1595.49673033878
898.380671313498
2031.78507777862
1809.57852076739
2001.08251387021
907.464646738954
2514.86250209156
1269.28322007414
3316.73962380504
310.26055827504
585.555677537341
341.630258644
2961.1084474856
1693.97207458969
2499.64597403537
3328.47043189919
2418.05976982461
1644.06441793777
321.806860668585
2917.40568863461
977.826858549379
1722.1647423855
3433.7383944774
2254.05174487503
421.773520109709
1485.85345032625
2231.97906041751
2591.71833341941
390.251983031631
930.572021089029
2417.14119338896
1509.85777127557
2665.22438559216
2185.10024670046
1688.47213195637
1698.80691779545
1767.77070604032
168.960433567408
1857.40306505933
2665.77494895319
1556.65933582233
2777.20236914931
627.683949940838
183.344279075973
3528.83635008708
1203.31366152735
810.213755189907
1148.0215485231
2506.51916728355
1283.9846674609
1644.09989203792
845.783695550635
1011.86747084605
776.885958379135
831.238970831037
3315.8320281026
120.451544998214
2226.61847283365
1513.20452709915
435.707202809863
3111.6864197189
2483.9551094058
2751.94600577233
2554.9010218028
