3308.28869138611
2720.10170335416
251.149508468807
1542.90748258587
2646.72823788598
420.833730523009
2754.26076082746
2902.66591134947
2511.07630473096
3257.82461544033
2668.30254860921
2373.48047508392
1230.62478719512
2671.56498449855
1100.01763621811
3135.03621645737
97.960413931869
3356.33700087201
3474.06220877543
3069.33744669193
2450.39436829509
1093.08856417425
1257.67299470957
2461.44165087724
2910.01078899018
1758.72209474444
2209.91416840581
2682.93638299685
1741.56355773797
3019.03861183673
296.905580232851
1304.508295306
2562.07424311666
3555.59258058434
2581.68398373993
1751.94036694011
1395.28028621105
1787.94427006971
1459.16053108871
1098.48693352193
2399.49833912076
2375.63674966106
1863.63034702605
2617.51623741584
2313.51442128187
1564.07150428277
1809.39298323356
1154.95257426286
100.674686052371
3159.99016506365
1050.38459755713
1071.19817140047
2610.52555350121
456.455890580546
1086.22337214416
158.317425996065
3139.26470599836
2929.72523276461
799.213232437614
3575.60671821702
3439.96761381626
107.747004213743
1440.78006640775
1487.03911520541
1727.38238455262
448.340921688359
950.913032493554
1094.96886760695
789.622263475321
3174.48820298072
3481.92769997986
1686.39392531477
2573.1433763355
1401.80648794631
2885.34471154679
1645.53926503519
156.352242466528
3135.44013835955
2452.83009011764
791.103176136967
2525.39505281718
2633.55238557793
1427.86455997266
3317.18987338711
55.9429763979279
772.511067939922
2185.85247288924
1411.70369401574
3199.16625175159
418.657038363162
2765.78282158356
2870.23905530339
302.361955619417
1439.124191429
3600.53243617527
1992.57845363813
143.317600961309
2248.36711783893
1733.14706844511
337.13033166714
3389.85771011794
1831.52797546936
296.978482129052
281.098889959976
752.767831636593
850.26302280603
3259.44919090485
2294.22177650034
949.901481096167
3212.55634648958
2266.67849866441
2935.26120364666
3655.07768319687
934.469799057115
896.968512595631
3542.58594978601
2878.63460293505
1060.46930688433
1060.76540522045
302.82816382125
3489.962465961
907.016650694422
306.271355242934
1074.21427235473
2297.39027088974
471.152008690406
183.799314955249
2788.68333012331
2301.15065351827
2879.31468928931
2569.24175025662
2546.64966191165
799.185528445523
2501.32011615671
313.33215742372
3359.95903279167
3573.14545916626
1709.36846037162
2746.79323335411
1226.61311837845
2243.43821628951
1439.10923457239
1628.22301562643
948.668608772568
2949.3128942186
2034.64052118128
290.34653166309
1932.16401459882
208.434122954495
2357.58856191533
1485.13254942605
3306.23013253324
1896.43632403342
1695.00274282414
3256.81598169962
2775.70937690791
1233.13642651308
1258.40306784259
2900.85990248714
2594.36744282255
3577.07864250289
1533.67740094895
3643.19637178676
444.827406664845
2860.97027347656
1770.27436647797
2979.30917815771
2051.87240855768
3103.59557046555
2811.71312023653
1811.78049413022
872.571176590864
1719.37259048223
1455.8035832271
2004.89086170914
1608.83226764621
3127.641115773
2904.50689514866
2361.887652562
2494.11715639522
3406.1043617106
331.80646652123
2123.15527421655
3164.59139297716
1258.71206538286
2266.50900652399
2281.4399848273
1546.97244760813
608.172011815477
2246.01460507605
3441.01840151008
2860.82904205425
245.761523607653
1466.27612438751
1952.77855116175
3064.29081391543
3561.43518034369
2685.41813609423
1491.63972625276
1655.31360390829
1863.69154221145
988.521146771964
3328.81490955362
439.215204699431
479.911955832504
304.703159455676
3645.00197513262
1330.54860364879
2215.01215400174
3436.64882917888
1513.70820605429
1202.87907501915
420.495692160912
2602.66234504525
1657.58774030255
1436.5580616938
128.532071623486
3481.41886701342
566.938935073558
873.660064791329
3188.42665221775
2122.71744099911
2540.1877448475
1640.55122938938
132.757844547741
1852.67352898372
2684.57741624443
379.959144950844
3301.69732435606
148.842661560047
2027.28103549685
836.798154953867
1007.25824601017
3582.2725696885
2413.78251435002
1838.67454782128
2773.90233105747
2142.93515563477
2965.51112353569
3285.62472782331
948.317587869242
2871.44828051794
3145.43323189253
3449.12404438248
3444.12507697474
2336.29062355729
1501.78086594678
2481.27348909387
2406.24368814519
556.794440418016
2140.27679495746
3417.7737718611
2180.6206513918
1837.39800944924
2689.54503173009
3033.83508410538
1222.92194933631
1376.89493299462
1838.21430294542
2139.25260811346
2291.69542690041
2536.40911483672
2988.88478904264
2545.16323783435
3583.05751727661
1273.51234624162
123.646623054519
2363.38956101099
