\relax 
\ifx\hyper@anchor\@undefined
\global \let \oldcontentsline\contentsline
\gdef \contentsline#1#2#3#4{\oldcontentsline{#1}{#2}{#3}}
\global \let \oldnewlabel\newlabel
\gdef \newlabel#1#2{\newlabelxx{#1}#2}
\gdef \newlabelxx#1#2#3#4#5#6{\oldnewlabel{#1}{{#2}{#3}}}
\AtEndDocument{\let \contentsline\oldcontentsline
\let \newlabel\oldnewlabel}
\else
\global \let \hyper@last\relax 
\fi

\newlabel{sec:SamplePtPoly}{{2}{1}{\relax }{section.2}{}}
\newlabel{PolytopeIneqs}{{1}{1}{\relax }{equation.2.1}{}}
\newlabel{SamplePtBall}{{1}{1}{\relax }{algorithm.1}{}}
\newlabel{SamplePtPoly}{{2}{2}{\relax }{algorithm.2}{}}
\newlabel{SamplePtPoly_fig}{{1}{2}{The sampling algorithm from dimension $3$ on.\label {SamplePtPoly_fig}\relax }{figure.1}{}}
\citation{A_ANT_03}
\citation{TW_BINT_98}
\citation{GB_FMT_01}
\citation{GH_PELDS_96}
\citation{CDWY_TVNT_00}
\citation{K_SAND_09}
\citation{CDWY_TVNT_00}
\newlabel{ssec:intro_exple}{{3.2}{3}{\relax }{subsection.3.2}{}}
\newlabel{sple_netw_diagr}{{2}{3}{a simple network.\label {sple_netw_diagr}\relax }{figure.2}{}}
\newlabel{matrix_A}{{2}{3}{\relax }{equation.3.2}{}}
\newlabel{sec:main-algo}{{4}{3}{\relax }{section.4}{}}
\newlabel{initprob}{{3}{3}{\relax }{equation.4.3}{}}
\citation{C_CCANT_00}
\citation{S_TLIP_98}
\citation{C_CCANT_00}
\newlabel{hnf_matrices}{{3}{4}{The Hermite Normal Form.\label {hnf_matrices}\relax }{figure.3}{}}
\newlabel{transprob}{{4}{4}{\relax }{equation.4.4}{}}
\newlabel{sec:uninf_results}{{5}{4}{\relax }{section.5}{}}
\newlabel{alg:hnf}{{3}{4}{\relax }{algorithm.3}{}}
\bibdata{bibtex/1.bertrand_references.bib}
\bibcite{A_ANT_03}{{1}{2003}{{Airoldi}}{{}}}
\bibcite{CDWY_TVNT_00}{{2}{2000}{{Cao et~al.}}{{Cao, Davis, Wiel, , and Yu}}}
\bibcite{C_CCANT_00}{{3}{2000}{{Cohen}}{{}}}
\newlabel{uninfmarginals}{{4}{5}{Histograms of the OD solutions coordinates in the uninformative case. The black triangles on the x-axis point to the coordinates of the actual solution from the data set.\label {uninfmarginals}\relax }{figure.4}{}}
\bibcite{GH_PELDS_96}{{4}{1996}{{Ghahramani \& Hinton}}{{Ghahramani and Hinton}}}
\bibcite{GB_FMT_01}{{5}{2001}{{Gilks \& Berzuini}}{{Gilks and Berzuini}}}
\bibcite{K_SAND_09}{{6}{2009}{{Kolaczyk}}{{}}}
\bibcite{S_TLIP_98}{{7}{1998}{{Schrijver}}{{}}}
\bibcite{TW_BINT_98}{{8}{1998}{{Tebaldi \& West}}{{Tebaldi and West}}}
\bibstyle{icml2010}
