1+2
open
ftxt <- as.matrix(read.table("A.txt"))
list.files()
setwd("~/Documents/Harvard/research/gen_Frechet_linprog/R_code")
list.files()
ftxt <- as.matrix(read.table("A.txt"))
ftxt
compilePdf("~/Documents/Harvard/research/gen_Frechet_linprog/R_code/test_sweave.Rnw")
\end{document}
source('~/.active-rstudio-document')
boxplot(Ozone ~ Month, data = airquality)
Rcmd texify
?Rcmd
RCMD texify
?texify
??texify
??Rcmd
library(ctest)
require(ctest)
library(stats)
data(airquality)
airquality
data(airquality)
\end{document}
source('~/.active-rstudio-document')
\end{document}
\end{center}
source('~/Documents/Harvard/research/gen_Frechet_linprog/Shyam/vertexforStochmat.R')
require(rcdd)
source('~/Documents/Harvard/research/gen_Frechet_linprog/Shyam/vertexforStochmat.R')
View(airquality)
source('~/Documents/Harvard/research/gen_Frechet_linprog/Shyam/FindVertex.r')
Vtrip <- findVertex(A, Y_o=y1)
Vtrip$perm
Vtrip[,1]
Vtrip[,2]
A %*% Vtrip[,2]
as.numeric(Vtrip[,2])
A
A %*% as.numeric(Vtrip[,2])
y1
Vtrip <- as.numeric(Vtrip)
A[,Vtrip[,1]] %*% as.numeric(Vtrip[,2])
length(Vtrip[,1])
dim(Vtrip)
dim(A)
length(Vtrip)
Vtrip <- matrix(Vtrip,nrow=ncol(A))
Vtrip[,2]
A[,Vtrip[,1]] %*% as.numeric(Vtrip[,2])
y1
A[,Vtrip[,1]] %*% as.numeric(Vtrip[,2]) == y1
dim(x)
yst <- rowSums(x)
length(yst)
vst <- findVertex(x,Y_o=yst)
qr(X)$rank
qr(x)$rank
qr(t(x)$rank
)
qr(t(x))$rank
length(qr(x)$pivot)
length(qr(t(x)$pivot)
)
length(qr(t(x))$pivot)
xpiv <- qr(x)$pivot
qr(x[xpiv[1:82]])$rank
qr(x[xpiv[1:82],])$rank
length(xpiv)
dim(x)
length(xpiv[1:82])
xpiv <- qr(t(x))$pivot
qr(x[xpiv[1:82],])$rank
Ast <- x[xpiv[1:82],]
yst <- rowSums(Ast)
length(yst)
Vst <- findVert(Ast,Y_o=yst)
Vst <- findVertex(Ast,Y_o=yst)
dim(Vst)
pist <- as.numeric(Vst[,1])
pist
vst <- as.numeric(Vst[,2])
vst
yst
is.na(Vst)
any.na(Vst)
any(is.na(Vst))
Vst[,2]
?rcdd
?d2q
q2d(Vst[,2])
pist
vst <- q2d(Vst[,2])
Ast[,pist] %*% vst
Ast[,pist] %*% vst == yst
cbind(Ast[,pist] %*% vst, yst)
round(Ast[,pist] %*% vst) == yst
all(round(Ast[,pist] %*% vst) == yst)
vst
clear
clsc
setwd("~/Documents/Harvard/research/gen_Frechet_linprog/R_code/")
quit()
sqrt(4*pi^4/4)
8*(2-sqrt(2))
pi^3/8
pi^2/2
2*pi
16/3
(pi^3/8 + pi^2/2)/2
(pi^3/8 * pi^2/2)^0.5
quit()
setwd("~/Documents/Harvard/research/polysamp_betas/R_code/")
list.files()
source("myfunc3.R")
setup_all()
ls()
A <- A_0
qrA <- qr(A)
qr.R(qrA)
qr.Q(qrA)
qrAt <- qr(t(A))
Q <- qr.Q(qrAt)
Q <- t(qr.Q(qrAt))
R <- t(qr.R(qrAt))
N <- Null(Q)
dim(N)
dim(Q)
qr(Q)$rank
dim(qr.Q(qrA))
dim(qr.Q(qrAt))
dim(qr.Q(qrAt))
dim(Null(Q))
dim(Null(t(Q)))
source("myfunc3.R")
Xsamp <- bbeta_samp(A,b,10)
source("myfunc3.R")
Xsamp <- bbeta_samp(A,b,10)
dim(Q)
dim(N)
Q
dim(Null(t(Q)))
dim(Null(t(qrAt)))
dim(Null(t(qr.Q(qrAt))))
dim(t(qr.Q(qrAt)))
dim(qr.Q(qrAt))
Q <- qr.Q(qrAt)
dim(Q)
dim(Null(Q))
source("myfunc3.R")
Xsamp <- bbeta_samp(A,b,10)
R <- t(qr.R(qrAt))
bb <- solve(R, b)
Xsamp <- bbeta_samp(A,bb,10)
Xsamp <- bbeta_samp(A,b,10)
bb <- solve(R, b)
source("myfunc3.R")
Xsamp <- bbeta_samp(A,b,10)
n
dim(A)
dim(Ap)
n
dim(Q)
dim(R)
dim(N)
Q
source("myfunc3.R")
Xsamp <- bbeta_samp(A,b,10)
c
c
c
c
c
c
c
c
c
c
Q
source("myfunc3.R")
Xsamp <- bbeta_samp(A,b,10)
A %*% t(Xsamp)
t(Q) %*% Xsamp
dim(A_0)
dim(t/(Q))
dim(t(Q))
t(Q) %*% t(Xsamp)
R <- t(qr.R(qrAt))
R %*% (t(Q) %*% t(Xsamp))
R %*% t(Q)
A
qrA <- qr(A)
qrAt <- qr(t(A))
Q <- qr.Q(qrA)
Qt <- qr.Q(qrAt)
R <- qr.R(qrA)
Rt <- qr.R(qrAt)
Q %*% R
perm <- qrA$pivot
permt <- qrAt$pivot
perm
(Q %*% R)[,perm]
AA <- (Q %*% R)
AA[,perm] <- (Q %*% R)
AA
tround(AA)
all(tround(AA) == A)
AAt <- Qt %*% Rt
AAt
permt
all(tround(AAt) == t(A))
all(tround(t(AAt)) == A)
all(tround(t(Qt) %*% t(Rt)) == A)
dim(Qt)
dim(Rt)
all(tround(t(Rt) %*% t(Qt)) == A)
source("myfunc3.R")
Xsamp <- bbeta_samp(A,b,10)
A_0 %*% Xsamp
A_0 %*% t(Xsamp)
t(Rt) %*% t(Qt) %*% Xsamp
t(Rt) %*% t(Qt) %*% t(Xsamp)
N <- Null(Qt)
dim(N)
bb <- solve(t(Rt), b)
x <- beta_samp(Qt, N, bb)
x
source("myfunc3.R")
Xsamp <- bbeta_samp(A,b,10)
source("myfunc3.R")
Xsamp <- bbeta_samp(A,b,10)
source("myfunc3.R")
Xsamp <- bbeta_samp(A,b,10)
?lp
source("myfunc3.R")
Xsamp <- bbeta_samp(A,b,10)
lpmin
Q
source("myfunc3.R")
Xsamp <- bbeta_samp(A,b,10)
Q
Xsamp <- bbeta_samp(A,b,10)
print(Q)
norm2(Q[,1])
i
norm2(Q[,2])
N
norm2(N[,i])
Q
source("myfunc3.R")
source("myfunc3.R")
Xsamp <- bbeta_samp(A,b,10)
llpmin
lpmin
Q
source("myfunc3.R")
Xsamp <- bbeta_samp(A,b,10)
llpmin
Q
source("myfunc3.R")
Xsamp <- bbeta_samp(A,b,10)
Xsamp
?rbeta
source("myfunc3.R")
Xsamp <- bbeta_samp(A,b,10)
warnings()
Q
ls()
rm(Qt, Rt)
Q <- qr.Q(qrAt)
dim(Q)
N <- Null(Q)
dim(N)
Q %*% t(N)
t(Q) %*% N
tound((Q) %*% N)
tround((Q) %*% N)
tround(t(Q) %*% N)
source("myfunc3.R")
Xsamp <- bbeta_samp(A,b,10)
source("myfunc3.R")
Xsamp <- bbeta_samp(A,b,10)
Xsamp <- bbeta_samp(A,b,10)
Xsamp <- bbeta_samp(A,b,10)
Xsamp <- bbeta_samp(A,b,10)
Xsamp <- bbeta_samp(A,b,10)
Xsamp
source("myfunc3.R")
Xsamp <- bbeta_samp(A,b,10)
b - Ap %*% x
bb - t(Q) %*% x
b - (t(R) %*% t(Q)) %*% x
R %*% (bb - t(Q) %*% x)
t(R) %*% (bb - t(Q) %*% x)
x
qrAt$pivot
Q
lpmin <- lp(direction="min", objective.in=N[,i], const.mat=t(Q), const.dir=cdir, const.rhs=b)
i<- 1
cdir
cdir <- rep(0,m)
lpmin <- lp(direction="min", objective.in=N[,i], const.mat=t(Q), const.dir=cdir, const.rhs=b)
N[,i]
dim(N)
dim(Q)
b
cdir
cdir <- rep("=",m)
lpmin <- lp(direction="min", objective.in=N[,i], const.mat=t(Q), const.dir=cdir, const.rhs=b)
lpmin
lpmin <- lp(direction="min", objective.in=N[,i], const.mat=A, const.dir=cdir, const.rhs=b)
lpmin
lpmin <- lp(direction="min", objective.in=N[,i], const.mat=t(Q), const.dir=cdir, const.rhs=bb)
lpmin
lpmax <- lp(direction="max", objective.in=N[,i], const.mat=A, const.dir=cdir, const.rhs=b)
lpmax
lpmax <- lp(direction="max", objective.in=N[,i], const.mat=t(Q), const.dir=cdir, const.rhs=bb)
lpmax
t0 <- lpmin$objval
tN <- lpmax$objval
c(t0, tN)
x1 <- t0 + (tN - t0) * rbeta(1,(d+1)/2, (d+1)/2)
x1
QQ <- cbind(Q,N[,1])
NN <- N[,-i,drop=F]
QQ
bb <- c(solve(t(R), b), b1)
b1 <- t0 + (tN - t0) * rbeta(1,(d+1)/2, (d+1)/2)
rm(x1)
b1
bb <- c(solve(t(R), b), b1)
R <- qr.R(qrAt)
bb <- c(solve(t(R), b), b1)
bb
i <- 2
llpmin <- lp(direction="min", objective.in=N[,i], const.mat=t(Q), const.dir=c(cdir,"="), const.rhs=bb)
br <- c(solve(t(R), b), b1)
bb <- c(br,b1)
Q
QQ
b
bb
br
length(br)
br <- solve(t(R), b)
bb <- c(br,b1)
br
bb
llpmin <- lp(direction="min", objective.in=N[,i], const.mat=t(Q), const.dir=c(cdir,"="), const.rhs=bb)
i
length(N[i])
length(N[,i])
dim(t(Q))
ccdir <- c(cdir, "=")
ccdir
length(ccdir)
llpmin <- lp(direction="min", objective.in=N[,i], const.mat=t(Q), const.dir=ccdir, const.rhs=bb)
length(bb)
length(ccdir)
dim(t(A\))
dim(t(Q))
llpmin <- lp(direction="min", objective.in=NN[,1], const.mat=t(QQ), const.dir=ccdir, const.rhs=bb)
i <- 1
N[,i]
Q[,8]
QQ[,8]
NN <- N[,-i]
llpmin <- lp(direction="min", objective.in=NN[,1], const.mat=t(QQ), const.dir=ccdir, const.rhs=bb)
llpmin
t0 <- llpmin$objval
llpmax <- lp(direction="max", objective.in=NN[,1], const.mat=t(QQ), const.dir=ccdir, const.rhs=bb)
llpmax
ttN <- llpmax$objval
t0 <- lpmin$objval
tt0 <- llpmin$objval
d
b2 <- tt0 + (ttN - tt0) * rbeta(1,d/2,d/2)
b2
bbb <- c(bb, b2)
QQQ <- cbind(QQ,N[,1])
NNN <- NN[,-1]
lllpmin <- lp(direction="min", objective.in=NNN[,1], const.mat=t(QQQ), const.dir=ccdir, const.rhs=bbb)
cccdir <- c(ccdir,"=")
lllpmin <- lp(direction="min", objective.in=NNN[,1], const.mat=t(QQQ), const.dir=cccdir, const.rhs=bbb)
lllpmin
b2
bbb
cat(tt0, "<", b2, "<", ttN)
lpmin$solution
lpmin$solution %*% NN[,1]
tt0
llpmin$solution %*% NN[,1]
ttN
llpmax$solution %*% NN[,1]
lp(direction="min", objective.in=c(1,rep(0,15)), const.mat=t(QQQ), const.dir=cccdir, const.rhs=bbb)
lp(direction="min", objective.in=N[,3], const.mat=t(Q), const.dir=cdir, const.rhs=b)
lp(direction="min", objective.in=N[,3], const.mat=t(Q), const.dir=cdir, const.rhs=br)
lp(direction="max", objective.in=N[,3], const.mat=t(Q), const.dir=cdir, const.rhs=br)
for (i in 1:16) {print(lp(direction="min", objective.in=N[,i], const.mat=t(Q), const.dir=cdir, const.rhs=br))}
for (i in 1:9) {print(lp(direction="min", objective.in=N[,i], const.mat=t(Q), const.dir=cdir, const.rhs=br))}
for (i in 1:9) {print(lp(direction="max", objective.in=N[,i], const.mat=t(Q), const.dir=cdir, const.rhs=br))}
b1
b2
(b2 - tt0)/(ttN - tt0)
rr <- (b2 - tt0)/(ttN - tt0)
xss <- llpmin$solution + rr * (llpmax$solution - llpmin$solution)
xss
b - A_0 %*% xss
bb - t(QQ) %*% xss
r <- (b1 - tt0)/(ttN - tt0)
r
r <- (b1 - t0)/(tN - t0)
r
xs <- lpmin$solution + r * (lpmax$solution - lpmin$solution)
xs
b - A %*% xs
br - t(Q) %*% xs
b - A %*% round(xs)
br - t(Q) %*% round(xs)
Q
tround(Q)
lllpmin <- lp(direction="min", objective.in=NNN[,1], const.mat=t(tround(QQQ)), const.dir=cccdir, const.rhs=bbb)
llpmin
lllpmin
R
det cbind(Q,N)
det(cbind(Q,N))
det(QQ,NN)
det(cbind(QQ,NN))
det(cbind(QQQ,NNN))
dim(Null(Q))
source("testfunc.R")
source("testfunc.R")
source("testfunc.R")
source("testfunc.R")
source("testfunc.R")
source("testfunc.R")
source("testfunc.R")
source("testfunc.R")
source("testfunc.R")
source("testfunc.R")
source("testfunc.R")
source("testfunc.R")
source("testfunc.R")
source("testfunc.R")
source("testfunc.R")
source("testfunc.R")
source("testfunc.R")
source("testfunc.R")
source("testfunc.R")
source("testfunc.R")
source("testfunc.R")
source("testfunc.R")
source("testfunc.R")
Xsamp <- bbeta_samp(A,b,10)
Q
source("myfunc3.R")
Xsamp <- bbeta_samp(A,b,10)
dim(Q)
dim(N)
length(y)
y
Q
source("myfunc3.R")
Xsamp <- bbeta_samp(A,b,10)
Q
source("myfunc3.R")
Xsamp <- bbeta_samp(A,b,10)
Xsamp
source("myfunc3.R")
Xsamp <- bbeta_samp(A,b,10)
x
Q
source("myfunc3.R")
Xsamp <- bbeta_samp(A,b,10)
Q
source("myfunc3.R")
Xsamp <- bbeta_samp(A,b,10)
Xsamp
A %*% t(Xsamp)
source("myfunc3.R")
Xsamp <- bbeta_samp(A,b,10)
A %*% t(Xsamp)
b
source("myfunc3.R")
system.time(Xsamp <- bbeta_samp(A,b,1000))
for (i in 1:1000) {if any (round(b - A %*% t(Xsamp[i,])) != 0) {print(i)}}
for (i in 1:1000) {if any(round(b - A %*% t(Xsamp[i,])) != 0) {print(i)}}
for (i in 1:1000) {if (any(round(b - A %*% t(Xsamp[i,])) != 0) {print(i)}}
for (i in 1:1000) {if (any(round(b - A %*% t(Xsamp[i,]) != 0) {print(i)}}
for (i in 1:1000) {if (any(round(b - A %*% t(Xsamp[i,])) != 0)) {print(i)}}
i
for (i in 1:1000) {if (any(round(b - A %*% Xsamp[i,]) != 0)) {print(i)}}
ls()
rm(Xsamp)
dhXsamp <- as.matrix(read.table("xsamples/beta_samps/dhXsamp_01.txt"))
dim(dhXsamp)
dhXsamp <- t(dhXsamp)
dim(dhXsamp)
dhXsamp[,1000000]
quartz();
par(mfrow=c(4,4))
for (i in 1:nrow(dhXsamp)) {hist(dhXsamp[i,], breaks=1000, main=paste("X[",i,"]"), xlab="")}
tXsamp <- as.matrix(read.table("xsamples/trig_samps/rXsamp_01.txt"))
rangeX <- matrix(0,nrow=2,ncol=nrow(dhXsamp))
dim(rnageX)
dim(rangeX)
dim(tXsamp)
tXsamp <- t(tXsamp)
dim(tXsamp)
for (i in 1:nrow(tXsamp)) {rangeX[1,i] <- min(tXsamp[i,]; rangeX[2,i] <- max(tXsamp[i,]))}
for (i in 1:nrow(tXsamp)) {rangeX[1,i] <- min(tXsamp[i,]); rangeX[2,i] <- max(tXsamp[i,])}
quartz();
par(mfrow=c(4,4))
for (i in 1:nrow(dhXsamp)) {hist(dhXsamp[i,]/1000, breaks=1000, xlim=rangeX[,i], main=paste("dhXsamp[",i,"]"), xlab="")}
quartz();
par(mfrow=c(4,4))
for (i in 1:nrow(dhXsamp)) {hist(dhXsamp[i,], breaks=1000, xlim=rangeX[,i], main=paste("dhXsamp[",i,"]"), xlab="")}
quartz();
par(mfrow=c(4,4))
for (i in 1:nrow(dhXsamp)) {hist(tXsamp[i,], breaks=1000, xlim=rangeX[,i], main=paste("dhXsamp[",i,"]"), xlab="")}
quartz();
par(mfrow=c(4,4))
for (i in 1:nrow(dhXsamp)) {hist(tXsamp[i,], breaks=1000, xlim=rangeX[,i], main=paste("tXsamp[",i,"]"), xlab="")}
source("myfunc3.R")
source("myfunc3.R")
source("myfunc3.R")
check(A,b,tXsamp[,1:10])
check_Xsamp(A,b,tXsamp[,1:10])
check_Xsamp(A_1,b,tXsamp[,1:10])
check_Xsamp(A_0,b,dhXsamp[,1:10])
check_Xsamp(A,b,dhXsamp[,1:10])
Xsamp <- bbeta_samp(A_0,b,100)
check_Xsamp(A,b,Xsamp[,1:10])
Xsamp <- t(Xsamp)
check_Xsamp(A,b,Xsamp[,1:10])
source("myfunc3.R")
Xsamp <- bbeta_samp(A_0,b,100)
x
b - Ap %*% x
tround(b - Ap %*% x)
round(b - Ap %*% x)
Q
TOL
source("myfunc3.R")
check_Xsamp(A,b,Xsamp[,1:10])
TOL
tol <- 1e-5
check_Xsamp(A,b,Xsamp[,1:10],tol)
check_Xsamp(A,b,tXsamp[,1:10],tol)
check_Xsamp(A,b,dhXsamp[,1:10],tol)
source("myfunc3.R")
check_Xsamp(A,b,dhXsamp[,1:10],tol)
check_Xsamp(A,b,dhXsamp[,1:100],tol)
check_Xsamp(A,b,dhXsamp[,1:1000],tol)
check_Xsamp(A,b,dhXsamp[,1:10000],tol)
check_Xsamp(A,b,dhXsamp[,1:100000],tol)
check_Xsamp(A,b,dhXsamp[,1:1000000],tol)
ls()
permut01
all(A[,permut01] == A_1)
Xsamp[permut01,] <- dhXsamp[,1:100]
check_Xsamp(A_1,b,Xsamp,tol)
check_Xsamp(A_0,b,Xsamp[,1:10],tol)
Xsamp <- dhXsamp[permut01,1:100]
check_Xsamp(A_0,b,Xsamp[,1:10],tol)
Xsamp[permut01,] <- tXsamp[,1:100]
check_Xsamp(A_0,b,Xsamp[,1:10],tol)
Xsamp <- bbeta_samp(A_1,b,100)
Q
source("myfunc3.R")
Xsamp <- bbeta_samp(A_0,b,100)
Xsamp <- bbeta_samp(A_1,b,100)
check_Xsamp(A_1,b,Xsamp[,1:10],tol)
Xsamp <- bbeta_samp(A_1,b,100)
source("myfunc3.R")
Xsamp <- bbeta_samp(A_1,b,100)
check_Xsamp(A_1,b,Xsamp[,1:10],tol)
Xsamp[permut01,] <- dhXsamp[,1:10]
check_Xsamp(A_1,b,Xsamp[,1:10],tol)
b - A_1 %*% Xsamp
b - A_1 %*% Xsamp[,1:10]
Xsamp <- dhXsamp[permut01,1:10]
b - A_1 %*% Xsamp[,1:10]
check_Xsamp(A_1,b,Xsamp[,1:10],tol)
dhXsamp <- dhXsamp[permut01,]
quartz();
par(mfrow=c(4,4))
for (i in 1:nrow(dhXsamp)) {hist(tXsamp[i,], breaks=1000, xlim=rangeX[,i], main=paste("tXsamp[",i,"]"), xlab="")}
quartz();
par(mfrow=c(4,4))
for (i in 1:nrow(dhXsamp)) {hist(dhXsamp[i,], breaks=1000, xlim=rangeX[,i], main=paste("dhXsamp[",i,"]"), xlab="")}
quartz(); hist(dhXsamp[1,], breaks=1000, xlim=rangeX[,1], main=paste("dhXsamp[",1,"]"), xlab="")
quartz(); hist(tXsamp[1,], breaks=1000, xlim=rangeX[,1], main=paste("tXsamp[",1,"]"), xlab="")
xrange <- rangeX
tH <- hist(tXsamp[1,], breaks=1000, xlim=rangeX[,1], plot=F)
tH <- hist(tXsamp[1,], breaks=1000, plot=F)
dim(tH)
max(tH$counts)
yrange <- rep(0,n)
n
for (j in 1:n) {tH <- hist(tXsamp[j,], breaks=1000, plot=F); yrange[j] <- max(tH$counts)}
yrange
ymax <- yrange
rm(tH, yrange)
quartz();
par(mfrow=c(4,4))
for (i in 1:nrow(dhXsamp)) {hist(dhXsamp[i,], breaks=1000, xlim=rangeX[,i], main=paste("dhXsamp[",i,"]"), xlab="")
lkkj}
yrange <- matrix(0,nrow=2,ncol=n)
yrange[2,] <- ymax
for (i in 1:nrow(dhXsamp)) {hist(dhXsamp[i,], breaks=1000, xlim=rangeX[,i], ylim=yrange[,i], main=paste("dhXsamp[",i,"]"), xlab="")}
quartz();
par(mfrow=c(4,4))
for (i in 1:nrow(dhXsamp)) {hist(dhXsamp[i,], breaks=1000, xlim=rangeX[,i], ylim=yrange[,i], main=paste("dhXsamp[",i,"]"), xlab="")}
dhXsamp[permut01,] <- dhXsamp
check_Xsamp(A_0,b,dhXsamp[,1:10],tol)
check_Xsamp(A_0,b,dhXsamp[,1:1000],tol)
check_Xsamp(A_0,b,Xsamp[permut01,1:1000],tol)
check_Xsamp(A_0,b,tXsamp[permut01,1:1000],tol)
Xsamp[permut01,] <- tXsamp[,1:100]
Xsamp <- matrix(0,nrow=n,ncol=100)
Xsamp[permut01,] <- tXsamp[,1:100]
check_Xsamp(A_0,b,Xsamp,tol)
tXsamp[permut01,] <- tXsamp
check_Xsamp(A_0,b,tXsamp[,1:100],tol)
quartz();
par(mfrow=c(4,4))
for (i in 1:nrow(dhXsamp)) {hist(tXsamp[i,], breaks=1000, xlim=rangeX[,i], ylim=yrange[,i], main=paste("tXsamp[",i,"]"), xlab="")}
xrange[,permut01] <- xrange
yrange[,permut01] <- yrange
quartz();
par(mfrow=c(4,4))
for (i in 1:nrow(dhXsamp)) {hist(tXsamp[i,], breaks=1000, xlim=rangeX[,i], ylim=yrange[,i], main=paste("tXsamp[",i,"]"), xlab="")}
for (i in 1:nrow(tXsamp)) {rangeX[1,i] <- min(tXsamp[i,]; rangeX[2,i] <- max(tXsamp[i,]))}
for (i in 1:nrow(tXsamp)) {rangeX[1,i] <- min(tXsamp[i,]); rangeX[2,i] <- max(tXsamp[i,])}
for (j in 1:n) {tH <- hist(tXsamp[j,], breaks=1000, plot=F); yrange[2,j] <- max(tH$counts)}
yrange
xrange
quartz();
par(mfrow=c(4,4))
for (i in 1:n) {hist(tXsamp[i,], breaks=1000, xlim=rangeX[,i], ylim=yrange[,i], main=paste("tXsamp[",i,"]"), xlab="")}
quartz();
par(mfrow=c(4,4))
for (i in 1:n) {hist(dhXsamp[i,], breaks=1000, xlim=rangeX[,i], ylim=yrange[,i], main=paste("dhXsamp[",i,"]"), xlab="")}
quartz();
par(mfrow=c(4,4))
for (i in 1:n) {hist(tXsamp[i,]/1000, breaks=1000, xlim=rangeX[,i], ylim=yrange[,i], main=paste("tXsamp[",i,"]"), xlab="")}
xrange <- xrange/1000
yrange <- yrange/1000
quartz();
par(mfrow=c(4,4))
for (i in 1:n) {hist(tXsamp[i,]/1000, breaks=1000, xlim=rangeX[,i], ylim=yrange[,i], main=paste("tXsamp[",i,"]"), xlab="")}
yrange <- yrange*1000
quartz(); par=mfrow(c(4,4))
quartz(); par(mfrow=c(4,4))
for (i in 1:n) {hist(tXsamp[i,]/1000, breaks=1000, xlim=rangeX[,i], ylim=yrange[,i], main=paste("tXsamp[",i,"]"), xlab="")}
xrange
for (i in 1:nrow(tXsamp)) {rangeX[1,i] <- min(tXsamp[i,]/1000); rangeX[2,i] <- max(tXsamp[i,]/1000)}
xrange
for (j in 1:n) {tH <- hist(tXsamp[j,]/1000, breaks=1000, plot=F); yrange[2,j] <- max(tH$counts)}
yrange
quartz(); par(mfrow=c(4,4))
for (i in 1:n) {hist(tXsamp[i,]/1000, breaks=1000, xlim=rangeX[,i], ylim=yrange[,i], main=paste("tXsamp[",i,"]"), xlab="")}
quartz(); par(mfrow=c(4,4))
for (i in 1:n) {hist(dhXsamp[i,]/1000, breaks=1000, xlim=rangeX[,i], ylim=yrange[,i], main=paste("dhXsamp[",i,"]"), xlab="")}
dim(tXsamp)
rm(dhXsamp)
hXsamp <- as.matrix(read.table("xsamples/beta_samps/hXsamp_01.txt"))
dim(hXsamp)
hXsamp <- t(hXsamp)
dim(hXsamp)
quartz(); par(mfrow=c(4,4))
for (i in 1:n) {hist(hXsamp[i,]/1000, breaks=1000, xlim=rangeX[,i], ylim=yrange[,i], main=paste("hXsamp[",i,"]"), xlab="")}
for (j in 1:n) {tH1 <- hist(tXsamp[j,]/1000, breaks=1000, plot=F); tH2 <- hist(hXsamp[j,]/1000, breaks=1000, plot=F); yrange[2,j] <- max(c(tH1$counts, tH2$counts)}
for (j in 1:n) {tH1 <- hist(tXsamp[j,]/1000, breaks=1000, plot=F); tH2 <- hist(hXsamp[j,]/1000, breaks=1000, plot=F); yrange[2,j] <- max(c(tH1$counts, tH2$counts))}
quartz(); par(mfrow=c(4,4))
for (i in 1:n) {hist(hXsamp[i,]/1000, breaks=1000, xlim=rangeX[,i], ylim=yrange[,i], main=paste("hXsamp[",i,"]"), xlab="")}
quartz(); par(mfrow=c(4,4))
for (i in 1:n) {hist(tXsamp[i,]/1000, breaks=1000, xlim=rangeX[,i], ylim=yrange[,i], main=paste("tXsamp[",i,"]"), xlab="")}
dhXsamp <- t(as.matrix(read.table("xsamples/beta_samps/dhXsamp_01.txt")))
hXsamp[,1:10]
dhXsamp[,1:10]
quartz(); par(mfrow=c(4,4))
for (i in 1:n) {hist(tXsamp[i,]/1000, breaks=1000, xlim=rangeX[,i], ylim=yrange[,i], main=paste("tXsamp[",i,"]"), xlab="")
lj}
dim(dhXsamp)
for (i in 1:n) {hist(dhXsamp[i,]/1000, breaks=1000, xlim=rangeX[,i], ylim=yrange[,i], main=paste("dhXsamp[",i,"]"), xlab="")}
quartz(); par(mfrow=c(4,4))
for (i in 1:n) {hist(dhXsamp[i,]/1000, breaks=1000, xlim=rangeX[,i], ylim=yrange[,i], main=paste("dhXsamp[",i,"]"), xlab="")}
source("myfunc3.R")
ls()
rm(tXsamp, hXsamp)
Xsamp <- plround(A_0, b, dhXsamp[,1:100])
check_Xsamp(A,b,Xsamp,TOL)
b - A_0 %*% Xsamp[,1]
b - A_0 %*% dhXsamp[,1]
B <- matrix(rep(b,10,nrow=m))
B
B <- matrix(rep(b,10),nrow=m)
B
B - A_0 %*% dhXsamp[,1:10]
B - A_0 %*% Xsamp[,1:10]
source("myfunc3.R")
Xsamp <- plround(A_0, b, dhXsamp[,1:100])
x
perm
x2
Q12 %*% y2
Q12 %*% x2
y1 - Q12 %*% x2
A1
det(A1)
-y1 - Q12 %*% x2
Q
source("myfunc3.R")
Xsamp <- plround(A_0, b, dhXsamp[,1:100])
x
x2
Q12 %*% x2
y1 - Q12 %*% x2
y1
Q
source("myfunc3.R")
Xsamp <- plround(A_0, b, dhXsamp[,1:100])
x
x2
Q12 %*% x2
y1 - Q12 %*% x2
Q
source("myfunc3.R")
Xsamp <- plround(A_0, b, dhXsamp[,1:100])
x
Q
source("myfunc3.R")
Xsamp <- plround(A_0, b, dhXsamp[,1:100])
check_Xsamp(A,b,Xsamp,TOL)
Xsamp[,1:10]
check_Xsamp(A,b,dhXsamp[,1:10],tol)
check_Xsamp(A_0,b,dhXsamp[,1:10],tol)
dhXsamp <- plround(A_0, b, dhXsamp)
quartz(); par(mfrow=c(4,4))
for (i in 1:n) {hist(dhXsamp[i,]/1000, breaks=1000, xlim=rangeX[,i], ylim=yrange[,i], main=paste("dhXsamp[",i,"]"), xlab="")}
write.table(dhXsamp, "dhXsamp_int.txt", row.names=F, col.names=F)
