1+2
open
ftxt <- as.matrix(read.table("A.txt"))
list.files()
setwd("~/Documents/Harvard/research/gen_Frechet_linprog/R_code")
list.files()
ftxt <- as.matrix(read.table("A.txt"))
ftxt
compilePdf("~/Documents/Harvard/research/gen_Frechet_linprog/R_code/test_sweave.Rnw")
\end{document}
source('~/.active-rstudio-document')
boxplot(Ozone ~ Month, data = airquality)
Rcmd texify
?Rcmd
RCMD texify
?texify
??texify
??Rcmd
library(ctest)
require(ctest)
library(stats)
data(airquality)
airquality
data(airquality)
\end{document}
source('~/.active-rstudio-document')
\end{document}
\end{center}
source('~/Documents/Harvard/research/gen_Frechet_linprog/Shyam/vertexforStochmat.R')
require(rcdd)
source('~/Documents/Harvard/research/gen_Frechet_linprog/Shyam/vertexforStochmat.R')
View(airquality)
source('~/Documents/Harvard/research/gen_Frechet_linprog/Shyam/FindVertex.r')
Vtrip <- findVertex(A, Y_o=y1)
Vtrip$perm
Vtrip[,1]
Vtrip[,2]
A %*% Vtrip[,2]
as.numeric(Vtrip[,2])
A
A %*% as.numeric(Vtrip[,2])
y1
Vtrip <- as.numeric(Vtrip)
A[,Vtrip[,1]] %*% as.numeric(Vtrip[,2])
length(Vtrip[,1])
dim(Vtrip)
dim(A)
length(Vtrip)
Vtrip <- matrix(Vtrip,nrow=ncol(A))
Vtrip[,2]
A[,Vtrip[,1]] %*% as.numeric(Vtrip[,2])
y1
A[,Vtrip[,1]] %*% as.numeric(Vtrip[,2]) == y1
dim(x)
yst <- rowSums(x)
length(yst)
vst <- findVertex(x,Y_o=yst)
qr(X)$rank
qr(x)$rank
qr(t(x)$rank
)
qr(t(x))$rank
length(qr(x)$pivot)
length(qr(t(x)$pivot)
)
length(qr(t(x))$pivot)
xpiv <- qr(x)$pivot
qr(x[xpiv[1:82]])$rank
qr(x[xpiv[1:82],])$rank
length(xpiv)
dim(x)
length(xpiv[1:82])
xpiv <- qr(t(x))$pivot
qr(x[xpiv[1:82],])$rank
Ast <- x[xpiv[1:82],]
yst <- rowSums(Ast)
length(yst)
Vst <- findVert(Ast,Y_o=yst)
Vst <- findVertex(Ast,Y_o=yst)
dim(Vst)
pist <- as.numeric(Vst[,1])
pist
vst <- as.numeric(Vst[,2])
vst
yst
is.na(Vst)
any.na(Vst)
any(is.na(Vst))
Vst[,2]
?rcdd
?d2q
q2d(Vst[,2])
pist
vst <- q2d(Vst[,2])
Ast[,pist] %*% vst
Ast[,pist] %*% vst == yst
cbind(Ast[,pist] %*% vst, yst)
round(Ast[,pist] %*% vst) == yst
all(round(Ast[,pist] %*% vst) == yst)
vst
clear
clsc
setwd("~/Documents/Harvard/research/gen_Frechet_linprog/R_code/")
quit()
sqrt(4*pi^4/4)
8*(2-sqrt(2))
pi^3/8
pi^2/2
2*pi
16/3
(pi^3/8 + pi^2/2)/2
(pi^3/8 * pi^2/2)^0.5
quit()
setwd("~/Documents/Harvard/research/polysamp_betas/R_code/")
14000/60
14000/3600
gXsamp <- as.matrix(read.table("xsamples/trig_samps/gXsamp_01.txt"))
ls()
dim(gXsamp)
rm gXsamp
rm(gXsamp)
tXsamp <- as.matrix(read.table("xsamples/trig_samps/rXsamp_01.txt"))
dim(tXsamp)
bXsamp <- as.matrix(read.table("xsamples/beta_samps/cXsamp_01.txt"))
?hist
length(which(tXsamp == 0))
length(which(bXsamp == 0))
range(tXsamp[,1])
range(bXsamp[,1])
quartz(); hist(tXsamp[,1], breaks=10000)
dim(tXsamp)
quartz(); hist(bXsamp[,1], breaks=10000)
quartz(); hist(tXsamp[,2], breaks=10000)
quartz(); hist(bXsamp[,2], breaks=10000)
max(max(tXsamp[,1]), max(bXsamp[,1]))
quartz(); hist(tXsamp[,1], breaks=10000, xlim=max(max(tXsamp[,1]), max(bXsamp[,1])), ylim=1000)
max(max(tXsamp[,1]), max(bXsamp[,1]))
max1 <- max(max(tXsamp[,1]), max(bXsamp[,1]))
quartz(); hist(tXsamp[,1], breaks=10000, xlim=max1, ylim=1000)
max1
quartz(); hist(tXsamp[,1], breaks=10000, xlim=1000, ylim=1000)
quartz(); hist(tXsamp[,1], breaks=10000, xlim=c(0,max1), ylim=1000)
quartz(); hist(tXsamp[,1], breaks=10000, xlim=c(0,max1), ylim=c(0,1000))
quartz(); hist(bXsamp[,1], breaks=10000, xlim=c(0,max1), ylim=c(0,1000))
max2 <- max(max(tXsamp[,2]), max(bXsamp[,2]))
quartz(); hist(tXsamp[,2], breaks=10000, xlim=c(0,max2), ylim=c(0,800))
quartz(); hist(tXsamp[,2], breaks=10000, xlim=c(0,max2), ylim=c(0,800))
quartz(); hist(bXsamp[,2], breaks=10000, xlim=c(0,max2), ylim=c(0,800))
max3 <- max(max(tXsamp[,3]), max(bXsamp[,3]))
quartz(); hist(tXsamp[,3], breaks=10000, xlim=c(0,max3))
quartz(); hist(bXsamp[,3], breaks=10000, xlim=c(0,max3))
quartz(); hist(tXsamp[,3], breaks=10000, xlim=c(0,max3), ylim=c(0,300))
quartz(); hist(bXsamp[,3], breaks=10000, xlim=c(0,max3), ylim=c(0,300))
max4 <- max(max(tXsamp[,4]), max(bXsamp[,4]))
quartz(); hist(tXsamp[,3], breaks=10000, xlim=c(0,max4))
quartz(); hist(tXsamp[,4], breaks=10000, xlim=c(0,max4))
quartz(); hist(bXsamp[,4], breaks=10000, xlim=c(0,max4))
quartz(); hist(tXsamp[,4], breaks=10000, xlim=c(0,max4), ylim=c(0,450))
quartz(); hist(bXsamp[,4], breaks=10000, xlim=c(0,max4), ylim=c(0,450))
sum(hist(bXsamp[,4], breaks=10000, xlim=c(0,max4), ylim=c(0,450))$counts)
sum(hist(tXsamp[,4], breaks=10000, xlim=c(0,max4), ylim=c(0,450))$counts)
sum(hist(bXsamp[,4], breaks=10000, xlim=c(0,max4), ylim=c(0,450))$counts)
par(mfrow=c(4,4))
xrange <- matrix(0,nrow=2, ncol=16)
for (i in 1:16) {xrange[1,i] <- min(min(tXsamp[,i]), min(bXsamp[,i])); xrange[2,i] <- max(max(tXsamp[,i]), max(bXsamp[,i]))}
xrange
yrange <- rep(0,16)
for (i in 1:16) {tmax <- max(hist(tXsamp[,i], breaks=10000)$counts); bmax <- max(hist(bXsamp[,i], breaks=10000)$counts); yrange[i] <- max(tmax, cmax)}
for (i in 1:16) {print(i); tmax <- max(hist(tXsamp[,i], breaks=10000)$counts); bmax <- max(hist(bXsamp[,i], breaks=10000)$counts); yrange[i] <- max(tmax, cmax)}
for (i in 1:16) {print(i); tmax <- max(hist(tXsamp[,i], breaks=10000, plot=F)$counts); bmax <- max(hist(bXsamp[,i], breaks=10000, plot=F)$counts); yrange[i] <- max(tmax, cmax)}
for (i in 1:16) {print(i); tmax <- max(hist(tXsamp[,i], breaks=10000, plot=F)$counts); bmax <- max(hist(bXsamp[,i], breaks=10000, plot=F)$counts); yrange[i] <- max(tmax, bmax)}
yrange
hist(bXsamp[,4], breaks=10000, xlim=c(0,max4), ylim=c(0,450))
hist(bXsamp[,3], breaks=10000, xlim=c(0,max3), ylim=c(0,450))
par(mfrow=c(4,4))
for (i in 1:16) {hist(tXsamp[,i], breaks=10000, xlim=c(xrange[1,i], xrange[2,i]), ylim=c(0,yrange[i]))}
par(mfrow=c(4,4))
for (i in 1:16) {hist(tXsamp[,i], breaks=10000, xlim=c(xrange[1,i], xrange[2,i]), ylim=c(0,yrange[i]), title=paste("Coord.", i), xlab="value of coord.")}
warnings()
par(mfrow=c(4,4))
for (i in 1:16) {hist(tXsamp[,i], breaks=10000, xlim=c(xrange[1,i], xrange[2,i]), ylim=c(0,yrange[i]), main=paste("Coord.", i), xlab="value of coord.")}
par(mfrow=c(4,4))
for (i in 1:16) {hist(tXsamp[,i], breaks=10000, xlim=c(xrange[1,i], xrange[2,i]), ylim=c(0,yrange[i]), main=paste("tXsamp[", i,"]"), xlab="value of coord.")}
par(mfrow=c(4,4))
for (i in 1:16) {hist(bXsamp[,i], breaks=10000, xlim=c(xrange[1,i], xrange[2,i]), ylim=c(0,yrange[i]), main=paste("tXsamp[", i,"]"), xlab="value of coord.")}
par(mfrow=c(4,4))
for (i in 1:16) {hist(tXsamp[,i], breaks=10000, xlim=c(xrange[1,i], xrange[2,i]), ylim=c(0,yrange[i]), main=paste("tXsamp[", i,"]"), xlab="value of coord.")}
quartz(); par(mfrow=c(4,4))
for (i in 1:16) {hist(bXsamp[,i], breaks=10000, xlim=c(xrange[1,i], xrange[2,i]), ylim=c(0,yrange[i]), main=paste("bXsamp[", i,"]"), xlab="value of coord.")}
quartz(); par(mfrow=c(4,4))
for (i in 1:16) {hist(tXsamp[,i], breaks=10000, main=paste("tXsamp[", i,"]"), xlab="")}
quartz(); par(mfrow=c(4,4))
for (i in 1:16) {hist(tXsamp[,i]/1000, breaks=10000, main=paste("tXsamp[", i,"]"), xlab="")}
quartz(); par(mfrow=c(4,4))
for (i in 1:16) {hist(bXsamp[,i]/1000, breaks=10000, main=paste("bXsamp[", i,"]"), xlab="")}
b
getwd()
ls()
source("myfunc2.R")
setup_all()
b
ls()
cXsamp <- bXsamp
rm(bXsamp)
hXsamp <- as.matrix(read.table("xsamples/beta_samps/hXsamp_01.txt"))
quartz(); par(mfrow=c(4,4))
for (i in 1:16) {hist(hXsamp[,i]/1000, breaks=10000, main=paste("hXsamp[", i,"]"), xlab="")}
quartz(); par(mfrow=c(4,4))
for (i in 1:16) {hist(cXsamp[,i]/1000, breaks=10000, main=paste("cXsamp[", i,"]"), xlab="")}
perm01 <- as.vector(read.table("permut01.txt"))
perm01
class(perm01)
perm01 <- as.matrix(read.table("permut01.txt"))
perm01
class(perm01)
perm01 <- c(read.table("permut01.txt"))
perm01
class(perm01)
perm01 <- c(as.matrix(read.table("permut01.txt")))
perm01
class(perm01)
all(A_0[,perm01] == A_1)
ls()
dim(tXsamp)
ttXsamp <- tXsamp
ttXsamp[,perm01] <- tXsamp
quartz(); par(mfrow=c(4,4))
for (i in 1:16) {hist(ttXsamp[,i], breaks=10000, main=paste("tXsamp[", i,"]"), xlab="")}
tXsamp <- ttXsamp
rm(ttXsamp)
quartz(); par(mfrow=c(4,4))
for (i in 1:16) {hist(tXsamp[,i], breaks=10000, main=paste("tXsamp[", i,"]"), xlab="")}
quartz(); par(mfrow=c(4,4))
for (i in 1:16) {hist(tXsamp[,i]/1000, breaks=10000, main=paste("tXsamp[", i,"]"), xlab="")}
ccXsamp <- as.matrix(read.table("xsamples/beta_samps/ccXsamp_01.txt"))
quartz(); par(mfrow=c(4,4))
for (i in 1:16) {hist(ccXsamp[,i]/1000, breaks=10000, main=paste("ccX[", i,"]"), xlab="")}
A
A_0
A_0[,-NULL]
source("myfunc2.R")
ls()
x <- beta_samp(A_0, b, 1)
Q
source("myfunc2.R")
x <- beta_samp(A_0, b, 1)
A
A_0
all(A == A_0)
b
bcontact
c0
perm
Q12
A1
b2
c0p
A %*% c0 - b
Q12 %*% c0p - y2
Q2 %*% c0p - y2
yx <- y2 - Q2 %*% c0p
yx
-t(Q2) %*% 1/(yx^2)
-t(Q2) %*% yx^2
-t(Q2) %*% yx^-2
Q
source("myfunc2.R")
x <- beta_samp(A_0, b, 1)
x
source("myfunc2.R")
x <- beta_samp(A_0, b, 1)
x
Xsamp <- bbeta_samp(A_0,b,1000,1)
Xsamp <- bbeta_samp(A_0,b,1000,1)
ccXsamp <- as.matrix(read.table("xsamples/beta_samps/ccXsamp_02.txt"))
quartz(); par(mfrow=c(4,4))
for (i in 1:16) {hist(ccXsamp[,i]/1000, breaks=10000, main=paste("ccX[", i,"]"), xlab="")}
source("myfunc2.R")
source("myfunc2.R")
Xsamp <- bbeta_samp(A_0,b,1000,1)
ac
A %*% ac - b
perm
rperm
ac2
y2 - Q2 %*% ac2
b2 - Q12 %*% ac2
aac <- c(b2 - Q12 %*% ac2, ac2)
aac
aac[perm] <- aac
A %*% aac - b
Q
source("myfunc2.R")
Xsamp <- bbeta_samp(A_0,b,1000,1)
c0
y2 - Q2 %*% c0
c0p
y2 - Q2 %*% c0p
b2 - Q12 %*% c0p
sqrt(sum(Q12[1,]))
Q12[1]
Q12[1,]
sqrt(3)
b2 - Q2[1:m,] %*% c0p
y2[1:m] - Q2[1:m,] %*% c0p
norm2(Q12[1,])
Q12[6,]
i
i <- 6
y2[i] - Q12[i,] %*% c0p
b2[i] - Q12[i,] %*% c0p
y2[i] - Q2[i,] %*% c0p
normi <- norm2(Q12[i,])
normi
y2[i]
b2[i]
b2[i]/normi
sqrt(sum(Q12[i,]^2))
sqrt(sum(Q12[i,]^2)) == normi
Q
source("myfunc2.R")
Xsamp <- bbeta_samp(A_0,b,1000,1)
ccXsamp <- as.matrix(read.table("xsamples/beta_samps/ccXsamp_03.txt"))
quartz(); par(mfrow=c(4,4))
for (i in 1:16) {hist(ccXsamp[,i]/1000, breaks=10000, main=paste("ccX[", i,"]"), xlab="")}
quit()
