\relax 
\providecommand\HyperFirstAtBeginDocument{\AtBeginDocument}
\HyperFirstAtBeginDocument{\ifx\hyper@anchor\@undefined
\global\let\oldcontentsline\contentsline
\gdef\contentsline#1#2#3#4{\oldcontentsline{#1}{#2}{#3}}
\global\let\oldnewlabel\newlabel
\gdef\newlabel#1#2{\newlabelxx{#1}#2}
\gdef\newlabelxx#1#2#3#4#5#6{\oldnewlabel{#1}{{#2}{#3}}}
\AtEndDocument{\ifx\hyper@anchor\@undefined
\let\contentsline\oldcontentsline
\let\newlabel\oldnewlabel
\fi}
\fi}
\global\let\hyper@last\relax 
\gdef\HyperFirstAtBeginDocument#1{#1}
\providecommand\HyField@AuxAddToFields[1]{}
\@writefile{toc}{\contentsline {section}{\numberline {1}Introduction}{1}{section.1}}
\@writefile{toc}{\contentsline {subsection}{\numberline {1.1}Setting and results}{1}{subsection.1.1}}
\newlabel{eq:polyeq}{{1}{1}{Setting and results\relax }{equation.1.1}{}}
\@writefile{loa}{\contentsline {algorithm}{\numberline {1}{\ignorespaces Sample\_00($A$, $b$)}}{2}{algorithm.1}}
\newlabel{algo:samplept00}{{1}{2}{Setting and results\relax }{algorithm.1}{}}
\newlabel{samplept00:newA}{{1}{2}{Setting and results\relax }{ALC@unique.1}{}}
\newlabel{samplept00:endrecur}{{2}{2}{Setting and results\relax }{ALC@unique.2}{}}
\newlabel{samplept00:margapprox}{{7}{2}{Setting and results\relax }{ALC@unique.7}{}}
\newlabel{samplept00:samplexi}{{8}{2}{Setting and results\relax }{ALC@unique.8}{}}
\newlabel{samplept00:recursion}{{11}{2}{Setting and results\relax }{ALC@unique.11}{}}
\newlabel{samplept00:xtogether}{{12}{2}{Setting and results\relax }{ALC@unique.12}{}}
\newlabel{samplept00:return}{{13}{2}{Setting and results\relax }{ALC@unique.13}{}}
\@writefile{toc}{\contentsline {subsection}{\numberline {1.2}Motivations}{2}{subsection.1.2}}
\@writefile{lof}{\contentsline {figure}{\numberline {1}{\ignorespaces The sampling algorithm from dimension $3$ on.}}{3}{figure.1}}
\newlabel{fig:3dptopesampling}{{1}{3}{The sampling algorithm from dimension $3$ on}{figure.1}{}}
\@writefile{toc}{\contentsline {section}{\numberline {2}Geometry of the problem}{3}{section.2}}
\newlabel{sec:geom}{{2}{3}{Geometry of the problem\relax }{section.2}{}}
\@writefile{toc}{\contentsline {section}{\numberline {3}The marginal distribution along a coordinate}{4}{section.3}}
\newlabel{sec:margdist}{{3}{4}{The marginal distribution along a coordinate\relax }{section.3}{}}
\@writefile{toc}{\contentsline {section}{\numberline {4}The unbounded case}{5}{section.4}}
\newlabel{sec:unbounded}{{4}{5}{The unbounded case\relax }{section.4}{}}
\citation{}
\@writefile{toc}{\contentsline {section}{\numberline {5}Parameters for the Beta distribution}{6}{section.5}}
\newlabel{sec:betaparam}{{5}{6}{Parameters for the Beta distribution\relax }{section.5}{}}
\@writefile{toc}{\contentsline {subsection}{\numberline {5.1}Finding the minimum and maximum coordinates}{6}{subsection.5.1}}
\@writefile{toc}{\contentsline {subsection}{\numberline {5.2}A choice of measure for goodness of fit}{6}{subsection.5.2}}
\citation{CDWY_TVNT_00}
\@writefile{toc}{\contentsline {subsection}{\numberline {5.3}The geometry of the system}{7}{subsection.5.3}}
\@writefile{toc}{\contentsline {section}{\numberline {6}Experimental results}{7}{section.6}}
\newlabel{sec:expresults}{{6}{7}{Experimental results\relax }{section.6}{}}
\@writefile{lof}{\contentsline {figure}{\numberline {2}{\ignorespaces a simple network.}}{7}{figure.2}}
\newlabel{sple_netw_diagr}{{2}{7}{a simple network}{figure.2}{}}
\citation{CDWY_TVNT_00}
\citation{Fukuda2004lk}
\citation{rcdd}
\newlabel{matrixA}{{2}{8}{Experimental results\relax }{equation.6.2}{}}
\@writefile{toc}{\contentsline {subsection}{\numberline {6.1}The exact distribution}{8}{subsection.6.1}}
\bibdata{bibtex/polysamp_beta}
\bibcite{CDWY_TVNT_00}{{1}{}{{}}{{}}}
\bibcite{rcdd}{{2}{}{{}}{{}}}
\bibcite{Fukuda2004lk}{{3}{}{{}}{{}}}
\bibstyle{plain}
\providecommand\NAT@force@numbers{}\NAT@force@numbers
\@writefile{loa}{\contentsline {algorithm}{\numberline {2}{\ignorespaces ExactSample$(\Sigma )$}}{9}{algorithm.2}}
\newlabel{algo:exactsampler}{{2}{9}{The exact distribution\relax }{algorithm.2}{}}
